G75*
%MOIN*%
%OFA0B0*%
%FSLAX25Y25*%
%IPPOS*%
%LPD*%
%AMOC8*
5,1,8,0,0,1.08239X$1,22.5*
%
%ADD10C,0.00800*%
%ADD11C,0.01000*%
%ADD12C,0.00500*%
%ADD13R,0.01969X0.01969*%
%ADD14R,0.03937X0.03937*%
%ADD15C,0.00200*%
%ADD16C,0.00600*%
D10*
X0059581Y0164033D02*
X0059581Y0166835D01*
X0058180Y0165434D02*
X0060982Y0165434D01*
X0201680Y0331132D02*
X0201680Y0335336D01*
X0203781Y0335336D01*
X0204482Y0334635D01*
X0204482Y0333234D01*
X0203781Y0332533D01*
X0201680Y0332533D01*
X0206283Y0332533D02*
X0208385Y0332533D01*
X0209086Y0333234D01*
X0209086Y0334635D01*
X0208385Y0335336D01*
X0206283Y0335336D01*
X0206283Y0331132D01*
X0207685Y0332533D02*
X0209086Y0331132D01*
X0210887Y0331833D02*
X0210887Y0334635D01*
X0211588Y0335336D01*
X0212989Y0335336D01*
X0213690Y0334635D01*
X0213690Y0331833D01*
X0212989Y0331132D01*
X0211588Y0331132D01*
X0210887Y0331833D01*
X0215491Y0331833D02*
X0215491Y0334635D01*
X0216192Y0335336D01*
X0217593Y0335336D01*
X0218294Y0334635D01*
X0218294Y0333234D02*
X0216892Y0333234D01*
X0218294Y0333234D02*
X0218294Y0331833D01*
X0217593Y0331132D01*
X0216192Y0331132D01*
X0215491Y0331833D01*
X0238287Y0337185D02*
X0238287Y0346279D01*
X0187272Y0346279D01*
X0187272Y0337185D01*
X0238287Y0337185D01*
X0273877Y0261600D02*
X0273176Y0260899D01*
X0273176Y0259498D01*
X0273877Y0258798D01*
X0276679Y0258798D01*
X0277380Y0259498D01*
X0277380Y0260899D01*
X0276679Y0261600D01*
X0275278Y0261600D01*
X0275278Y0260199D01*
X0276679Y0256996D02*
X0273176Y0256996D01*
X0273176Y0254194D02*
X0276679Y0254194D01*
X0277380Y0254894D01*
X0277380Y0256296D01*
X0276679Y0256996D01*
X0276679Y0252392D02*
X0275978Y0252392D01*
X0275278Y0251692D01*
X0275278Y0249590D01*
X0277380Y0249590D02*
X0273176Y0249590D01*
X0273176Y0251692D01*
X0273877Y0252392D01*
X0274577Y0252392D01*
X0275278Y0251692D01*
X0276679Y0252392D02*
X0277380Y0251692D01*
X0277380Y0249590D01*
X0277380Y0247788D02*
X0277380Y0244986D01*
X0273176Y0244986D01*
X0273176Y0247788D01*
X0275278Y0246387D02*
X0275278Y0244986D01*
X0276679Y0243184D02*
X0273877Y0243184D01*
X0273176Y0242484D01*
X0273176Y0240382D01*
X0277380Y0240382D01*
X0277380Y0242484D01*
X0276679Y0243184D01*
X0276679Y0212454D02*
X0275278Y0212454D01*
X0275278Y0211053D01*
X0276679Y0212454D02*
X0277380Y0211753D01*
X0277380Y0210352D01*
X0276679Y0209652D01*
X0273877Y0209652D01*
X0273176Y0210352D01*
X0273176Y0211753D01*
X0273877Y0212454D01*
X0273877Y0207850D02*
X0273176Y0207149D01*
X0273176Y0205748D01*
X0273877Y0205048D01*
X0276679Y0205048D01*
X0277380Y0205748D01*
X0277380Y0207149D01*
X0276679Y0207850D01*
X0273877Y0207850D01*
X0277380Y0203246D02*
X0277380Y0200444D01*
X0273176Y0200444D01*
X0274577Y0198642D02*
X0273176Y0197241D01*
X0274577Y0195840D01*
X0277380Y0195840D01*
X0277380Y0194038D02*
X0273176Y0194038D01*
X0275278Y0195840D02*
X0275278Y0198642D01*
X0274577Y0198642D02*
X0277380Y0198642D01*
X0277380Y0194038D02*
X0273176Y0191236D01*
X0277380Y0191236D01*
X0277380Y0189434D02*
X0274577Y0189434D01*
X0273176Y0188033D01*
X0274577Y0186632D01*
X0277380Y0186632D01*
X0275278Y0186632D02*
X0275278Y0189434D01*
D11*
X0272280Y0230232D02*
X0274780Y0232732D01*
X0274780Y0239232D01*
X0274780Y0265232D02*
X0274780Y0270732D01*
X0272780Y0272732D01*
D12*
X0092587Y0123279D02*
X0092587Y0104185D01*
X0116957Y0104185D01*
X0116957Y0123279D01*
X0092587Y0123279D01*
X0092530Y0124982D02*
X0094331Y0124982D01*
X0095476Y0125432D02*
X0095926Y0124982D01*
X0096827Y0124982D01*
X0097278Y0125432D01*
X0097278Y0125883D01*
X0096827Y0126333D01*
X0095476Y0126333D01*
X0095476Y0125432D01*
X0095476Y0126333D02*
X0096377Y0127234D01*
X0097278Y0127684D01*
X0098551Y0131090D02*
X0098551Y0138374D01*
X0085008Y0138374D01*
X0085008Y0131090D01*
X0098551Y0131090D01*
X0101598Y0126984D02*
X0129157Y0126984D01*
X0129157Y0119110D01*
X0172465Y0119110D01*
X0172465Y0166354D01*
X0129157Y0166354D01*
X0129157Y0158480D01*
X0101598Y0158480D01*
X0101598Y0146669D01*
X0129157Y0146669D01*
X0129157Y0138795D01*
X0101598Y0138795D01*
X0101598Y0126984D01*
X0092530Y0127684D02*
X0092530Y0124982D01*
X0081874Y0132932D02*
X0072780Y0132932D01*
X0081874Y0132932D02*
X0081874Y0162932D01*
X0072780Y0162932D01*
X0067968Y0165291D02*
X0067968Y0185173D01*
X0091591Y0185173D01*
X0091591Y0165291D01*
X0067968Y0165291D01*
X0066421Y0169960D02*
X0059138Y0169960D01*
X0059138Y0183504D01*
X0066421Y0183504D01*
X0066421Y0169960D01*
X0062780Y0162932D02*
X0053685Y0162932D01*
X0053685Y0132932D01*
X0062780Y0132932D01*
X0083142Y0144821D02*
X0083593Y0144371D01*
X0085394Y0144371D01*
X0085844Y0144821D01*
X0085844Y0145722D01*
X0085394Y0146173D01*
X0084493Y0147317D02*
X0084493Y0149119D01*
X0085844Y0148669D02*
X0083142Y0148669D01*
X0084493Y0147317D01*
X0083593Y0146173D02*
X0083142Y0145722D01*
X0083142Y0144821D01*
X0084480Y0141684D02*
X0084030Y0141234D01*
X0084030Y0139432D01*
X0084480Y0138982D01*
X0085381Y0138982D01*
X0085831Y0139432D01*
X0086976Y0140333D02*
X0088327Y0141684D01*
X0088327Y0138982D01*
X0088778Y0140333D02*
X0086976Y0140333D01*
X0085831Y0141234D02*
X0085381Y0141684D01*
X0084480Y0141684D01*
X0089923Y0140333D02*
X0091274Y0140333D01*
X0091724Y0139883D01*
X0091724Y0139432D01*
X0091274Y0138982D01*
X0090373Y0138982D01*
X0089923Y0139432D01*
X0089923Y0140333D01*
X0090823Y0141234D01*
X0091724Y0141684D01*
X0085844Y0150264D02*
X0084043Y0152066D01*
X0083593Y0152066D01*
X0083142Y0151615D01*
X0083142Y0150714D01*
X0083593Y0150264D01*
X0085844Y0150264D02*
X0085844Y0152066D01*
X0093638Y0162960D02*
X0093638Y0176504D01*
X0100921Y0176504D01*
X0100921Y0162960D01*
X0093638Y0162960D01*
X0102390Y0165071D02*
X0102390Y0172393D01*
X0106169Y0172393D01*
X0106169Y0165071D01*
X0102390Y0165071D01*
X0106579Y0163622D02*
X0113980Y0163622D01*
X0113980Y0159842D01*
X0106579Y0159842D01*
X0106579Y0163622D01*
X0107030Y0164982D02*
X0107030Y0167684D01*
X0108381Y0167684D01*
X0108831Y0167234D01*
X0108831Y0166333D01*
X0108381Y0165883D01*
X0107030Y0165883D01*
X0107930Y0165883D02*
X0108831Y0164982D01*
X0109976Y0166333D02*
X0111778Y0166333D01*
X0111327Y0164982D02*
X0111327Y0167684D01*
X0109976Y0166333D01*
X0112923Y0165432D02*
X0113373Y0164982D01*
X0114274Y0164982D01*
X0114724Y0165432D01*
X0114724Y0167234D01*
X0112923Y0165432D01*
X0112923Y0167234D01*
X0113373Y0167684D01*
X0114274Y0167684D01*
X0114724Y0167234D01*
X0117030Y0167684D02*
X0117030Y0164982D01*
X0117030Y0165883D02*
X0118381Y0165883D01*
X0118831Y0166333D01*
X0118831Y0167234D01*
X0118381Y0167684D01*
X0117030Y0167684D01*
X0117930Y0165883D02*
X0118831Y0164982D01*
X0119976Y0166333D02*
X0121778Y0166333D01*
X0122923Y0166784D02*
X0123823Y0167684D01*
X0123823Y0164982D01*
X0122923Y0164982D02*
X0124724Y0164982D01*
X0123480Y0163622D02*
X0123480Y0159842D01*
X0116079Y0159842D01*
X0116079Y0163622D01*
X0123480Y0163622D01*
X0121327Y0164982D02*
X0121327Y0167684D01*
X0119976Y0166333D01*
X0111157Y0170047D02*
X0158402Y0170047D01*
X0158402Y0213354D01*
X0150528Y0213354D01*
X0150528Y0240913D01*
X0138717Y0240913D01*
X0138717Y0213354D01*
X0130842Y0213354D01*
X0130842Y0240913D01*
X0119031Y0240913D01*
X0119031Y0213354D01*
X0111157Y0213354D01*
X0111157Y0170047D01*
X0105530Y0174432D02*
X0105530Y0175333D01*
X0105079Y0175784D01*
X0105079Y0176929D02*
X0105530Y0177379D01*
X0105530Y0178280D01*
X0105079Y0178730D01*
X0104629Y0178730D01*
X0104178Y0178280D01*
X0104178Y0177829D01*
X0104178Y0178280D02*
X0103728Y0178730D01*
X0103278Y0178730D01*
X0102827Y0178280D01*
X0102827Y0177379D01*
X0103278Y0176929D01*
X0103278Y0175784D02*
X0102827Y0175333D01*
X0102827Y0174432D01*
X0103278Y0173982D01*
X0105079Y0173982D01*
X0105530Y0174432D01*
X0101030Y0178432D02*
X0101030Y0179333D01*
X0100579Y0179784D01*
X0100579Y0180929D02*
X0101030Y0181379D01*
X0101030Y0182280D01*
X0100579Y0182730D01*
X0100129Y0182730D01*
X0099678Y0182280D01*
X0099678Y0181829D01*
X0099678Y0182280D02*
X0099228Y0182730D01*
X0098778Y0182730D01*
X0098327Y0182280D01*
X0098327Y0181379D01*
X0098778Y0180929D01*
X0098778Y0179784D02*
X0098327Y0179333D01*
X0098327Y0178432D01*
X0098778Y0177982D01*
X0100579Y0177982D01*
X0101030Y0178432D01*
X0102827Y0180325D02*
X0102827Y0181226D01*
X0103278Y0181677D01*
X0103728Y0181677D01*
X0104178Y0181226D01*
X0104178Y0180325D01*
X0103728Y0179875D01*
X0103278Y0179875D01*
X0102827Y0180325D01*
X0104178Y0180325D02*
X0104629Y0179875D01*
X0105079Y0179875D01*
X0105530Y0180325D01*
X0105530Y0181226D01*
X0105079Y0181677D01*
X0104629Y0181677D01*
X0104178Y0181226D01*
X0101030Y0184325D02*
X0101030Y0185226D01*
X0100579Y0185677D01*
X0098778Y0185677D01*
X0098327Y0185226D01*
X0098327Y0184325D01*
X0098778Y0183875D01*
X0099228Y0183875D01*
X0099678Y0184325D01*
X0099678Y0185677D01*
X0101030Y0184325D02*
X0100579Y0183875D01*
X0097404Y0183835D02*
X0095602Y0183835D01*
X0096953Y0185186D01*
X0096953Y0182484D01*
X0094457Y0182484D02*
X0092655Y0182484D01*
X0092655Y0185186D01*
X0093827Y0187982D02*
X0096079Y0187982D01*
X0096530Y0188432D01*
X0096530Y0189333D01*
X0096079Y0189784D01*
X0093827Y0189784D01*
X0093827Y0190929D02*
X0095178Y0190929D01*
X0094728Y0191829D01*
X0094728Y0192280D01*
X0095178Y0192730D01*
X0096079Y0192730D01*
X0096530Y0192280D01*
X0096530Y0191379D01*
X0096079Y0190929D01*
X0093827Y0190929D02*
X0093827Y0192730D01*
X0092622Y0191921D02*
X0092622Y0193889D01*
X0092622Y0191921D02*
X0072937Y0191921D01*
X0072937Y0193889D01*
X0073992Y0190639D02*
X0073992Y0185325D01*
X0085567Y0185325D01*
X0085567Y0190639D01*
X0073992Y0190639D01*
X0072474Y0189184D02*
X0071573Y0188734D01*
X0070673Y0187833D01*
X0072024Y0187833D01*
X0072474Y0187383D01*
X0072474Y0186932D01*
X0072024Y0186482D01*
X0071123Y0186482D01*
X0070673Y0186932D01*
X0070673Y0187833D01*
X0069528Y0187383D02*
X0069528Y0186932D01*
X0069077Y0186482D01*
X0068176Y0186482D01*
X0067726Y0186932D01*
X0066581Y0186482D02*
X0065680Y0187383D01*
X0066131Y0187383D02*
X0064780Y0187383D01*
X0064780Y0186482D02*
X0064780Y0189184D01*
X0066131Y0189184D01*
X0066581Y0188734D01*
X0066581Y0187833D01*
X0066131Y0187383D01*
X0067726Y0188734D02*
X0068176Y0189184D01*
X0069077Y0189184D01*
X0069528Y0188734D01*
X0069528Y0188284D01*
X0069077Y0187833D01*
X0069528Y0187383D01*
X0069077Y0187833D02*
X0068627Y0187833D01*
X0061780Y0184232D02*
X0061780Y0195732D01*
X0065780Y0195732D01*
X0065780Y0209732D01*
X0052280Y0209732D01*
X0052280Y0184232D01*
X0061780Y0184232D01*
X0060669Y0185071D02*
X0056890Y0185071D01*
X0056890Y0192393D01*
X0060669Y0192393D01*
X0060669Y0185071D01*
X0060441Y0192842D02*
X0053118Y0192842D01*
X0053118Y0196622D01*
X0060441Y0196622D01*
X0060441Y0192842D01*
X0057079Y0197842D02*
X0057079Y0201622D01*
X0064480Y0201622D01*
X0064480Y0197842D01*
X0057079Y0197842D01*
X0057079Y0201842D02*
X0057079Y0205622D01*
X0064480Y0205622D01*
X0064480Y0201842D01*
X0057079Y0201842D01*
X0057079Y0205842D02*
X0057079Y0209622D01*
X0064480Y0209622D01*
X0064480Y0205842D01*
X0057079Y0205842D01*
X0056890Y0210071D02*
X0056890Y0217393D01*
X0060669Y0217393D01*
X0060669Y0210071D01*
X0056890Y0210071D01*
X0055530Y0211432D02*
X0055530Y0212333D01*
X0055079Y0212784D01*
X0055530Y0213929D02*
X0053728Y0215730D01*
X0053278Y0215730D01*
X0052827Y0215280D01*
X0052827Y0214379D01*
X0053278Y0213929D01*
X0053278Y0212784D02*
X0052827Y0212333D01*
X0052827Y0211432D01*
X0053278Y0210982D01*
X0055079Y0210982D01*
X0055530Y0211432D01*
X0055530Y0213929D02*
X0055530Y0215730D01*
X0055530Y0216875D02*
X0053728Y0218677D01*
X0053278Y0218677D01*
X0052827Y0218226D01*
X0052827Y0217325D01*
X0053278Y0216875D01*
X0055530Y0216875D02*
X0055530Y0218677D01*
X0057138Y0217960D02*
X0057138Y0231504D01*
X0064421Y0231504D01*
X0064421Y0217960D01*
X0057138Y0217960D01*
X0055390Y0222029D02*
X0053589Y0222029D01*
X0053138Y0222480D01*
X0053138Y0223380D01*
X0053589Y0223831D01*
X0053589Y0224976D02*
X0053138Y0225426D01*
X0053138Y0226327D01*
X0053589Y0226777D01*
X0054039Y0226777D01*
X0055841Y0224976D01*
X0055841Y0226777D01*
X0055390Y0227922D02*
X0053589Y0229724D01*
X0055390Y0229724D01*
X0055841Y0229273D01*
X0055841Y0228373D01*
X0055390Y0227922D01*
X0053589Y0227922D01*
X0053138Y0228373D01*
X0053138Y0229273D01*
X0053589Y0229724D01*
X0050827Y0233559D02*
X0050827Y0194189D01*
X0023268Y0194189D01*
X0023268Y0233559D01*
X0050827Y0233559D01*
X0048827Y0236228D02*
X0048827Y0263236D01*
X0054811Y0263236D01*
X0048827Y0263236D01*
X0048827Y0236228D01*
X0064732Y0236228D01*
X0064732Y0263236D01*
X0058748Y0263236D01*
X0064732Y0263236D01*
X0064732Y0236228D01*
X0048827Y0236228D01*
X0055390Y0223831D02*
X0055841Y0223380D01*
X0055841Y0222480D01*
X0055390Y0222029D01*
X0066484Y0219307D02*
X0066484Y0276157D01*
X0117075Y0276157D01*
X0117075Y0219307D01*
X0066484Y0219307D01*
X0072937Y0215543D02*
X0072937Y0213575D01*
X0072937Y0215543D02*
X0092622Y0215543D01*
X0092622Y0213575D01*
X0099030Y0213982D02*
X0099030Y0216684D01*
X0100381Y0216684D01*
X0100831Y0216234D01*
X0100831Y0215333D01*
X0100381Y0214883D01*
X0099030Y0214883D01*
X0099930Y0214883D02*
X0100831Y0213982D01*
X0100079Y0213122D02*
X0107480Y0213122D01*
X0107480Y0209342D01*
X0100079Y0209342D01*
X0100079Y0213122D01*
X0101976Y0213982D02*
X0103778Y0215784D01*
X0103778Y0216234D01*
X0103327Y0216684D01*
X0102426Y0216684D01*
X0101976Y0216234D01*
X0101976Y0213982D02*
X0103778Y0213982D01*
X0104923Y0215333D02*
X0106724Y0215333D01*
X0106274Y0213982D02*
X0106274Y0216684D01*
X0104923Y0215333D01*
X0107480Y0198122D02*
X0100079Y0198122D01*
X0100079Y0194342D01*
X0107480Y0194342D01*
X0107480Y0198122D01*
X0106274Y0193184D02*
X0105373Y0193184D01*
X0104923Y0192734D01*
X0103778Y0192734D02*
X0103778Y0192284D01*
X0103327Y0191833D01*
X0103778Y0191383D01*
X0103778Y0190932D01*
X0103327Y0190482D01*
X0102426Y0190482D01*
X0101976Y0190932D01*
X0100831Y0190482D02*
X0099930Y0191383D01*
X0100381Y0191383D02*
X0099030Y0191383D01*
X0099030Y0190482D02*
X0099030Y0193184D01*
X0100381Y0193184D01*
X0100831Y0192734D01*
X0100831Y0191833D01*
X0100381Y0191383D01*
X0101976Y0192734D02*
X0102426Y0193184D01*
X0103327Y0193184D01*
X0103778Y0192734D01*
X0103327Y0191833D02*
X0102877Y0191833D01*
X0104923Y0190482D02*
X0106724Y0192284D01*
X0106724Y0192734D01*
X0106274Y0193184D01*
X0106724Y0190482D02*
X0104923Y0190482D01*
X0107118Y0144622D02*
X0107118Y0140842D01*
X0114441Y0140842D01*
X0114441Y0144622D01*
X0107118Y0144622D01*
X0115530Y0143234D02*
X0115530Y0141432D01*
X0115980Y0140982D01*
X0116881Y0140982D01*
X0117331Y0141432D01*
X0118476Y0142333D02*
X0120278Y0142333D01*
X0121423Y0142333D02*
X0123224Y0142333D01*
X0122774Y0140982D02*
X0122774Y0143684D01*
X0121423Y0142333D01*
X0119827Y0140982D02*
X0119827Y0143684D01*
X0118476Y0142333D01*
X0117331Y0143234D02*
X0116881Y0143684D01*
X0115980Y0143684D01*
X0115530Y0143234D01*
X0122136Y0125484D02*
X0122136Y0123232D01*
X0122587Y0122782D01*
X0123488Y0122782D01*
X0123938Y0123232D01*
X0123938Y0125484D01*
X0125083Y0125034D02*
X0125083Y0124584D01*
X0125533Y0124133D01*
X0126885Y0124133D01*
X0126885Y0123232D02*
X0126885Y0125034D01*
X0126434Y0125484D01*
X0125533Y0125484D01*
X0125083Y0125034D01*
X0125083Y0123232D02*
X0125533Y0122782D01*
X0126434Y0122782D01*
X0126885Y0123232D01*
X0125421Y0117504D02*
X0118138Y0117504D01*
X0118138Y0103960D01*
X0125421Y0103960D01*
X0125421Y0117504D01*
X0127122Y0115519D02*
X0132437Y0115519D01*
X0132437Y0103945D01*
X0127122Y0103945D01*
X0127122Y0115519D01*
X0133327Y0111677D02*
X0133327Y0109875D01*
X0134678Y0109875D01*
X0134228Y0110776D01*
X0134228Y0111226D01*
X0134678Y0111677D01*
X0135579Y0111677D01*
X0136030Y0111226D01*
X0136030Y0110325D01*
X0135579Y0109875D01*
X0135579Y0108730D02*
X0134678Y0108730D01*
X0134228Y0108280D01*
X0134228Y0107829D01*
X0134678Y0106929D01*
X0133327Y0106929D01*
X0133327Y0108730D01*
X0135579Y0108730D02*
X0136030Y0108280D01*
X0136030Y0107379D01*
X0135579Y0106929D01*
X0135579Y0105784D02*
X0136030Y0105333D01*
X0136030Y0104432D01*
X0135579Y0103982D01*
X0133778Y0103982D01*
X0133327Y0104432D01*
X0133327Y0105333D01*
X0133778Y0105784D01*
X0138827Y0105333D02*
X0138827Y0104432D01*
X0139278Y0103982D01*
X0141079Y0103982D01*
X0141530Y0104432D01*
X0141530Y0105333D01*
X0141079Y0105784D01*
X0141079Y0106929D02*
X0141530Y0107379D01*
X0141530Y0108280D01*
X0141079Y0108730D01*
X0140178Y0108730D01*
X0139728Y0108280D01*
X0139728Y0107829D01*
X0140178Y0106929D01*
X0138827Y0106929D01*
X0138827Y0108730D01*
X0140178Y0109875D02*
X0140178Y0111677D01*
X0138827Y0111226D02*
X0140178Y0109875D01*
X0138827Y0111226D02*
X0141530Y0111226D01*
X0139278Y0105784D02*
X0138827Y0105333D01*
X0168827Y0104929D02*
X0170178Y0104929D01*
X0169728Y0105829D01*
X0169728Y0106280D01*
X0170178Y0106730D01*
X0171079Y0106730D01*
X0171530Y0106280D01*
X0171530Y0105379D01*
X0171079Y0104929D01*
X0171079Y0103784D02*
X0171530Y0103333D01*
X0171530Y0102432D01*
X0171079Y0101982D01*
X0169278Y0101982D01*
X0168827Y0102432D01*
X0168827Y0103333D01*
X0169278Y0103784D01*
X0168827Y0104929D02*
X0168827Y0106730D01*
X0168827Y0107875D02*
X0168827Y0109677D01*
X0169278Y0109677D01*
X0171079Y0107875D01*
X0171530Y0107875D01*
X0173461Y0109904D02*
X0172187Y0111178D01*
X0172187Y0111815D01*
X0172824Y0112452D01*
X0173461Y0112452D01*
X0173952Y0113580D02*
X0174908Y0112624D01*
X0175226Y0113580D01*
X0175545Y0113898D01*
X0176181Y0113898D01*
X0176818Y0113261D01*
X0176818Y0112624D01*
X0176181Y0111988D01*
X0175545Y0111988D01*
X0174735Y0111178D02*
X0174735Y0110541D01*
X0174098Y0109904D01*
X0173461Y0109904D01*
X0172348Y0113404D02*
X0172985Y0114041D01*
X0172985Y0114678D01*
X0173795Y0115488D02*
X0174431Y0115488D01*
X0175068Y0116124D01*
X0175068Y0116761D01*
X0174431Y0117398D01*
X0173795Y0117398D01*
X0173476Y0117080D01*
X0173158Y0116124D01*
X0172202Y0117080D01*
X0173476Y0118354D01*
X0174604Y0118845D02*
X0174604Y0119482D01*
X0175241Y0120119D01*
X0175878Y0120119D01*
X0175878Y0117571D01*
X0176515Y0117571D01*
X0177152Y0118208D01*
X0177152Y0118845D01*
X0175878Y0120119D01*
X0174604Y0118845D02*
X0175878Y0117571D01*
X0176673Y0116300D02*
X0178583Y0114389D01*
X0177947Y0113753D02*
X0179220Y0115026D01*
X0180122Y0114519D02*
X0185437Y0114519D01*
X0185437Y0102945D01*
X0180122Y0102945D01*
X0180122Y0114519D01*
X0178638Y0115960D02*
X0178638Y0129504D01*
X0185921Y0129504D01*
X0185921Y0115960D01*
X0178638Y0115960D01*
X0176673Y0116300D02*
X0176673Y0115026D01*
X0175226Y0114854D02*
X0173952Y0113580D01*
X0172348Y0113404D02*
X0171711Y0113404D01*
X0170437Y0114678D01*
X0170437Y0115315D01*
X0171074Y0115952D01*
X0171711Y0115952D01*
X0173640Y0121071D02*
X0177419Y0121071D01*
X0177419Y0128393D01*
X0173640Y0128393D01*
X0173640Y0121071D01*
X0173232Y0131039D02*
X0192327Y0131039D01*
X0192327Y0155409D01*
X0173232Y0155409D01*
X0173232Y0131039D01*
X0187030Y0129684D02*
X0188381Y0129684D01*
X0188831Y0129234D01*
X0188831Y0127432D01*
X0188381Y0126982D01*
X0187030Y0126982D01*
X0187030Y0129684D01*
X0189976Y0128784D02*
X0190877Y0129684D01*
X0190877Y0126982D01*
X0189976Y0126982D02*
X0191778Y0126982D01*
X0192923Y0126982D02*
X0194724Y0128784D01*
X0194724Y0129234D01*
X0194274Y0129684D01*
X0193373Y0129684D01*
X0192923Y0129234D01*
X0192923Y0126982D02*
X0194724Y0126982D01*
X0200327Y0128482D02*
X0200327Y0129833D01*
X0200778Y0130284D01*
X0201678Y0130284D01*
X0202129Y0129833D01*
X0202129Y0128482D01*
X0203030Y0128482D02*
X0200327Y0128482D01*
X0202129Y0129383D02*
X0203030Y0130284D01*
X0201678Y0131429D02*
X0201678Y0133230D01*
X0201678Y0134375D02*
X0201678Y0135726D01*
X0202129Y0136177D01*
X0202579Y0136177D01*
X0203030Y0135726D01*
X0203030Y0134825D01*
X0202579Y0134375D01*
X0201678Y0134375D01*
X0200778Y0135276D01*
X0200327Y0136177D01*
X0199437Y0135945D02*
X0194122Y0135945D01*
X0194122Y0147519D01*
X0199437Y0147519D01*
X0199437Y0135945D01*
X0200327Y0132780D02*
X0201678Y0131429D01*
X0200327Y0132780D02*
X0203030Y0132780D01*
X0203890Y0135433D02*
X0203890Y0128031D01*
X0207669Y0128031D01*
X0207669Y0135433D01*
X0203890Y0135433D01*
X0207890Y0135433D02*
X0207890Y0128031D01*
X0211669Y0128031D01*
X0211669Y0135433D01*
X0207890Y0135433D01*
X0208980Y0136982D02*
X0209881Y0136982D01*
X0210331Y0137432D01*
X0208980Y0136982D02*
X0208530Y0137432D01*
X0208530Y0139234D01*
X0208980Y0139684D01*
X0209881Y0139684D01*
X0210331Y0139234D01*
X0211476Y0138333D02*
X0213278Y0138333D01*
X0212827Y0136982D02*
X0212827Y0139684D01*
X0211476Y0138333D01*
X0214423Y0137432D02*
X0214873Y0136982D01*
X0215774Y0136982D01*
X0216224Y0137432D01*
X0216224Y0137883D01*
X0215774Y0138333D01*
X0215323Y0138333D01*
X0215774Y0138333D02*
X0216224Y0138784D01*
X0216224Y0139234D01*
X0215774Y0139684D01*
X0214873Y0139684D01*
X0214423Y0139234D01*
X0216567Y0140575D02*
X0216567Y0145889D01*
X0204992Y0145889D01*
X0204992Y0140575D01*
X0216567Y0140575D01*
X0219530Y0139734D02*
X0219530Y0137932D01*
X0219980Y0137482D01*
X0220881Y0137482D01*
X0221331Y0137932D01*
X0222476Y0138833D02*
X0224278Y0138833D01*
X0225423Y0138833D02*
X0226323Y0139284D01*
X0226774Y0139284D01*
X0227224Y0138833D01*
X0227224Y0137932D01*
X0226774Y0137482D01*
X0225873Y0137482D01*
X0225423Y0137932D01*
X0225423Y0138833D02*
X0225423Y0140184D01*
X0227224Y0140184D01*
X0223827Y0140184D02*
X0222476Y0138833D01*
X0221331Y0139734D02*
X0220881Y0140184D01*
X0219980Y0140184D01*
X0219530Y0139734D01*
X0219530Y0141482D02*
X0252030Y0141482D01*
X0252030Y0168864D01*
X0246220Y0173982D01*
X0219530Y0173982D01*
X0219530Y0141482D01*
X0223827Y0140184D02*
X0223827Y0137482D01*
X0226941Y0136622D02*
X0219618Y0136622D01*
X0219618Y0132842D01*
X0226941Y0132842D01*
X0226941Y0136622D01*
X0227390Y0136393D02*
X0231169Y0136393D01*
X0231169Y0129071D01*
X0227390Y0129071D01*
X0227390Y0136393D01*
X0233118Y0135622D02*
X0233118Y0131842D01*
X0240441Y0131842D01*
X0240441Y0135622D01*
X0233118Y0135622D01*
X0233118Y0130622D02*
X0240441Y0130622D01*
X0240441Y0126842D01*
X0233118Y0126842D01*
X0233118Y0130622D01*
X0231279Y0127837D02*
X0231730Y0127387D01*
X0231730Y0126486D01*
X0231279Y0126035D01*
X0230829Y0126035D01*
X0230378Y0126486D01*
X0230378Y0127387D01*
X0230829Y0127837D01*
X0231279Y0127837D01*
X0230378Y0127387D02*
X0229928Y0127837D01*
X0229478Y0127837D01*
X0229027Y0127387D01*
X0229027Y0126486D01*
X0229478Y0126035D01*
X0229928Y0126035D01*
X0230378Y0126486D01*
X0230378Y0124891D02*
X0230378Y0123089D01*
X0229027Y0124440D01*
X0231730Y0124440D01*
X0233530Y0124934D02*
X0233530Y0123132D01*
X0233980Y0122682D01*
X0234881Y0122682D01*
X0235331Y0123132D01*
X0236476Y0124033D02*
X0238278Y0124033D01*
X0239423Y0124484D02*
X0239873Y0124033D01*
X0241224Y0124033D01*
X0241224Y0123132D02*
X0241224Y0124934D01*
X0240774Y0125384D01*
X0239873Y0125384D01*
X0239423Y0124934D01*
X0239423Y0124484D01*
X0239423Y0123132D02*
X0239873Y0122682D01*
X0240774Y0122682D01*
X0241224Y0123132D01*
X0237827Y0122682D02*
X0237827Y0125384D01*
X0236476Y0124033D01*
X0235331Y0124934D02*
X0234881Y0125384D01*
X0233980Y0125384D01*
X0233530Y0124934D01*
X0231279Y0121944D02*
X0231730Y0121494D01*
X0231730Y0120593D01*
X0231279Y0120142D01*
X0229478Y0120142D01*
X0229027Y0120593D01*
X0229027Y0121494D01*
X0229478Y0121944D01*
X0226530Y0121280D02*
X0226530Y0120379D01*
X0226079Y0119929D01*
X0225178Y0119929D02*
X0224728Y0120829D01*
X0224728Y0121280D01*
X0225178Y0121730D01*
X0226079Y0121730D01*
X0226530Y0121280D01*
X0226079Y0122875D02*
X0226530Y0123325D01*
X0226530Y0124226D01*
X0226079Y0124677D01*
X0225629Y0124677D01*
X0225178Y0124226D01*
X0225178Y0123776D01*
X0225178Y0124226D02*
X0224728Y0124677D01*
X0224278Y0124677D01*
X0223827Y0124226D01*
X0223827Y0123325D01*
X0224278Y0122875D01*
X0223827Y0121730D02*
X0223827Y0119929D01*
X0225178Y0119929D01*
X0224278Y0118784D02*
X0223827Y0118333D01*
X0223827Y0117432D01*
X0224278Y0116982D01*
X0226079Y0116982D01*
X0226530Y0117432D01*
X0226530Y0118333D01*
X0226079Y0118784D01*
X0224122Y0115519D02*
X0229437Y0115519D01*
X0229437Y0103945D01*
X0224122Y0103945D01*
X0224122Y0115519D01*
X0223437Y0115519D02*
X0218122Y0115519D01*
X0218122Y0103945D01*
X0223437Y0103945D01*
X0223437Y0115519D01*
X0221579Y0116982D02*
X0222030Y0117432D01*
X0222030Y0118333D01*
X0221579Y0118784D01*
X0221579Y0119929D02*
X0222030Y0120379D01*
X0222030Y0121280D01*
X0221579Y0121730D01*
X0220678Y0121730D01*
X0220228Y0121280D01*
X0220228Y0120829D01*
X0220678Y0119929D01*
X0219327Y0119929D01*
X0219327Y0121730D01*
X0220678Y0122875D02*
X0220678Y0124226D01*
X0221129Y0124677D01*
X0221579Y0124677D01*
X0222030Y0124226D01*
X0222030Y0123325D01*
X0221579Y0122875D01*
X0220678Y0122875D01*
X0219778Y0123776D01*
X0219327Y0124677D01*
X0216528Y0122575D02*
X0216528Y0102889D01*
X0214559Y0102889D02*
X0214559Y0122575D01*
X0187000Y0122575D01*
X0187000Y0102889D01*
X0214559Y0102889D01*
X0219778Y0116982D02*
X0221579Y0116982D01*
X0219778Y0116982D02*
X0219327Y0117432D01*
X0219327Y0118333D01*
X0219778Y0118784D01*
X0215530Y0126982D02*
X0212827Y0126982D01*
X0212827Y0128333D01*
X0213278Y0128784D01*
X0214178Y0128784D01*
X0214629Y0128333D01*
X0214629Y0126982D01*
X0214629Y0127883D02*
X0215530Y0128784D01*
X0214178Y0129929D02*
X0212827Y0131280D01*
X0215530Y0131280D01*
X0214178Y0131730D02*
X0214178Y0129929D01*
X0215079Y0132875D02*
X0215530Y0132875D01*
X0215079Y0132875D02*
X0213278Y0134677D01*
X0212827Y0134677D01*
X0212827Y0132875D01*
X0211890Y0146531D02*
X0211890Y0153933D01*
X0215669Y0153933D01*
X0215669Y0146531D01*
X0211890Y0146531D01*
X0209530Y0147482D02*
X0206827Y0147482D01*
X0206827Y0148833D01*
X0207278Y0149284D01*
X0208178Y0149284D01*
X0208629Y0148833D01*
X0208629Y0147482D01*
X0208629Y0148383D02*
X0209530Y0149284D01*
X0208178Y0150429D02*
X0208178Y0152230D01*
X0208178Y0153375D02*
X0208178Y0155177D01*
X0206827Y0154726D02*
X0209530Y0154726D01*
X0208178Y0153375D02*
X0206827Y0154726D01*
X0206827Y0151780D02*
X0208178Y0150429D01*
X0206827Y0151780D02*
X0209530Y0151780D01*
X0208480Y0159842D02*
X0208480Y0163622D01*
X0201079Y0163622D01*
X0201079Y0159842D01*
X0208480Y0159842D01*
X0209530Y0160482D02*
X0209530Y0163184D01*
X0210881Y0163184D01*
X0211331Y0162734D01*
X0211331Y0161833D01*
X0210881Y0161383D01*
X0209530Y0161383D01*
X0210430Y0161383D02*
X0211331Y0160482D01*
X0212476Y0161833D02*
X0214278Y0161833D01*
X0213827Y0160482D02*
X0213827Y0163184D01*
X0212476Y0161833D01*
X0215423Y0160932D02*
X0215873Y0160482D01*
X0216774Y0160482D01*
X0217224Y0160932D01*
X0217224Y0161383D01*
X0216774Y0161833D01*
X0216323Y0161833D01*
X0216774Y0161833D02*
X0217224Y0162284D01*
X0217224Y0162734D01*
X0216774Y0163184D01*
X0215873Y0163184D01*
X0215423Y0162734D01*
X0215873Y0164982D02*
X0216774Y0164982D01*
X0217224Y0165432D01*
X0217224Y0167234D01*
X0216774Y0167684D01*
X0215873Y0167684D01*
X0215423Y0167234D01*
X0215423Y0166784D01*
X0215873Y0166333D01*
X0217224Y0166333D01*
X0215873Y0164982D02*
X0215423Y0165432D01*
X0214278Y0165432D02*
X0213827Y0164982D01*
X0212926Y0164982D01*
X0212476Y0165432D01*
X0211331Y0164982D02*
X0210430Y0165883D01*
X0210881Y0165883D02*
X0209530Y0165883D01*
X0209530Y0164982D02*
X0209530Y0167684D01*
X0210881Y0167684D01*
X0211331Y0167234D01*
X0211331Y0166333D01*
X0210881Y0165883D01*
X0212476Y0167234D02*
X0212926Y0167684D01*
X0213827Y0167684D01*
X0214278Y0167234D01*
X0214278Y0166784D01*
X0213827Y0166333D01*
X0214278Y0165883D01*
X0214278Y0165432D01*
X0213827Y0166333D02*
X0213377Y0166333D01*
X0208480Y0167622D02*
X0208480Y0163842D01*
X0201079Y0163842D01*
X0201079Y0167622D01*
X0208480Y0167622D01*
X0208685Y0171826D02*
X0208685Y0183638D01*
X0207701Y0183638D01*
X0208480Y0184982D02*
X0209381Y0184982D01*
X0209831Y0185432D01*
X0209831Y0187684D01*
X0210976Y0187684D02*
X0212778Y0187684D01*
X0212778Y0187234D01*
X0210976Y0185432D01*
X0210976Y0184982D01*
X0208480Y0184982D02*
X0208030Y0185432D01*
X0208030Y0187684D01*
X0204724Y0192982D02*
X0202923Y0192982D01*
X0203823Y0192982D02*
X0203823Y0195684D01*
X0202923Y0194784D01*
X0201778Y0194784D02*
X0201327Y0194333D01*
X0201778Y0193883D01*
X0201778Y0193432D01*
X0201327Y0192982D01*
X0200426Y0192982D01*
X0199976Y0193432D01*
X0198831Y0193432D02*
X0198381Y0192982D01*
X0197480Y0192982D01*
X0197030Y0193432D01*
X0197030Y0195234D01*
X0197480Y0195684D01*
X0198381Y0195684D01*
X0198831Y0195234D01*
X0199976Y0195234D02*
X0200426Y0195684D01*
X0201327Y0195684D01*
X0201778Y0195234D01*
X0201778Y0194784D01*
X0201327Y0194333D02*
X0200877Y0194333D01*
X0203441Y0191622D02*
X0196118Y0191622D01*
X0196118Y0187842D01*
X0203441Y0187842D01*
X0203441Y0191622D01*
X0201890Y0199031D02*
X0201890Y0206433D01*
X0205669Y0206433D01*
X0205669Y0199031D01*
X0201890Y0199031D01*
X0201669Y0199071D02*
X0197890Y0199071D01*
X0197890Y0206393D01*
X0201669Y0206393D01*
X0201669Y0199071D01*
X0197030Y0199982D02*
X0194327Y0199982D01*
X0194327Y0201333D01*
X0194778Y0201784D01*
X0195678Y0201784D01*
X0196129Y0201333D01*
X0196129Y0199982D01*
X0196129Y0200883D02*
X0197030Y0201784D01*
X0197030Y0202929D02*
X0195228Y0204730D01*
X0194778Y0204730D01*
X0194327Y0204280D01*
X0194327Y0203379D01*
X0194778Y0202929D01*
X0193530Y0202929D02*
X0191728Y0204730D01*
X0191278Y0204730D01*
X0190827Y0204280D01*
X0190827Y0203379D01*
X0191278Y0202929D01*
X0191278Y0201784D02*
X0190827Y0201333D01*
X0190827Y0200432D01*
X0191278Y0199982D01*
X0193079Y0199982D01*
X0193530Y0200432D01*
X0193530Y0201333D01*
X0193079Y0201784D01*
X0193530Y0202929D02*
X0193530Y0204730D01*
X0193079Y0205875D02*
X0193530Y0206325D01*
X0193530Y0207226D01*
X0193079Y0207677D01*
X0192178Y0207677D01*
X0191728Y0207226D01*
X0191728Y0206776D01*
X0192178Y0205875D01*
X0190827Y0205875D01*
X0190827Y0207677D01*
X0194327Y0207677D02*
X0194778Y0206776D01*
X0195678Y0205875D01*
X0195678Y0207226D01*
X0196129Y0207677D01*
X0196579Y0207677D01*
X0197030Y0207226D01*
X0197030Y0206325D01*
X0196579Y0205875D01*
X0195678Y0205875D01*
X0197030Y0204730D02*
X0197030Y0202929D01*
X0202079Y0206842D02*
X0202079Y0210622D01*
X0209480Y0210622D01*
X0209480Y0206842D01*
X0202079Y0206842D01*
X0202030Y0211482D02*
X0202030Y0214184D01*
X0203381Y0214184D01*
X0203831Y0213734D01*
X0203831Y0212833D01*
X0203381Y0212383D01*
X0202030Y0212383D01*
X0202930Y0212383D02*
X0203831Y0211482D01*
X0204976Y0211482D02*
X0206778Y0213284D01*
X0206778Y0213734D01*
X0206327Y0214184D01*
X0205426Y0214184D01*
X0204976Y0213734D01*
X0204976Y0211482D02*
X0206778Y0211482D01*
X0207923Y0211482D02*
X0209724Y0213284D01*
X0209724Y0213734D01*
X0209274Y0214184D01*
X0208373Y0214184D01*
X0207923Y0213734D01*
X0207923Y0211482D02*
X0209724Y0211482D01*
X0210390Y0211143D02*
X0214169Y0211143D01*
X0214169Y0203821D01*
X0210390Y0203821D01*
X0210390Y0211143D01*
X0215002Y0207701D02*
X0215002Y0203763D01*
X0215868Y0203685D02*
X0215868Y0207779D01*
X0223191Y0207779D01*
X0223191Y0203685D01*
X0215868Y0203685D01*
X0215780Y0202184D02*
X0217131Y0202184D01*
X0217581Y0201734D01*
X0217581Y0199932D01*
X0217131Y0199482D01*
X0215780Y0199482D01*
X0215780Y0202184D01*
X0213730Y0202387D02*
X0211027Y0202387D01*
X0212378Y0201035D01*
X0212378Y0202837D01*
X0211928Y0199891D02*
X0211478Y0199891D01*
X0211027Y0199440D01*
X0211027Y0198539D01*
X0211478Y0198089D01*
X0211478Y0196944D02*
X0211027Y0196494D01*
X0211027Y0195593D01*
X0211478Y0195142D01*
X0213279Y0195142D01*
X0213730Y0195593D01*
X0213730Y0196494D01*
X0213279Y0196944D01*
X0213730Y0198089D02*
X0211928Y0199891D01*
X0213730Y0199891D02*
X0213730Y0198089D01*
X0215480Y0194184D02*
X0215030Y0193734D01*
X0215030Y0191932D01*
X0215480Y0191482D01*
X0216381Y0191482D01*
X0216831Y0191932D01*
X0217976Y0191932D02*
X0218426Y0191482D01*
X0219327Y0191482D01*
X0219778Y0191932D01*
X0219778Y0192383D01*
X0219327Y0192833D01*
X0218877Y0192833D01*
X0219327Y0192833D02*
X0219778Y0193284D01*
X0219778Y0193734D01*
X0219327Y0194184D01*
X0218426Y0194184D01*
X0217976Y0193734D01*
X0216831Y0193734D02*
X0216381Y0194184D01*
X0215480Y0194184D01*
X0219176Y0199482D02*
X0218726Y0199932D01*
X0219176Y0199482D02*
X0220077Y0199482D01*
X0220528Y0199932D01*
X0220528Y0201734D01*
X0220077Y0202184D01*
X0219176Y0202184D01*
X0218726Y0201734D01*
X0218726Y0201284D01*
X0219176Y0200833D01*
X0220528Y0200833D01*
X0223827Y0198177D02*
X0223827Y0196375D01*
X0225178Y0196375D01*
X0224728Y0197276D01*
X0224728Y0197726D01*
X0225178Y0198177D01*
X0226079Y0198177D01*
X0226530Y0197726D01*
X0226530Y0196825D01*
X0226079Y0196375D01*
X0226079Y0195230D02*
X0226530Y0194780D01*
X0226530Y0193879D01*
X0226079Y0193429D01*
X0226530Y0192284D02*
X0225629Y0191383D01*
X0225629Y0191833D02*
X0225629Y0190482D01*
X0226530Y0190482D02*
X0223827Y0190482D01*
X0223827Y0191833D01*
X0224278Y0192284D01*
X0225178Y0192284D01*
X0225629Y0191833D01*
X0224278Y0193429D02*
X0223827Y0193879D01*
X0223827Y0194780D01*
X0224278Y0195230D01*
X0224728Y0195230D01*
X0225178Y0194780D01*
X0225629Y0195230D01*
X0226079Y0195230D01*
X0225178Y0194780D02*
X0225178Y0194329D01*
X0227390Y0195933D02*
X0231169Y0195933D01*
X0231169Y0188531D01*
X0227390Y0188531D01*
X0227390Y0195933D01*
X0222274Y0194184D02*
X0222274Y0191482D01*
X0222724Y0192833D02*
X0220923Y0192833D01*
X0222274Y0194184D01*
X0225567Y0189389D02*
X0225567Y0184075D01*
X0213992Y0184075D01*
X0213992Y0189389D01*
X0225567Y0189389D01*
X0227390Y0188433D02*
X0231169Y0188433D01*
X0231169Y0181031D01*
X0227390Y0181031D01*
X0227390Y0188433D01*
X0224278Y0183177D02*
X0226079Y0181375D01*
X0226530Y0181375D01*
X0226079Y0180230D02*
X0226530Y0179780D01*
X0226530Y0178879D01*
X0226079Y0178429D01*
X0226530Y0177284D02*
X0225629Y0176383D01*
X0225629Y0176833D02*
X0225629Y0175482D01*
X0226530Y0175482D02*
X0223827Y0175482D01*
X0223827Y0176833D01*
X0224278Y0177284D01*
X0225178Y0177284D01*
X0225629Y0176833D01*
X0224278Y0178429D02*
X0223827Y0178879D01*
X0223827Y0179780D01*
X0224278Y0180230D01*
X0224728Y0180230D01*
X0225178Y0179780D01*
X0225629Y0180230D01*
X0226079Y0180230D01*
X0225178Y0179780D02*
X0225178Y0179329D01*
X0223827Y0181375D02*
X0223827Y0183177D01*
X0224278Y0183177D01*
X0218030Y0181226D02*
X0215327Y0181226D01*
X0216678Y0179875D01*
X0216678Y0181677D01*
X0214669Y0181433D02*
X0214669Y0174031D01*
X0210890Y0174031D01*
X0210890Y0181433D01*
X0214669Y0181433D01*
X0215778Y0178730D02*
X0216228Y0178730D01*
X0216678Y0178280D01*
X0217129Y0178730D01*
X0217579Y0178730D01*
X0218030Y0178280D01*
X0218030Y0177379D01*
X0217579Y0176929D01*
X0218030Y0175784D02*
X0217129Y0174883D01*
X0217129Y0175333D02*
X0217129Y0173982D01*
X0218030Y0173982D02*
X0215327Y0173982D01*
X0215327Y0175333D01*
X0215778Y0175784D01*
X0216678Y0175784D01*
X0217129Y0175333D01*
X0215778Y0176929D02*
X0215327Y0177379D01*
X0215327Y0178280D01*
X0215778Y0178730D01*
X0216678Y0178280D02*
X0216678Y0177829D01*
X0208685Y0171826D02*
X0207701Y0171826D01*
X0200441Y0167622D02*
X0200441Y0163842D01*
X0193118Y0163842D01*
X0193118Y0167622D01*
X0200441Y0167622D01*
X0200480Y0163622D02*
X0200480Y0159842D01*
X0193079Y0159842D01*
X0193079Y0163622D01*
X0200480Y0163622D01*
X0198579Y0156177D02*
X0199030Y0155726D01*
X0199030Y0154825D01*
X0198579Y0154375D01*
X0197678Y0154375D02*
X0197228Y0155276D01*
X0197228Y0155726D01*
X0197678Y0156177D01*
X0198579Y0156177D01*
X0197678Y0154375D02*
X0196327Y0154375D01*
X0196327Y0156177D01*
X0197678Y0153230D02*
X0197678Y0151429D01*
X0196327Y0152780D01*
X0199030Y0152780D01*
X0199030Y0150284D02*
X0198129Y0149383D01*
X0198129Y0149833D02*
X0198129Y0148482D01*
X0199030Y0148482D02*
X0196327Y0148482D01*
X0196327Y0149833D01*
X0196778Y0150284D01*
X0197678Y0150284D01*
X0198129Y0149833D01*
X0188778Y0156932D02*
X0188327Y0156482D01*
X0187426Y0156482D01*
X0186976Y0156932D01*
X0186976Y0157833D02*
X0187877Y0158284D01*
X0188327Y0158284D01*
X0188778Y0157833D01*
X0188778Y0156932D01*
X0186976Y0157833D02*
X0186976Y0159184D01*
X0188778Y0159184D01*
X0188827Y0162482D02*
X0188827Y0165184D01*
X0187476Y0163833D01*
X0189278Y0163833D01*
X0190423Y0164734D02*
X0190873Y0165184D01*
X0191774Y0165184D01*
X0192224Y0164734D01*
X0192224Y0164284D01*
X0190423Y0162482D01*
X0192224Y0162482D01*
X0191774Y0165982D02*
X0190873Y0165982D01*
X0190423Y0166432D01*
X0192224Y0168234D01*
X0192224Y0166432D01*
X0191774Y0165982D01*
X0190423Y0166432D02*
X0190423Y0168234D01*
X0190873Y0168684D01*
X0191774Y0168684D01*
X0192224Y0168234D01*
X0189278Y0167333D02*
X0187476Y0167333D01*
X0188827Y0168684D01*
X0188827Y0165982D01*
X0186331Y0166432D02*
X0185881Y0165982D01*
X0184980Y0165982D01*
X0184530Y0166432D01*
X0184530Y0168234D01*
X0184980Y0168684D01*
X0185881Y0168684D01*
X0186331Y0168234D01*
X0185881Y0165184D02*
X0186331Y0164734D01*
X0186331Y0163833D01*
X0185881Y0163383D01*
X0184530Y0163383D01*
X0185430Y0163383D02*
X0186331Y0162482D01*
X0184530Y0162482D02*
X0184530Y0165184D01*
X0185881Y0165184D01*
X0184030Y0159184D02*
X0184030Y0156482D01*
X0185831Y0156482D01*
X0181421Y0157960D02*
X0174138Y0157960D01*
X0174138Y0171504D01*
X0181421Y0171504D01*
X0181421Y0157960D01*
X0180079Y0172982D02*
X0178278Y0172982D01*
X0177827Y0173432D01*
X0177827Y0174333D01*
X0178278Y0174784D01*
X0179178Y0175929D02*
X0177827Y0177280D01*
X0180530Y0177280D01*
X0179178Y0177730D02*
X0179178Y0175929D01*
X0180079Y0174784D02*
X0180530Y0174333D01*
X0180530Y0173432D01*
X0180079Y0172982D01*
X0180530Y0178875D02*
X0180530Y0180677D01*
X0180530Y0179776D02*
X0177827Y0179776D01*
X0178728Y0178875D01*
X0176976Y0193982D02*
X0176976Y0194432D01*
X0178778Y0196234D01*
X0178778Y0196684D01*
X0176976Y0196684D01*
X0175831Y0196234D02*
X0175381Y0196684D01*
X0174030Y0196684D01*
X0174030Y0193982D01*
X0175381Y0193982D01*
X0175831Y0194432D01*
X0175831Y0196234D01*
X0186299Y0197779D02*
X0161260Y0197779D01*
X0161260Y0203763D01*
X0161260Y0207701D02*
X0161260Y0213685D01*
X0186299Y0213685D01*
X0186299Y0197779D01*
X0196874Y0183638D02*
X0197858Y0183638D01*
X0196874Y0183638D02*
X0196874Y0171826D01*
X0197858Y0171826D01*
X0215890Y0208031D02*
X0219669Y0208031D01*
X0219669Y0215433D01*
X0215890Y0215433D01*
X0215890Y0208031D01*
X0220327Y0208982D02*
X0220327Y0210333D01*
X0220778Y0210784D01*
X0221678Y0210784D01*
X0222129Y0210333D01*
X0222129Y0208982D01*
X0223030Y0208982D02*
X0220327Y0208982D01*
X0222129Y0209883D02*
X0223030Y0210784D01*
X0223030Y0211929D02*
X0221228Y0213730D01*
X0220778Y0213730D01*
X0220327Y0213280D01*
X0220327Y0212379D01*
X0220778Y0211929D01*
X0223030Y0211929D02*
X0223030Y0213730D01*
X0222579Y0214875D02*
X0223030Y0215325D01*
X0223030Y0216226D01*
X0222579Y0216677D01*
X0222129Y0216677D01*
X0221678Y0216226D01*
X0221678Y0215776D01*
X0221678Y0216226D02*
X0221228Y0216677D01*
X0220778Y0216677D01*
X0220327Y0216226D01*
X0220327Y0215325D01*
X0220778Y0214875D01*
X0224992Y0214389D02*
X0224992Y0209075D01*
X0236567Y0209075D01*
X0236567Y0214389D01*
X0224992Y0214389D01*
X0231030Y0215932D02*
X0231480Y0215482D01*
X0232381Y0215482D01*
X0232831Y0215932D01*
X0233976Y0215482D02*
X0235778Y0217284D01*
X0235778Y0217734D01*
X0235327Y0218184D01*
X0234426Y0218184D01*
X0233976Y0217734D01*
X0232831Y0217734D02*
X0232381Y0218184D01*
X0231480Y0218184D01*
X0231030Y0217734D01*
X0231030Y0215932D01*
X0233976Y0215482D02*
X0235778Y0215482D01*
X0236923Y0215932D02*
X0237373Y0215482D01*
X0238274Y0215482D01*
X0238724Y0215932D01*
X0238724Y0216383D01*
X0238274Y0216833D01*
X0237823Y0216833D01*
X0238274Y0216833D02*
X0238724Y0217284D01*
X0238724Y0217734D01*
X0238274Y0218184D01*
X0237373Y0218184D01*
X0236923Y0217734D01*
X0236433Y0228078D02*
X0197063Y0228078D01*
X0193126Y0232015D01*
X0193126Y0271386D01*
X0236433Y0271386D01*
X0236433Y0228078D01*
X0247827Y0228280D02*
X0247827Y0227379D01*
X0248278Y0226929D01*
X0248278Y0225784D02*
X0249178Y0225784D01*
X0249629Y0225333D01*
X0249629Y0223982D01*
X0250530Y0223982D02*
X0247827Y0223982D01*
X0247827Y0225333D01*
X0248278Y0225784D01*
X0249629Y0224883D02*
X0250530Y0225784D01*
X0250530Y0226929D02*
X0248728Y0228730D01*
X0248278Y0228730D01*
X0247827Y0228280D01*
X0248278Y0229875D02*
X0247827Y0230325D01*
X0247827Y0231226D01*
X0248278Y0231677D01*
X0250079Y0229875D01*
X0250530Y0230325D01*
X0250530Y0231226D01*
X0250079Y0231677D01*
X0248278Y0231677D01*
X0248278Y0229875D02*
X0250079Y0229875D01*
X0250530Y0228730D02*
X0250530Y0226929D01*
X0251890Y0227031D02*
X0251890Y0234433D01*
X0255669Y0234433D01*
X0255669Y0227031D01*
X0251890Y0227031D01*
X0250030Y0233982D02*
X0247327Y0233982D01*
X0247327Y0235333D01*
X0247778Y0235784D01*
X0248678Y0235784D01*
X0249129Y0235333D01*
X0249129Y0233982D01*
X0249129Y0234883D02*
X0250030Y0235784D01*
X0250030Y0236929D02*
X0250030Y0238730D01*
X0250030Y0237829D02*
X0247327Y0237829D01*
X0248228Y0236929D01*
X0248228Y0239875D02*
X0247778Y0239875D01*
X0247327Y0240325D01*
X0247327Y0241226D01*
X0247778Y0241677D01*
X0248228Y0241677D01*
X0248678Y0241226D01*
X0248678Y0240325D01*
X0248228Y0239875D01*
X0248678Y0240325D02*
X0249129Y0239875D01*
X0249579Y0239875D01*
X0250030Y0240325D01*
X0250030Y0241226D01*
X0249579Y0241677D01*
X0249129Y0241677D01*
X0248678Y0241226D01*
X0247778Y0243982D02*
X0249579Y0243982D01*
X0250030Y0244432D01*
X0250030Y0245333D01*
X0249579Y0245784D01*
X0250030Y0246929D02*
X0250030Y0248730D01*
X0250030Y0247829D02*
X0247327Y0247829D01*
X0248228Y0246929D01*
X0247778Y0245784D02*
X0247327Y0245333D01*
X0247327Y0244432D01*
X0247778Y0243982D01*
X0251890Y0243071D02*
X0251890Y0250393D01*
X0255669Y0250393D01*
X0255669Y0243071D01*
X0251890Y0243071D01*
X0251890Y0242433D02*
X0255669Y0242433D01*
X0255669Y0235031D01*
X0251890Y0235031D01*
X0251890Y0242433D01*
X0249579Y0249875D02*
X0249129Y0249875D01*
X0248678Y0250325D01*
X0248678Y0251226D01*
X0249129Y0251677D01*
X0249579Y0251677D01*
X0250030Y0251226D01*
X0250030Y0250325D01*
X0249579Y0249875D01*
X0248678Y0250325D02*
X0248228Y0249875D01*
X0247778Y0249875D01*
X0247327Y0250325D01*
X0247327Y0251226D01*
X0247778Y0251677D01*
X0248228Y0251677D01*
X0248678Y0251226D01*
X0250890Y0252071D02*
X0250890Y0259393D01*
X0254669Y0259393D01*
X0254669Y0252071D01*
X0250890Y0252071D01*
X0254890Y0252071D02*
X0254890Y0259393D01*
X0258669Y0259393D01*
X0258669Y0252071D01*
X0254890Y0252071D01*
X0255778Y0260482D02*
X0257579Y0260482D01*
X0258030Y0260932D01*
X0258030Y0261833D01*
X0257579Y0262284D01*
X0258030Y0263429D02*
X0258030Y0265230D01*
X0258030Y0264329D02*
X0255327Y0264329D01*
X0256228Y0263429D01*
X0255778Y0262284D02*
X0255327Y0261833D01*
X0255327Y0260932D01*
X0255778Y0260482D01*
X0253530Y0260932D02*
X0253530Y0261833D01*
X0253079Y0262284D01*
X0253530Y0263429D02*
X0253530Y0265230D01*
X0253530Y0264329D02*
X0250827Y0264329D01*
X0251728Y0263429D01*
X0251278Y0262284D02*
X0250827Y0261833D01*
X0250827Y0260932D01*
X0251278Y0260482D01*
X0253079Y0260482D01*
X0253530Y0260932D01*
X0252178Y0266375D02*
X0252178Y0268177D01*
X0250827Y0267726D02*
X0252178Y0266375D01*
X0250827Y0267726D02*
X0253530Y0267726D01*
X0255327Y0268177D02*
X0255327Y0266375D01*
X0256678Y0266375D01*
X0256228Y0267276D01*
X0256228Y0267726D01*
X0256678Y0268177D01*
X0257579Y0268177D01*
X0258030Y0267726D01*
X0258030Y0266825D01*
X0257579Y0266375D01*
X0265030Y0269432D02*
X0265030Y0271234D01*
X0265480Y0271684D01*
X0266381Y0271684D01*
X0266831Y0271234D01*
X0266831Y0270333D02*
X0265930Y0270333D01*
X0266831Y0270333D02*
X0266831Y0269432D01*
X0266381Y0268982D01*
X0265480Y0268982D01*
X0265030Y0269432D01*
X0267976Y0268982D02*
X0267976Y0271684D01*
X0269778Y0268982D01*
X0269778Y0271684D01*
X0270923Y0271684D02*
X0270923Y0268982D01*
X0272274Y0268982D01*
X0272724Y0269432D01*
X0272724Y0271234D01*
X0272274Y0271684D01*
X0270923Y0271684D01*
X0271030Y0275982D02*
X0268327Y0275982D01*
X0268327Y0277333D01*
X0268778Y0277784D01*
X0269678Y0277784D01*
X0270129Y0277333D01*
X0270129Y0275982D01*
X0270129Y0276883D02*
X0271030Y0277784D01*
X0271827Y0277333D02*
X0272278Y0277784D01*
X0273178Y0277784D01*
X0273629Y0277333D01*
X0273629Y0275982D01*
X0274530Y0275982D02*
X0271827Y0275982D01*
X0271827Y0277333D01*
X0271827Y0278929D02*
X0273178Y0278929D01*
X0272728Y0279829D01*
X0272728Y0280280D01*
X0273178Y0280730D01*
X0274079Y0280730D01*
X0274530Y0280280D01*
X0274530Y0279379D01*
X0274079Y0278929D01*
X0274530Y0277784D02*
X0273629Y0276883D01*
X0271827Y0278929D02*
X0271827Y0280730D01*
X0271030Y0280280D02*
X0270579Y0280730D01*
X0270129Y0280730D01*
X0269678Y0280280D01*
X0269678Y0278929D01*
X0270579Y0278929D01*
X0271030Y0279379D01*
X0271030Y0280280D01*
X0269678Y0278929D02*
X0268778Y0279829D01*
X0268327Y0280730D01*
X0267669Y0282433D02*
X0267669Y0275031D01*
X0263890Y0275031D01*
X0263890Y0282433D01*
X0267669Y0282433D01*
X0263169Y0282433D02*
X0259390Y0282433D01*
X0259390Y0275031D01*
X0263169Y0275031D01*
X0263169Y0282433D01*
X0259169Y0282433D02*
X0259169Y0275031D01*
X0255390Y0275031D01*
X0255390Y0282433D01*
X0259169Y0282433D01*
X0254530Y0278929D02*
X0254079Y0278929D01*
X0252278Y0280730D01*
X0251827Y0280730D01*
X0251827Y0278929D01*
X0252278Y0277784D02*
X0253178Y0277784D01*
X0253629Y0277333D01*
X0253629Y0275982D01*
X0254530Y0275982D02*
X0251827Y0275982D01*
X0251827Y0277333D01*
X0252278Y0277784D01*
X0253629Y0276883D02*
X0254530Y0277784D01*
X0248480Y0281342D02*
X0248480Y0285122D01*
X0241079Y0285122D01*
X0241079Y0281342D01*
X0248480Y0281342D01*
X0248426Y0285982D02*
X0247976Y0286432D01*
X0247976Y0286883D01*
X0248426Y0287333D01*
X0249327Y0287333D01*
X0249778Y0286883D01*
X0249778Y0286432D01*
X0249327Y0285982D01*
X0248426Y0285982D01*
X0248426Y0287333D02*
X0247976Y0287784D01*
X0247976Y0288234D01*
X0248426Y0288684D01*
X0249327Y0288684D01*
X0249778Y0288234D01*
X0249778Y0287784D01*
X0249327Y0287333D01*
X0246831Y0287333D02*
X0246831Y0288234D01*
X0246381Y0288684D01*
X0245030Y0288684D01*
X0245030Y0285982D01*
X0245030Y0286883D02*
X0246381Y0286883D01*
X0246831Y0287333D01*
X0245930Y0286883D02*
X0246831Y0285982D01*
X0252453Y0292326D02*
X0252453Y0293311D01*
X0253437Y0293311D01*
X0253437Y0292326D01*
X0252453Y0292326D01*
X0253358Y0292326D02*
X0253358Y0304138D01*
X0252669Y0304071D02*
X0248890Y0304071D01*
X0248890Y0311393D01*
X0252669Y0311393D01*
X0252669Y0304071D01*
X0252030Y0299730D02*
X0252030Y0297929D01*
X0250228Y0299730D01*
X0249778Y0299730D01*
X0249327Y0299280D01*
X0249327Y0298379D01*
X0249778Y0297929D01*
X0249327Y0296784D02*
X0251579Y0296784D01*
X0252030Y0296333D01*
X0252030Y0295432D01*
X0251579Y0294982D01*
X0249327Y0294982D01*
X0247579Y0308482D02*
X0248030Y0308932D01*
X0248030Y0309833D01*
X0247579Y0310284D01*
X0247579Y0311429D02*
X0248030Y0311879D01*
X0248030Y0312780D01*
X0247579Y0313230D01*
X0245778Y0313230D01*
X0245327Y0312780D01*
X0245327Y0311879D01*
X0245778Y0311429D01*
X0246228Y0311429D01*
X0246678Y0311879D01*
X0246678Y0313230D01*
X0245778Y0310284D02*
X0245327Y0309833D01*
X0245327Y0308932D01*
X0245778Y0308482D01*
X0247579Y0308482D01*
X0228441Y0314842D02*
X0228441Y0318622D01*
X0221118Y0318622D01*
X0221118Y0314842D01*
X0228441Y0314842D01*
X0226327Y0319482D02*
X0225426Y0319482D01*
X0224976Y0319932D01*
X0224976Y0320833D02*
X0225877Y0321284D01*
X0226327Y0321284D01*
X0226778Y0320833D01*
X0226778Y0319932D01*
X0226327Y0319482D01*
X0224976Y0320833D02*
X0224976Y0322184D01*
X0226778Y0322184D01*
X0223831Y0321734D02*
X0223381Y0322184D01*
X0222480Y0322184D01*
X0222030Y0321734D01*
X0222030Y0319932D01*
X0222480Y0319482D01*
X0223381Y0319482D01*
X0223831Y0319932D01*
X0220480Y0318622D02*
X0220480Y0314842D01*
X0213079Y0314842D01*
X0213079Y0318622D01*
X0220480Y0318622D01*
X0218327Y0319482D02*
X0218327Y0322184D01*
X0216976Y0320833D01*
X0218778Y0320833D01*
X0215831Y0320833D02*
X0215381Y0320383D01*
X0214030Y0320383D01*
X0214930Y0320383D02*
X0215831Y0319482D01*
X0215831Y0320833D02*
X0215831Y0321734D01*
X0215381Y0322184D01*
X0214030Y0322184D01*
X0214030Y0319482D01*
X0212441Y0318622D02*
X0212441Y0314842D01*
X0205118Y0314842D01*
X0205118Y0318622D01*
X0212441Y0318622D01*
X0210327Y0319482D02*
X0210327Y0322184D01*
X0208976Y0320833D01*
X0210778Y0320833D01*
X0207831Y0319932D02*
X0207381Y0319482D01*
X0206480Y0319482D01*
X0206030Y0319932D01*
X0206030Y0321734D01*
X0206480Y0322184D01*
X0207381Y0322184D01*
X0207831Y0321734D01*
X0199877Y0316684D02*
X0199877Y0313982D01*
X0198976Y0313982D02*
X0200778Y0313982D01*
X0198976Y0315784D02*
X0199877Y0316684D01*
X0197831Y0316684D02*
X0196030Y0313982D01*
X0197831Y0313982D02*
X0196030Y0316684D01*
X0191030Y0316879D02*
X0190579Y0316429D01*
X0191030Y0316879D02*
X0191030Y0317780D01*
X0190579Y0318230D01*
X0190129Y0318230D01*
X0189678Y0317780D01*
X0189678Y0317329D01*
X0189678Y0317780D02*
X0189228Y0318230D01*
X0188778Y0318230D01*
X0188327Y0317780D01*
X0188327Y0316879D01*
X0188778Y0316429D01*
X0188778Y0315284D02*
X0189678Y0315284D01*
X0190129Y0314833D01*
X0190129Y0313482D01*
X0191030Y0313482D02*
X0188327Y0313482D01*
X0188327Y0314833D01*
X0188778Y0315284D01*
X0190129Y0314383D02*
X0191030Y0315284D01*
X0187437Y0310445D02*
X0182122Y0310445D01*
X0182122Y0322019D01*
X0187437Y0322019D01*
X0187437Y0310445D01*
X0181327Y0305039D02*
X0162232Y0305039D01*
X0162232Y0329409D01*
X0181327Y0329409D01*
X0181327Y0305039D01*
X0173530Y0303280D02*
X0173530Y0302379D01*
X0173079Y0301929D01*
X0172629Y0301929D01*
X0172178Y0302379D01*
X0172178Y0303280D01*
X0172629Y0303730D01*
X0173079Y0303730D01*
X0173530Y0303280D01*
X0172178Y0303280D02*
X0171728Y0303730D01*
X0171278Y0303730D01*
X0170827Y0303280D01*
X0170827Y0302379D01*
X0171278Y0301929D01*
X0171728Y0301929D01*
X0172178Y0302379D01*
X0171278Y0300784D02*
X0170827Y0300333D01*
X0170827Y0299432D01*
X0171278Y0298982D01*
X0173079Y0298982D01*
X0173530Y0299432D01*
X0173530Y0300333D01*
X0173079Y0300784D01*
X0175921Y0297504D02*
X0168638Y0297504D01*
X0168638Y0283960D01*
X0175921Y0283960D01*
X0175921Y0297504D01*
X0166669Y0295893D02*
X0166669Y0288571D01*
X0162890Y0288571D01*
X0162890Y0295893D01*
X0166669Y0295893D01*
X0166079Y0298982D02*
X0166530Y0299432D01*
X0166530Y0300333D01*
X0166079Y0300784D01*
X0166079Y0301929D02*
X0166530Y0301929D01*
X0166079Y0301929D02*
X0164278Y0303730D01*
X0163827Y0303730D01*
X0163827Y0301929D01*
X0164278Y0300784D02*
X0163827Y0300333D01*
X0163827Y0299432D01*
X0164278Y0298982D01*
X0166079Y0298982D01*
X0161465Y0293110D02*
X0161465Y0340354D01*
X0118157Y0340354D01*
X0118157Y0332480D01*
X0090598Y0332480D01*
X0090598Y0320669D01*
X0118157Y0320669D01*
X0118157Y0312795D01*
X0090598Y0312795D01*
X0090598Y0300984D01*
X0118157Y0300984D01*
X0118157Y0293110D01*
X0161465Y0293110D01*
X0149877Y0287684D02*
X0149877Y0284982D01*
X0148976Y0284982D02*
X0150778Y0284982D01*
X0150327Y0283684D02*
X0149426Y0283684D01*
X0148976Y0283234D01*
X0147831Y0283234D02*
X0147381Y0283684D01*
X0146030Y0283684D01*
X0146030Y0280982D01*
X0147381Y0280982D01*
X0147831Y0281432D01*
X0147831Y0283234D01*
X0147381Y0284982D02*
X0146030Y0284982D01*
X0146030Y0287684D01*
X0147381Y0287684D01*
X0147831Y0287234D01*
X0147831Y0285432D01*
X0147381Y0284982D01*
X0148976Y0286784D02*
X0149877Y0287684D01*
X0150327Y0283684D02*
X0150778Y0283234D01*
X0150778Y0282784D01*
X0148976Y0280982D01*
X0150778Y0280982D01*
X0153441Y0279779D02*
X0153441Y0275685D01*
X0146118Y0275685D01*
X0146118Y0279779D01*
X0153441Y0279779D01*
X0156030Y0278234D02*
X0156030Y0277784D01*
X0156480Y0277333D01*
X0157831Y0277333D01*
X0157831Y0276432D02*
X0157831Y0278234D01*
X0157381Y0278684D01*
X0156480Y0278684D01*
X0156030Y0278234D01*
X0156030Y0276432D02*
X0156480Y0275982D01*
X0157381Y0275982D01*
X0157831Y0276432D01*
X0158976Y0276432D02*
X0159426Y0276432D01*
X0159426Y0275982D01*
X0158976Y0275982D01*
X0158976Y0276432D01*
X0160449Y0276432D02*
X0162251Y0278234D01*
X0162251Y0276432D01*
X0161800Y0275982D01*
X0160900Y0275982D01*
X0160449Y0276432D01*
X0160449Y0278234D01*
X0160900Y0278684D01*
X0161800Y0278684D01*
X0162251Y0278234D01*
X0163396Y0278684D02*
X0163396Y0276883D01*
X0164297Y0275982D01*
X0165197Y0276883D01*
X0165197Y0278684D01*
X0165197Y0272684D02*
X0165197Y0270883D01*
X0164297Y0269982D01*
X0163396Y0270883D01*
X0163396Y0272684D01*
X0162251Y0272234D02*
X0162251Y0271784D01*
X0161800Y0271333D01*
X0162251Y0270883D01*
X0162251Y0270432D01*
X0161800Y0269982D01*
X0160900Y0269982D01*
X0160449Y0270432D01*
X0159426Y0270432D02*
X0159426Y0269982D01*
X0158976Y0269982D01*
X0158976Y0270432D01*
X0159426Y0270432D01*
X0157831Y0270432D02*
X0157381Y0269982D01*
X0156480Y0269982D01*
X0156030Y0270432D01*
X0156930Y0271333D02*
X0157381Y0271333D01*
X0157831Y0270883D01*
X0157831Y0270432D01*
X0157381Y0271333D02*
X0157831Y0271784D01*
X0157831Y0272234D01*
X0157381Y0272684D01*
X0156480Y0272684D01*
X0156030Y0272234D01*
X0153441Y0273779D02*
X0153441Y0269685D01*
X0146118Y0269685D01*
X0146118Y0273779D01*
X0153441Y0273779D01*
X0153441Y0267779D02*
X0153441Y0263685D01*
X0146118Y0263685D01*
X0146118Y0267779D01*
X0153441Y0267779D01*
X0156030Y0266684D02*
X0156030Y0265333D01*
X0156930Y0265784D01*
X0157381Y0265784D01*
X0157831Y0265333D01*
X0157831Y0264432D01*
X0157381Y0263982D01*
X0156480Y0263982D01*
X0156030Y0264432D01*
X0156030Y0266684D02*
X0157831Y0266684D01*
X0158976Y0264432D02*
X0159426Y0264432D01*
X0159426Y0263982D01*
X0158976Y0263982D01*
X0158976Y0264432D01*
X0160449Y0264432D02*
X0162251Y0266234D01*
X0162251Y0264432D01*
X0161800Y0263982D01*
X0160900Y0263982D01*
X0160449Y0264432D01*
X0160449Y0266234D01*
X0160900Y0266684D01*
X0161800Y0266684D01*
X0162251Y0266234D01*
X0163396Y0266684D02*
X0163396Y0264883D01*
X0164297Y0263982D01*
X0165197Y0264883D01*
X0165197Y0266684D01*
X0170030Y0266982D02*
X0170030Y0269684D01*
X0171381Y0269684D01*
X0171831Y0269234D01*
X0171831Y0268333D01*
X0171381Y0267883D01*
X0170030Y0267883D01*
X0170930Y0267883D02*
X0171831Y0266982D01*
X0172976Y0266982D02*
X0174778Y0266982D01*
X0173877Y0266982D02*
X0173877Y0269684D01*
X0172976Y0268784D01*
X0175923Y0268333D02*
X0177724Y0268333D01*
X0177274Y0266982D02*
X0177274Y0269684D01*
X0175923Y0268333D01*
X0177480Y0265622D02*
X0177480Y0261842D01*
X0170079Y0261842D01*
X0170079Y0265622D01*
X0177480Y0265622D01*
X0177480Y0261622D02*
X0177480Y0257842D01*
X0170079Y0257842D01*
X0170079Y0261622D01*
X0177480Y0261622D01*
X0177724Y0257184D02*
X0175923Y0257184D01*
X0175923Y0255833D01*
X0176823Y0256284D01*
X0177274Y0256284D01*
X0177724Y0255833D01*
X0177724Y0254932D01*
X0177274Y0254482D01*
X0176373Y0254482D01*
X0175923Y0254932D01*
X0174778Y0254482D02*
X0172976Y0254482D01*
X0173877Y0254482D02*
X0173877Y0257184D01*
X0172976Y0256284D01*
X0171831Y0256734D02*
X0171831Y0255833D01*
X0171381Y0255383D01*
X0170030Y0255383D01*
X0170930Y0255383D02*
X0171831Y0254482D01*
X0170030Y0254482D02*
X0170030Y0257184D01*
X0171381Y0257184D01*
X0171831Y0256734D01*
X0170118Y0250622D02*
X0177441Y0250622D01*
X0177441Y0246842D01*
X0170118Y0246842D01*
X0170118Y0250622D01*
X0169224Y0250684D02*
X0169224Y0250234D01*
X0167423Y0248432D01*
X0167423Y0247982D01*
X0166278Y0247982D02*
X0164476Y0247982D01*
X0165377Y0247982D02*
X0165377Y0250684D01*
X0164476Y0249784D01*
X0163331Y0250234D02*
X0162881Y0250684D01*
X0161980Y0250684D01*
X0161530Y0250234D01*
X0161530Y0248432D01*
X0161980Y0247982D01*
X0162881Y0247982D01*
X0163331Y0248432D01*
X0167423Y0250684D02*
X0169224Y0250684D01*
X0168327Y0241684D02*
X0168778Y0241234D01*
X0168778Y0240784D01*
X0168327Y0240333D01*
X0168778Y0239883D01*
X0168778Y0239432D01*
X0168327Y0238982D01*
X0167426Y0238982D01*
X0166976Y0239432D01*
X0165831Y0238982D02*
X0164930Y0239883D01*
X0165381Y0239883D02*
X0164030Y0239883D01*
X0164030Y0238982D02*
X0164030Y0241684D01*
X0165381Y0241684D01*
X0165831Y0241234D01*
X0165831Y0240333D01*
X0165381Y0239883D01*
X0166976Y0241234D02*
X0167426Y0241684D01*
X0168327Y0241684D01*
X0168327Y0240333D02*
X0167877Y0240333D01*
X0169923Y0239432D02*
X0170373Y0238982D01*
X0171274Y0238982D01*
X0171724Y0239432D01*
X0171724Y0239883D01*
X0171274Y0240333D01*
X0170823Y0240333D01*
X0171274Y0240333D02*
X0171724Y0240784D01*
X0171724Y0241234D01*
X0171274Y0241684D01*
X0170373Y0241684D01*
X0169923Y0241234D01*
X0171480Y0237622D02*
X0171480Y0233842D01*
X0164079Y0233842D01*
X0164079Y0237622D01*
X0171480Y0237622D01*
X0178327Y0235726D02*
X0178327Y0234825D01*
X0178778Y0234375D01*
X0178778Y0233230D02*
X0179228Y0233230D01*
X0179678Y0232780D01*
X0180129Y0233230D01*
X0180579Y0233230D01*
X0181030Y0232780D01*
X0181030Y0231879D01*
X0180579Y0231429D01*
X0180579Y0230284D02*
X0181030Y0229833D01*
X0181030Y0228932D01*
X0180579Y0228482D01*
X0178778Y0228482D01*
X0178327Y0228932D01*
X0178327Y0229833D01*
X0178778Y0230284D01*
X0178778Y0231429D02*
X0178327Y0231879D01*
X0178327Y0232780D01*
X0178778Y0233230D01*
X0179678Y0232780D02*
X0179678Y0232329D01*
X0181030Y0234375D02*
X0179228Y0236177D01*
X0178778Y0236177D01*
X0178327Y0235726D01*
X0181030Y0236177D02*
X0181030Y0234375D01*
X0181669Y0227393D02*
X0177890Y0227393D01*
X0177890Y0220071D01*
X0181669Y0220071D01*
X0181669Y0227393D01*
X0185027Y0225387D02*
X0185027Y0224486D01*
X0185478Y0224035D01*
X0185027Y0222891D02*
X0187279Y0222891D01*
X0187730Y0222440D01*
X0187730Y0221539D01*
X0187279Y0221089D01*
X0185027Y0221089D01*
X0187279Y0224035D02*
X0187730Y0224486D01*
X0187730Y0225387D01*
X0187279Y0225837D01*
X0186829Y0225837D01*
X0186378Y0225387D01*
X0186378Y0224936D01*
X0186378Y0225387D02*
X0185928Y0225837D01*
X0185478Y0225837D01*
X0185027Y0225387D01*
X0173654Y0221795D02*
X0173654Y0229669D01*
X0173654Y0221795D02*
X0169717Y0221795D01*
X0161842Y0221795D02*
X0157905Y0221795D01*
X0157905Y0229669D01*
X0156669Y0228031D02*
X0152890Y0228031D01*
X0152890Y0235433D01*
X0156669Y0235433D01*
X0156669Y0228031D01*
X0156669Y0224433D02*
X0152890Y0224433D01*
X0152890Y0217031D01*
X0156669Y0217031D01*
X0156669Y0224433D01*
X0158827Y0232982D02*
X0161079Y0232982D01*
X0161530Y0233432D01*
X0161530Y0234333D01*
X0161079Y0234784D01*
X0158827Y0234784D01*
X0160178Y0235929D02*
X0160178Y0237730D01*
X0158827Y0237280D02*
X0160178Y0235929D01*
X0158827Y0237280D02*
X0161530Y0237280D01*
X0164795Y0229669D02*
X0166764Y0229669D01*
X0155530Y0236982D02*
X0152827Y0236982D01*
X0152827Y0238333D01*
X0153278Y0238784D01*
X0154178Y0238784D01*
X0154629Y0238333D01*
X0154629Y0236982D01*
X0154629Y0237883D02*
X0155530Y0238784D01*
X0155530Y0239929D02*
X0155530Y0241730D01*
X0155530Y0240829D02*
X0152827Y0240829D01*
X0153728Y0239929D01*
X0153728Y0242875D02*
X0154178Y0243325D01*
X0154178Y0244677D01*
X0153278Y0244677D02*
X0152827Y0244226D01*
X0152827Y0243325D01*
X0153278Y0242875D01*
X0153728Y0242875D01*
X0155079Y0242875D02*
X0155530Y0243325D01*
X0155530Y0244226D01*
X0155079Y0244677D01*
X0153278Y0244677D01*
X0152827Y0246982D02*
X0152827Y0248333D01*
X0153278Y0248784D01*
X0154178Y0248784D01*
X0154629Y0248333D01*
X0154629Y0246982D01*
X0155530Y0246982D02*
X0152827Y0246982D01*
X0154629Y0247883D02*
X0155530Y0248784D01*
X0155530Y0249929D02*
X0153728Y0251730D01*
X0153278Y0251730D01*
X0152827Y0251280D01*
X0152827Y0250379D01*
X0153278Y0249929D01*
X0155530Y0249929D02*
X0155530Y0251730D01*
X0155530Y0252875D02*
X0155530Y0254677D01*
X0155530Y0253776D02*
X0152827Y0253776D01*
X0153728Y0252875D01*
X0150778Y0252684D02*
X0148976Y0252684D01*
X0148976Y0251333D01*
X0149877Y0251784D01*
X0150327Y0251784D01*
X0150778Y0251333D01*
X0150778Y0250432D01*
X0150327Y0249982D01*
X0149426Y0249982D01*
X0148976Y0250432D01*
X0147831Y0250432D02*
X0147831Y0252234D01*
X0147381Y0252684D01*
X0146030Y0252684D01*
X0146030Y0249982D01*
X0147381Y0249982D01*
X0147831Y0250432D01*
X0147381Y0253982D02*
X0146030Y0253982D01*
X0146030Y0256684D01*
X0147381Y0256684D01*
X0147831Y0256234D01*
X0147831Y0254432D01*
X0147381Y0253982D01*
X0148976Y0255333D02*
X0150778Y0255333D01*
X0150327Y0253982D02*
X0150327Y0256684D01*
X0148976Y0255333D01*
X0146118Y0257685D02*
X0146118Y0261779D01*
X0153441Y0261779D01*
X0153441Y0257685D01*
X0146118Y0257685D01*
X0145252Y0257763D02*
X0145252Y0261701D01*
X0143480Y0261622D02*
X0143480Y0257842D01*
X0136079Y0257842D01*
X0136079Y0261622D01*
X0143480Y0261622D01*
X0143480Y0263842D02*
X0136079Y0263842D01*
X0136079Y0267622D01*
X0143480Y0267622D01*
X0143480Y0263842D01*
X0145252Y0263763D02*
X0145252Y0267701D01*
X0145252Y0269763D02*
X0145252Y0273701D01*
X0143480Y0273622D02*
X0143480Y0269842D01*
X0136079Y0269842D01*
X0136079Y0273622D01*
X0143480Y0273622D01*
X0143480Y0275842D02*
X0136079Y0275842D01*
X0136079Y0279622D01*
X0143480Y0279622D01*
X0143480Y0275842D01*
X0145252Y0275763D02*
X0145252Y0279701D01*
X0134724Y0275982D02*
X0132923Y0275982D01*
X0133823Y0275982D02*
X0133823Y0278684D01*
X0132923Y0277784D01*
X0131778Y0275982D02*
X0129976Y0275982D01*
X0130877Y0275982D02*
X0130877Y0278684D01*
X0129976Y0277784D01*
X0128831Y0278234D02*
X0128831Y0277333D01*
X0128381Y0276883D01*
X0127030Y0276883D01*
X0127930Y0276883D02*
X0128831Y0275982D01*
X0127030Y0275982D02*
X0127030Y0278684D01*
X0128381Y0278684D01*
X0128831Y0278234D01*
X0128381Y0272684D02*
X0128831Y0272234D01*
X0128831Y0271333D01*
X0128381Y0270883D01*
X0127030Y0270883D01*
X0127930Y0270883D02*
X0128831Y0269982D01*
X0129976Y0269982D02*
X0131778Y0269982D01*
X0130877Y0269982D02*
X0130877Y0272684D01*
X0129976Y0271784D01*
X0128381Y0272684D02*
X0127030Y0272684D01*
X0127030Y0269982D01*
X0127030Y0267684D02*
X0128381Y0267684D01*
X0128831Y0267234D01*
X0128831Y0266333D01*
X0128381Y0265883D01*
X0127030Y0265883D01*
X0127930Y0265883D02*
X0128831Y0264982D01*
X0129976Y0264982D02*
X0131778Y0264982D01*
X0130877Y0264982D02*
X0130877Y0267684D01*
X0129976Y0266784D01*
X0132923Y0267234D02*
X0133373Y0267684D01*
X0134274Y0267684D01*
X0134724Y0267234D01*
X0134724Y0266784D01*
X0134274Y0266333D01*
X0134724Y0265883D01*
X0134724Y0265432D01*
X0134274Y0264982D01*
X0133373Y0264982D01*
X0132923Y0265432D01*
X0133823Y0266333D02*
X0134274Y0266333D01*
X0134724Y0262684D02*
X0133823Y0262234D01*
X0132923Y0261333D01*
X0134274Y0261333D01*
X0134724Y0260883D01*
X0134724Y0260432D01*
X0134274Y0259982D01*
X0133373Y0259982D01*
X0132923Y0260432D01*
X0132923Y0261333D01*
X0131778Y0259982D02*
X0129976Y0259982D01*
X0130877Y0259982D02*
X0130877Y0262684D01*
X0129976Y0261784D01*
X0128831Y0262234D02*
X0128831Y0261333D01*
X0128381Y0260883D01*
X0127030Y0260883D01*
X0127930Y0260883D02*
X0128831Y0259982D01*
X0127030Y0259982D02*
X0127030Y0262684D01*
X0128381Y0262684D01*
X0128831Y0262234D01*
X0127030Y0264982D02*
X0127030Y0267684D01*
X0125079Y0263677D02*
X0124629Y0263677D01*
X0124178Y0263226D01*
X0124178Y0261875D01*
X0125079Y0261875D01*
X0125530Y0262325D01*
X0125530Y0263226D01*
X0125079Y0263677D01*
X0123278Y0262776D02*
X0124178Y0261875D01*
X0123278Y0262776D02*
X0122827Y0263677D01*
X0121530Y0261875D02*
X0121079Y0261875D01*
X0119278Y0263677D01*
X0118827Y0263677D01*
X0118827Y0261875D01*
X0118827Y0259829D02*
X0121530Y0259829D01*
X0121530Y0258929D02*
X0121530Y0260730D01*
X0122827Y0259829D02*
X0125530Y0259829D01*
X0125530Y0258929D02*
X0125530Y0260730D01*
X0123728Y0258929D02*
X0122827Y0259829D01*
X0123278Y0257784D02*
X0122827Y0257333D01*
X0122827Y0256432D01*
X0123278Y0255982D01*
X0125079Y0255982D01*
X0125530Y0256432D01*
X0125530Y0257333D01*
X0125079Y0257784D01*
X0124638Y0255504D02*
X0131921Y0255504D01*
X0131921Y0241960D01*
X0124638Y0241960D01*
X0124638Y0255504D01*
X0124437Y0254519D02*
X0124437Y0242945D01*
X0119122Y0242945D01*
X0119122Y0254519D01*
X0124437Y0254519D01*
X0121530Y0255982D02*
X0118827Y0255982D01*
X0118827Y0257333D01*
X0119278Y0257784D01*
X0120178Y0257784D01*
X0120629Y0257333D01*
X0120629Y0255982D01*
X0120629Y0256883D02*
X0121530Y0257784D01*
X0119728Y0258929D02*
X0118827Y0259829D01*
X0133390Y0250893D02*
X0133390Y0243571D01*
X0137169Y0243571D01*
X0137169Y0250893D01*
X0133390Y0250893D01*
X0137827Y0250776D02*
X0140530Y0250776D01*
X0140530Y0249875D02*
X0140530Y0251677D01*
X0138728Y0249875D02*
X0137827Y0250776D01*
X0138278Y0248730D02*
X0137827Y0248280D01*
X0137827Y0247379D01*
X0138278Y0246929D01*
X0138278Y0245784D02*
X0137827Y0245333D01*
X0137827Y0244432D01*
X0138278Y0243982D01*
X0140079Y0243982D01*
X0140530Y0244432D01*
X0140530Y0245333D01*
X0140079Y0245784D01*
X0140530Y0246929D02*
X0138728Y0248730D01*
X0138278Y0248730D01*
X0140530Y0248730D02*
X0140530Y0246929D01*
X0156030Y0258982D02*
X0156930Y0258982D01*
X0156480Y0258982D02*
X0156480Y0261684D01*
X0156030Y0261684D02*
X0156930Y0261684D01*
X0157994Y0261234D02*
X0157994Y0259432D01*
X0158444Y0258982D01*
X0159345Y0258982D01*
X0159795Y0259432D01*
X0159795Y0261234D01*
X0159345Y0261684D01*
X0158444Y0261684D01*
X0157994Y0261234D01*
X0161350Y0271333D02*
X0161800Y0271333D01*
X0162251Y0272234D02*
X0161800Y0272684D01*
X0160900Y0272684D01*
X0160449Y0272234D01*
X0134724Y0272234D02*
X0134274Y0272684D01*
X0133373Y0272684D01*
X0132923Y0272234D01*
X0134724Y0272234D02*
X0134724Y0271784D01*
X0132923Y0269982D01*
X0134724Y0269982D01*
X0123530Y0281432D02*
X0123530Y0282333D01*
X0123079Y0282784D01*
X0123530Y0283929D02*
X0123530Y0285730D01*
X0123530Y0284829D02*
X0120827Y0284829D01*
X0121728Y0283929D01*
X0121278Y0282784D02*
X0120827Y0282333D01*
X0120827Y0281432D01*
X0121278Y0280982D01*
X0123079Y0280982D01*
X0123530Y0281432D01*
X0119030Y0281432D02*
X0119030Y0282333D01*
X0118579Y0282784D01*
X0119030Y0283929D02*
X0119030Y0285730D01*
X0119030Y0284829D02*
X0116327Y0284829D01*
X0117228Y0283929D01*
X0116778Y0282784D02*
X0116327Y0282333D01*
X0116327Y0281432D01*
X0116778Y0280982D01*
X0118579Y0280982D01*
X0119030Y0281432D01*
X0115421Y0279960D02*
X0108138Y0279960D01*
X0108138Y0293504D01*
X0115421Y0293504D01*
X0115421Y0279960D01*
X0117228Y0286875D02*
X0116327Y0287776D01*
X0119030Y0287776D01*
X0119030Y0286875D02*
X0119030Y0288677D01*
X0120827Y0288226D02*
X0120827Y0287325D01*
X0121278Y0286875D01*
X0120827Y0288226D02*
X0121278Y0288677D01*
X0121728Y0288677D01*
X0123530Y0286875D01*
X0123530Y0288677D01*
X0116385Y0296782D02*
X0114583Y0296782D01*
X0115484Y0296782D02*
X0115484Y0299484D01*
X0114583Y0298584D01*
X0113438Y0299484D02*
X0113438Y0297232D01*
X0112988Y0296782D01*
X0112087Y0296782D01*
X0111636Y0297232D01*
X0111636Y0299484D01*
X0107437Y0293019D02*
X0102122Y0293019D01*
X0102122Y0281445D01*
X0107437Y0281445D01*
X0107437Y0293019D01*
X0100457Y0299279D02*
X0100457Y0280185D01*
X0076087Y0280185D01*
X0076087Y0299279D01*
X0100457Y0299279D01*
X0103441Y0314842D02*
X0096118Y0314842D01*
X0096118Y0318622D01*
X0103441Y0318622D01*
X0103441Y0314842D01*
X0104530Y0315432D02*
X0104530Y0317234D01*
X0104980Y0317684D01*
X0105881Y0317684D01*
X0106331Y0317234D01*
X0107476Y0317234D02*
X0107926Y0317684D01*
X0108827Y0317684D01*
X0109278Y0317234D01*
X0109278Y0316784D01*
X0108827Y0316333D01*
X0109278Y0315883D01*
X0109278Y0315432D01*
X0108827Y0314982D01*
X0107926Y0314982D01*
X0107476Y0315432D01*
X0106331Y0315432D02*
X0105881Y0314982D01*
X0104980Y0314982D01*
X0104530Y0315432D01*
X0108377Y0316333D02*
X0108827Y0316333D01*
X0112480Y0333842D02*
X0105079Y0333842D01*
X0105079Y0337622D01*
X0112480Y0337622D01*
X0112480Y0333842D01*
X0111976Y0338982D02*
X0113778Y0340784D01*
X0113778Y0341234D01*
X0113327Y0341684D01*
X0112426Y0341684D01*
X0111976Y0341234D01*
X0110831Y0341234D02*
X0110831Y0340333D01*
X0110381Y0339883D01*
X0109030Y0339883D01*
X0109930Y0339883D02*
X0110831Y0338982D01*
X0111976Y0338982D02*
X0113778Y0338982D01*
X0110831Y0341234D02*
X0110381Y0341684D01*
X0109030Y0341684D01*
X0109030Y0338982D01*
X0099778Y0338982D02*
X0097976Y0338982D01*
X0098877Y0338982D02*
X0098877Y0341684D01*
X0097976Y0340784D01*
X0096831Y0341234D02*
X0096831Y0340333D01*
X0096381Y0339883D01*
X0095030Y0339883D01*
X0095930Y0339883D02*
X0096831Y0338982D01*
X0095030Y0338982D02*
X0095030Y0341684D01*
X0096381Y0341684D01*
X0096831Y0341234D01*
X0098480Y0337622D02*
X0098480Y0333842D01*
X0091079Y0333842D01*
X0091079Y0337622D01*
X0098480Y0337622D01*
X0082453Y0303436D02*
X0081552Y0303436D01*
X0081102Y0302986D01*
X0082453Y0303436D02*
X0082904Y0302986D01*
X0082904Y0302536D01*
X0081102Y0300734D01*
X0082904Y0300734D01*
X0079957Y0300734D02*
X0078155Y0300734D01*
X0078155Y0303436D01*
X0074421Y0302504D02*
X0074421Y0288960D01*
X0067138Y0288960D01*
X0067138Y0302504D01*
X0074421Y0302504D01*
X0070030Y0304432D02*
X0070030Y0305333D01*
X0069579Y0305784D01*
X0069579Y0306929D02*
X0070030Y0307379D01*
X0070030Y0308280D01*
X0069579Y0308730D01*
X0069129Y0308730D01*
X0068678Y0308280D01*
X0068678Y0306929D01*
X0069579Y0306929D01*
X0068678Y0306929D02*
X0067778Y0307829D01*
X0067327Y0308730D01*
X0067778Y0305784D02*
X0067327Y0305333D01*
X0067327Y0304432D01*
X0067778Y0303982D01*
X0069579Y0303982D01*
X0070030Y0304432D01*
X0064079Y0294677D02*
X0064530Y0294226D01*
X0064530Y0293325D01*
X0064079Y0292875D01*
X0064530Y0291730D02*
X0064530Y0289929D01*
X0064530Y0290829D02*
X0061827Y0290829D01*
X0062728Y0289929D01*
X0062278Y0288784D02*
X0061827Y0288333D01*
X0061827Y0287432D01*
X0062278Y0286982D01*
X0064079Y0286982D01*
X0064530Y0287432D01*
X0064530Y0288333D01*
X0064079Y0288784D01*
X0063421Y0285504D02*
X0063421Y0271960D01*
X0056138Y0271960D01*
X0056138Y0285504D01*
X0063421Y0285504D01*
X0067030Y0280184D02*
X0067030Y0277482D01*
X0068831Y0277482D01*
X0069976Y0277932D02*
X0070426Y0277482D01*
X0071327Y0277482D01*
X0071778Y0277932D01*
X0071778Y0278383D01*
X0071327Y0278833D01*
X0070877Y0278833D01*
X0071327Y0278833D02*
X0071778Y0279284D01*
X0071778Y0279734D01*
X0071327Y0280184D01*
X0070426Y0280184D01*
X0069976Y0279734D01*
X0062278Y0292875D02*
X0061827Y0293325D01*
X0061827Y0294226D01*
X0062278Y0294677D01*
X0062728Y0294677D01*
X0063178Y0294226D01*
X0063629Y0294677D01*
X0064079Y0294677D01*
X0063178Y0294226D02*
X0063178Y0293776D01*
X0064654Y0264102D02*
X0048905Y0264102D01*
X0064654Y0264102D01*
X0047918Y0256261D02*
X0047468Y0256711D01*
X0047018Y0256711D01*
X0046567Y0256261D01*
X0046567Y0254909D01*
X0047468Y0254909D01*
X0047918Y0255360D01*
X0047918Y0256261D01*
X0046567Y0254909D02*
X0045667Y0255810D01*
X0045216Y0256711D01*
X0045667Y0253765D02*
X0045216Y0253314D01*
X0045216Y0251963D01*
X0047918Y0251963D01*
X0047918Y0253314D01*
X0047468Y0253765D01*
X0045667Y0253765D01*
X0029778Y0238234D02*
X0029778Y0237784D01*
X0029327Y0237333D01*
X0029778Y0236883D01*
X0029778Y0236432D01*
X0029327Y0235982D01*
X0028426Y0235982D01*
X0027976Y0236432D01*
X0028877Y0237333D02*
X0029327Y0237333D01*
X0029778Y0238234D02*
X0029327Y0238684D01*
X0028426Y0238684D01*
X0027976Y0238234D01*
X0026831Y0238684D02*
X0025930Y0238684D01*
X0026381Y0238684D02*
X0026381Y0236432D01*
X0025930Y0235982D01*
X0025480Y0235982D01*
X0025030Y0236432D01*
X0036780Y0185732D02*
X0036780Y0159732D01*
X0046780Y0159732D01*
X0046780Y0171732D01*
X0050780Y0171732D01*
X0050780Y0185732D01*
X0036780Y0185732D01*
X0041030Y0184684D02*
X0041030Y0181982D01*
X0041030Y0182883D02*
X0042381Y0182883D01*
X0042831Y0183333D01*
X0042831Y0184234D01*
X0042381Y0184684D01*
X0041030Y0184684D01*
X0041930Y0182883D02*
X0042831Y0181982D01*
X0043976Y0181982D02*
X0045778Y0183784D01*
X0045778Y0184234D01*
X0045327Y0184684D01*
X0044426Y0184684D01*
X0043976Y0184234D01*
X0043976Y0181982D02*
X0045778Y0181982D01*
X0046923Y0182432D02*
X0047373Y0181982D01*
X0048274Y0181982D01*
X0048724Y0182432D01*
X0048724Y0183333D01*
X0048274Y0183784D01*
X0047823Y0183784D01*
X0046923Y0183333D01*
X0046923Y0184684D01*
X0048724Y0184684D01*
X0048724Y0180684D02*
X0048724Y0180234D01*
X0046923Y0178432D01*
X0046923Y0177982D01*
X0045778Y0177982D02*
X0043976Y0177982D01*
X0045778Y0179784D01*
X0045778Y0180234D01*
X0045327Y0180684D01*
X0044426Y0180684D01*
X0043976Y0180234D01*
X0042831Y0180234D02*
X0042831Y0179333D01*
X0042381Y0178883D01*
X0041030Y0178883D01*
X0041930Y0178883D02*
X0042831Y0177982D01*
X0042381Y0176684D02*
X0042831Y0176234D01*
X0042831Y0175333D01*
X0042381Y0174883D01*
X0041030Y0174883D01*
X0041930Y0174883D02*
X0042831Y0173982D01*
X0043976Y0173982D02*
X0045778Y0175784D01*
X0045778Y0176234D01*
X0045327Y0176684D01*
X0044426Y0176684D01*
X0043976Y0176234D01*
X0042381Y0176684D02*
X0041030Y0176684D01*
X0041030Y0173982D01*
X0041426Y0172684D02*
X0040976Y0172234D01*
X0041426Y0172684D02*
X0042327Y0172684D01*
X0042778Y0172234D01*
X0042778Y0171784D01*
X0040976Y0169982D01*
X0042778Y0169982D01*
X0043278Y0169177D02*
X0042827Y0168726D01*
X0042827Y0167825D01*
X0043278Y0167375D01*
X0043278Y0166230D02*
X0043728Y0166230D01*
X0044178Y0165780D01*
X0044629Y0166230D01*
X0045079Y0166230D01*
X0045530Y0165780D01*
X0045530Y0164879D01*
X0045079Y0164429D01*
X0045079Y0163284D02*
X0045530Y0162833D01*
X0045530Y0161932D01*
X0045079Y0161482D01*
X0043278Y0161482D01*
X0042827Y0161932D01*
X0042827Y0162833D01*
X0043278Y0163284D01*
X0043278Y0164429D02*
X0042827Y0164879D01*
X0042827Y0165780D01*
X0043278Y0166230D01*
X0044178Y0165780D02*
X0044178Y0165329D01*
X0045079Y0167375D02*
X0045530Y0167825D01*
X0045530Y0168726D01*
X0045079Y0169177D01*
X0044629Y0169177D01*
X0044178Y0168726D01*
X0044178Y0168276D01*
X0044178Y0168726D02*
X0043728Y0169177D01*
X0043278Y0169177D01*
X0044373Y0169982D02*
X0045274Y0169982D01*
X0045724Y0170432D01*
X0045724Y0172234D01*
X0045274Y0172684D01*
X0044373Y0172684D01*
X0043923Y0172234D01*
X0043923Y0171784D01*
X0044373Y0171333D01*
X0045724Y0171333D01*
X0044373Y0169982D02*
X0043923Y0170432D01*
X0043976Y0173982D02*
X0045778Y0173982D01*
X0046923Y0174432D02*
X0046923Y0174883D01*
X0047373Y0175333D01*
X0048274Y0175333D01*
X0048724Y0174883D01*
X0048724Y0174432D01*
X0048274Y0173982D01*
X0047373Y0173982D01*
X0046923Y0174432D01*
X0047373Y0175333D02*
X0046923Y0175784D01*
X0046923Y0176234D01*
X0047373Y0176684D01*
X0048274Y0176684D01*
X0048724Y0176234D01*
X0048724Y0175784D01*
X0048274Y0175333D01*
X0048724Y0180684D02*
X0046923Y0180684D01*
X0042831Y0180234D02*
X0042381Y0180684D01*
X0041030Y0180684D01*
X0041030Y0177982D01*
X0039381Y0172684D02*
X0038480Y0172684D01*
X0038030Y0172234D01*
X0038030Y0170432D01*
X0038480Y0169982D01*
X0039381Y0169982D01*
X0039831Y0170432D01*
X0039831Y0172234D02*
X0039381Y0172684D01*
X0055327Y0173379D02*
X0055327Y0174280D01*
X0055778Y0174730D01*
X0056228Y0174730D01*
X0056678Y0174280D01*
X0057129Y0174730D01*
X0057579Y0174730D01*
X0058030Y0174280D01*
X0058030Y0173379D01*
X0057579Y0172929D01*
X0057579Y0171784D02*
X0058030Y0171333D01*
X0058030Y0170432D01*
X0057579Y0169982D01*
X0055778Y0169982D01*
X0055327Y0170432D01*
X0055327Y0171333D01*
X0055778Y0171784D01*
X0055778Y0172929D02*
X0055327Y0173379D01*
X0056678Y0173829D02*
X0056678Y0174280D01*
X0057579Y0175875D02*
X0058030Y0175875D01*
X0057579Y0175875D02*
X0055778Y0177677D01*
X0055327Y0177677D01*
X0055327Y0175875D01*
X0159827Y0189982D02*
X0162079Y0189982D01*
X0162530Y0190432D01*
X0162530Y0191333D01*
X0162079Y0191784D01*
X0159827Y0191784D01*
X0161178Y0192929D02*
X0161178Y0194280D01*
X0161629Y0194730D01*
X0162079Y0194730D01*
X0162530Y0194280D01*
X0162530Y0193379D01*
X0162079Y0192929D01*
X0161178Y0192929D01*
X0160278Y0193829D01*
X0159827Y0194730D01*
X0160394Y0197858D02*
X0160394Y0213606D01*
X0219118Y0287842D02*
X0219118Y0291622D01*
X0226441Y0291622D01*
X0226441Y0287842D01*
X0219118Y0287842D01*
X0216885Y0289232D02*
X0216434Y0288782D01*
X0215533Y0288782D01*
X0215083Y0289232D01*
X0216885Y0291034D01*
X0216885Y0289232D01*
X0216885Y0291034D02*
X0216434Y0291484D01*
X0215533Y0291484D01*
X0215083Y0291034D01*
X0215083Y0289232D01*
X0213938Y0288782D02*
X0212136Y0288782D01*
X0213037Y0288782D02*
X0213037Y0291484D01*
X0212136Y0290584D01*
X0210991Y0291034D02*
X0210541Y0291484D01*
X0209640Y0291484D01*
X0209190Y0291034D01*
X0209190Y0289232D01*
X0209640Y0288782D01*
X0210541Y0288782D01*
X0210991Y0289232D01*
X0225480Y0325982D02*
X0226381Y0325982D01*
X0226831Y0326432D01*
X0227976Y0325982D02*
X0229778Y0327784D01*
X0229778Y0328234D01*
X0229327Y0328684D01*
X0228426Y0328684D01*
X0227976Y0328234D01*
X0226831Y0328234D02*
X0226381Y0328684D01*
X0225480Y0328684D01*
X0225030Y0328234D01*
X0225030Y0326432D01*
X0225480Y0325982D01*
X0227976Y0325982D02*
X0229778Y0325982D01*
X0223992Y0330075D02*
X0223992Y0335389D01*
X0235567Y0335389D01*
X0235567Y0330075D01*
X0223992Y0330075D01*
X0192780Y0335482D02*
X0185280Y0335482D01*
X0185280Y0341732D01*
X0182778Y0341982D02*
X0180976Y0341982D01*
X0181877Y0341982D02*
X0181877Y0344684D01*
X0180976Y0343784D01*
X0179831Y0344684D02*
X0178930Y0344684D01*
X0179381Y0344684D02*
X0179381Y0342432D01*
X0178930Y0341982D01*
X0178480Y0341982D01*
X0178030Y0342432D01*
X0178530Y0338730D02*
X0178530Y0336929D01*
X0178530Y0337829D02*
X0175827Y0337829D01*
X0176728Y0336929D01*
X0176278Y0335784D02*
X0175827Y0335333D01*
X0175827Y0334432D01*
X0176278Y0333982D01*
X0178079Y0333982D01*
X0178530Y0334432D01*
X0178530Y0335333D01*
X0178079Y0335784D01*
X0174921Y0330960D02*
X0167638Y0330960D01*
X0167638Y0344504D01*
X0174921Y0344504D01*
X0174921Y0330960D01*
X0182575Y0328955D02*
X0185278Y0328955D01*
X0185278Y0328055D02*
X0185278Y0329856D01*
X0183476Y0328055D02*
X0182575Y0328955D01*
X0185278Y0326910D02*
X0185278Y0325108D01*
X0182575Y0325108D01*
X0264480Y0225684D02*
X0264030Y0225234D01*
X0264030Y0223432D01*
X0264480Y0222982D01*
X0265381Y0222982D01*
X0265831Y0223432D01*
X0266976Y0222982D02*
X0268778Y0222982D01*
X0267877Y0222982D02*
X0267877Y0225684D01*
X0266976Y0224784D01*
X0265831Y0225234D02*
X0265381Y0225684D01*
X0264480Y0225684D01*
X0259992Y0222389D02*
X0259992Y0217075D01*
X0271567Y0217075D01*
X0271567Y0222389D01*
X0259992Y0222389D01*
X0261030Y0216084D02*
X0261030Y0214283D01*
X0261930Y0213382D01*
X0262831Y0214283D01*
X0262831Y0216084D01*
X0263976Y0216084D02*
X0265327Y0216084D01*
X0265778Y0215634D01*
X0265778Y0214733D01*
X0265327Y0214283D01*
X0263976Y0214283D01*
X0264877Y0214283D02*
X0265778Y0213382D01*
X0266923Y0213382D02*
X0268724Y0213382D01*
X0269869Y0213382D02*
X0269869Y0216084D01*
X0271671Y0216084D01*
X0270770Y0214733D02*
X0269869Y0214733D01*
X0268724Y0216084D02*
X0266923Y0216084D01*
X0266923Y0213382D01*
X0266923Y0214733D02*
X0267823Y0214733D01*
X0263976Y0213382D02*
X0263976Y0216084D01*
X0270373Y0222982D02*
X0271274Y0222982D01*
X0271724Y0223432D01*
X0271724Y0225234D01*
X0271274Y0225684D01*
X0270373Y0225684D01*
X0269923Y0225234D01*
X0269923Y0224784D01*
X0270373Y0224333D01*
X0271724Y0224333D01*
X0270373Y0222982D02*
X0269923Y0223432D01*
X0267430Y0238282D02*
X0268331Y0239183D01*
X0268331Y0240984D01*
X0269476Y0239633D02*
X0271278Y0239633D01*
X0270377Y0240534D02*
X0270377Y0238732D01*
X0267430Y0238282D02*
X0266530Y0239183D01*
X0266530Y0240984D01*
X0266530Y0248382D02*
X0266530Y0251084D01*
X0267881Y0251084D01*
X0268331Y0250634D01*
X0268331Y0249733D01*
X0267881Y0249283D01*
X0266530Y0249283D01*
X0267430Y0249283D02*
X0268331Y0248382D01*
X0269476Y0248382D02*
X0271278Y0251084D01*
X0269476Y0251084D02*
X0271278Y0248382D01*
X0271278Y0258382D02*
X0269476Y0261084D01*
X0268331Y0261084D02*
X0266530Y0261084D01*
X0267430Y0261084D02*
X0267430Y0258382D01*
X0269476Y0258382D02*
X0271278Y0261084D01*
X0273201Y0292326D02*
X0273201Y0304138D01*
X0276480Y0312842D02*
X0269079Y0312842D01*
X0269079Y0316622D01*
X0276480Y0316622D01*
X0276480Y0312842D01*
X0276480Y0316842D02*
X0276480Y0320622D01*
X0269079Y0320622D01*
X0269079Y0316842D01*
X0276480Y0316842D01*
X0275327Y0321482D02*
X0275778Y0321932D01*
X0275778Y0323734D01*
X0275327Y0324184D01*
X0274426Y0324184D01*
X0273976Y0323734D01*
X0273976Y0323284D01*
X0274426Y0322833D01*
X0275778Y0322833D01*
X0275327Y0321482D02*
X0274426Y0321482D01*
X0273976Y0321932D01*
X0272831Y0321482D02*
X0271930Y0322383D01*
X0272381Y0322383D02*
X0271030Y0322383D01*
X0271030Y0321482D02*
X0271030Y0324184D01*
X0272381Y0324184D01*
X0272831Y0323734D01*
X0272831Y0322833D01*
X0272381Y0322383D01*
X0272476Y0325982D02*
X0274278Y0325982D01*
X0273377Y0325982D02*
X0273377Y0328684D01*
X0272476Y0327784D01*
X0271331Y0328234D02*
X0271331Y0327333D01*
X0270881Y0326883D01*
X0269530Y0326883D01*
X0270430Y0326883D02*
X0271331Y0325982D01*
X0269530Y0325982D02*
X0269530Y0328684D01*
X0270881Y0328684D01*
X0271331Y0328234D01*
X0275423Y0328234D02*
X0275423Y0326432D01*
X0277224Y0328234D01*
X0277224Y0326432D01*
X0276774Y0325982D01*
X0275873Y0325982D01*
X0275423Y0326432D01*
X0275423Y0328234D02*
X0275873Y0328684D01*
X0276774Y0328684D01*
X0277224Y0328234D01*
X0270274Y0206084D02*
X0269373Y0206084D01*
X0268923Y0205634D01*
X0268923Y0203832D01*
X0269373Y0203382D01*
X0270274Y0203382D01*
X0270724Y0203832D01*
X0270724Y0204733D01*
X0269823Y0204733D01*
X0270724Y0205634D02*
X0270274Y0206084D01*
X0267778Y0206084D02*
X0267778Y0203382D01*
X0265976Y0206084D01*
X0265976Y0203382D01*
X0264831Y0203382D02*
X0264831Y0205184D01*
X0263930Y0206084D01*
X0263030Y0205184D01*
X0263030Y0203382D01*
X0263030Y0204733D02*
X0264831Y0204733D01*
X0257224Y0201184D02*
X0256323Y0200734D01*
X0255423Y0199833D01*
X0256774Y0199833D01*
X0257224Y0199383D01*
X0257224Y0198932D01*
X0256774Y0198482D01*
X0255873Y0198482D01*
X0255423Y0198932D01*
X0255423Y0199833D01*
X0254278Y0200284D02*
X0254278Y0200734D01*
X0253827Y0201184D01*
X0252926Y0201184D01*
X0252476Y0200734D01*
X0251331Y0200734D02*
X0250881Y0201184D01*
X0249980Y0201184D01*
X0249530Y0200734D01*
X0249530Y0198932D01*
X0249980Y0198482D01*
X0250881Y0198482D01*
X0251331Y0198932D01*
X0252476Y0198482D02*
X0254278Y0200284D01*
X0254278Y0198482D02*
X0252476Y0198482D01*
X0252926Y0196684D02*
X0253827Y0196684D01*
X0254278Y0196234D01*
X0254278Y0195784D01*
X0253827Y0195333D01*
X0254278Y0194883D01*
X0254278Y0194432D01*
X0253827Y0193982D01*
X0252926Y0193982D01*
X0252476Y0194432D01*
X0251331Y0194432D02*
X0250881Y0193982D01*
X0249980Y0193982D01*
X0249530Y0194432D01*
X0249530Y0196234D01*
X0249980Y0196684D01*
X0250881Y0196684D01*
X0251331Y0196234D01*
X0252476Y0196234D02*
X0252926Y0196684D01*
X0253377Y0195333D02*
X0253827Y0195333D01*
X0255423Y0194432D02*
X0257224Y0196234D01*
X0257224Y0194432D01*
X0256774Y0193982D01*
X0255873Y0193982D01*
X0255423Y0194432D01*
X0255423Y0196234D01*
X0255873Y0196684D01*
X0256774Y0196684D01*
X0257224Y0196234D01*
X0260530Y0195184D02*
X0261430Y0196084D01*
X0262331Y0195184D01*
X0262331Y0193382D01*
X0263476Y0193832D02*
X0263926Y0193382D01*
X0264827Y0193382D01*
X0265278Y0193832D01*
X0265278Y0194733D01*
X0264377Y0194733D01*
X0265278Y0195634D02*
X0264827Y0196084D01*
X0263926Y0196084D01*
X0263476Y0195634D01*
X0263476Y0193832D01*
X0262331Y0194733D02*
X0260530Y0194733D01*
X0260530Y0195184D02*
X0260530Y0193382D01*
X0261224Y0192184D02*
X0259423Y0192184D01*
X0259423Y0190833D01*
X0260323Y0191284D01*
X0260774Y0191284D01*
X0261224Y0190833D01*
X0261224Y0189932D01*
X0260774Y0189482D01*
X0259873Y0189482D01*
X0259423Y0189932D01*
X0258278Y0189932D02*
X0257827Y0189482D01*
X0256926Y0189482D01*
X0256476Y0189932D01*
X0255331Y0189932D02*
X0254881Y0189482D01*
X0253980Y0189482D01*
X0253530Y0189932D01*
X0253530Y0191734D01*
X0253980Y0192184D01*
X0254881Y0192184D01*
X0255331Y0191734D01*
X0256476Y0191734D02*
X0256926Y0192184D01*
X0257827Y0192184D01*
X0258278Y0191734D01*
X0258278Y0191284D01*
X0257827Y0190833D01*
X0258278Y0190383D01*
X0258278Y0189932D01*
X0257827Y0190833D02*
X0257377Y0190833D01*
X0257827Y0188184D02*
X0258278Y0187734D01*
X0258278Y0187284D01*
X0257827Y0186833D01*
X0258278Y0186383D01*
X0258278Y0185932D01*
X0257827Y0185482D01*
X0256926Y0185482D01*
X0256476Y0185932D01*
X0255331Y0185932D02*
X0254881Y0185482D01*
X0253980Y0185482D01*
X0253530Y0185932D01*
X0253530Y0187734D01*
X0253980Y0188184D01*
X0254881Y0188184D01*
X0255331Y0187734D01*
X0256476Y0187734D02*
X0256926Y0188184D01*
X0257827Y0188184D01*
X0257827Y0186833D02*
X0257377Y0186833D01*
X0259423Y0186833D02*
X0259423Y0185932D01*
X0259873Y0185482D01*
X0260774Y0185482D01*
X0261224Y0185932D01*
X0261224Y0186383D01*
X0260774Y0186833D01*
X0259423Y0186833D01*
X0260323Y0187734D01*
X0261224Y0188184D01*
X0266423Y0193382D02*
X0266423Y0196084D01*
X0268224Y0193382D01*
X0268224Y0196084D01*
X0269369Y0196084D02*
X0270720Y0196084D01*
X0271171Y0195634D01*
X0271171Y0193832D01*
X0270720Y0193382D01*
X0269369Y0193382D01*
X0269369Y0196084D01*
X0256732Y0176275D02*
X0284291Y0176275D01*
X0284291Y0136905D01*
X0256732Y0136905D01*
X0256732Y0176275D01*
X0254973Y0174598D02*
X0255423Y0174147D01*
X0255423Y0173697D01*
X0254973Y0173247D01*
X0254072Y0173247D01*
X0253622Y0173697D01*
X0253622Y0174147D01*
X0254072Y0174598D01*
X0254973Y0174598D01*
X0254973Y0173247D02*
X0255423Y0172796D01*
X0255423Y0172346D01*
X0254973Y0171895D01*
X0254072Y0171895D01*
X0253622Y0172346D01*
X0253622Y0172796D01*
X0254072Y0173247D01*
X0252477Y0172346D02*
X0252026Y0171895D01*
X0251126Y0171895D01*
X0250675Y0172346D01*
X0250675Y0174598D01*
X0252477Y0174598D02*
X0252477Y0172346D01*
X0250530Y0180982D02*
X0247827Y0180982D01*
X0247827Y0182333D01*
X0248278Y0182784D01*
X0249178Y0182784D01*
X0249629Y0182333D01*
X0249629Y0180982D01*
X0249629Y0181883D02*
X0250530Y0182784D01*
X0250079Y0183929D02*
X0250530Y0184379D01*
X0250530Y0185280D01*
X0250079Y0185730D01*
X0249629Y0185730D01*
X0249178Y0185280D01*
X0249178Y0184829D01*
X0249178Y0185280D02*
X0248728Y0185730D01*
X0248278Y0185730D01*
X0247827Y0185280D01*
X0247827Y0184379D01*
X0248278Y0183929D01*
X0246941Y0183622D02*
X0246941Y0179842D01*
X0239618Y0179842D01*
X0239618Y0183622D01*
X0246941Y0183622D01*
X0246941Y0184842D02*
X0246941Y0188622D01*
X0239618Y0188622D01*
X0239618Y0184842D01*
X0246941Y0184842D01*
X0248278Y0186875D02*
X0247827Y0187325D01*
X0247827Y0188226D01*
X0248278Y0188677D01*
X0248728Y0188677D01*
X0249178Y0188226D01*
X0249178Y0187325D01*
X0248728Y0186875D01*
X0248278Y0186875D01*
X0249178Y0187325D02*
X0249629Y0186875D01*
X0250079Y0186875D01*
X0250530Y0187325D01*
X0250530Y0188226D01*
X0250079Y0188677D01*
X0249629Y0188677D01*
X0249178Y0188226D01*
X0248067Y0190575D02*
X0236492Y0190575D01*
X0236492Y0195889D01*
X0248067Y0195889D01*
X0248067Y0190575D01*
X0248067Y0197075D02*
X0236492Y0197075D01*
X0236492Y0202389D01*
X0248067Y0202389D01*
X0248067Y0197075D01*
X0236169Y0188433D02*
X0236169Y0181031D01*
X0232390Y0181031D01*
X0232390Y0188433D01*
X0236169Y0188433D01*
X0241980Y0135184D02*
X0241530Y0134734D01*
X0241530Y0132932D01*
X0241980Y0132482D01*
X0242881Y0132482D01*
X0243331Y0132932D01*
X0244476Y0133833D02*
X0246278Y0133833D01*
X0245827Y0132482D02*
X0245827Y0135184D01*
X0244476Y0133833D01*
X0243331Y0134734D02*
X0242881Y0135184D01*
X0241980Y0135184D01*
X0247423Y0135184D02*
X0249224Y0135184D01*
X0249224Y0134734D01*
X0247423Y0132932D01*
X0247423Y0132482D01*
X0239030Y0115177D02*
X0239030Y0113375D01*
X0237228Y0115177D01*
X0236778Y0115177D01*
X0236327Y0114726D01*
X0236327Y0113825D01*
X0236778Y0113375D01*
X0236327Y0112230D02*
X0236327Y0110429D01*
X0237678Y0110429D01*
X0237228Y0111329D01*
X0237228Y0111780D01*
X0237678Y0112230D01*
X0238579Y0112230D01*
X0239030Y0111780D01*
X0239030Y0110879D01*
X0238579Y0110429D01*
X0238579Y0109284D02*
X0239030Y0108833D01*
X0239030Y0107932D01*
X0238579Y0107482D01*
X0236778Y0107482D01*
X0236327Y0107932D01*
X0236327Y0108833D01*
X0236778Y0109284D01*
X0235437Y0103945D02*
X0235437Y0115519D01*
X0230122Y0115519D01*
X0230122Y0103945D01*
X0235437Y0103945D01*
X0277612Y0133188D02*
X0278063Y0132738D01*
X0278513Y0132738D01*
X0278963Y0133188D01*
X0278963Y0135440D01*
X0278513Y0135440D02*
X0279414Y0135440D01*
X0280559Y0134089D02*
X0282360Y0134089D01*
X0281910Y0132738D02*
X0281910Y0135440D01*
X0280559Y0134089D01*
D13*
X0211638Y0182653D03*
X0091638Y0188968D03*
D14*
X0191157Y0224141D03*
D15*
X0203280Y0294732D02*
X0230280Y0294732D01*
X0230280Y0297732D02*
X0203280Y0297732D01*
X0196665Y0307232D02*
X0196777Y0307391D01*
X0196892Y0307548D01*
X0197011Y0307702D01*
X0197134Y0307853D01*
X0197260Y0308001D01*
X0197390Y0308146D01*
X0197524Y0308288D01*
X0197661Y0308426D01*
X0197801Y0308561D01*
X0197944Y0308693D01*
X0198091Y0308821D01*
X0198241Y0308945D01*
X0198393Y0309066D01*
X0198549Y0309183D01*
X0198707Y0309296D01*
X0198868Y0309406D01*
X0199032Y0309511D01*
X0199198Y0309612D01*
X0199367Y0309710D01*
X0199538Y0309803D01*
X0199711Y0309892D01*
X0199886Y0309977D01*
X0200064Y0310057D01*
X0200243Y0310133D01*
X0200424Y0310205D01*
X0200606Y0310272D01*
X0200791Y0310335D01*
X0200976Y0310393D01*
X0201164Y0310447D01*
X0201352Y0310496D01*
X0201541Y0310541D01*
X0201732Y0310581D01*
X0201923Y0310616D01*
X0202116Y0310647D01*
X0202309Y0310673D01*
X0202502Y0310694D01*
X0202696Y0310711D01*
X0202890Y0310723D01*
X0203085Y0310730D01*
X0203280Y0310732D01*
X0230280Y0310732D01*
X0230280Y0307732D02*
X0203280Y0307732D01*
X0203279Y0307732D02*
X0203146Y0307730D01*
X0203014Y0307725D01*
X0202882Y0307716D01*
X0202749Y0307704D01*
X0202618Y0307688D01*
X0202486Y0307669D01*
X0202356Y0307646D01*
X0202226Y0307620D01*
X0202096Y0307590D01*
X0201968Y0307557D01*
X0201840Y0307521D01*
X0201714Y0307481D01*
X0201588Y0307438D01*
X0201464Y0307391D01*
X0201341Y0307341D01*
X0201220Y0307288D01*
X0201100Y0307232D01*
X0196665Y0298232D02*
X0196776Y0298072D01*
X0196891Y0297916D01*
X0197010Y0297762D01*
X0197133Y0297610D01*
X0197260Y0297462D01*
X0197390Y0297318D01*
X0197523Y0297176D01*
X0197660Y0297037D01*
X0197800Y0296902D01*
X0197944Y0296771D01*
X0198090Y0296643D01*
X0198240Y0296518D01*
X0198393Y0296398D01*
X0198548Y0296281D01*
X0198707Y0296167D01*
X0198868Y0296058D01*
X0199032Y0295953D01*
X0199198Y0295851D01*
X0199366Y0295754D01*
X0199537Y0295661D01*
X0199711Y0295572D01*
X0199886Y0295487D01*
X0200063Y0295407D01*
X0200242Y0295331D01*
X0200423Y0295259D01*
X0200606Y0295192D01*
X0200790Y0295129D01*
X0200976Y0295071D01*
X0201163Y0295017D01*
X0201352Y0294968D01*
X0201541Y0294923D01*
X0201732Y0294883D01*
X0201923Y0294848D01*
X0202115Y0294817D01*
X0202308Y0294791D01*
X0202502Y0294770D01*
X0202696Y0294753D01*
X0202890Y0294741D01*
X0203085Y0294734D01*
X0203279Y0294732D01*
X0203279Y0297732D02*
X0203146Y0297734D01*
X0203014Y0297739D01*
X0202882Y0297748D01*
X0202749Y0297760D01*
X0202618Y0297776D01*
X0202486Y0297795D01*
X0202356Y0297818D01*
X0202226Y0297844D01*
X0202096Y0297874D01*
X0201968Y0297907D01*
X0201840Y0297943D01*
X0201714Y0297983D01*
X0201588Y0298026D01*
X0201464Y0298073D01*
X0201341Y0298123D01*
X0201220Y0298176D01*
X0201100Y0298232D01*
X0212780Y0302732D02*
X0214280Y0302732D01*
X0219280Y0302732D02*
X0220780Y0302732D01*
X0230279Y0294732D02*
X0230474Y0294734D01*
X0230668Y0294741D01*
X0230863Y0294753D01*
X0231057Y0294770D01*
X0231250Y0294791D01*
X0231443Y0294817D01*
X0231635Y0294848D01*
X0231827Y0294883D01*
X0232017Y0294923D01*
X0232207Y0294968D01*
X0232395Y0295017D01*
X0232582Y0295071D01*
X0232768Y0295129D01*
X0232952Y0295192D01*
X0233135Y0295259D01*
X0233316Y0295331D01*
X0233495Y0295407D01*
X0233672Y0295487D01*
X0233848Y0295572D01*
X0234021Y0295661D01*
X0234192Y0295754D01*
X0234360Y0295851D01*
X0234527Y0295953D01*
X0234690Y0296058D01*
X0234851Y0296168D01*
X0235010Y0296281D01*
X0235165Y0296398D01*
X0235318Y0296519D01*
X0235468Y0296643D01*
X0235614Y0296771D01*
X0235758Y0296903D01*
X0235898Y0297038D01*
X0236035Y0297176D01*
X0236168Y0297318D01*
X0236298Y0297463D01*
X0236425Y0297611D01*
X0236548Y0297762D01*
X0236667Y0297916D01*
X0236782Y0298073D01*
X0236894Y0298232D01*
X0236894Y0307232D02*
X0236783Y0307392D01*
X0236668Y0307548D01*
X0236549Y0307702D01*
X0236426Y0307854D01*
X0236299Y0308002D01*
X0236169Y0308146D01*
X0236036Y0308288D01*
X0235899Y0308427D01*
X0235759Y0308562D01*
X0235615Y0308693D01*
X0235469Y0308821D01*
X0235319Y0308946D01*
X0235166Y0309066D01*
X0235011Y0309183D01*
X0234852Y0309297D01*
X0234691Y0309406D01*
X0234527Y0309511D01*
X0234361Y0309613D01*
X0234193Y0309710D01*
X0234022Y0309803D01*
X0233848Y0309892D01*
X0233673Y0309977D01*
X0233496Y0310057D01*
X0233317Y0310133D01*
X0233136Y0310205D01*
X0232953Y0310272D01*
X0232769Y0310335D01*
X0232583Y0310393D01*
X0232396Y0310447D01*
X0232207Y0310496D01*
X0232018Y0310541D01*
X0231827Y0310581D01*
X0231636Y0310616D01*
X0231444Y0310647D01*
X0231251Y0310673D01*
X0231057Y0310694D01*
X0230863Y0310711D01*
X0230669Y0310723D01*
X0230474Y0310730D01*
X0230280Y0310732D01*
X0230280Y0307732D02*
X0230413Y0307730D01*
X0230545Y0307725D01*
X0230677Y0307716D01*
X0230810Y0307704D01*
X0230941Y0307688D01*
X0231073Y0307669D01*
X0231203Y0307646D01*
X0231333Y0307620D01*
X0231463Y0307590D01*
X0231591Y0307557D01*
X0231719Y0307521D01*
X0231845Y0307481D01*
X0231971Y0307438D01*
X0232095Y0307391D01*
X0232218Y0307341D01*
X0232339Y0307288D01*
X0232459Y0307232D01*
X0232459Y0298232D02*
X0232339Y0298176D01*
X0232218Y0298123D01*
X0232095Y0298073D01*
X0231971Y0298026D01*
X0231845Y0297983D01*
X0231719Y0297943D01*
X0231591Y0297907D01*
X0231463Y0297874D01*
X0231333Y0297844D01*
X0231203Y0297818D01*
X0231073Y0297795D01*
X0230941Y0297776D01*
X0230810Y0297760D01*
X0230677Y0297748D01*
X0230545Y0297739D01*
X0230413Y0297734D01*
X0230280Y0297732D01*
D16*
X0238280Y0293232D02*
X0238340Y0293234D01*
X0238401Y0293239D01*
X0238460Y0293248D01*
X0238519Y0293261D01*
X0238578Y0293277D01*
X0238635Y0293297D01*
X0238690Y0293320D01*
X0238745Y0293347D01*
X0238797Y0293376D01*
X0238848Y0293409D01*
X0238897Y0293445D01*
X0238943Y0293483D01*
X0238987Y0293525D01*
X0239029Y0293569D01*
X0239067Y0293615D01*
X0239103Y0293664D01*
X0239136Y0293715D01*
X0239165Y0293767D01*
X0239192Y0293822D01*
X0239215Y0293877D01*
X0239235Y0293934D01*
X0239251Y0293993D01*
X0239264Y0294052D01*
X0239273Y0294111D01*
X0239278Y0294172D01*
X0239280Y0294232D01*
X0239280Y0297232D01*
X0238280Y0293232D02*
X0195280Y0293232D01*
X0195220Y0293234D01*
X0195159Y0293239D01*
X0195100Y0293248D01*
X0195041Y0293261D01*
X0194982Y0293277D01*
X0194925Y0293297D01*
X0194870Y0293320D01*
X0194815Y0293347D01*
X0194763Y0293376D01*
X0194712Y0293409D01*
X0194663Y0293445D01*
X0194617Y0293483D01*
X0194573Y0293525D01*
X0194531Y0293569D01*
X0194493Y0293615D01*
X0194457Y0293664D01*
X0194424Y0293715D01*
X0194395Y0293767D01*
X0194368Y0293822D01*
X0194345Y0293877D01*
X0194325Y0293934D01*
X0194309Y0293993D01*
X0194296Y0294052D01*
X0194287Y0294111D01*
X0194282Y0294172D01*
X0194280Y0294232D01*
X0194280Y0297232D01*
X0194280Y0308232D02*
X0194280Y0311232D01*
X0194282Y0311292D01*
X0194287Y0311353D01*
X0194296Y0311412D01*
X0194309Y0311471D01*
X0194325Y0311530D01*
X0194345Y0311587D01*
X0194368Y0311642D01*
X0194395Y0311697D01*
X0194424Y0311749D01*
X0194457Y0311800D01*
X0194493Y0311849D01*
X0194531Y0311895D01*
X0194573Y0311939D01*
X0194617Y0311981D01*
X0194663Y0312019D01*
X0194712Y0312055D01*
X0194763Y0312088D01*
X0194815Y0312117D01*
X0194870Y0312144D01*
X0194925Y0312167D01*
X0194982Y0312187D01*
X0195041Y0312203D01*
X0195100Y0312216D01*
X0195159Y0312225D01*
X0195220Y0312230D01*
X0195280Y0312232D01*
X0238280Y0312232D01*
X0238340Y0312230D01*
X0238401Y0312225D01*
X0238460Y0312216D01*
X0238519Y0312203D01*
X0238578Y0312187D01*
X0238635Y0312167D01*
X0238690Y0312144D01*
X0238745Y0312117D01*
X0238797Y0312088D01*
X0238848Y0312055D01*
X0238897Y0312019D01*
X0238943Y0311981D01*
X0238987Y0311939D01*
X0239029Y0311895D01*
X0239067Y0311849D01*
X0239103Y0311800D01*
X0239136Y0311749D01*
X0239165Y0311697D01*
X0239192Y0311642D01*
X0239215Y0311587D01*
X0239235Y0311530D01*
X0239251Y0311471D01*
X0239264Y0311412D01*
X0239273Y0311353D01*
X0239278Y0311292D01*
X0239280Y0311232D01*
X0239280Y0308232D01*
X0219280Y0305232D02*
X0219280Y0302732D01*
X0219280Y0300232D01*
X0217780Y0300232D02*
X0217780Y0305232D01*
X0215780Y0305232D01*
X0215780Y0300232D01*
X0217780Y0300232D01*
X0214280Y0300232D02*
X0214280Y0302732D01*
X0214280Y0305232D01*
M02*
