G75*
%MOIN*%
%OFA0B0*%
%FSLAX25Y25*%
%IPPOS*%
%LPD*%
%AMOC8*
5,1,8,0,0,1.08239X$1,22.5*
%
%ADD10C,0.00800*%
%ADD11C,0.01000*%
%ADD12C,0.00500*%
%ADD13R,0.01969X0.01969*%
%ADD14R,0.03937X0.03937*%
%ADD15C,0.00200*%
%ADD16C,0.00600*%
D10*
X0040201Y0076661D02*
X0040201Y0079463D01*
X0038800Y0078062D02*
X0041602Y0078062D01*
X0182300Y0243760D02*
X0182300Y0247964D01*
X0184402Y0247964D01*
X0185102Y0247263D01*
X0185102Y0245862D01*
X0184402Y0245161D01*
X0182300Y0245161D01*
X0186904Y0245161D02*
X0189006Y0245161D01*
X0189706Y0245862D01*
X0189706Y0247263D01*
X0189006Y0247964D01*
X0186904Y0247964D01*
X0186904Y0243760D01*
X0188305Y0245161D02*
X0189706Y0243760D01*
X0191508Y0244461D02*
X0191508Y0247263D01*
X0192208Y0247964D01*
X0193610Y0247964D01*
X0194310Y0247263D01*
X0194310Y0244461D01*
X0193610Y0243760D01*
X0192208Y0243760D01*
X0191508Y0244461D01*
X0196112Y0244461D02*
X0196112Y0247263D01*
X0196812Y0247964D01*
X0198214Y0247964D01*
X0198914Y0247263D01*
X0198914Y0245862D02*
X0197513Y0245862D01*
X0198914Y0245862D02*
X0198914Y0244461D01*
X0198214Y0243760D01*
X0196812Y0243760D01*
X0196112Y0244461D01*
X0218908Y0249813D02*
X0218908Y0258907D01*
X0167892Y0258907D01*
X0167892Y0249813D01*
X0218908Y0249813D01*
X0254497Y0174228D02*
X0253796Y0173527D01*
X0253796Y0172126D01*
X0254497Y0171426D01*
X0257299Y0171426D01*
X0258000Y0172126D01*
X0258000Y0173527D01*
X0257299Y0174228D01*
X0255898Y0174228D01*
X0255898Y0172827D01*
X0257299Y0169624D02*
X0253796Y0169624D01*
X0253796Y0166822D02*
X0257299Y0166822D01*
X0258000Y0167522D01*
X0258000Y0168924D01*
X0257299Y0169624D01*
X0257299Y0165020D02*
X0258000Y0164320D01*
X0258000Y0162218D01*
X0253796Y0162218D01*
X0253796Y0164320D01*
X0254497Y0165020D01*
X0255198Y0165020D01*
X0255898Y0164320D01*
X0255898Y0162218D01*
X0255898Y0164320D02*
X0256599Y0165020D01*
X0257299Y0165020D01*
X0258000Y0160416D02*
X0258000Y0157614D01*
X0253796Y0157614D01*
X0253796Y0160416D01*
X0255898Y0159015D02*
X0255898Y0157614D01*
X0257299Y0155812D02*
X0254497Y0155812D01*
X0253796Y0155112D01*
X0253796Y0153010D01*
X0258000Y0153010D01*
X0258000Y0155112D01*
X0257299Y0155812D01*
X0257299Y0125082D02*
X0255898Y0125082D01*
X0255898Y0123681D01*
X0254497Y0125082D02*
X0253796Y0124381D01*
X0253796Y0122980D01*
X0254497Y0122280D01*
X0257299Y0122280D01*
X0258000Y0122980D01*
X0258000Y0124381D01*
X0257299Y0125082D01*
X0257299Y0120478D02*
X0254497Y0120478D01*
X0253796Y0119777D01*
X0253796Y0118376D01*
X0254497Y0117676D01*
X0257299Y0117676D01*
X0258000Y0118376D01*
X0258000Y0119777D01*
X0257299Y0120478D01*
X0258000Y0115874D02*
X0258000Y0113072D01*
X0253796Y0113072D01*
X0255198Y0111270D02*
X0258000Y0111270D01*
X0255898Y0111270D02*
X0255898Y0108468D01*
X0255198Y0108468D02*
X0258000Y0108468D01*
X0258000Y0106666D02*
X0253796Y0106666D01*
X0255198Y0108468D02*
X0253796Y0109869D01*
X0255198Y0111270D01*
X0258000Y0106666D02*
X0253796Y0103864D01*
X0258000Y0103864D01*
X0258000Y0102062D02*
X0255198Y0102062D01*
X0253796Y0100661D01*
X0255198Y0099260D01*
X0258000Y0099260D01*
X0255898Y0099260D02*
X0255898Y0102062D01*
D11*
X0252900Y0142860D02*
X0255400Y0145360D01*
X0255400Y0151860D01*
X0255400Y0177860D02*
X0255400Y0183360D01*
X0253400Y0185360D01*
D12*
X0043400Y0045560D02*
X0034306Y0045560D01*
X0034306Y0075560D01*
X0043400Y0075560D01*
X0048589Y0077919D02*
X0048589Y0097801D01*
X0072211Y0097801D01*
X0072211Y0077919D01*
X0048589Y0077919D01*
X0053400Y0075560D02*
X0062494Y0075560D01*
X0062494Y0045560D01*
X0053400Y0045560D01*
X0064213Y0056999D02*
X0066015Y0056999D01*
X0066465Y0057449D01*
X0066465Y0058350D01*
X0066015Y0058801D01*
X0065114Y0059945D02*
X0065114Y0061747D01*
X0066465Y0061297D02*
X0063763Y0061297D01*
X0065114Y0059945D01*
X0064213Y0058801D02*
X0063763Y0058350D01*
X0063763Y0057449D01*
X0064213Y0056999D01*
X0065100Y0054312D02*
X0064650Y0053862D01*
X0064650Y0052060D01*
X0065100Y0051610D01*
X0066001Y0051610D01*
X0066452Y0052060D01*
X0065628Y0051002D02*
X0079172Y0051002D01*
X0079172Y0043718D01*
X0065628Y0043718D01*
X0065628Y0051002D01*
X0067597Y0052961D02*
X0069398Y0052961D01*
X0070543Y0052961D02*
X0070543Y0052060D01*
X0070993Y0051610D01*
X0071894Y0051610D01*
X0072345Y0052060D01*
X0072345Y0052511D01*
X0071894Y0052961D01*
X0070543Y0052961D01*
X0071444Y0053862D01*
X0072345Y0054312D01*
X0068948Y0054312D02*
X0068948Y0051610D01*
X0067597Y0052961D02*
X0068948Y0054312D01*
X0066452Y0053862D02*
X0066001Y0054312D01*
X0065100Y0054312D01*
X0064213Y0062892D02*
X0063763Y0063342D01*
X0063763Y0064243D01*
X0064213Y0064694D01*
X0064663Y0064694D01*
X0066465Y0062892D01*
X0066465Y0064694D01*
X0074258Y0075588D02*
X0074258Y0089132D01*
X0081542Y0089132D01*
X0081542Y0075588D01*
X0074258Y0075588D01*
X0083010Y0077699D02*
X0086790Y0077699D01*
X0086790Y0085021D01*
X0083010Y0085021D01*
X0083010Y0077699D01*
X0087199Y0076250D02*
X0087199Y0072470D01*
X0094601Y0072470D01*
X0094601Y0076250D01*
X0087199Y0076250D01*
X0087650Y0077610D02*
X0087650Y0080312D01*
X0089001Y0080312D01*
X0089452Y0079862D01*
X0089452Y0078961D01*
X0089001Y0078511D01*
X0087650Y0078511D01*
X0088551Y0078511D02*
X0089452Y0077610D01*
X0090597Y0078961D02*
X0092398Y0078961D01*
X0091948Y0077610D02*
X0091948Y0080312D01*
X0090597Y0078961D01*
X0093543Y0078060D02*
X0093543Y0079862D01*
X0093993Y0080312D01*
X0094894Y0080312D01*
X0095345Y0079862D01*
X0093543Y0078060D01*
X0093993Y0077610D01*
X0094894Y0077610D01*
X0095345Y0078060D01*
X0095345Y0079862D01*
X0097650Y0080312D02*
X0097650Y0077610D01*
X0097650Y0078511D02*
X0099001Y0078511D01*
X0099452Y0078961D01*
X0099452Y0079862D01*
X0099001Y0080312D01*
X0097650Y0080312D01*
X0098551Y0078511D02*
X0099452Y0077610D01*
X0100597Y0078961D02*
X0101948Y0080312D01*
X0101948Y0077610D01*
X0102398Y0078961D02*
X0100597Y0078961D01*
X0103543Y0079412D02*
X0104444Y0080312D01*
X0104444Y0077610D01*
X0103543Y0077610D02*
X0105345Y0077610D01*
X0104101Y0076250D02*
X0104101Y0072470D01*
X0096699Y0072470D01*
X0096699Y0076250D01*
X0104101Y0076250D01*
X0109778Y0078982D02*
X0109778Y0071108D01*
X0082219Y0071108D01*
X0082219Y0059297D01*
X0109778Y0059297D01*
X0109778Y0051423D01*
X0082219Y0051423D01*
X0082219Y0039612D01*
X0109778Y0039612D01*
X0109778Y0031738D01*
X0153085Y0031738D01*
X0153085Y0078982D01*
X0109778Y0078982D01*
X0091778Y0082675D02*
X0139022Y0082675D01*
X0139022Y0125982D01*
X0131148Y0125982D01*
X0131148Y0153541D01*
X0119337Y0153541D01*
X0119337Y0125982D01*
X0111463Y0125982D01*
X0111463Y0153541D01*
X0099652Y0153541D01*
X0099652Y0125982D01*
X0091778Y0125982D01*
X0091778Y0082675D01*
X0086150Y0087060D02*
X0086150Y0087961D01*
X0085700Y0088412D01*
X0085700Y0089557D02*
X0086150Y0090007D01*
X0086150Y0090908D01*
X0085700Y0091358D01*
X0085249Y0091358D01*
X0084799Y0090908D01*
X0084799Y0090457D01*
X0084799Y0090908D02*
X0084348Y0091358D01*
X0083898Y0091358D01*
X0083448Y0090908D01*
X0083448Y0090007D01*
X0083898Y0089557D01*
X0083898Y0088412D02*
X0083448Y0087961D01*
X0083448Y0087060D01*
X0083898Y0086610D01*
X0085700Y0086610D01*
X0086150Y0087060D01*
X0085700Y0092503D02*
X0085249Y0092503D01*
X0084799Y0092953D01*
X0084799Y0093854D01*
X0085249Y0094305D01*
X0085700Y0094305D01*
X0086150Y0093854D01*
X0086150Y0092953D01*
X0085700Y0092503D01*
X0084799Y0092953D02*
X0084348Y0092503D01*
X0083898Y0092503D01*
X0083448Y0092953D01*
X0083448Y0093854D01*
X0083898Y0094305D01*
X0084348Y0094305D01*
X0084799Y0093854D01*
X0081650Y0094007D02*
X0081200Y0093557D01*
X0081650Y0094007D02*
X0081650Y0094908D01*
X0081200Y0095358D01*
X0080749Y0095358D01*
X0080299Y0094908D01*
X0080299Y0094457D01*
X0080299Y0094908D02*
X0079848Y0095358D01*
X0079398Y0095358D01*
X0078948Y0094908D01*
X0078948Y0094007D01*
X0079398Y0093557D01*
X0079398Y0092412D02*
X0078948Y0091961D01*
X0078948Y0091060D01*
X0079398Y0090610D01*
X0081200Y0090610D01*
X0081650Y0091060D01*
X0081650Y0091961D01*
X0081200Y0092412D01*
X0081200Y0096503D02*
X0081650Y0096953D01*
X0081650Y0097854D01*
X0081200Y0098305D01*
X0079398Y0098305D01*
X0078948Y0097854D01*
X0078948Y0096953D01*
X0079398Y0096503D01*
X0079848Y0096503D01*
X0080299Y0096953D01*
X0080299Y0098305D01*
X0077574Y0097814D02*
X0076223Y0096463D01*
X0078024Y0096463D01*
X0077574Y0095112D02*
X0077574Y0097814D01*
X0076700Y0100610D02*
X0074448Y0100610D01*
X0074448Y0102412D02*
X0076700Y0102412D01*
X0077150Y0101961D01*
X0077150Y0101060D01*
X0076700Y0100610D01*
X0076700Y0103557D02*
X0077150Y0104007D01*
X0077150Y0104908D01*
X0076700Y0105358D01*
X0075799Y0105358D01*
X0075348Y0104908D01*
X0075348Y0104457D01*
X0075799Y0103557D01*
X0074448Y0103557D01*
X0074448Y0105358D01*
X0073243Y0104549D02*
X0073243Y0106517D01*
X0073243Y0104549D02*
X0053557Y0104549D01*
X0053557Y0106517D01*
X0054613Y0103267D02*
X0054613Y0097953D01*
X0066187Y0097953D01*
X0066187Y0103267D01*
X0054613Y0103267D01*
X0053095Y0101812D02*
X0052194Y0101362D01*
X0051293Y0100461D01*
X0052644Y0100461D01*
X0053095Y0100011D01*
X0053095Y0099560D01*
X0052644Y0099110D01*
X0051743Y0099110D01*
X0051293Y0099560D01*
X0051293Y0100461D01*
X0050148Y0100011D02*
X0050148Y0099560D01*
X0049698Y0099110D01*
X0048797Y0099110D01*
X0048347Y0099560D01*
X0047202Y0099110D02*
X0046301Y0100011D01*
X0046751Y0100011D02*
X0045400Y0100011D01*
X0045400Y0099110D02*
X0045400Y0101812D01*
X0046751Y0101812D01*
X0047202Y0101362D01*
X0047202Y0100461D01*
X0046751Y0100011D01*
X0048347Y0101362D02*
X0048797Y0101812D01*
X0049698Y0101812D01*
X0050148Y0101362D01*
X0050148Y0100912D01*
X0049698Y0100461D01*
X0050148Y0100011D01*
X0049698Y0100461D02*
X0049247Y0100461D01*
X0047042Y0096132D02*
X0047042Y0082588D01*
X0039758Y0082588D01*
X0039758Y0096132D01*
X0047042Y0096132D01*
X0042400Y0096860D02*
X0032900Y0096860D01*
X0032900Y0122360D01*
X0046400Y0122360D01*
X0046400Y0108360D01*
X0042400Y0108360D01*
X0042400Y0096860D01*
X0041290Y0097699D02*
X0037510Y0097699D01*
X0037510Y0105021D01*
X0041290Y0105021D01*
X0041290Y0097699D01*
X0041061Y0105470D02*
X0033739Y0105470D01*
X0033739Y0109250D01*
X0041061Y0109250D01*
X0041061Y0105470D01*
X0037699Y0110470D02*
X0037699Y0114250D01*
X0045101Y0114250D01*
X0045101Y0110470D01*
X0037699Y0110470D01*
X0037699Y0114470D02*
X0037699Y0118250D01*
X0045101Y0118250D01*
X0045101Y0114470D01*
X0037699Y0114470D01*
X0037699Y0118470D02*
X0037699Y0122250D01*
X0045101Y0122250D01*
X0045101Y0118470D01*
X0037699Y0118470D01*
X0037510Y0122699D02*
X0037510Y0130021D01*
X0041290Y0130021D01*
X0041290Y0122699D01*
X0037510Y0122699D01*
X0036150Y0124060D02*
X0035700Y0123610D01*
X0033898Y0123610D01*
X0033448Y0124060D01*
X0033448Y0124961D01*
X0033898Y0125412D01*
X0033898Y0126557D02*
X0033448Y0127007D01*
X0033448Y0127908D01*
X0033898Y0128358D01*
X0034348Y0128358D01*
X0036150Y0126557D01*
X0036150Y0128358D01*
X0036150Y0129503D02*
X0034348Y0131305D01*
X0033898Y0131305D01*
X0033448Y0130854D01*
X0033448Y0129953D01*
X0033898Y0129503D01*
X0036150Y0129503D02*
X0036150Y0131305D01*
X0037758Y0130588D02*
X0037758Y0144132D01*
X0045042Y0144132D01*
X0045042Y0130588D01*
X0037758Y0130588D01*
X0036011Y0134657D02*
X0034209Y0134657D01*
X0033759Y0135108D01*
X0033759Y0136008D01*
X0034209Y0136459D01*
X0034209Y0137604D02*
X0033759Y0138054D01*
X0033759Y0138955D01*
X0034209Y0139405D01*
X0034659Y0139405D01*
X0036461Y0137604D01*
X0036461Y0139405D01*
X0036011Y0140550D02*
X0034209Y0142352D01*
X0036011Y0142352D01*
X0036461Y0141901D01*
X0036461Y0141001D01*
X0036011Y0140550D01*
X0034209Y0140550D01*
X0033759Y0141001D01*
X0033759Y0141901D01*
X0034209Y0142352D01*
X0031447Y0146187D02*
X0031447Y0106817D01*
X0003888Y0106817D01*
X0003888Y0146187D01*
X0031447Y0146187D01*
X0029447Y0148856D02*
X0029447Y0175864D01*
X0035431Y0175864D01*
X0029447Y0175864D01*
X0029447Y0148856D01*
X0045353Y0148856D01*
X0045353Y0175864D01*
X0039369Y0175864D01*
X0045353Y0175864D01*
X0045353Y0148856D01*
X0029447Y0148856D01*
X0036011Y0136459D02*
X0036461Y0136008D01*
X0036461Y0135108D01*
X0036011Y0134657D01*
X0035700Y0125412D02*
X0036150Y0124961D01*
X0036150Y0124060D01*
X0047105Y0131935D02*
X0047105Y0188785D01*
X0097695Y0188785D01*
X0097695Y0131935D01*
X0047105Y0131935D01*
X0053557Y0128171D02*
X0053557Y0126203D01*
X0053557Y0128171D02*
X0073243Y0128171D01*
X0073243Y0126203D01*
X0079650Y0126610D02*
X0079650Y0129312D01*
X0081001Y0129312D01*
X0081452Y0128862D01*
X0081452Y0127961D01*
X0081001Y0127511D01*
X0079650Y0127511D01*
X0080551Y0127511D02*
X0081452Y0126610D01*
X0080699Y0125750D02*
X0088101Y0125750D01*
X0088101Y0121970D01*
X0080699Y0121970D01*
X0080699Y0125750D01*
X0082597Y0126610D02*
X0084398Y0128412D01*
X0084398Y0128862D01*
X0083948Y0129312D01*
X0083047Y0129312D01*
X0082597Y0128862D01*
X0082597Y0126610D02*
X0084398Y0126610D01*
X0085543Y0127961D02*
X0087345Y0127961D01*
X0086894Y0126610D02*
X0086894Y0129312D01*
X0085543Y0127961D01*
X0088101Y0110750D02*
X0080699Y0110750D01*
X0080699Y0106970D01*
X0088101Y0106970D01*
X0088101Y0110750D01*
X0086894Y0105812D02*
X0085993Y0105812D01*
X0085543Y0105362D01*
X0084398Y0105362D02*
X0084398Y0104912D01*
X0083948Y0104461D01*
X0084398Y0104011D01*
X0084398Y0103560D01*
X0083948Y0103110D01*
X0083047Y0103110D01*
X0082597Y0103560D01*
X0081452Y0103110D02*
X0080551Y0104011D01*
X0081001Y0104011D02*
X0079650Y0104011D01*
X0079650Y0103110D02*
X0079650Y0105812D01*
X0081001Y0105812D01*
X0081452Y0105362D01*
X0081452Y0104461D01*
X0081001Y0104011D01*
X0082597Y0105362D02*
X0083047Y0105812D01*
X0083948Y0105812D01*
X0084398Y0105362D01*
X0083948Y0104461D02*
X0083497Y0104461D01*
X0085543Y0103110D02*
X0087345Y0104912D01*
X0087345Y0105362D01*
X0086894Y0105812D01*
X0087345Y0103110D02*
X0085543Y0103110D01*
X0075078Y0095112D02*
X0073276Y0095112D01*
X0073276Y0097814D01*
X0038650Y0088503D02*
X0038200Y0088503D01*
X0036398Y0090305D01*
X0035948Y0090305D01*
X0035948Y0088503D01*
X0036398Y0087358D02*
X0036848Y0087358D01*
X0037299Y0086908D01*
X0037749Y0087358D01*
X0038200Y0087358D01*
X0038650Y0086908D01*
X0038650Y0086007D01*
X0038200Y0085557D01*
X0038200Y0084412D02*
X0038650Y0083961D01*
X0038650Y0083060D01*
X0038200Y0082610D01*
X0036398Y0082610D01*
X0035948Y0083060D01*
X0035948Y0083961D01*
X0036398Y0084412D01*
X0036398Y0085557D02*
X0035948Y0086007D01*
X0035948Y0086908D01*
X0036398Y0087358D01*
X0037299Y0086908D02*
X0037299Y0086457D01*
X0031400Y0084360D02*
X0027400Y0084360D01*
X0027400Y0072360D01*
X0017400Y0072360D01*
X0017400Y0098360D01*
X0031400Y0098360D01*
X0031400Y0084360D01*
X0028894Y0086610D02*
X0027993Y0086610D01*
X0027543Y0087060D01*
X0027543Y0087511D01*
X0027993Y0087961D01*
X0028894Y0087961D01*
X0029345Y0087511D01*
X0029345Y0087060D01*
X0028894Y0086610D01*
X0028894Y0087961D02*
X0029345Y0088412D01*
X0029345Y0088862D01*
X0028894Y0089312D01*
X0027993Y0089312D01*
X0027543Y0088862D01*
X0027543Y0088412D01*
X0027993Y0087961D01*
X0026398Y0088412D02*
X0024597Y0086610D01*
X0026398Y0086610D01*
X0025894Y0085312D02*
X0024993Y0085312D01*
X0024543Y0084862D01*
X0024543Y0084412D01*
X0024993Y0083961D01*
X0026345Y0083961D01*
X0026345Y0083060D02*
X0026345Y0084862D01*
X0025894Y0085312D01*
X0026345Y0083060D02*
X0025894Y0082610D01*
X0024993Y0082610D01*
X0024543Y0083060D01*
X0023398Y0082610D02*
X0021597Y0082610D01*
X0023398Y0084412D01*
X0023398Y0084862D01*
X0022948Y0085312D01*
X0022047Y0085312D01*
X0021597Y0084862D01*
X0020452Y0084862D02*
X0020001Y0085312D01*
X0019100Y0085312D01*
X0018650Y0084862D01*
X0018650Y0083060D01*
X0019100Y0082610D01*
X0020001Y0082610D01*
X0020452Y0083060D01*
X0023448Y0081354D02*
X0023898Y0081805D01*
X0024348Y0081805D01*
X0024799Y0081354D01*
X0025249Y0081805D01*
X0025700Y0081805D01*
X0026150Y0081354D01*
X0026150Y0080453D01*
X0025700Y0080003D01*
X0025700Y0078858D02*
X0026150Y0078408D01*
X0026150Y0077507D01*
X0025700Y0077057D01*
X0025700Y0075912D02*
X0026150Y0075461D01*
X0026150Y0074560D01*
X0025700Y0074110D01*
X0023898Y0074110D01*
X0023448Y0074560D01*
X0023448Y0075461D01*
X0023898Y0075912D01*
X0023898Y0077057D02*
X0023448Y0077507D01*
X0023448Y0078408D01*
X0023898Y0078858D01*
X0024348Y0078858D01*
X0024799Y0078408D01*
X0025249Y0078858D01*
X0025700Y0078858D01*
X0024799Y0078408D02*
X0024799Y0077957D01*
X0023898Y0080003D02*
X0023448Y0080453D01*
X0023448Y0081354D01*
X0024799Y0081354D02*
X0024799Y0080904D01*
X0023452Y0086610D02*
X0022551Y0087511D01*
X0023001Y0087511D02*
X0021650Y0087511D01*
X0021650Y0086610D02*
X0021650Y0089312D01*
X0023001Y0089312D01*
X0023452Y0088862D01*
X0023452Y0087961D01*
X0023001Y0087511D01*
X0024597Y0088862D02*
X0025047Y0089312D01*
X0025948Y0089312D01*
X0026398Y0088862D01*
X0026398Y0088412D01*
X0026398Y0090610D02*
X0024597Y0090610D01*
X0026398Y0092412D01*
X0026398Y0092862D01*
X0025948Y0093312D01*
X0025047Y0093312D01*
X0024597Y0092862D01*
X0023452Y0092862D02*
X0023452Y0091961D01*
X0023001Y0091511D01*
X0021650Y0091511D01*
X0022551Y0091511D02*
X0023452Y0090610D01*
X0021650Y0090610D02*
X0021650Y0093312D01*
X0023001Y0093312D01*
X0023452Y0092862D01*
X0023452Y0094610D02*
X0022551Y0095511D01*
X0023001Y0095511D02*
X0021650Y0095511D01*
X0021650Y0094610D02*
X0021650Y0097312D01*
X0023001Y0097312D01*
X0023452Y0096862D01*
X0023452Y0095961D01*
X0023001Y0095511D01*
X0024597Y0094610D02*
X0026398Y0096412D01*
X0026398Y0096862D01*
X0025948Y0097312D01*
X0025047Y0097312D01*
X0024597Y0096862D01*
X0024597Y0094610D02*
X0026398Y0094610D01*
X0027543Y0095060D02*
X0027993Y0094610D01*
X0028894Y0094610D01*
X0029345Y0095060D01*
X0029345Y0095961D01*
X0028894Y0096412D01*
X0028444Y0096412D01*
X0027543Y0095961D01*
X0027543Y0097312D01*
X0029345Y0097312D01*
X0029345Y0093312D02*
X0029345Y0092862D01*
X0027543Y0091060D01*
X0027543Y0090610D01*
X0027543Y0093312D02*
X0029345Y0093312D01*
X0073150Y0040312D02*
X0073150Y0037610D01*
X0074952Y0037610D01*
X0076097Y0038060D02*
X0076547Y0037610D01*
X0077448Y0037610D01*
X0077898Y0038060D01*
X0077898Y0038511D01*
X0077448Y0038961D01*
X0076097Y0038961D01*
X0076097Y0038060D01*
X0076097Y0038961D02*
X0076997Y0039862D01*
X0077898Y0040312D01*
X0073207Y0035907D02*
X0073207Y0016813D01*
X0097577Y0016813D01*
X0097577Y0035907D01*
X0073207Y0035907D01*
X0087739Y0053470D02*
X0087739Y0057250D01*
X0095061Y0057250D01*
X0095061Y0053470D01*
X0087739Y0053470D01*
X0096150Y0054060D02*
X0096600Y0053610D01*
X0097501Y0053610D01*
X0097952Y0054060D01*
X0099097Y0054961D02*
X0100898Y0054961D01*
X0102043Y0054961D02*
X0103845Y0054961D01*
X0103394Y0053610D02*
X0103394Y0056312D01*
X0102043Y0054961D01*
X0100448Y0053610D02*
X0100448Y0056312D01*
X0099097Y0054961D01*
X0097952Y0055862D02*
X0097501Y0056312D01*
X0096600Y0056312D01*
X0096150Y0055862D01*
X0096150Y0054060D01*
X0102757Y0038112D02*
X0102757Y0035860D01*
X0103207Y0035410D01*
X0104108Y0035410D01*
X0104559Y0035860D01*
X0104559Y0038112D01*
X0105703Y0037662D02*
X0105703Y0037212D01*
X0106154Y0036761D01*
X0107505Y0036761D01*
X0107505Y0035860D02*
X0107505Y0037662D01*
X0107055Y0038112D01*
X0106154Y0038112D01*
X0105703Y0037662D01*
X0105703Y0035860D02*
X0106154Y0035410D01*
X0107055Y0035410D01*
X0107505Y0035860D01*
X0106042Y0030132D02*
X0098758Y0030132D01*
X0098758Y0016588D01*
X0106042Y0016588D01*
X0106042Y0030132D01*
X0107743Y0028147D02*
X0113057Y0028147D01*
X0113057Y0016573D01*
X0107743Y0016573D01*
X0107743Y0028147D01*
X0113948Y0024305D02*
X0113948Y0022503D01*
X0115299Y0022503D01*
X0114848Y0023404D01*
X0114848Y0023854D01*
X0115299Y0024305D01*
X0116200Y0024305D01*
X0116650Y0023854D01*
X0116650Y0022953D01*
X0116200Y0022503D01*
X0116200Y0021358D02*
X0116650Y0020908D01*
X0116650Y0020007D01*
X0116200Y0019557D01*
X0115299Y0019557D02*
X0114848Y0020457D01*
X0114848Y0020908D01*
X0115299Y0021358D01*
X0116200Y0021358D01*
X0115299Y0019557D02*
X0113948Y0019557D01*
X0113948Y0021358D01*
X0114398Y0018412D02*
X0113948Y0017961D01*
X0113948Y0017060D01*
X0114398Y0016610D01*
X0116200Y0016610D01*
X0116650Y0017060D01*
X0116650Y0017961D01*
X0116200Y0018412D01*
X0119448Y0017961D02*
X0119448Y0017060D01*
X0119898Y0016610D01*
X0121700Y0016610D01*
X0122150Y0017060D01*
X0122150Y0017961D01*
X0121700Y0018412D01*
X0121700Y0019557D02*
X0122150Y0020007D01*
X0122150Y0020908D01*
X0121700Y0021358D01*
X0120799Y0021358D01*
X0120348Y0020908D01*
X0120348Y0020457D01*
X0120799Y0019557D01*
X0119448Y0019557D01*
X0119448Y0021358D01*
X0120799Y0022503D02*
X0120799Y0024305D01*
X0122150Y0023854D02*
X0119448Y0023854D01*
X0120799Y0022503D01*
X0119898Y0018412D02*
X0119448Y0017961D01*
X0149448Y0017557D02*
X0150799Y0017557D01*
X0150348Y0018457D01*
X0150348Y0018908D01*
X0150799Y0019358D01*
X0151700Y0019358D01*
X0152150Y0018908D01*
X0152150Y0018007D01*
X0151700Y0017557D01*
X0151700Y0016412D02*
X0152150Y0015961D01*
X0152150Y0015060D01*
X0151700Y0014610D01*
X0149898Y0014610D01*
X0149448Y0015060D01*
X0149448Y0015961D01*
X0149898Y0016412D01*
X0149448Y0017557D02*
X0149448Y0019358D01*
X0149448Y0020503D02*
X0149448Y0022305D01*
X0149898Y0022305D01*
X0151700Y0020503D01*
X0152150Y0020503D01*
X0154082Y0022532D02*
X0154718Y0022532D01*
X0155355Y0023169D01*
X0155355Y0023806D01*
X0156165Y0024616D02*
X0156802Y0024616D01*
X0157439Y0025252D01*
X0157439Y0025889D01*
X0156802Y0026526D01*
X0156165Y0026526D01*
X0155847Y0026208D01*
X0155528Y0025252D01*
X0154573Y0026208D01*
X0155847Y0027482D01*
X0155052Y0028116D02*
X0154415Y0028116D01*
X0155052Y0028116D02*
X0155689Y0028752D01*
X0155689Y0029389D01*
X0155052Y0030026D01*
X0154415Y0030026D01*
X0154097Y0029708D01*
X0153778Y0028752D01*
X0152823Y0029708D01*
X0154097Y0030982D01*
X0155225Y0031473D02*
X0155225Y0032110D01*
X0155862Y0032747D01*
X0156499Y0032747D01*
X0156499Y0030199D01*
X0157135Y0030199D01*
X0157772Y0030836D01*
X0157772Y0031473D01*
X0156499Y0032747D01*
X0155225Y0031473D02*
X0156499Y0030199D01*
X0157293Y0028928D02*
X0159204Y0027017D01*
X0158567Y0026381D02*
X0159841Y0027654D01*
X0160743Y0027147D02*
X0166057Y0027147D01*
X0166057Y0015573D01*
X0160743Y0015573D01*
X0160743Y0027147D01*
X0159258Y0028588D02*
X0159258Y0042132D01*
X0166542Y0042132D01*
X0166542Y0028588D01*
X0159258Y0028588D01*
X0157293Y0028928D02*
X0157293Y0027654D01*
X0153605Y0027306D02*
X0153605Y0026669D01*
X0152968Y0026032D01*
X0152332Y0026032D01*
X0151058Y0027306D01*
X0151058Y0027943D01*
X0151695Y0028580D01*
X0152332Y0028580D01*
X0153445Y0025080D02*
X0152808Y0024443D01*
X0152808Y0023806D01*
X0154082Y0022532D01*
X0154082Y0025080D02*
X0153445Y0025080D01*
X0154260Y0033699D02*
X0158040Y0033699D01*
X0158040Y0041021D01*
X0154260Y0041021D01*
X0154260Y0033699D01*
X0153853Y0043667D02*
X0172947Y0043667D01*
X0172947Y0068037D01*
X0153853Y0068037D01*
X0153853Y0043667D01*
X0167650Y0042312D02*
X0167650Y0039610D01*
X0169001Y0039610D01*
X0169452Y0040060D01*
X0169452Y0041862D01*
X0169001Y0042312D01*
X0167650Y0042312D01*
X0170597Y0041412D02*
X0171497Y0042312D01*
X0171497Y0039610D01*
X0170597Y0039610D02*
X0172398Y0039610D01*
X0173543Y0039610D02*
X0175345Y0041412D01*
X0175345Y0041862D01*
X0174894Y0042312D01*
X0173993Y0042312D01*
X0173543Y0041862D01*
X0173543Y0039610D02*
X0175345Y0039610D01*
X0180948Y0041110D02*
X0180948Y0042461D01*
X0181398Y0042912D01*
X0182299Y0042912D01*
X0182749Y0042461D01*
X0182749Y0041110D01*
X0182749Y0042011D02*
X0183650Y0042912D01*
X0182299Y0044057D02*
X0182299Y0045858D01*
X0182299Y0047003D02*
X0182299Y0048354D01*
X0182749Y0048805D01*
X0183200Y0048805D01*
X0183650Y0048354D01*
X0183650Y0047453D01*
X0183200Y0047003D01*
X0182299Y0047003D01*
X0181398Y0047904D01*
X0180948Y0048805D01*
X0180057Y0048573D02*
X0174743Y0048573D01*
X0174743Y0060147D01*
X0180057Y0060147D01*
X0180057Y0048573D01*
X0180948Y0045408D02*
X0182299Y0044057D01*
X0183650Y0045408D02*
X0180948Y0045408D01*
X0184510Y0048061D02*
X0188290Y0048061D01*
X0188290Y0040659D01*
X0184510Y0040659D01*
X0184510Y0048061D01*
X0188510Y0048061D02*
X0192290Y0048061D01*
X0192290Y0040659D01*
X0188510Y0040659D01*
X0188510Y0048061D01*
X0189600Y0049610D02*
X0190501Y0049610D01*
X0190952Y0050060D01*
X0189600Y0049610D02*
X0189150Y0050060D01*
X0189150Y0051862D01*
X0189600Y0052312D01*
X0190501Y0052312D01*
X0190952Y0051862D01*
X0192097Y0050961D02*
X0193898Y0050961D01*
X0193448Y0049610D02*
X0193448Y0052312D01*
X0192097Y0050961D01*
X0195043Y0050060D02*
X0195493Y0049610D01*
X0196394Y0049610D01*
X0196845Y0050060D01*
X0196845Y0050511D01*
X0196394Y0050961D01*
X0195944Y0050961D01*
X0196394Y0050961D02*
X0196845Y0051412D01*
X0196845Y0051862D01*
X0196394Y0052312D01*
X0195493Y0052312D01*
X0195043Y0051862D01*
X0197187Y0053203D02*
X0197187Y0058517D01*
X0185613Y0058517D01*
X0185613Y0053203D01*
X0197187Y0053203D01*
X0200150Y0052362D02*
X0200150Y0050560D01*
X0200600Y0050110D01*
X0201501Y0050110D01*
X0201952Y0050560D01*
X0203097Y0051461D02*
X0204898Y0051461D01*
X0206043Y0051461D02*
X0206944Y0051912D01*
X0207394Y0051912D01*
X0207845Y0051461D01*
X0207845Y0050560D01*
X0207394Y0050110D01*
X0206493Y0050110D01*
X0206043Y0050560D01*
X0206043Y0051461D02*
X0206043Y0052812D01*
X0207845Y0052812D01*
X0204448Y0052812D02*
X0203097Y0051461D01*
X0201952Y0052362D02*
X0201501Y0052812D01*
X0200600Y0052812D01*
X0200150Y0052362D01*
X0200150Y0054110D02*
X0232650Y0054110D01*
X0232650Y0081492D01*
X0226841Y0086610D01*
X0200150Y0086610D01*
X0200150Y0054110D01*
X0204448Y0052812D02*
X0204448Y0050110D01*
X0207561Y0049250D02*
X0207561Y0045470D01*
X0200239Y0045470D01*
X0200239Y0049250D01*
X0207561Y0049250D01*
X0208010Y0049021D02*
X0211790Y0049021D01*
X0211790Y0041699D01*
X0208010Y0041699D01*
X0208010Y0049021D01*
X0213739Y0048250D02*
X0213739Y0044470D01*
X0221061Y0044470D01*
X0221061Y0048250D01*
X0213739Y0048250D01*
X0213739Y0043250D02*
X0221061Y0043250D01*
X0221061Y0039470D01*
X0213739Y0039470D01*
X0213739Y0043250D01*
X0211900Y0040465D02*
X0212350Y0040015D01*
X0212350Y0039114D01*
X0211900Y0038663D01*
X0211449Y0038663D01*
X0210999Y0039114D01*
X0210999Y0040015D01*
X0211449Y0040465D01*
X0211900Y0040465D01*
X0210999Y0040015D02*
X0210548Y0040465D01*
X0210098Y0040465D01*
X0209648Y0040015D01*
X0209648Y0039114D01*
X0210098Y0038663D01*
X0210548Y0038663D01*
X0210999Y0039114D01*
X0210999Y0037518D02*
X0210999Y0035717D01*
X0209648Y0037068D01*
X0212350Y0037068D01*
X0214150Y0037562D02*
X0214150Y0035760D01*
X0214600Y0035310D01*
X0215501Y0035310D01*
X0215952Y0035760D01*
X0217097Y0036661D02*
X0218898Y0036661D01*
X0220043Y0037112D02*
X0220493Y0036661D01*
X0221845Y0036661D01*
X0221845Y0035760D02*
X0221845Y0037562D01*
X0221394Y0038012D01*
X0220493Y0038012D01*
X0220043Y0037562D01*
X0220043Y0037112D01*
X0220043Y0035760D02*
X0220493Y0035310D01*
X0221394Y0035310D01*
X0221845Y0035760D01*
X0218448Y0035310D02*
X0218448Y0038012D01*
X0217097Y0036661D01*
X0215952Y0037562D02*
X0215501Y0038012D01*
X0214600Y0038012D01*
X0214150Y0037562D01*
X0211900Y0034572D02*
X0212350Y0034122D01*
X0212350Y0033221D01*
X0211900Y0032770D01*
X0210098Y0032770D01*
X0209648Y0033221D01*
X0209648Y0034122D01*
X0210098Y0034572D01*
X0207150Y0033908D02*
X0207150Y0033007D01*
X0206700Y0032557D01*
X0205799Y0032557D02*
X0205348Y0033457D01*
X0205348Y0033908D01*
X0205799Y0034358D01*
X0206700Y0034358D01*
X0207150Y0033908D01*
X0206700Y0035503D02*
X0207150Y0035953D01*
X0207150Y0036854D01*
X0206700Y0037305D01*
X0206249Y0037305D01*
X0205799Y0036854D01*
X0205799Y0036404D01*
X0205799Y0036854D02*
X0205348Y0037305D01*
X0204898Y0037305D01*
X0204448Y0036854D01*
X0204448Y0035953D01*
X0204898Y0035503D01*
X0204448Y0034358D02*
X0204448Y0032557D01*
X0205799Y0032557D01*
X0206700Y0031412D02*
X0207150Y0030961D01*
X0207150Y0030060D01*
X0206700Y0029610D01*
X0204898Y0029610D01*
X0204448Y0030060D01*
X0204448Y0030961D01*
X0204898Y0031412D01*
X0202650Y0030961D02*
X0202200Y0031412D01*
X0202650Y0030961D02*
X0202650Y0030060D01*
X0202200Y0029610D01*
X0200398Y0029610D01*
X0199948Y0030060D01*
X0199948Y0030961D01*
X0200398Y0031412D01*
X0199948Y0032557D02*
X0201299Y0032557D01*
X0200848Y0033457D01*
X0200848Y0033908D01*
X0201299Y0034358D01*
X0202200Y0034358D01*
X0202650Y0033908D01*
X0202650Y0033007D01*
X0202200Y0032557D01*
X0199948Y0032557D02*
X0199948Y0034358D01*
X0201299Y0035503D02*
X0201299Y0036854D01*
X0201749Y0037305D01*
X0202200Y0037305D01*
X0202650Y0036854D01*
X0202650Y0035953D01*
X0202200Y0035503D01*
X0201299Y0035503D01*
X0200398Y0036404D01*
X0199948Y0037305D01*
X0197148Y0035203D02*
X0197148Y0015517D01*
X0198743Y0016573D02*
X0198743Y0028147D01*
X0204057Y0028147D01*
X0204057Y0016573D01*
X0198743Y0016573D01*
X0195180Y0015517D02*
X0195180Y0035203D01*
X0167620Y0035203D01*
X0167620Y0015517D01*
X0195180Y0015517D01*
X0204743Y0016573D02*
X0204743Y0028147D01*
X0210057Y0028147D01*
X0210057Y0016573D01*
X0204743Y0016573D01*
X0210743Y0016573D02*
X0210743Y0028147D01*
X0216057Y0028147D01*
X0216057Y0016573D01*
X0210743Y0016573D01*
X0216948Y0020560D02*
X0216948Y0021461D01*
X0217398Y0021912D01*
X0216948Y0023057D02*
X0218299Y0023057D01*
X0217848Y0023957D01*
X0217848Y0024408D01*
X0218299Y0024858D01*
X0219200Y0024858D01*
X0219650Y0024408D01*
X0219650Y0023507D01*
X0219200Y0023057D01*
X0219200Y0021912D02*
X0219650Y0021461D01*
X0219650Y0020560D01*
X0219200Y0020110D01*
X0217398Y0020110D01*
X0216948Y0020560D01*
X0216948Y0023057D02*
X0216948Y0024858D01*
X0217398Y0026003D02*
X0216948Y0026453D01*
X0216948Y0027354D01*
X0217398Y0027805D01*
X0217848Y0027805D01*
X0219650Y0026003D01*
X0219650Y0027805D01*
X0222600Y0045110D02*
X0223501Y0045110D01*
X0223952Y0045560D01*
X0222600Y0045110D02*
X0222150Y0045560D01*
X0222150Y0047362D01*
X0222600Y0047812D01*
X0223501Y0047812D01*
X0223952Y0047362D01*
X0225097Y0046461D02*
X0226898Y0046461D01*
X0226448Y0045110D02*
X0226448Y0047812D01*
X0225097Y0046461D01*
X0228043Y0045560D02*
X0228043Y0045110D01*
X0228043Y0045560D02*
X0229845Y0047362D01*
X0229845Y0047812D01*
X0228043Y0047812D01*
X0237353Y0049533D02*
X0237353Y0088903D01*
X0264912Y0088903D01*
X0264912Y0049533D01*
X0237353Y0049533D01*
X0258233Y0045816D02*
X0258683Y0045366D01*
X0259133Y0045366D01*
X0259584Y0045816D01*
X0259584Y0048068D01*
X0260034Y0048068D02*
X0259133Y0048068D01*
X0261179Y0046717D02*
X0262981Y0046717D01*
X0262530Y0045366D02*
X0262530Y0048068D01*
X0261179Y0046717D01*
X0235593Y0084523D02*
X0234693Y0084523D01*
X0234242Y0084974D01*
X0234242Y0085424D01*
X0234693Y0085875D01*
X0235593Y0085875D01*
X0236044Y0085424D01*
X0236044Y0084974D01*
X0235593Y0084523D01*
X0235593Y0085875D02*
X0236044Y0086325D01*
X0236044Y0086775D01*
X0235593Y0087226D01*
X0234693Y0087226D01*
X0234242Y0086775D01*
X0234242Y0086325D01*
X0234693Y0085875D01*
X0233097Y0084974D02*
X0233097Y0087226D01*
X0231296Y0087226D02*
X0231296Y0084974D01*
X0231746Y0084523D01*
X0232647Y0084523D01*
X0233097Y0084974D01*
X0231150Y0093610D02*
X0228448Y0093610D01*
X0228448Y0094961D01*
X0228898Y0095412D01*
X0229799Y0095412D01*
X0230249Y0094961D01*
X0230249Y0093610D01*
X0230249Y0094511D02*
X0231150Y0095412D01*
X0230700Y0096557D02*
X0231150Y0097007D01*
X0231150Y0097908D01*
X0230700Y0098358D01*
X0230249Y0098358D01*
X0229799Y0097908D01*
X0229799Y0097457D01*
X0229799Y0097908D02*
X0229348Y0098358D01*
X0228898Y0098358D01*
X0228448Y0097908D01*
X0228448Y0097007D01*
X0228898Y0096557D01*
X0227561Y0096250D02*
X0227561Y0092470D01*
X0220239Y0092470D01*
X0220239Y0096250D01*
X0227561Y0096250D01*
X0227561Y0097470D02*
X0227561Y0101250D01*
X0220239Y0101250D01*
X0220239Y0097470D01*
X0227561Y0097470D01*
X0228898Y0099503D02*
X0228448Y0099953D01*
X0228448Y0100854D01*
X0228898Y0101305D01*
X0229348Y0101305D01*
X0229799Y0100854D01*
X0229799Y0099953D01*
X0229348Y0099503D01*
X0228898Y0099503D01*
X0229799Y0099953D02*
X0230249Y0099503D01*
X0230700Y0099503D01*
X0231150Y0099953D01*
X0231150Y0100854D01*
X0230700Y0101305D01*
X0230249Y0101305D01*
X0229799Y0100854D01*
X0228687Y0103203D02*
X0217113Y0103203D01*
X0217113Y0108517D01*
X0228687Y0108517D01*
X0228687Y0103203D01*
X0230600Y0106610D02*
X0231501Y0106610D01*
X0231952Y0107060D01*
X0233097Y0107060D02*
X0233547Y0106610D01*
X0234448Y0106610D01*
X0234898Y0107060D01*
X0234898Y0107511D01*
X0234448Y0107961D01*
X0233997Y0107961D01*
X0234448Y0107961D02*
X0234898Y0108412D01*
X0234898Y0108862D01*
X0234448Y0109312D01*
X0233547Y0109312D01*
X0233097Y0108862D01*
X0231952Y0108862D02*
X0231501Y0109312D01*
X0230600Y0109312D01*
X0230150Y0108862D01*
X0230150Y0107060D01*
X0230600Y0106610D01*
X0228687Y0109703D02*
X0217113Y0109703D01*
X0217113Y0115017D01*
X0228687Y0115017D01*
X0228687Y0109703D01*
X0230150Y0111560D02*
X0230600Y0111110D01*
X0231501Y0111110D01*
X0231952Y0111560D01*
X0233097Y0111110D02*
X0234898Y0112912D01*
X0234898Y0113362D01*
X0234448Y0113812D01*
X0233547Y0113812D01*
X0233097Y0113362D01*
X0231952Y0113362D02*
X0231501Y0113812D01*
X0230600Y0113812D01*
X0230150Y0113362D01*
X0230150Y0111560D01*
X0233097Y0111110D02*
X0234898Y0111110D01*
X0236043Y0111560D02*
X0236493Y0111110D01*
X0237394Y0111110D01*
X0237845Y0111560D01*
X0237845Y0112011D01*
X0237394Y0112461D01*
X0236043Y0112461D01*
X0236043Y0111560D01*
X0236043Y0112461D02*
X0236944Y0113362D01*
X0237845Y0113812D01*
X0237394Y0109312D02*
X0236493Y0109312D01*
X0236043Y0108862D01*
X0236043Y0107060D01*
X0237845Y0108862D01*
X0237845Y0107060D01*
X0237394Y0106610D01*
X0236493Y0106610D01*
X0236043Y0107060D01*
X0235501Y0104812D02*
X0234600Y0104812D01*
X0234150Y0104362D01*
X0234150Y0102560D01*
X0234600Y0102110D01*
X0235501Y0102110D01*
X0235952Y0102560D01*
X0237097Y0102560D02*
X0237547Y0102110D01*
X0238448Y0102110D01*
X0238898Y0102560D01*
X0238898Y0103011D01*
X0238448Y0103461D01*
X0237997Y0103461D01*
X0238448Y0103461D02*
X0238898Y0103912D01*
X0238898Y0104362D01*
X0238448Y0104812D01*
X0237547Y0104812D01*
X0237097Y0104362D01*
X0235952Y0104362D02*
X0235501Y0104812D01*
X0235501Y0100812D02*
X0234600Y0100812D01*
X0234150Y0100362D01*
X0234150Y0098560D01*
X0234600Y0098110D01*
X0235501Y0098110D01*
X0235952Y0098560D01*
X0237097Y0098560D02*
X0237547Y0098110D01*
X0238448Y0098110D01*
X0238898Y0098560D01*
X0238898Y0099011D01*
X0238448Y0099461D01*
X0237997Y0099461D01*
X0238448Y0099461D02*
X0238898Y0099912D01*
X0238898Y0100362D01*
X0238448Y0100812D01*
X0237547Y0100812D01*
X0237097Y0100362D01*
X0235952Y0100362D02*
X0235501Y0100812D01*
X0240043Y0099461D02*
X0241394Y0099461D01*
X0241845Y0099011D01*
X0241845Y0098560D01*
X0241394Y0098110D01*
X0240493Y0098110D01*
X0240043Y0098560D01*
X0240043Y0099461D01*
X0240944Y0100362D01*
X0241845Y0100812D01*
X0241394Y0102110D02*
X0240493Y0102110D01*
X0240043Y0102560D01*
X0240043Y0103461D02*
X0240944Y0103912D01*
X0241394Y0103912D01*
X0241845Y0103461D01*
X0241845Y0102560D01*
X0241394Y0102110D01*
X0240043Y0103461D02*
X0240043Y0104812D01*
X0241845Y0104812D01*
X0241150Y0106010D02*
X0241150Y0107812D01*
X0242051Y0108712D01*
X0242952Y0107812D01*
X0242952Y0106010D01*
X0244097Y0106460D02*
X0244547Y0106010D01*
X0245448Y0106010D01*
X0245898Y0106460D01*
X0245898Y0107361D01*
X0244997Y0107361D01*
X0244097Y0108262D02*
X0244097Y0106460D01*
X0242952Y0107361D02*
X0241150Y0107361D01*
X0244097Y0108262D02*
X0244547Y0108712D01*
X0245448Y0108712D01*
X0245898Y0108262D01*
X0247043Y0108712D02*
X0248845Y0106010D01*
X0248845Y0108712D01*
X0249990Y0108712D02*
X0249990Y0106010D01*
X0251341Y0106010D01*
X0251791Y0106460D01*
X0251791Y0108262D01*
X0251341Y0108712D01*
X0249990Y0108712D01*
X0247043Y0108712D02*
X0247043Y0106010D01*
X0237845Y0108862D02*
X0237394Y0109312D01*
X0243650Y0116010D02*
X0243650Y0117812D01*
X0244551Y0118712D01*
X0245452Y0117812D01*
X0245452Y0116010D01*
X0246597Y0116010D02*
X0246597Y0118712D01*
X0248398Y0116010D01*
X0248398Y0118712D01*
X0249543Y0118262D02*
X0249543Y0116460D01*
X0249993Y0116010D01*
X0250894Y0116010D01*
X0251345Y0116460D01*
X0251345Y0117361D01*
X0250444Y0117361D01*
X0251345Y0118262D02*
X0250894Y0118712D01*
X0249993Y0118712D01*
X0249543Y0118262D01*
X0245452Y0117361D02*
X0243650Y0117361D01*
X0244597Y0126010D02*
X0244597Y0128712D01*
X0245948Y0128712D01*
X0246398Y0128262D01*
X0246398Y0127361D01*
X0245948Y0126911D01*
X0244597Y0126911D01*
X0245497Y0126911D02*
X0246398Y0126010D01*
X0247543Y0126010D02*
X0247543Y0128712D01*
X0249345Y0128712D01*
X0250490Y0128712D02*
X0250490Y0126010D01*
X0249345Y0126010D02*
X0247543Y0126010D01*
X0247543Y0127361D02*
X0248444Y0127361D01*
X0250490Y0127361D02*
X0251390Y0127361D01*
X0250490Y0128712D02*
X0252291Y0128712D01*
X0252187Y0129703D02*
X0240613Y0129703D01*
X0240613Y0135017D01*
X0252187Y0135017D01*
X0252187Y0129703D01*
X0251894Y0135610D02*
X0252345Y0136060D01*
X0252345Y0137862D01*
X0251894Y0138312D01*
X0250993Y0138312D01*
X0250543Y0137862D01*
X0250543Y0137412D01*
X0250993Y0136961D01*
X0252345Y0136961D01*
X0251894Y0135610D02*
X0250993Y0135610D01*
X0250543Y0136060D01*
X0249398Y0135610D02*
X0247597Y0135610D01*
X0248497Y0135610D02*
X0248497Y0138312D01*
X0247597Y0137412D01*
X0246452Y0137862D02*
X0246001Y0138312D01*
X0245100Y0138312D01*
X0244650Y0137862D01*
X0244650Y0136060D01*
X0245100Y0135610D01*
X0246001Y0135610D01*
X0246452Y0136060D01*
X0243452Y0128712D02*
X0243452Y0126911D01*
X0242551Y0126010D01*
X0241650Y0126911D01*
X0241650Y0128712D01*
X0236290Y0139659D02*
X0232510Y0139659D01*
X0232510Y0147061D01*
X0236290Y0147061D01*
X0236290Y0139659D01*
X0231150Y0139557D02*
X0229348Y0141358D01*
X0228898Y0141358D01*
X0228448Y0140908D01*
X0228448Y0140007D01*
X0228898Y0139557D01*
X0228898Y0138412D02*
X0229799Y0138412D01*
X0230249Y0137961D01*
X0230249Y0136610D01*
X0230249Y0137511D02*
X0231150Y0138412D01*
X0231150Y0139557D02*
X0231150Y0141358D01*
X0230700Y0142503D02*
X0228898Y0144305D01*
X0230700Y0144305D01*
X0231150Y0143854D01*
X0231150Y0142953D01*
X0230700Y0142503D01*
X0228898Y0142503D01*
X0228448Y0142953D01*
X0228448Y0143854D01*
X0228898Y0144305D01*
X0229749Y0146610D02*
X0229749Y0147961D01*
X0229299Y0148412D01*
X0228398Y0148412D01*
X0227948Y0147961D01*
X0227948Y0146610D01*
X0230650Y0146610D01*
X0229749Y0147511D02*
X0230650Y0148412D01*
X0230650Y0149557D02*
X0230650Y0151358D01*
X0230650Y0150457D02*
X0227948Y0150457D01*
X0228848Y0149557D01*
X0228848Y0152503D02*
X0228398Y0152503D01*
X0227948Y0152953D01*
X0227948Y0153854D01*
X0228398Y0154305D01*
X0228848Y0154305D01*
X0229299Y0153854D01*
X0229299Y0152953D01*
X0228848Y0152503D01*
X0229299Y0152953D02*
X0229749Y0152503D01*
X0230200Y0152503D01*
X0230650Y0152953D01*
X0230650Y0153854D01*
X0230200Y0154305D01*
X0229749Y0154305D01*
X0229299Y0153854D01*
X0228398Y0156610D02*
X0230200Y0156610D01*
X0230650Y0157060D01*
X0230650Y0157961D01*
X0230200Y0158412D01*
X0230650Y0159557D02*
X0230650Y0161358D01*
X0230650Y0160457D02*
X0227948Y0160457D01*
X0228848Y0159557D01*
X0228398Y0158412D02*
X0227948Y0157961D01*
X0227948Y0157060D01*
X0228398Y0156610D01*
X0232510Y0155699D02*
X0232510Y0163021D01*
X0236290Y0163021D01*
X0236290Y0155699D01*
X0232510Y0155699D01*
X0232510Y0155061D02*
X0236290Y0155061D01*
X0236290Y0147659D01*
X0232510Y0147659D01*
X0232510Y0155061D01*
X0230200Y0162503D02*
X0229749Y0162503D01*
X0229299Y0162953D01*
X0229299Y0163854D01*
X0229749Y0164305D01*
X0230200Y0164305D01*
X0230650Y0163854D01*
X0230650Y0162953D01*
X0230200Y0162503D01*
X0229299Y0162953D02*
X0228848Y0162503D01*
X0228398Y0162503D01*
X0227948Y0162953D01*
X0227948Y0163854D01*
X0228398Y0164305D01*
X0228848Y0164305D01*
X0229299Y0163854D01*
X0231510Y0164699D02*
X0231510Y0172021D01*
X0235290Y0172021D01*
X0235290Y0164699D01*
X0231510Y0164699D01*
X0235510Y0164699D02*
X0235510Y0172021D01*
X0239290Y0172021D01*
X0239290Y0164699D01*
X0235510Y0164699D01*
X0236398Y0173110D02*
X0238200Y0173110D01*
X0238650Y0173560D01*
X0238650Y0174461D01*
X0238200Y0174912D01*
X0238650Y0176057D02*
X0238650Y0177858D01*
X0238650Y0176957D02*
X0235948Y0176957D01*
X0236848Y0176057D01*
X0236398Y0174912D02*
X0235948Y0174461D01*
X0235948Y0173560D01*
X0236398Y0173110D01*
X0234150Y0173560D02*
X0234150Y0174461D01*
X0233700Y0174912D01*
X0234150Y0176057D02*
X0234150Y0177858D01*
X0234150Y0176957D02*
X0231448Y0176957D01*
X0232348Y0176057D01*
X0231898Y0174912D02*
X0231448Y0174461D01*
X0231448Y0173560D01*
X0231898Y0173110D01*
X0233700Y0173110D01*
X0234150Y0173560D01*
X0232799Y0179003D02*
X0232799Y0180805D01*
X0234150Y0180354D02*
X0231448Y0180354D01*
X0232799Y0179003D01*
X0235948Y0179003D02*
X0235948Y0180805D01*
X0236848Y0180354D02*
X0237299Y0180805D01*
X0238200Y0180805D01*
X0238650Y0180354D01*
X0238650Y0179453D01*
X0238200Y0179003D01*
X0237299Y0179003D02*
X0236848Y0179904D01*
X0236848Y0180354D01*
X0237299Y0179003D02*
X0235948Y0179003D01*
X0236010Y0187659D02*
X0236010Y0195061D01*
X0239790Y0195061D01*
X0239790Y0187659D01*
X0236010Y0187659D01*
X0235150Y0188610D02*
X0232448Y0188610D01*
X0232448Y0189961D01*
X0232898Y0190412D01*
X0233799Y0190412D01*
X0234249Y0189961D01*
X0234249Y0188610D01*
X0234249Y0189511D02*
X0235150Y0190412D01*
X0235150Y0191557D02*
X0234700Y0191557D01*
X0232898Y0193358D01*
X0232448Y0193358D01*
X0232448Y0191557D01*
X0229101Y0193970D02*
X0229101Y0197750D01*
X0221699Y0197750D01*
X0221699Y0193970D01*
X0229101Y0193970D01*
X0229047Y0198610D02*
X0228597Y0199060D01*
X0228597Y0199511D01*
X0229047Y0199961D01*
X0229948Y0199961D01*
X0230398Y0199511D01*
X0230398Y0199060D01*
X0229948Y0198610D01*
X0229047Y0198610D01*
X0229047Y0199961D02*
X0228597Y0200412D01*
X0228597Y0200862D01*
X0229047Y0201312D01*
X0229948Y0201312D01*
X0230398Y0200862D01*
X0230398Y0200412D01*
X0229948Y0199961D01*
X0227452Y0199961D02*
X0227452Y0200862D01*
X0227001Y0201312D01*
X0225650Y0201312D01*
X0225650Y0198610D01*
X0225650Y0199511D02*
X0227001Y0199511D01*
X0227452Y0199961D01*
X0226551Y0199511D02*
X0227452Y0198610D01*
X0233073Y0204954D02*
X0233073Y0205939D01*
X0234057Y0205939D01*
X0234057Y0204954D01*
X0233073Y0204954D01*
X0233979Y0204954D02*
X0233979Y0216766D01*
X0233290Y0216699D02*
X0229510Y0216699D01*
X0229510Y0224021D01*
X0233290Y0224021D01*
X0233290Y0216699D01*
X0232650Y0212358D02*
X0232650Y0210557D01*
X0230848Y0212358D01*
X0230398Y0212358D01*
X0229948Y0211908D01*
X0229948Y0211007D01*
X0230398Y0210557D01*
X0229948Y0209412D02*
X0232200Y0209412D01*
X0232650Y0208961D01*
X0232650Y0208060D01*
X0232200Y0207610D01*
X0229948Y0207610D01*
X0228200Y0221110D02*
X0228650Y0221560D01*
X0228650Y0222461D01*
X0228200Y0222912D01*
X0228200Y0224057D02*
X0228650Y0224507D01*
X0228650Y0225408D01*
X0228200Y0225858D01*
X0226398Y0225858D01*
X0225948Y0225408D01*
X0225948Y0224507D01*
X0226398Y0224057D01*
X0226848Y0224057D01*
X0227299Y0224507D01*
X0227299Y0225858D01*
X0226398Y0222912D02*
X0225948Y0222461D01*
X0225948Y0221560D01*
X0226398Y0221110D01*
X0228200Y0221110D01*
X0209061Y0227470D02*
X0209061Y0231250D01*
X0201739Y0231250D01*
X0201739Y0227470D01*
X0209061Y0227470D01*
X0206948Y0232110D02*
X0206047Y0232110D01*
X0205597Y0232560D01*
X0205597Y0233461D02*
X0206497Y0233912D01*
X0206948Y0233912D01*
X0207398Y0233461D01*
X0207398Y0232560D01*
X0206948Y0232110D01*
X0205597Y0233461D02*
X0205597Y0234812D01*
X0207398Y0234812D01*
X0204452Y0234362D02*
X0204001Y0234812D01*
X0203100Y0234812D01*
X0202650Y0234362D01*
X0202650Y0232560D01*
X0203100Y0232110D01*
X0204001Y0232110D01*
X0204452Y0232560D01*
X0201101Y0231250D02*
X0201101Y0227470D01*
X0193699Y0227470D01*
X0193699Y0231250D01*
X0201101Y0231250D01*
X0198948Y0232110D02*
X0198948Y0234812D01*
X0197597Y0233461D01*
X0199398Y0233461D01*
X0196452Y0233461D02*
X0196001Y0233011D01*
X0194650Y0233011D01*
X0195551Y0233011D02*
X0196452Y0232110D01*
X0196452Y0233461D02*
X0196452Y0234362D01*
X0196001Y0234812D01*
X0194650Y0234812D01*
X0194650Y0232110D01*
X0193061Y0231250D02*
X0193061Y0227470D01*
X0185739Y0227470D01*
X0185739Y0231250D01*
X0193061Y0231250D01*
X0190948Y0232110D02*
X0190948Y0234812D01*
X0189597Y0233461D01*
X0191398Y0233461D01*
X0188452Y0232560D02*
X0188001Y0232110D01*
X0187100Y0232110D01*
X0186650Y0232560D01*
X0186650Y0234362D01*
X0187100Y0234812D01*
X0188001Y0234812D01*
X0188452Y0234362D01*
X0180497Y0229312D02*
X0180497Y0226610D01*
X0179597Y0226610D02*
X0181398Y0226610D01*
X0179597Y0228412D02*
X0180497Y0229312D01*
X0178452Y0229312D02*
X0176650Y0226610D01*
X0178452Y0226610D02*
X0176650Y0229312D01*
X0171650Y0229507D02*
X0171200Y0229057D01*
X0171650Y0229507D02*
X0171650Y0230408D01*
X0171200Y0230858D01*
X0170749Y0230858D01*
X0170299Y0230408D01*
X0170299Y0229957D01*
X0170299Y0230408D02*
X0169848Y0230858D01*
X0169398Y0230858D01*
X0168948Y0230408D01*
X0168948Y0229507D01*
X0169398Y0229057D01*
X0169398Y0227912D02*
X0170299Y0227912D01*
X0170749Y0227461D01*
X0170749Y0226110D01*
X0170749Y0227011D02*
X0171650Y0227912D01*
X0171650Y0226110D02*
X0168948Y0226110D01*
X0168948Y0227461D01*
X0169398Y0227912D01*
X0168057Y0223073D02*
X0162743Y0223073D01*
X0162743Y0234647D01*
X0168057Y0234647D01*
X0168057Y0223073D01*
X0161947Y0217667D02*
X0142853Y0217667D01*
X0142853Y0242037D01*
X0161947Y0242037D01*
X0161947Y0217667D01*
X0154150Y0215908D02*
X0154150Y0215007D01*
X0153700Y0214557D01*
X0153249Y0214557D01*
X0152799Y0215007D01*
X0152799Y0215908D01*
X0153249Y0216358D01*
X0153700Y0216358D01*
X0154150Y0215908D01*
X0152799Y0215908D02*
X0152348Y0216358D01*
X0151898Y0216358D01*
X0151448Y0215908D01*
X0151448Y0215007D01*
X0151898Y0214557D01*
X0152348Y0214557D01*
X0152799Y0215007D01*
X0153700Y0213412D02*
X0154150Y0212961D01*
X0154150Y0212060D01*
X0153700Y0211610D01*
X0151898Y0211610D01*
X0151448Y0212060D01*
X0151448Y0212961D01*
X0151898Y0213412D01*
X0149258Y0210132D02*
X0156542Y0210132D01*
X0156542Y0196588D01*
X0149258Y0196588D01*
X0149258Y0210132D01*
X0147290Y0208521D02*
X0147290Y0201199D01*
X0143510Y0201199D01*
X0143510Y0208521D01*
X0147290Y0208521D01*
X0146700Y0211610D02*
X0144898Y0211610D01*
X0144448Y0212060D01*
X0144448Y0212961D01*
X0144898Y0213412D01*
X0144448Y0214557D02*
X0144448Y0216358D01*
X0144898Y0216358D01*
X0146700Y0214557D01*
X0147150Y0214557D01*
X0146700Y0213412D02*
X0147150Y0212961D01*
X0147150Y0212060D01*
X0146700Y0211610D01*
X0142085Y0205738D02*
X0142085Y0252982D01*
X0098778Y0252982D01*
X0098778Y0245108D01*
X0071219Y0245108D01*
X0071219Y0233297D01*
X0098778Y0233297D01*
X0098778Y0225423D01*
X0071219Y0225423D01*
X0071219Y0213612D01*
X0098778Y0213612D01*
X0098778Y0205738D01*
X0142085Y0205738D01*
X0130497Y0200312D02*
X0130497Y0197610D01*
X0129597Y0197610D02*
X0131398Y0197610D01*
X0130948Y0196312D02*
X0130047Y0196312D01*
X0129597Y0195862D01*
X0128452Y0195862D02*
X0128452Y0194060D01*
X0128001Y0193610D01*
X0126650Y0193610D01*
X0126650Y0196312D01*
X0128001Y0196312D01*
X0128452Y0195862D01*
X0128001Y0197610D02*
X0128452Y0198060D01*
X0128452Y0199862D01*
X0128001Y0200312D01*
X0126650Y0200312D01*
X0126650Y0197610D01*
X0128001Y0197610D01*
X0129597Y0199412D02*
X0130497Y0200312D01*
X0130948Y0196312D02*
X0131398Y0195862D01*
X0131398Y0195412D01*
X0129597Y0193610D01*
X0131398Y0193610D01*
X0134061Y0192407D02*
X0126739Y0192407D01*
X0126739Y0188313D01*
X0134061Y0188313D01*
X0134061Y0192407D01*
X0136650Y0190862D02*
X0136650Y0190412D01*
X0137100Y0189961D01*
X0138452Y0189961D01*
X0138452Y0189060D02*
X0138452Y0190862D01*
X0138001Y0191312D01*
X0137100Y0191312D01*
X0136650Y0190862D01*
X0136650Y0189060D02*
X0137100Y0188610D01*
X0138001Y0188610D01*
X0138452Y0189060D01*
X0139597Y0189060D02*
X0140047Y0189060D01*
X0140047Y0188610D01*
X0139597Y0188610D01*
X0139597Y0189060D01*
X0141070Y0189060D02*
X0141070Y0190862D01*
X0141520Y0191312D01*
X0142421Y0191312D01*
X0142871Y0190862D01*
X0141070Y0189060D01*
X0141520Y0188610D01*
X0142421Y0188610D01*
X0142871Y0189060D01*
X0142871Y0190862D01*
X0144016Y0191312D02*
X0144016Y0189511D01*
X0144917Y0188610D01*
X0145818Y0189511D01*
X0145818Y0191312D01*
X0145818Y0185312D02*
X0145818Y0183511D01*
X0144917Y0182610D01*
X0144016Y0183511D01*
X0144016Y0185312D01*
X0142871Y0184862D02*
X0142871Y0184412D01*
X0142421Y0183961D01*
X0142871Y0183511D01*
X0142871Y0183060D01*
X0142421Y0182610D01*
X0141520Y0182610D01*
X0141070Y0183060D01*
X0140047Y0183060D02*
X0140047Y0182610D01*
X0139597Y0182610D01*
X0139597Y0183060D01*
X0140047Y0183060D01*
X0138452Y0183060D02*
X0138001Y0182610D01*
X0137100Y0182610D01*
X0136650Y0183060D01*
X0137551Y0183961D02*
X0138001Y0183961D01*
X0138452Y0183511D01*
X0138452Y0183060D01*
X0138001Y0183961D02*
X0138452Y0184412D01*
X0138452Y0184862D01*
X0138001Y0185312D01*
X0137100Y0185312D01*
X0136650Y0184862D01*
X0134061Y0186407D02*
X0134061Y0182313D01*
X0126739Y0182313D01*
X0126739Y0186407D01*
X0134061Y0186407D01*
X0134061Y0180407D02*
X0126739Y0180407D01*
X0126739Y0176313D01*
X0134061Y0176313D01*
X0134061Y0180407D01*
X0136650Y0179312D02*
X0136650Y0177961D01*
X0137551Y0178412D01*
X0138001Y0178412D01*
X0138452Y0177961D01*
X0138452Y0177060D01*
X0138001Y0176610D01*
X0137100Y0176610D01*
X0136650Y0177060D01*
X0136650Y0179312D02*
X0138452Y0179312D01*
X0139597Y0177060D02*
X0140047Y0177060D01*
X0140047Y0176610D01*
X0139597Y0176610D01*
X0139597Y0177060D01*
X0141070Y0177060D02*
X0141520Y0176610D01*
X0142421Y0176610D01*
X0142871Y0177060D01*
X0142871Y0178862D01*
X0141070Y0177060D01*
X0141070Y0178862D01*
X0141520Y0179312D01*
X0142421Y0179312D01*
X0142871Y0178862D01*
X0144016Y0179312D02*
X0144016Y0177511D01*
X0144917Y0176610D01*
X0145818Y0177511D01*
X0145818Y0179312D01*
X0150650Y0179610D02*
X0150650Y0182312D01*
X0152001Y0182312D01*
X0152452Y0181862D01*
X0152452Y0180961D01*
X0152001Y0180511D01*
X0150650Y0180511D01*
X0151551Y0180511D02*
X0152452Y0179610D01*
X0153597Y0179610D02*
X0155398Y0179610D01*
X0154497Y0179610D02*
X0154497Y0182312D01*
X0153597Y0181412D01*
X0156543Y0180961D02*
X0157894Y0182312D01*
X0157894Y0179610D01*
X0158101Y0178250D02*
X0158101Y0174470D01*
X0150699Y0174470D01*
X0150699Y0178250D01*
X0158101Y0178250D01*
X0158345Y0180961D02*
X0156543Y0180961D01*
X0158101Y0174250D02*
X0150699Y0174250D01*
X0150699Y0170470D01*
X0158101Y0170470D01*
X0158101Y0174250D01*
X0158345Y0169812D02*
X0156543Y0169812D01*
X0156543Y0168461D01*
X0157444Y0168912D01*
X0157894Y0168912D01*
X0158345Y0168461D01*
X0158345Y0167560D01*
X0157894Y0167110D01*
X0156993Y0167110D01*
X0156543Y0167560D01*
X0155398Y0167110D02*
X0153597Y0167110D01*
X0154497Y0167110D02*
X0154497Y0169812D01*
X0153597Y0168912D01*
X0152452Y0169362D02*
X0152452Y0168461D01*
X0152001Y0168011D01*
X0150650Y0168011D01*
X0151551Y0168011D02*
X0152452Y0167110D01*
X0150650Y0167110D02*
X0150650Y0169812D01*
X0152001Y0169812D01*
X0152452Y0169362D01*
X0150739Y0163250D02*
X0158061Y0163250D01*
X0158061Y0159470D01*
X0150739Y0159470D01*
X0150739Y0163250D01*
X0149845Y0163312D02*
X0149845Y0162862D01*
X0148043Y0161060D01*
X0148043Y0160610D01*
X0146898Y0160610D02*
X0145097Y0160610D01*
X0145997Y0160610D02*
X0145997Y0163312D01*
X0145097Y0162412D01*
X0143952Y0162862D02*
X0143501Y0163312D01*
X0142600Y0163312D01*
X0142150Y0162862D01*
X0142150Y0161060D01*
X0142600Y0160610D01*
X0143501Y0160610D01*
X0143952Y0161060D01*
X0148043Y0163312D02*
X0149845Y0163312D01*
X0148948Y0154312D02*
X0149398Y0153862D01*
X0149398Y0153412D01*
X0148948Y0152961D01*
X0149398Y0152511D01*
X0149398Y0152060D01*
X0148948Y0151610D01*
X0148047Y0151610D01*
X0147597Y0152060D01*
X0146452Y0151610D02*
X0145551Y0152511D01*
X0146001Y0152511D02*
X0144650Y0152511D01*
X0144650Y0151610D02*
X0144650Y0154312D01*
X0146001Y0154312D01*
X0146452Y0153862D01*
X0146452Y0152961D01*
X0146001Y0152511D01*
X0147597Y0153862D02*
X0148047Y0154312D01*
X0148948Y0154312D01*
X0148948Y0152961D02*
X0148497Y0152961D01*
X0150543Y0152060D02*
X0150993Y0151610D01*
X0151894Y0151610D01*
X0152345Y0152060D01*
X0152345Y0152511D01*
X0151894Y0152961D01*
X0151444Y0152961D01*
X0151894Y0152961D02*
X0152345Y0153412D01*
X0152345Y0153862D01*
X0151894Y0154312D01*
X0150993Y0154312D01*
X0150543Y0153862D01*
X0152101Y0150250D02*
X0152101Y0146470D01*
X0144699Y0146470D01*
X0144699Y0150250D01*
X0152101Y0150250D01*
X0158948Y0148354D02*
X0158948Y0147453D01*
X0159398Y0147003D01*
X0159398Y0145858D02*
X0159848Y0145858D01*
X0160299Y0145408D01*
X0160749Y0145858D01*
X0161200Y0145858D01*
X0161650Y0145408D01*
X0161650Y0144507D01*
X0161200Y0144057D01*
X0161200Y0142912D02*
X0161650Y0142461D01*
X0161650Y0141560D01*
X0161200Y0141110D01*
X0159398Y0141110D01*
X0158948Y0141560D01*
X0158948Y0142461D01*
X0159398Y0142912D01*
X0159398Y0144057D02*
X0158948Y0144507D01*
X0158948Y0145408D01*
X0159398Y0145858D01*
X0160299Y0145408D02*
X0160299Y0144957D01*
X0161650Y0147003D02*
X0159848Y0148805D01*
X0159398Y0148805D01*
X0158948Y0148354D01*
X0161650Y0148805D02*
X0161650Y0147003D01*
X0162290Y0140021D02*
X0158510Y0140021D01*
X0158510Y0132699D01*
X0162290Y0132699D01*
X0162290Y0140021D01*
X0165648Y0138015D02*
X0166098Y0138465D01*
X0166548Y0138465D01*
X0166999Y0138015D01*
X0167449Y0138465D01*
X0167900Y0138465D01*
X0168350Y0138015D01*
X0168350Y0137114D01*
X0167900Y0136663D01*
X0167900Y0135518D02*
X0165648Y0135518D01*
X0166098Y0136663D02*
X0165648Y0137114D01*
X0165648Y0138015D01*
X0166999Y0138015D02*
X0166999Y0137564D01*
X0167900Y0135518D02*
X0168350Y0135068D01*
X0168350Y0134167D01*
X0167900Y0133717D01*
X0165648Y0133717D01*
X0166920Y0126313D02*
X0166920Y0110407D01*
X0141880Y0110407D01*
X0141880Y0116391D01*
X0141880Y0120328D02*
X0141880Y0126313D01*
X0166920Y0126313D01*
X0171448Y0120305D02*
X0171448Y0118503D01*
X0172799Y0118503D01*
X0172348Y0119404D01*
X0172348Y0119854D01*
X0172799Y0120305D01*
X0173700Y0120305D01*
X0174150Y0119854D01*
X0174150Y0118953D01*
X0173700Y0118503D01*
X0174150Y0117358D02*
X0174150Y0115557D01*
X0172348Y0117358D01*
X0171898Y0117358D01*
X0171448Y0116908D01*
X0171448Y0116007D01*
X0171898Y0115557D01*
X0171898Y0114412D02*
X0171448Y0113961D01*
X0171448Y0113060D01*
X0171898Y0112610D01*
X0173700Y0112610D01*
X0174150Y0113060D01*
X0174150Y0113961D01*
X0173700Y0114412D01*
X0174948Y0113961D02*
X0174948Y0112610D01*
X0177650Y0112610D01*
X0176749Y0112610D02*
X0176749Y0113961D01*
X0176299Y0114412D01*
X0175398Y0114412D01*
X0174948Y0113961D01*
X0175398Y0115557D02*
X0174948Y0116007D01*
X0174948Y0116908D01*
X0175398Y0117358D01*
X0175848Y0117358D01*
X0177650Y0115557D01*
X0177650Y0117358D01*
X0177200Y0118503D02*
X0177650Y0118953D01*
X0177650Y0119854D01*
X0177200Y0120305D01*
X0176749Y0120305D01*
X0176299Y0119854D01*
X0176299Y0118503D01*
X0177200Y0118503D01*
X0176299Y0118503D02*
X0175398Y0119404D01*
X0174948Y0120305D01*
X0178510Y0119021D02*
X0182290Y0119021D01*
X0182290Y0111699D01*
X0178510Y0111699D01*
X0178510Y0119021D01*
X0182510Y0119061D02*
X0186290Y0119061D01*
X0186290Y0111659D01*
X0182510Y0111659D01*
X0182510Y0119061D01*
X0182699Y0119470D02*
X0182699Y0123250D01*
X0190101Y0123250D01*
X0190101Y0119470D01*
X0182699Y0119470D01*
X0182650Y0124110D02*
X0182650Y0126812D01*
X0184001Y0126812D01*
X0184452Y0126362D01*
X0184452Y0125461D01*
X0184001Y0125011D01*
X0182650Y0125011D01*
X0183551Y0125011D02*
X0184452Y0124110D01*
X0185597Y0124110D02*
X0187398Y0125912D01*
X0187398Y0126362D01*
X0186948Y0126812D01*
X0186047Y0126812D01*
X0185597Y0126362D01*
X0185597Y0124110D02*
X0187398Y0124110D01*
X0188543Y0124110D02*
X0190345Y0125912D01*
X0190345Y0126362D01*
X0189894Y0126812D01*
X0188993Y0126812D01*
X0188543Y0126362D01*
X0188543Y0124110D02*
X0190345Y0124110D01*
X0191010Y0123771D02*
X0194790Y0123771D01*
X0194790Y0116449D01*
X0191010Y0116449D01*
X0191010Y0123771D01*
X0195622Y0120328D02*
X0195622Y0116391D01*
X0196489Y0116313D02*
X0196489Y0120407D01*
X0203811Y0120407D01*
X0203811Y0116313D01*
X0196489Y0116313D01*
X0196400Y0114812D02*
X0197751Y0114812D01*
X0198202Y0114362D01*
X0198202Y0112560D01*
X0197751Y0112110D01*
X0196400Y0112110D01*
X0196400Y0114812D01*
X0194350Y0115015D02*
X0191648Y0115015D01*
X0192999Y0113663D01*
X0192999Y0115465D01*
X0192548Y0112518D02*
X0192098Y0112518D01*
X0191648Y0112068D01*
X0191648Y0111167D01*
X0192098Y0110717D01*
X0192098Y0109572D02*
X0191648Y0109122D01*
X0191648Y0108221D01*
X0192098Y0107770D01*
X0193900Y0107770D01*
X0194350Y0108221D01*
X0194350Y0109122D01*
X0193900Y0109572D01*
X0194350Y0110717D02*
X0192548Y0112518D01*
X0194350Y0112518D02*
X0194350Y0110717D01*
X0196100Y0106812D02*
X0195650Y0106362D01*
X0195650Y0104560D01*
X0196100Y0104110D01*
X0197001Y0104110D01*
X0197452Y0104560D01*
X0198597Y0104560D02*
X0199047Y0104110D01*
X0199948Y0104110D01*
X0200398Y0104560D01*
X0200398Y0105011D01*
X0199948Y0105461D01*
X0199497Y0105461D01*
X0199948Y0105461D02*
X0200398Y0105912D01*
X0200398Y0106362D01*
X0199948Y0106812D01*
X0199047Y0106812D01*
X0198597Y0106362D01*
X0197452Y0106362D02*
X0197001Y0106812D01*
X0196100Y0106812D01*
X0194613Y0102017D02*
X0206187Y0102017D01*
X0206187Y0096703D01*
X0194613Y0096703D01*
X0194613Y0102017D01*
X0193398Y0100312D02*
X0193398Y0099862D01*
X0191597Y0098060D01*
X0191597Y0097610D01*
X0190452Y0098060D02*
X0190452Y0100312D01*
X0191597Y0100312D02*
X0193398Y0100312D01*
X0190452Y0098060D02*
X0190001Y0097610D01*
X0189100Y0097610D01*
X0188650Y0098060D01*
X0188650Y0100312D01*
X0188321Y0096266D02*
X0189306Y0096266D01*
X0189306Y0084454D01*
X0188321Y0084454D01*
X0191510Y0086659D02*
X0195290Y0086659D01*
X0195290Y0094061D01*
X0191510Y0094061D01*
X0191510Y0086659D01*
X0195948Y0086610D02*
X0195948Y0087961D01*
X0196398Y0088412D01*
X0197299Y0088412D01*
X0197749Y0087961D01*
X0197749Y0086610D01*
X0197749Y0087511D02*
X0198650Y0088412D01*
X0198200Y0089557D02*
X0198650Y0090007D01*
X0198650Y0090908D01*
X0198200Y0091358D01*
X0197749Y0091358D01*
X0197299Y0090908D01*
X0197299Y0090457D01*
X0197299Y0090908D02*
X0196848Y0091358D01*
X0196398Y0091358D01*
X0195948Y0090908D01*
X0195948Y0090007D01*
X0196398Y0089557D01*
X0195948Y0086610D02*
X0198650Y0086610D01*
X0197394Y0080312D02*
X0196493Y0080312D01*
X0196043Y0079862D01*
X0196043Y0079412D01*
X0196493Y0078961D01*
X0197845Y0078961D01*
X0197845Y0078060D02*
X0197845Y0079862D01*
X0197394Y0080312D01*
X0197845Y0078060D02*
X0197394Y0077610D01*
X0196493Y0077610D01*
X0196043Y0078060D01*
X0194898Y0078060D02*
X0194448Y0077610D01*
X0193547Y0077610D01*
X0193097Y0078060D01*
X0191952Y0077610D02*
X0191051Y0078511D01*
X0191501Y0078511D02*
X0190150Y0078511D01*
X0190150Y0077610D02*
X0190150Y0080312D01*
X0191501Y0080312D01*
X0191952Y0079862D01*
X0191952Y0078961D01*
X0191501Y0078511D01*
X0193097Y0079862D02*
X0193547Y0080312D01*
X0194448Y0080312D01*
X0194898Y0079862D01*
X0194898Y0079412D01*
X0194448Y0078961D01*
X0194898Y0078511D01*
X0194898Y0078060D01*
X0194448Y0078961D02*
X0193997Y0078961D01*
X0194448Y0075812D02*
X0193097Y0074461D01*
X0194898Y0074461D01*
X0194448Y0073110D02*
X0194448Y0075812D01*
X0196043Y0075362D02*
X0196493Y0075812D01*
X0197394Y0075812D01*
X0197845Y0075362D01*
X0197845Y0074912D01*
X0197394Y0074461D01*
X0197845Y0074011D01*
X0197845Y0073560D01*
X0197394Y0073110D01*
X0196493Y0073110D01*
X0196043Y0073560D01*
X0196944Y0074461D02*
X0197394Y0074461D01*
X0191952Y0074461D02*
X0191501Y0074011D01*
X0190150Y0074011D01*
X0191051Y0074011D02*
X0191952Y0073110D01*
X0191952Y0074461D02*
X0191952Y0075362D01*
X0191501Y0075812D01*
X0190150Y0075812D01*
X0190150Y0073110D01*
X0189101Y0072470D02*
X0189101Y0076250D01*
X0181699Y0076250D01*
X0181699Y0072470D01*
X0189101Y0072470D01*
X0189101Y0076470D02*
X0181699Y0076470D01*
X0181699Y0080250D01*
X0189101Y0080250D01*
X0189101Y0076470D01*
X0181101Y0076250D02*
X0181101Y0072470D01*
X0173699Y0072470D01*
X0173699Y0076250D01*
X0181101Y0076250D01*
X0181061Y0076470D02*
X0173739Y0076470D01*
X0173739Y0080250D01*
X0181061Y0080250D01*
X0181061Y0076470D01*
X0179200Y0068805D02*
X0179650Y0068354D01*
X0179650Y0067453D01*
X0179200Y0067003D01*
X0178299Y0067003D02*
X0177848Y0067904D01*
X0177848Y0068354D01*
X0178299Y0068805D01*
X0179200Y0068805D01*
X0178299Y0067003D02*
X0176948Y0067003D01*
X0176948Y0068805D01*
X0178299Y0065858D02*
X0178299Y0064057D01*
X0176948Y0065408D01*
X0179650Y0065408D01*
X0179650Y0062912D02*
X0178749Y0062011D01*
X0178749Y0062461D02*
X0178749Y0061110D01*
X0179650Y0061110D02*
X0176948Y0061110D01*
X0176948Y0062461D01*
X0177398Y0062912D01*
X0178299Y0062912D01*
X0178749Y0062461D01*
X0187448Y0061461D02*
X0187448Y0060110D01*
X0190150Y0060110D01*
X0189249Y0060110D02*
X0189249Y0061461D01*
X0188799Y0061912D01*
X0187898Y0061912D01*
X0187448Y0061461D01*
X0189249Y0061011D02*
X0190150Y0061912D01*
X0188799Y0063057D02*
X0188799Y0064858D01*
X0188799Y0066003D02*
X0187448Y0067354D01*
X0190150Y0067354D01*
X0188799Y0067805D02*
X0188799Y0066003D01*
X0190150Y0064408D02*
X0187448Y0064408D01*
X0188799Y0063057D01*
X0192510Y0066561D02*
X0192510Y0059159D01*
X0196290Y0059159D01*
X0196290Y0066561D01*
X0192510Y0066561D01*
X0172845Y0075110D02*
X0171043Y0075110D01*
X0172845Y0076912D01*
X0172845Y0077362D01*
X0172394Y0077812D01*
X0171493Y0077812D01*
X0171043Y0077362D01*
X0171493Y0078610D02*
X0171043Y0079060D01*
X0172845Y0080862D01*
X0172845Y0079060D01*
X0172394Y0078610D01*
X0171493Y0078610D01*
X0171043Y0079060D02*
X0171043Y0080862D01*
X0171493Y0081312D01*
X0172394Y0081312D01*
X0172845Y0080862D01*
X0169898Y0079961D02*
X0168097Y0079961D01*
X0169448Y0081312D01*
X0169448Y0078610D01*
X0169448Y0077812D02*
X0168097Y0076461D01*
X0169898Y0076461D01*
X0169448Y0075110D02*
X0169448Y0077812D01*
X0166952Y0077362D02*
X0166952Y0076461D01*
X0166501Y0076011D01*
X0165150Y0076011D01*
X0166051Y0076011D02*
X0166952Y0075110D01*
X0165150Y0075110D02*
X0165150Y0077812D01*
X0166501Y0077812D01*
X0166952Y0077362D01*
X0166501Y0078610D02*
X0166952Y0079060D01*
X0166501Y0078610D02*
X0165600Y0078610D01*
X0165150Y0079060D01*
X0165150Y0080862D01*
X0165600Y0081312D01*
X0166501Y0081312D01*
X0166952Y0080862D01*
X0162042Y0084132D02*
X0162042Y0070588D01*
X0154758Y0070588D01*
X0154758Y0084132D01*
X0162042Y0084132D01*
X0160700Y0085610D02*
X0161150Y0086060D01*
X0161150Y0086961D01*
X0160700Y0087412D01*
X0159799Y0088557D02*
X0159799Y0090358D01*
X0159348Y0091503D02*
X0158448Y0092404D01*
X0161150Y0092404D01*
X0161150Y0091503D02*
X0161150Y0093305D01*
X0161150Y0089908D02*
X0158448Y0089908D01*
X0159799Y0088557D01*
X0158898Y0087412D02*
X0158448Y0086961D01*
X0158448Y0086060D01*
X0158898Y0085610D01*
X0160700Y0085610D01*
X0164650Y0071812D02*
X0164650Y0069110D01*
X0166452Y0069110D01*
X0167597Y0069560D02*
X0168047Y0069110D01*
X0168948Y0069110D01*
X0169398Y0069560D01*
X0169398Y0070461D01*
X0168948Y0070912D01*
X0168497Y0070912D01*
X0167597Y0070461D01*
X0167597Y0071812D01*
X0169398Y0071812D01*
X0177494Y0084454D02*
X0177494Y0096266D01*
X0178479Y0096266D01*
X0176739Y0100470D02*
X0176739Y0104250D01*
X0184061Y0104250D01*
X0184061Y0100470D01*
X0176739Y0100470D01*
X0178100Y0105610D02*
X0179001Y0105610D01*
X0179452Y0106060D01*
X0180597Y0106060D02*
X0181047Y0105610D01*
X0181948Y0105610D01*
X0182398Y0106060D01*
X0182398Y0106511D01*
X0181948Y0106961D01*
X0181497Y0106961D01*
X0181948Y0106961D02*
X0182398Y0107412D01*
X0182398Y0107862D01*
X0181948Y0108312D01*
X0181047Y0108312D01*
X0180597Y0107862D01*
X0179452Y0107862D02*
X0179001Y0108312D01*
X0178100Y0108312D01*
X0177650Y0107862D01*
X0177650Y0106060D01*
X0178100Y0105610D01*
X0183543Y0105610D02*
X0185345Y0105610D01*
X0184444Y0105610D02*
X0184444Y0108312D01*
X0183543Y0107412D01*
X0176749Y0113511D02*
X0177650Y0114412D01*
X0159398Y0109312D02*
X0159398Y0108862D01*
X0157597Y0107060D01*
X0157597Y0106610D01*
X0156452Y0107060D02*
X0156452Y0108862D01*
X0156001Y0109312D01*
X0154650Y0109312D01*
X0154650Y0106610D01*
X0156001Y0106610D01*
X0156452Y0107060D01*
X0157597Y0109312D02*
X0159398Y0109312D01*
X0143150Y0106908D02*
X0142700Y0107358D01*
X0142249Y0107358D01*
X0141799Y0106908D01*
X0141799Y0105557D01*
X0142700Y0105557D01*
X0143150Y0106007D01*
X0143150Y0106908D01*
X0141799Y0105557D02*
X0140898Y0106457D01*
X0140448Y0107358D01*
X0140448Y0104412D02*
X0142700Y0104412D01*
X0143150Y0103961D01*
X0143150Y0103060D01*
X0142700Y0102610D01*
X0140448Y0102610D01*
X0141014Y0110486D02*
X0141014Y0126234D01*
X0137290Y0129659D02*
X0133510Y0129659D01*
X0133510Y0137061D01*
X0137290Y0137061D01*
X0137290Y0129659D01*
X0138526Y0134423D02*
X0142463Y0134423D01*
X0138526Y0134423D02*
X0138526Y0142297D01*
X0137290Y0140659D02*
X0133510Y0140659D01*
X0133510Y0148061D01*
X0137290Y0148061D01*
X0137290Y0140659D01*
X0139448Y0145610D02*
X0141700Y0145610D01*
X0142150Y0146060D01*
X0142150Y0146961D01*
X0141700Y0147412D01*
X0139448Y0147412D01*
X0140799Y0148557D02*
X0139448Y0149908D01*
X0142150Y0149908D01*
X0140799Y0150358D02*
X0140799Y0148557D01*
X0136150Y0149610D02*
X0133448Y0149610D01*
X0133448Y0150961D01*
X0133898Y0151412D01*
X0134799Y0151412D01*
X0135249Y0150961D01*
X0135249Y0149610D01*
X0135249Y0150511D02*
X0136150Y0151412D01*
X0136150Y0152557D02*
X0136150Y0154358D01*
X0136150Y0153457D02*
X0133448Y0153457D01*
X0134348Y0152557D01*
X0134348Y0155503D02*
X0134799Y0155953D01*
X0134799Y0157305D01*
X0135700Y0157305D02*
X0133898Y0157305D01*
X0133448Y0156854D01*
X0133448Y0155953D01*
X0133898Y0155503D01*
X0134348Y0155503D01*
X0135700Y0155503D02*
X0136150Y0155953D01*
X0136150Y0156854D01*
X0135700Y0157305D01*
X0136150Y0159610D02*
X0133448Y0159610D01*
X0133448Y0160961D01*
X0133898Y0161412D01*
X0134799Y0161412D01*
X0135249Y0160961D01*
X0135249Y0159610D01*
X0135249Y0160511D02*
X0136150Y0161412D01*
X0136150Y0162557D02*
X0134348Y0164358D01*
X0133898Y0164358D01*
X0133448Y0163908D01*
X0133448Y0163007D01*
X0133898Y0162557D01*
X0136150Y0162557D02*
X0136150Y0164358D01*
X0136150Y0165503D02*
X0136150Y0167305D01*
X0136150Y0166404D02*
X0133448Y0166404D01*
X0134348Y0165503D01*
X0131398Y0165312D02*
X0129597Y0165312D01*
X0129597Y0163961D01*
X0130497Y0164412D01*
X0130948Y0164412D01*
X0131398Y0163961D01*
X0131398Y0163060D01*
X0130948Y0162610D01*
X0130047Y0162610D01*
X0129597Y0163060D01*
X0128452Y0163060D02*
X0128452Y0164862D01*
X0128001Y0165312D01*
X0126650Y0165312D01*
X0126650Y0162610D01*
X0128001Y0162610D01*
X0128452Y0163060D01*
X0128001Y0166610D02*
X0128452Y0167060D01*
X0128452Y0168862D01*
X0128001Y0169312D01*
X0126650Y0169312D01*
X0126650Y0166610D01*
X0128001Y0166610D01*
X0129597Y0167961D02*
X0130948Y0169312D01*
X0130948Y0166610D01*
X0131398Y0167961D02*
X0129597Y0167961D01*
X0126739Y0170313D02*
X0126739Y0174407D01*
X0134061Y0174407D01*
X0134061Y0170313D01*
X0126739Y0170313D01*
X0125872Y0170391D02*
X0125872Y0174328D01*
X0124101Y0174250D02*
X0124101Y0170470D01*
X0116699Y0170470D01*
X0116699Y0174250D01*
X0124101Y0174250D01*
X0124101Y0176470D02*
X0116699Y0176470D01*
X0116699Y0180250D01*
X0124101Y0180250D01*
X0124101Y0176470D01*
X0125872Y0176391D02*
X0125872Y0180328D01*
X0125872Y0182391D02*
X0125872Y0186328D01*
X0124101Y0186250D02*
X0124101Y0182470D01*
X0116699Y0182470D01*
X0116699Y0186250D01*
X0124101Y0186250D01*
X0124101Y0188470D02*
X0116699Y0188470D01*
X0116699Y0192250D01*
X0124101Y0192250D01*
X0124101Y0188470D01*
X0125872Y0188391D02*
X0125872Y0192328D01*
X0115345Y0188610D02*
X0113543Y0188610D01*
X0114444Y0188610D02*
X0114444Y0191312D01*
X0113543Y0190412D01*
X0112398Y0188610D02*
X0110597Y0188610D01*
X0111497Y0188610D02*
X0111497Y0191312D01*
X0110597Y0190412D01*
X0109452Y0190862D02*
X0109452Y0189961D01*
X0109001Y0189511D01*
X0107650Y0189511D01*
X0108551Y0189511D02*
X0109452Y0188610D01*
X0107650Y0188610D02*
X0107650Y0191312D01*
X0109001Y0191312D01*
X0109452Y0190862D01*
X0109001Y0185312D02*
X0109452Y0184862D01*
X0109452Y0183961D01*
X0109001Y0183511D01*
X0107650Y0183511D01*
X0108551Y0183511D02*
X0109452Y0182610D01*
X0110597Y0182610D02*
X0112398Y0182610D01*
X0111497Y0182610D02*
X0111497Y0185312D01*
X0110597Y0184412D01*
X0109001Y0185312D02*
X0107650Y0185312D01*
X0107650Y0182610D01*
X0107650Y0180312D02*
X0109001Y0180312D01*
X0109452Y0179862D01*
X0109452Y0178961D01*
X0109001Y0178511D01*
X0107650Y0178511D01*
X0108551Y0178511D02*
X0109452Y0177610D01*
X0110597Y0177610D02*
X0112398Y0177610D01*
X0111497Y0177610D02*
X0111497Y0180312D01*
X0110597Y0179412D01*
X0113543Y0179862D02*
X0113993Y0180312D01*
X0114894Y0180312D01*
X0115345Y0179862D01*
X0115345Y0179412D01*
X0114894Y0178961D01*
X0115345Y0178511D01*
X0115345Y0178060D01*
X0114894Y0177610D01*
X0113993Y0177610D01*
X0113543Y0178060D01*
X0114444Y0178961D02*
X0114894Y0178961D01*
X0115345Y0175312D02*
X0114444Y0174862D01*
X0113543Y0173961D01*
X0114894Y0173961D01*
X0115345Y0173511D01*
X0115345Y0173060D01*
X0114894Y0172610D01*
X0113993Y0172610D01*
X0113543Y0173060D01*
X0113543Y0173961D01*
X0112398Y0172610D02*
X0110597Y0172610D01*
X0111497Y0172610D02*
X0111497Y0175312D01*
X0110597Y0174412D01*
X0109452Y0174862D02*
X0109452Y0173961D01*
X0109001Y0173511D01*
X0107650Y0173511D01*
X0108551Y0173511D02*
X0109452Y0172610D01*
X0107650Y0172610D02*
X0107650Y0175312D01*
X0109001Y0175312D01*
X0109452Y0174862D01*
X0107650Y0177610D02*
X0107650Y0180312D01*
X0105700Y0176305D02*
X0105249Y0176305D01*
X0104799Y0175854D01*
X0104799Y0174503D01*
X0105700Y0174503D01*
X0106150Y0174953D01*
X0106150Y0175854D01*
X0105700Y0176305D01*
X0103898Y0175404D02*
X0104799Y0174503D01*
X0103898Y0175404D02*
X0103448Y0176305D01*
X0102150Y0174503D02*
X0101700Y0174503D01*
X0099898Y0176305D01*
X0099448Y0176305D01*
X0099448Y0174503D01*
X0099448Y0172457D02*
X0102150Y0172457D01*
X0102150Y0171557D02*
X0102150Y0173358D01*
X0103448Y0172457D02*
X0106150Y0172457D01*
X0106150Y0171557D02*
X0106150Y0173358D01*
X0104348Y0171557D02*
X0103448Y0172457D01*
X0103898Y0170412D02*
X0103448Y0169961D01*
X0103448Y0169060D01*
X0103898Y0168610D01*
X0105700Y0168610D01*
X0106150Y0169060D01*
X0106150Y0169961D01*
X0105700Y0170412D01*
X0105258Y0168132D02*
X0112542Y0168132D01*
X0112542Y0154588D01*
X0105258Y0154588D01*
X0105258Y0168132D01*
X0105057Y0167147D02*
X0105057Y0155573D01*
X0099743Y0155573D01*
X0099743Y0167147D01*
X0105057Y0167147D01*
X0102150Y0168610D02*
X0099448Y0168610D01*
X0099448Y0169961D01*
X0099898Y0170412D01*
X0100799Y0170412D01*
X0101249Y0169961D01*
X0101249Y0168610D01*
X0101249Y0169511D02*
X0102150Y0170412D01*
X0100348Y0171557D02*
X0099448Y0172457D01*
X0114010Y0163521D02*
X0114010Y0156199D01*
X0117790Y0156199D01*
X0117790Y0163521D01*
X0114010Y0163521D01*
X0118448Y0163404D02*
X0121150Y0163404D01*
X0121150Y0162503D02*
X0121150Y0164305D01*
X0119348Y0162503D02*
X0118448Y0163404D01*
X0118898Y0161358D02*
X0118448Y0160908D01*
X0118448Y0160007D01*
X0118898Y0159557D01*
X0118898Y0158412D02*
X0118448Y0157961D01*
X0118448Y0157060D01*
X0118898Y0156610D01*
X0120700Y0156610D01*
X0121150Y0157060D01*
X0121150Y0157961D01*
X0120700Y0158412D01*
X0121150Y0159557D02*
X0119348Y0161358D01*
X0118898Y0161358D01*
X0121150Y0161358D02*
X0121150Y0159557D01*
X0136650Y0171610D02*
X0137551Y0171610D01*
X0137100Y0171610D02*
X0137100Y0174312D01*
X0136650Y0174312D02*
X0137551Y0174312D01*
X0138614Y0173862D02*
X0139065Y0174312D01*
X0139965Y0174312D01*
X0140416Y0173862D01*
X0140416Y0172060D01*
X0139965Y0171610D01*
X0139065Y0171610D01*
X0138614Y0172060D01*
X0138614Y0173862D01*
X0141971Y0183961D02*
X0142421Y0183961D01*
X0142871Y0184862D02*
X0142421Y0185312D01*
X0141520Y0185312D01*
X0141070Y0184862D01*
X0115345Y0184862D02*
X0115345Y0184412D01*
X0113543Y0182610D01*
X0115345Y0182610D01*
X0115345Y0184862D02*
X0114894Y0185312D01*
X0113993Y0185312D01*
X0113543Y0184862D01*
X0104150Y0194060D02*
X0104150Y0194961D01*
X0103700Y0195412D01*
X0104150Y0196557D02*
X0104150Y0198358D01*
X0104150Y0197457D02*
X0101448Y0197457D01*
X0102348Y0196557D01*
X0101898Y0195412D02*
X0101448Y0194961D01*
X0101448Y0194060D01*
X0101898Y0193610D01*
X0103700Y0193610D01*
X0104150Y0194060D01*
X0099650Y0194060D02*
X0099650Y0194961D01*
X0099200Y0195412D01*
X0099650Y0196557D02*
X0099650Y0198358D01*
X0099650Y0197457D02*
X0096948Y0197457D01*
X0097848Y0196557D01*
X0097398Y0195412D02*
X0096948Y0194961D01*
X0096948Y0194060D01*
X0097398Y0193610D01*
X0099200Y0193610D01*
X0099650Y0194060D01*
X0096042Y0192588D02*
X0088758Y0192588D01*
X0088758Y0206132D01*
X0096042Y0206132D01*
X0096042Y0192588D01*
X0097848Y0199503D02*
X0096948Y0200404D01*
X0099650Y0200404D01*
X0099650Y0199503D02*
X0099650Y0201305D01*
X0101448Y0200854D02*
X0101448Y0199953D01*
X0101898Y0199503D01*
X0101448Y0200854D02*
X0101898Y0201305D01*
X0102348Y0201305D01*
X0104150Y0199503D01*
X0104150Y0201305D01*
X0097005Y0209410D02*
X0095203Y0209410D01*
X0096104Y0209410D02*
X0096104Y0212112D01*
X0095203Y0211212D01*
X0094059Y0212112D02*
X0094059Y0209860D01*
X0093608Y0209410D01*
X0092707Y0209410D01*
X0092257Y0209860D01*
X0092257Y0212112D01*
X0088057Y0205647D02*
X0082743Y0205647D01*
X0082743Y0194073D01*
X0088057Y0194073D01*
X0088057Y0205647D01*
X0081077Y0211907D02*
X0081077Y0192813D01*
X0056707Y0192813D01*
X0056707Y0211907D01*
X0081077Y0211907D01*
X0084061Y0227470D02*
X0076739Y0227470D01*
X0076739Y0231250D01*
X0084061Y0231250D01*
X0084061Y0227470D01*
X0085150Y0228060D02*
X0085600Y0227610D01*
X0086501Y0227610D01*
X0086952Y0228060D01*
X0088097Y0228060D02*
X0088547Y0227610D01*
X0089448Y0227610D01*
X0089898Y0228060D01*
X0089898Y0228511D01*
X0089448Y0228961D01*
X0088997Y0228961D01*
X0089448Y0228961D02*
X0089898Y0229412D01*
X0089898Y0229862D01*
X0089448Y0230312D01*
X0088547Y0230312D01*
X0088097Y0229862D01*
X0086952Y0229862D02*
X0086501Y0230312D01*
X0085600Y0230312D01*
X0085150Y0229862D01*
X0085150Y0228060D01*
X0085699Y0246470D02*
X0085699Y0250250D01*
X0093101Y0250250D01*
X0093101Y0246470D01*
X0085699Y0246470D01*
X0089650Y0251610D02*
X0089650Y0254312D01*
X0091001Y0254312D01*
X0091452Y0253862D01*
X0091452Y0252961D01*
X0091001Y0252511D01*
X0089650Y0252511D01*
X0090551Y0252511D02*
X0091452Y0251610D01*
X0092597Y0251610D02*
X0094398Y0253412D01*
X0094398Y0253862D01*
X0093948Y0254312D01*
X0093047Y0254312D01*
X0092597Y0253862D01*
X0092597Y0251610D02*
X0094398Y0251610D01*
X0080398Y0251610D02*
X0078597Y0251610D01*
X0079497Y0251610D02*
X0079497Y0254312D01*
X0078597Y0253412D01*
X0077452Y0253862D02*
X0077452Y0252961D01*
X0077001Y0252511D01*
X0075650Y0252511D01*
X0076551Y0252511D02*
X0077452Y0251610D01*
X0075650Y0251610D02*
X0075650Y0254312D01*
X0077001Y0254312D01*
X0077452Y0253862D01*
X0079101Y0250250D02*
X0071699Y0250250D01*
X0071699Y0246470D01*
X0079101Y0246470D01*
X0079101Y0250250D01*
X0050200Y0221358D02*
X0049749Y0221358D01*
X0049299Y0220908D01*
X0049299Y0219557D01*
X0050200Y0219557D01*
X0050650Y0220007D01*
X0050650Y0220908D01*
X0050200Y0221358D01*
X0049299Y0219557D02*
X0048398Y0220457D01*
X0047948Y0221358D01*
X0048398Y0218412D02*
X0047948Y0217961D01*
X0047948Y0217060D01*
X0048398Y0216610D01*
X0050200Y0216610D01*
X0050650Y0217060D01*
X0050650Y0217961D01*
X0050200Y0218412D01*
X0047758Y0215132D02*
X0055042Y0215132D01*
X0055042Y0201588D01*
X0047758Y0201588D01*
X0047758Y0215132D01*
X0044700Y0207305D02*
X0045150Y0206854D01*
X0045150Y0205953D01*
X0044700Y0205503D01*
X0045150Y0204358D02*
X0045150Y0202557D01*
X0045150Y0203457D02*
X0042448Y0203457D01*
X0043348Y0202557D01*
X0042898Y0201412D02*
X0042448Y0200961D01*
X0042448Y0200060D01*
X0042898Y0199610D01*
X0044700Y0199610D01*
X0045150Y0200060D01*
X0045150Y0200961D01*
X0044700Y0201412D01*
X0044042Y0198132D02*
X0044042Y0184588D01*
X0036758Y0184588D01*
X0036758Y0198132D01*
X0044042Y0198132D01*
X0047650Y0192812D02*
X0047650Y0190110D01*
X0049452Y0190110D01*
X0050597Y0190560D02*
X0051047Y0190110D01*
X0051948Y0190110D01*
X0052398Y0190560D01*
X0052398Y0191011D01*
X0051948Y0191461D01*
X0051497Y0191461D01*
X0051948Y0191461D02*
X0052398Y0191912D01*
X0052398Y0192362D01*
X0051948Y0192812D01*
X0051047Y0192812D01*
X0050597Y0192362D01*
X0042898Y0205503D02*
X0042448Y0205953D01*
X0042448Y0206854D01*
X0042898Y0207305D01*
X0043348Y0207305D01*
X0043799Y0206854D01*
X0044249Y0207305D01*
X0044700Y0207305D01*
X0043799Y0206854D02*
X0043799Y0206404D01*
X0058776Y0213362D02*
X0060578Y0213362D01*
X0061723Y0213362D02*
X0063524Y0215163D01*
X0063524Y0215614D01*
X0063074Y0216064D01*
X0062173Y0216064D01*
X0061723Y0215614D01*
X0061723Y0213362D02*
X0063524Y0213362D01*
X0058776Y0213362D02*
X0058776Y0216064D01*
X0045274Y0176730D02*
X0029526Y0176730D01*
X0045274Y0176730D01*
X0028539Y0168889D02*
X0028539Y0167988D01*
X0028089Y0167537D01*
X0027188Y0167537D01*
X0027188Y0168889D01*
X0027638Y0169339D01*
X0028089Y0169339D01*
X0028539Y0168889D01*
X0027188Y0167537D02*
X0026287Y0168438D01*
X0025837Y0169339D01*
X0026287Y0166393D02*
X0025837Y0165942D01*
X0025837Y0164591D01*
X0028539Y0164591D01*
X0028539Y0165942D01*
X0028089Y0166393D01*
X0026287Y0166393D01*
X0010398Y0150862D02*
X0010398Y0150412D01*
X0009948Y0149961D01*
X0010398Y0149511D01*
X0010398Y0149060D01*
X0009948Y0148610D01*
X0009047Y0148610D01*
X0008597Y0149060D01*
X0009497Y0149961D02*
X0009948Y0149961D01*
X0010398Y0150862D02*
X0009948Y0151312D01*
X0009047Y0151312D01*
X0008597Y0150862D01*
X0007452Y0151312D02*
X0006551Y0151312D01*
X0007001Y0151312D02*
X0007001Y0149060D01*
X0006551Y0148610D01*
X0006100Y0148610D01*
X0005650Y0149060D01*
X0145416Y0142297D02*
X0147384Y0142297D01*
X0154274Y0142297D02*
X0154274Y0134423D01*
X0150337Y0134423D01*
X0173746Y0144643D02*
X0177683Y0140706D01*
X0217054Y0140706D01*
X0217054Y0184014D01*
X0173746Y0184014D01*
X0173746Y0144643D01*
X0196510Y0128061D02*
X0196510Y0120659D01*
X0200290Y0120659D01*
X0200290Y0128061D01*
X0196510Y0128061D01*
X0200948Y0127953D02*
X0200948Y0128854D01*
X0201398Y0129305D01*
X0201848Y0129305D01*
X0202299Y0128854D01*
X0202749Y0129305D01*
X0203200Y0129305D01*
X0203650Y0128854D01*
X0203650Y0127953D01*
X0203200Y0127503D01*
X0203650Y0126358D02*
X0203650Y0124557D01*
X0201848Y0126358D01*
X0201398Y0126358D01*
X0200948Y0125908D01*
X0200948Y0125007D01*
X0201398Y0124557D01*
X0201398Y0123412D02*
X0202299Y0123412D01*
X0202749Y0122961D01*
X0202749Y0121610D01*
X0202749Y0122511D02*
X0203650Y0123412D01*
X0203650Y0121610D02*
X0200948Y0121610D01*
X0200948Y0122961D01*
X0201398Y0123412D01*
X0201398Y0127503D02*
X0200948Y0127953D01*
X0202299Y0128404D02*
X0202299Y0128854D01*
X0205613Y0127017D02*
X0217187Y0127017D01*
X0217187Y0121703D01*
X0205613Y0121703D01*
X0205613Y0127017D01*
X0211650Y0128560D02*
X0212100Y0128110D01*
X0213001Y0128110D01*
X0213452Y0128560D01*
X0214597Y0128110D02*
X0216398Y0129912D01*
X0216398Y0130362D01*
X0215948Y0130812D01*
X0215047Y0130812D01*
X0214597Y0130362D01*
X0213452Y0130362D02*
X0213001Y0130812D01*
X0212100Y0130812D01*
X0211650Y0130362D01*
X0211650Y0128560D01*
X0214597Y0128110D02*
X0216398Y0128110D01*
X0217543Y0128560D02*
X0217993Y0128110D01*
X0218894Y0128110D01*
X0219345Y0128560D01*
X0219345Y0129011D01*
X0218894Y0129461D01*
X0218444Y0129461D01*
X0218894Y0129461D02*
X0219345Y0129912D01*
X0219345Y0130362D01*
X0218894Y0130812D01*
X0217993Y0130812D01*
X0217543Y0130362D01*
X0228448Y0136610D02*
X0228448Y0137961D01*
X0228898Y0138412D01*
X0228448Y0136610D02*
X0231150Y0136610D01*
X0247150Y0151811D02*
X0248051Y0150910D01*
X0248952Y0151811D01*
X0248952Y0153612D01*
X0250097Y0152261D02*
X0251898Y0152261D01*
X0250997Y0153162D02*
X0250997Y0151360D01*
X0247150Y0151811D02*
X0247150Y0153612D01*
X0247150Y0161010D02*
X0247150Y0163712D01*
X0248501Y0163712D01*
X0248952Y0163262D01*
X0248952Y0162361D01*
X0248501Y0161911D01*
X0247150Y0161911D01*
X0248051Y0161911D02*
X0248952Y0161010D01*
X0250097Y0161010D02*
X0251898Y0163712D01*
X0250097Y0163712D02*
X0251898Y0161010D01*
X0251898Y0171010D02*
X0250097Y0173712D01*
X0248952Y0173712D02*
X0247150Y0173712D01*
X0248051Y0173712D02*
X0248051Y0171010D01*
X0250097Y0171010D02*
X0251898Y0173712D01*
X0251543Y0181610D02*
X0252894Y0181610D01*
X0253345Y0182060D01*
X0253345Y0183862D01*
X0252894Y0184312D01*
X0251543Y0184312D01*
X0251543Y0181610D01*
X0250398Y0181610D02*
X0250398Y0184312D01*
X0248597Y0184312D02*
X0248597Y0181610D01*
X0247452Y0182060D02*
X0247452Y0182961D01*
X0246551Y0182961D01*
X0247452Y0182060D02*
X0247001Y0181610D01*
X0246100Y0181610D01*
X0245650Y0182060D01*
X0245650Y0183862D01*
X0246100Y0184312D01*
X0247001Y0184312D01*
X0247452Y0183862D01*
X0248597Y0184312D02*
X0250398Y0181610D01*
X0248290Y0187659D02*
X0244510Y0187659D01*
X0244510Y0195061D01*
X0248290Y0195061D01*
X0248290Y0187659D01*
X0248948Y0188610D02*
X0248948Y0189961D01*
X0249398Y0190412D01*
X0250299Y0190412D01*
X0250749Y0189961D01*
X0250749Y0188610D01*
X0250749Y0189511D02*
X0251650Y0190412D01*
X0252448Y0189961D02*
X0252898Y0190412D01*
X0253799Y0190412D01*
X0254249Y0189961D01*
X0254249Y0188610D01*
X0254249Y0189511D02*
X0255150Y0190412D01*
X0254700Y0191557D02*
X0255150Y0192007D01*
X0255150Y0192908D01*
X0254700Y0193358D01*
X0253799Y0193358D01*
X0253348Y0192908D01*
X0253348Y0192457D01*
X0253799Y0191557D01*
X0252448Y0191557D01*
X0252448Y0193358D01*
X0251650Y0192908D02*
X0251200Y0193358D01*
X0250749Y0193358D01*
X0250299Y0192908D01*
X0250299Y0191557D01*
X0251200Y0191557D01*
X0251650Y0192007D01*
X0251650Y0192908D01*
X0250299Y0191557D02*
X0249398Y0192457D01*
X0248948Y0193358D01*
X0252448Y0189961D02*
X0252448Y0188610D01*
X0255150Y0188610D01*
X0251650Y0188610D02*
X0248948Y0188610D01*
X0243790Y0187659D02*
X0243790Y0195061D01*
X0240010Y0195061D01*
X0240010Y0187659D01*
X0243790Y0187659D01*
X0253821Y0204954D02*
X0253821Y0216766D01*
X0257101Y0225470D02*
X0249699Y0225470D01*
X0249699Y0229250D01*
X0257101Y0229250D01*
X0257101Y0225470D01*
X0257101Y0229470D02*
X0257101Y0233250D01*
X0249699Y0233250D01*
X0249699Y0229470D01*
X0257101Y0229470D01*
X0255948Y0234110D02*
X0255047Y0234110D01*
X0254597Y0234560D01*
X0255047Y0235461D02*
X0256398Y0235461D01*
X0256398Y0234560D02*
X0256398Y0236362D01*
X0255948Y0236812D01*
X0255047Y0236812D01*
X0254597Y0236362D01*
X0254597Y0235912D01*
X0255047Y0235461D01*
X0253452Y0235461D02*
X0253001Y0235011D01*
X0251650Y0235011D01*
X0252551Y0235011D02*
X0253452Y0234110D01*
X0253452Y0235461D02*
X0253452Y0236362D01*
X0253001Y0236812D01*
X0251650Y0236812D01*
X0251650Y0234110D01*
X0255948Y0234110D02*
X0256398Y0234560D01*
X0256493Y0238610D02*
X0256043Y0239060D01*
X0257845Y0240862D01*
X0257845Y0239060D01*
X0257394Y0238610D01*
X0256493Y0238610D01*
X0256043Y0239060D02*
X0256043Y0240862D01*
X0256493Y0241312D01*
X0257394Y0241312D01*
X0257845Y0240862D01*
X0254898Y0238610D02*
X0253097Y0238610D01*
X0253997Y0238610D02*
X0253997Y0241312D01*
X0253097Y0240412D01*
X0251952Y0240862D02*
X0251952Y0239961D01*
X0251501Y0239511D01*
X0250150Y0239511D01*
X0251051Y0239511D02*
X0251952Y0238610D01*
X0250150Y0238610D02*
X0250150Y0241312D01*
X0251501Y0241312D01*
X0251952Y0240862D01*
X0216187Y0242703D02*
X0216187Y0248017D01*
X0204613Y0248017D01*
X0204613Y0242703D01*
X0216187Y0242703D01*
X0210398Y0240862D02*
X0209948Y0241312D01*
X0209047Y0241312D01*
X0208597Y0240862D01*
X0207452Y0240862D02*
X0207001Y0241312D01*
X0206100Y0241312D01*
X0205650Y0240862D01*
X0205650Y0239060D01*
X0206100Y0238610D01*
X0207001Y0238610D01*
X0207452Y0239060D01*
X0208597Y0238610D02*
X0210398Y0240412D01*
X0210398Y0240862D01*
X0210398Y0238610D02*
X0208597Y0238610D01*
X0207061Y0204250D02*
X0199739Y0204250D01*
X0199739Y0200470D01*
X0207061Y0200470D01*
X0207061Y0204250D01*
X0197505Y0203662D02*
X0197505Y0201860D01*
X0197055Y0201410D01*
X0196154Y0201410D01*
X0195703Y0201860D01*
X0197505Y0203662D01*
X0197055Y0204112D01*
X0196154Y0204112D01*
X0195703Y0203662D01*
X0195703Y0201860D01*
X0194559Y0201410D02*
X0192757Y0201410D01*
X0193658Y0201410D02*
X0193658Y0204112D01*
X0192757Y0203212D01*
X0191612Y0203662D02*
X0191162Y0204112D01*
X0190261Y0204112D01*
X0189810Y0203662D01*
X0189810Y0201860D01*
X0190261Y0201410D01*
X0191162Y0201410D01*
X0191612Y0201860D01*
X0165898Y0237736D02*
X0163196Y0237736D01*
X0165898Y0237736D02*
X0165898Y0239538D01*
X0165898Y0240682D02*
X0165898Y0242484D01*
X0165898Y0241583D02*
X0163196Y0241583D01*
X0164096Y0240682D01*
X0158700Y0246610D02*
X0159150Y0247060D01*
X0159150Y0247961D01*
X0158700Y0248412D01*
X0159150Y0249557D02*
X0159150Y0251358D01*
X0159150Y0250457D02*
X0156448Y0250457D01*
X0157348Y0249557D01*
X0156898Y0248412D02*
X0156448Y0247961D01*
X0156448Y0247060D01*
X0156898Y0246610D01*
X0158700Y0246610D01*
X0155542Y0243588D02*
X0148258Y0243588D01*
X0148258Y0257132D01*
X0155542Y0257132D01*
X0155542Y0243588D01*
X0165900Y0248110D02*
X0165900Y0254360D01*
X0163398Y0254610D02*
X0161597Y0254610D01*
X0162497Y0254610D02*
X0162497Y0257312D01*
X0161597Y0256412D01*
X0160452Y0257312D02*
X0159551Y0257312D01*
X0160001Y0257312D02*
X0160001Y0255060D01*
X0159551Y0254610D01*
X0159100Y0254610D01*
X0158650Y0255060D01*
X0165900Y0248110D02*
X0173400Y0248110D01*
X0199797Y0114812D02*
X0199347Y0114362D01*
X0199347Y0113912D01*
X0199797Y0113461D01*
X0201148Y0113461D01*
X0201148Y0112560D02*
X0201148Y0114362D01*
X0200698Y0114812D01*
X0199797Y0114812D01*
X0199347Y0112560D02*
X0199797Y0112110D01*
X0200698Y0112110D01*
X0201148Y0112560D01*
X0204448Y0110805D02*
X0204448Y0109003D01*
X0205799Y0109003D01*
X0205348Y0109904D01*
X0205348Y0110354D01*
X0205799Y0110805D01*
X0206700Y0110805D01*
X0207150Y0110354D01*
X0207150Y0109453D01*
X0206700Y0109003D01*
X0206700Y0107858D02*
X0207150Y0107408D01*
X0207150Y0106507D01*
X0206700Y0106057D01*
X0207150Y0104912D02*
X0206249Y0104011D01*
X0206249Y0104461D02*
X0206249Y0103110D01*
X0207150Y0103110D02*
X0204448Y0103110D01*
X0204448Y0104461D01*
X0204898Y0104912D01*
X0205799Y0104912D01*
X0206249Y0104461D01*
X0204898Y0106057D02*
X0204448Y0106507D01*
X0204448Y0107408D01*
X0204898Y0107858D01*
X0205348Y0107858D01*
X0205799Y0107408D01*
X0206249Y0107858D01*
X0206700Y0107858D01*
X0205799Y0107408D02*
X0205799Y0106957D01*
X0208010Y0108561D02*
X0211790Y0108561D01*
X0211790Y0101159D01*
X0208010Y0101159D01*
X0208010Y0108561D01*
X0202894Y0106812D02*
X0202894Y0104110D01*
X0203345Y0105461D02*
X0201543Y0105461D01*
X0202894Y0106812D01*
X0208010Y0101061D02*
X0211790Y0101061D01*
X0211790Y0093659D01*
X0208010Y0093659D01*
X0208010Y0101061D01*
X0213010Y0101061D02*
X0216790Y0101061D01*
X0216790Y0093659D01*
X0213010Y0093659D01*
X0213010Y0101061D01*
X0207150Y0094003D02*
X0206700Y0094003D01*
X0204898Y0095805D01*
X0204448Y0095805D01*
X0204448Y0094003D01*
X0204898Y0092858D02*
X0205348Y0092858D01*
X0205799Y0092408D01*
X0206249Y0092858D01*
X0206700Y0092858D01*
X0207150Y0092408D01*
X0207150Y0091507D01*
X0206700Y0091057D01*
X0207150Y0089912D02*
X0206249Y0089011D01*
X0206249Y0089461D02*
X0206249Y0088110D01*
X0207150Y0088110D02*
X0204448Y0088110D01*
X0204448Y0089461D01*
X0204898Y0089912D01*
X0205799Y0089912D01*
X0206249Y0089461D01*
X0204898Y0091057D02*
X0204448Y0091507D01*
X0204448Y0092408D01*
X0204898Y0092858D01*
X0205799Y0092408D02*
X0205799Y0091957D01*
X0198650Y0093854D02*
X0195948Y0093854D01*
X0197299Y0092503D01*
X0197299Y0094305D01*
X0178479Y0084454D02*
X0177494Y0084454D01*
X0193448Y0047305D02*
X0193898Y0047305D01*
X0195700Y0045503D01*
X0196150Y0045503D01*
X0196150Y0043908D02*
X0193448Y0043908D01*
X0194799Y0042557D01*
X0194799Y0044358D01*
X0193448Y0045503D02*
X0193448Y0047305D01*
X0193898Y0041412D02*
X0193448Y0040961D01*
X0193448Y0039610D01*
X0196150Y0039610D01*
X0195249Y0039610D02*
X0195249Y0040961D01*
X0194799Y0041412D01*
X0193898Y0041412D01*
X0195249Y0040511D02*
X0196150Y0041412D01*
X0183650Y0041110D02*
X0180948Y0041110D01*
D13*
X0192258Y0095281D03*
X0072258Y0101596D03*
D14*
X0171778Y0136769D03*
D15*
X0183900Y0207360D02*
X0210900Y0207360D01*
X0210900Y0210360D02*
X0183900Y0210360D01*
X0177285Y0219860D02*
X0177397Y0220019D01*
X0177512Y0220176D01*
X0177631Y0220330D01*
X0177754Y0220481D01*
X0177880Y0220629D01*
X0178010Y0220774D01*
X0178144Y0220916D01*
X0178281Y0221054D01*
X0178421Y0221189D01*
X0178564Y0221321D01*
X0178711Y0221449D01*
X0178861Y0221573D01*
X0179013Y0221694D01*
X0179169Y0221811D01*
X0179327Y0221924D01*
X0179488Y0222034D01*
X0179652Y0222139D01*
X0179818Y0222240D01*
X0179987Y0222338D01*
X0180158Y0222431D01*
X0180331Y0222520D01*
X0180506Y0222605D01*
X0180684Y0222685D01*
X0180863Y0222761D01*
X0181044Y0222833D01*
X0181226Y0222900D01*
X0181411Y0222963D01*
X0181596Y0223021D01*
X0181784Y0223075D01*
X0181972Y0223124D01*
X0182161Y0223169D01*
X0182352Y0223209D01*
X0182543Y0223244D01*
X0182736Y0223275D01*
X0182929Y0223301D01*
X0183122Y0223322D01*
X0183316Y0223339D01*
X0183510Y0223351D01*
X0183705Y0223358D01*
X0183900Y0223360D01*
X0210900Y0223360D01*
X0210900Y0220360D02*
X0183900Y0220360D01*
X0183767Y0220358D01*
X0183635Y0220353D01*
X0183503Y0220344D01*
X0183370Y0220332D01*
X0183239Y0220316D01*
X0183107Y0220297D01*
X0182977Y0220274D01*
X0182847Y0220248D01*
X0182717Y0220218D01*
X0182589Y0220185D01*
X0182461Y0220149D01*
X0182335Y0220109D01*
X0182209Y0220066D01*
X0182085Y0220019D01*
X0181962Y0219969D01*
X0181841Y0219916D01*
X0181721Y0219860D01*
X0177286Y0210860D02*
X0177397Y0210700D01*
X0177512Y0210544D01*
X0177631Y0210390D01*
X0177754Y0210238D01*
X0177881Y0210090D01*
X0178011Y0209946D01*
X0178144Y0209804D01*
X0178281Y0209665D01*
X0178421Y0209530D01*
X0178565Y0209399D01*
X0178711Y0209271D01*
X0178861Y0209146D01*
X0179014Y0209026D01*
X0179169Y0208909D01*
X0179328Y0208795D01*
X0179489Y0208686D01*
X0179653Y0208581D01*
X0179819Y0208479D01*
X0179987Y0208382D01*
X0180158Y0208289D01*
X0180332Y0208200D01*
X0180507Y0208115D01*
X0180684Y0208035D01*
X0180863Y0207959D01*
X0181044Y0207887D01*
X0181227Y0207820D01*
X0181411Y0207757D01*
X0181597Y0207699D01*
X0181784Y0207645D01*
X0181973Y0207596D01*
X0182162Y0207551D01*
X0182353Y0207511D01*
X0182544Y0207476D01*
X0182736Y0207445D01*
X0182929Y0207419D01*
X0183123Y0207398D01*
X0183317Y0207381D01*
X0183511Y0207369D01*
X0183706Y0207362D01*
X0183900Y0207360D01*
X0183900Y0210360D02*
X0183767Y0210362D01*
X0183635Y0210367D01*
X0183503Y0210376D01*
X0183370Y0210388D01*
X0183239Y0210404D01*
X0183107Y0210423D01*
X0182977Y0210446D01*
X0182847Y0210472D01*
X0182717Y0210502D01*
X0182589Y0210535D01*
X0182461Y0210571D01*
X0182335Y0210611D01*
X0182209Y0210654D01*
X0182085Y0210701D01*
X0181962Y0210751D01*
X0181841Y0210804D01*
X0181721Y0210860D01*
X0193400Y0215360D02*
X0194900Y0215360D01*
X0199900Y0215360D02*
X0201400Y0215360D01*
X0210900Y0207360D02*
X0211095Y0207362D01*
X0211289Y0207369D01*
X0211484Y0207381D01*
X0211678Y0207398D01*
X0211871Y0207419D01*
X0212064Y0207445D01*
X0212256Y0207476D01*
X0212448Y0207511D01*
X0212638Y0207551D01*
X0212828Y0207596D01*
X0213016Y0207645D01*
X0213203Y0207699D01*
X0213389Y0207757D01*
X0213573Y0207820D01*
X0213756Y0207887D01*
X0213937Y0207959D01*
X0214116Y0208035D01*
X0214293Y0208115D01*
X0214469Y0208200D01*
X0214642Y0208289D01*
X0214813Y0208382D01*
X0214981Y0208479D01*
X0215148Y0208581D01*
X0215311Y0208686D01*
X0215472Y0208796D01*
X0215631Y0208909D01*
X0215786Y0209026D01*
X0215939Y0209147D01*
X0216089Y0209271D01*
X0216235Y0209399D01*
X0216379Y0209531D01*
X0216519Y0209666D01*
X0216656Y0209804D01*
X0216789Y0209946D01*
X0216919Y0210091D01*
X0217046Y0210239D01*
X0217169Y0210390D01*
X0217288Y0210544D01*
X0217403Y0210701D01*
X0217515Y0210860D01*
X0217514Y0219860D02*
X0217403Y0220020D01*
X0217288Y0220176D01*
X0217169Y0220330D01*
X0217046Y0220482D01*
X0216919Y0220630D01*
X0216789Y0220774D01*
X0216656Y0220916D01*
X0216519Y0221055D01*
X0216379Y0221190D01*
X0216235Y0221321D01*
X0216089Y0221449D01*
X0215939Y0221574D01*
X0215786Y0221694D01*
X0215631Y0221811D01*
X0215472Y0221925D01*
X0215311Y0222034D01*
X0215147Y0222139D01*
X0214981Y0222241D01*
X0214813Y0222338D01*
X0214642Y0222431D01*
X0214468Y0222520D01*
X0214293Y0222605D01*
X0214116Y0222685D01*
X0213937Y0222761D01*
X0213756Y0222833D01*
X0213573Y0222900D01*
X0213389Y0222963D01*
X0213203Y0223021D01*
X0213016Y0223075D01*
X0212827Y0223124D01*
X0212638Y0223169D01*
X0212447Y0223209D01*
X0212256Y0223244D01*
X0212064Y0223275D01*
X0211871Y0223301D01*
X0211677Y0223322D01*
X0211483Y0223339D01*
X0211289Y0223351D01*
X0211094Y0223358D01*
X0210900Y0223360D01*
X0210900Y0220360D02*
X0211033Y0220358D01*
X0211165Y0220353D01*
X0211297Y0220344D01*
X0211430Y0220332D01*
X0211561Y0220316D01*
X0211693Y0220297D01*
X0211823Y0220274D01*
X0211953Y0220248D01*
X0212083Y0220218D01*
X0212211Y0220185D01*
X0212339Y0220149D01*
X0212465Y0220109D01*
X0212591Y0220066D01*
X0212715Y0220019D01*
X0212838Y0219969D01*
X0212959Y0219916D01*
X0213079Y0219860D01*
X0213079Y0210860D02*
X0212959Y0210804D01*
X0212838Y0210751D01*
X0212715Y0210701D01*
X0212591Y0210654D01*
X0212465Y0210611D01*
X0212339Y0210571D01*
X0212211Y0210535D01*
X0212083Y0210502D01*
X0211953Y0210472D01*
X0211823Y0210446D01*
X0211693Y0210423D01*
X0211561Y0210404D01*
X0211430Y0210388D01*
X0211297Y0210376D01*
X0211165Y0210367D01*
X0211033Y0210362D01*
X0210900Y0210360D01*
D16*
X0218900Y0205860D02*
X0218960Y0205862D01*
X0219021Y0205867D01*
X0219080Y0205876D01*
X0219139Y0205889D01*
X0219198Y0205905D01*
X0219255Y0205925D01*
X0219310Y0205948D01*
X0219365Y0205975D01*
X0219417Y0206004D01*
X0219468Y0206037D01*
X0219517Y0206073D01*
X0219563Y0206111D01*
X0219607Y0206153D01*
X0219649Y0206197D01*
X0219687Y0206243D01*
X0219723Y0206292D01*
X0219756Y0206343D01*
X0219785Y0206395D01*
X0219812Y0206450D01*
X0219835Y0206505D01*
X0219855Y0206562D01*
X0219871Y0206621D01*
X0219884Y0206680D01*
X0219893Y0206739D01*
X0219898Y0206800D01*
X0219900Y0206860D01*
X0219900Y0209860D01*
X0218900Y0205860D02*
X0175900Y0205860D01*
X0175840Y0205862D01*
X0175779Y0205867D01*
X0175720Y0205876D01*
X0175661Y0205889D01*
X0175602Y0205905D01*
X0175545Y0205925D01*
X0175490Y0205948D01*
X0175435Y0205975D01*
X0175383Y0206004D01*
X0175332Y0206037D01*
X0175283Y0206073D01*
X0175237Y0206111D01*
X0175193Y0206153D01*
X0175151Y0206197D01*
X0175113Y0206243D01*
X0175077Y0206292D01*
X0175044Y0206343D01*
X0175015Y0206395D01*
X0174988Y0206450D01*
X0174965Y0206505D01*
X0174945Y0206562D01*
X0174929Y0206621D01*
X0174916Y0206680D01*
X0174907Y0206739D01*
X0174902Y0206800D01*
X0174900Y0206860D01*
X0174900Y0209860D01*
X0174900Y0220860D02*
X0174900Y0223860D01*
X0174902Y0223920D01*
X0174907Y0223981D01*
X0174916Y0224040D01*
X0174929Y0224099D01*
X0174945Y0224158D01*
X0174965Y0224215D01*
X0174988Y0224270D01*
X0175015Y0224325D01*
X0175044Y0224377D01*
X0175077Y0224428D01*
X0175113Y0224477D01*
X0175151Y0224523D01*
X0175193Y0224567D01*
X0175237Y0224609D01*
X0175283Y0224647D01*
X0175332Y0224683D01*
X0175383Y0224716D01*
X0175435Y0224745D01*
X0175490Y0224772D01*
X0175545Y0224795D01*
X0175602Y0224815D01*
X0175661Y0224831D01*
X0175720Y0224844D01*
X0175779Y0224853D01*
X0175840Y0224858D01*
X0175900Y0224860D01*
X0218900Y0224860D01*
X0218960Y0224858D01*
X0219021Y0224853D01*
X0219080Y0224844D01*
X0219139Y0224831D01*
X0219198Y0224815D01*
X0219255Y0224795D01*
X0219310Y0224772D01*
X0219365Y0224745D01*
X0219417Y0224716D01*
X0219468Y0224683D01*
X0219517Y0224647D01*
X0219563Y0224609D01*
X0219607Y0224567D01*
X0219649Y0224523D01*
X0219687Y0224477D01*
X0219723Y0224428D01*
X0219756Y0224377D01*
X0219785Y0224325D01*
X0219812Y0224270D01*
X0219835Y0224215D01*
X0219855Y0224158D01*
X0219871Y0224099D01*
X0219884Y0224040D01*
X0219893Y0223981D01*
X0219898Y0223920D01*
X0219900Y0223860D01*
X0219900Y0220860D01*
X0199900Y0217860D02*
X0199900Y0215360D01*
X0199900Y0212860D01*
X0198400Y0212860D02*
X0196400Y0212860D01*
X0196400Y0217860D01*
X0198400Y0217860D01*
X0198400Y0212860D01*
X0194900Y0212860D02*
X0194900Y0215360D01*
X0194900Y0217860D01*
M02*
