G75*
%MOIN*%
%OFA0B0*%
%FSLAX25Y25*%
%IPPOS*%
%LPD*%
%AMOC8*
5,1,8,0,0,1.08239X$1,22.5*
%
%ADD10C,0.00800*%
%ADD11R,0.00750X0.00750*%
%ADD12R,0.00750X0.01500*%
%ADD13R,0.00750X0.06000*%
%ADD14R,0.00750X0.05250*%
%ADD15R,0.00750X0.03000*%
%ADD16R,0.00750X0.02250*%
%ADD17R,0.00750X0.06750*%
%ADD18R,0.00750X0.04500*%
%ADD19R,0.00750X0.03750*%
%ADD20R,0.00750X0.11250*%
%ADD21R,0.00750X0.08250*%
%ADD22R,0.00750X0.07500*%
%ADD23R,0.00750X0.09000*%
%ADD24R,0.00750X0.09750*%
%ADD25R,0.00750X0.10500*%
%ADD26R,0.00750X0.14250*%
%ADD27R,0.00750X0.17250*%
%ADD28R,0.00750X0.18750*%
%ADD29R,0.00750X0.20250*%
%ADD30R,0.00750X0.21750*%
%ADD31R,0.00750X0.23250*%
%ADD32R,0.00750X0.24000*%
%ADD33R,0.00750X0.24750*%
%ADD34R,0.00750X0.12000*%
%ADD35R,0.00750X0.30750*%
%ADD36R,0.00750X0.12750*%
%ADD37R,0.00750X0.29250*%
%ADD38R,0.00750X0.13500*%
%ADD39R,0.00750X0.28500*%
%ADD40R,0.00750X0.27750*%
%ADD41R,0.00750X0.16500*%
%ADD42R,0.00750X0.15750*%
%ADD43R,0.00750X0.15000*%
%ADD44C,0.00185*%
D10*
X0095604Y0247760D02*
X0095604Y0248461D01*
X0092802Y0251263D01*
X0092802Y0251964D01*
X0095604Y0251964D01*
X0096572Y0253760D02*
X0095871Y0254461D01*
X0095871Y0257263D01*
X0096572Y0257964D01*
X0098673Y0257964D01*
X0098673Y0253760D01*
X0096572Y0253760D01*
X0094069Y0253760D02*
X0092668Y0255161D01*
X0092668Y0256562D01*
X0094069Y0257964D01*
X0098807Y0251964D02*
X0098807Y0247760D01*
X0100208Y0247760D02*
X0097405Y0247760D01*
X0100208Y0250562D02*
X0098807Y0251964D01*
X0100341Y0253760D02*
X0101743Y0255161D01*
X0101743Y0256562D01*
X0100341Y0257964D01*
X0103544Y0257263D02*
X0103544Y0254461D01*
X0104245Y0253760D01*
X0105646Y0253760D01*
X0106347Y0254461D01*
X0103544Y0257263D01*
X0104245Y0257964D01*
X0105646Y0257964D01*
X0106347Y0257263D01*
X0106347Y0254461D01*
X0107948Y0254461D02*
X0107948Y0253760D01*
X0108649Y0253760D01*
X0108649Y0254461D01*
X0107948Y0254461D01*
X0110450Y0254461D02*
X0111151Y0253760D01*
X0112552Y0253760D01*
X0113252Y0254461D01*
X0115054Y0255161D02*
X0115054Y0257964D01*
X0113252Y0257263D02*
X0112552Y0257964D01*
X0111151Y0257964D01*
X0110450Y0257263D01*
X0110450Y0256562D01*
X0111151Y0255862D01*
X0110450Y0255161D01*
X0110450Y0254461D01*
X0111151Y0255862D02*
X0111851Y0255862D01*
X0115054Y0255161D02*
X0116455Y0253760D01*
X0117856Y0255161D01*
X0117856Y0257964D01*
X0124262Y0257263D02*
X0124962Y0257964D01*
X0126364Y0257964D01*
X0127064Y0257263D01*
X0128866Y0255862D02*
X0131668Y0255862D01*
X0133470Y0253760D02*
X0133470Y0257964D01*
X0136272Y0257964D02*
X0133470Y0253760D01*
X0136272Y0253760D02*
X0136272Y0257964D01*
X0138074Y0257964D02*
X0140876Y0257964D01*
X0140876Y0253760D01*
X0138074Y0253760D01*
X0139475Y0255862D02*
X0140876Y0255862D01*
X0142678Y0255862D02*
X0142678Y0254461D01*
X0143378Y0253760D01*
X0144779Y0253760D01*
X0145480Y0254461D01*
X0145480Y0257263D01*
X0144779Y0257964D01*
X0143378Y0257964D01*
X0142678Y0257263D01*
X0142678Y0255862D02*
X0144079Y0255862D01*
X0151885Y0257964D02*
X0154688Y0257964D01*
X0153287Y0257964D02*
X0153287Y0253760D01*
X0156489Y0253760D02*
X0159292Y0253760D01*
X0159292Y0257964D01*
X0156489Y0257964D01*
X0157891Y0255862D02*
X0159292Y0255862D01*
X0161093Y0255862D02*
X0161794Y0255161D01*
X0163896Y0255161D01*
X0163896Y0253760D02*
X0163896Y0257964D01*
X0161794Y0257964D01*
X0161093Y0257263D01*
X0161093Y0255862D01*
X0162494Y0255161D02*
X0161093Y0253760D01*
X0127064Y0253760D02*
X0124262Y0256562D01*
X0124262Y0257263D01*
X0124262Y0253760D02*
X0127064Y0253760D01*
X0109416Y0251263D02*
X0109416Y0248461D01*
X0106613Y0251263D01*
X0106613Y0248461D01*
X0107314Y0247760D01*
X0108715Y0247760D01*
X0109416Y0248461D01*
X0109416Y0251263D02*
X0108715Y0251964D01*
X0107314Y0251964D01*
X0106613Y0251263D01*
X0104812Y0251263D02*
X0104812Y0250562D01*
X0104111Y0249862D01*
X0102710Y0249862D01*
X0102009Y0249161D01*
X0102009Y0248461D01*
X0102710Y0247760D01*
X0104111Y0247760D01*
X0104812Y0248461D01*
X0104812Y0249161D01*
X0104111Y0249862D01*
X0102710Y0249862D02*
X0102009Y0250562D01*
X0102009Y0251263D01*
X0102710Y0251964D01*
X0104111Y0251964D01*
X0104812Y0251263D01*
D11*
X0112400Y0193360D03*
X0112400Y0190360D03*
X0111650Y0190360D03*
X0112400Y0188110D03*
X0114650Y0187360D03*
X0117650Y0186610D03*
X0117650Y0191860D03*
X0114650Y0191110D03*
X0112400Y0185110D03*
X0117650Y0175360D03*
X0117650Y0164860D03*
X0087650Y0191110D03*
X0108650Y0134110D03*
X0114650Y0089860D03*
X0057650Y0088360D03*
X0056150Y0089110D03*
X0056900Y0090610D03*
X0056900Y0086860D03*
X0044900Y0108610D03*
X0051650Y0116110D03*
X0052400Y0116110D03*
X0056150Y0113110D03*
X0056900Y0111610D03*
D12*
X0055400Y0110485D03*
X0054650Y0111235D03*
X0053900Y0111985D03*
X0053150Y0111985D03*
X0052400Y0111985D03*
X0051650Y0111985D03*
X0050900Y0111235D03*
X0050150Y0110485D03*
X0048650Y0108235D03*
X0050150Y0115735D03*
X0050900Y0115735D03*
X0053150Y0115735D03*
X0053900Y0115735D03*
X0054650Y0114985D03*
X0055400Y0114235D03*
X0056900Y0115735D03*
X0056150Y0117235D03*
X0055400Y0117985D03*
X0054650Y0118735D03*
X0053900Y0119485D03*
X0053150Y0120235D03*
X0052400Y0120235D03*
X0050900Y0120985D03*
X0050150Y0120985D03*
X0047900Y0120235D03*
X0041900Y0111985D03*
X0056150Y0109735D03*
X0057650Y0114235D03*
X0056150Y0092485D03*
X0055400Y0091735D03*
X0054650Y0090985D03*
X0053900Y0090235D03*
X0053150Y0090235D03*
X0052400Y0090235D03*
X0050900Y0090985D03*
X0050150Y0091735D03*
X0050150Y0086485D03*
X0050900Y0086485D03*
X0051650Y0086485D03*
X0052400Y0086485D03*
X0053150Y0086485D03*
X0053900Y0086485D03*
X0054650Y0087235D03*
X0055400Y0087985D03*
X0056150Y0085735D03*
X0055400Y0084235D03*
X0054650Y0083485D03*
X0053900Y0082735D03*
X0053150Y0082735D03*
X0052400Y0081985D03*
X0051650Y0081985D03*
X0048650Y0081985D03*
X0044900Y0093235D03*
X0110150Y0089485D03*
X0110900Y0089485D03*
X0115400Y0089485D03*
X0116150Y0084235D03*
X0115400Y0083485D03*
X0114650Y0083485D03*
X0110900Y0084235D03*
X0110150Y0084235D03*
X0110900Y0099235D03*
X0114650Y0099235D03*
X0115400Y0099235D03*
X0116150Y0099235D03*
X0116150Y0104485D03*
X0115400Y0105235D03*
X0114650Y0105235D03*
X0111650Y0104485D03*
X0110150Y0104485D03*
X0110150Y0120235D03*
X0110900Y0120235D03*
X0111650Y0120235D03*
X0113900Y0120235D03*
X0114650Y0120235D03*
X0115400Y0120235D03*
X0116150Y0120235D03*
X0116150Y0149485D03*
X0115400Y0149485D03*
X0114650Y0149485D03*
X0113900Y0149485D03*
X0111650Y0149485D03*
X0110900Y0149485D03*
X0110150Y0149485D03*
X0110900Y0159235D03*
X0111650Y0159235D03*
X0112400Y0159985D03*
X0114650Y0160735D03*
X0116150Y0159985D03*
X0117650Y0159235D03*
X0116900Y0165235D03*
X0116150Y0165235D03*
X0115400Y0165235D03*
X0114650Y0165235D03*
X0112400Y0165235D03*
X0111650Y0165235D03*
X0110900Y0165235D03*
X0110150Y0165235D03*
X0110150Y0174985D03*
X0109400Y0174985D03*
X0108650Y0174985D03*
X0110900Y0174985D03*
X0111650Y0174985D03*
X0112400Y0174985D03*
X0113150Y0174985D03*
X0113900Y0174985D03*
X0114650Y0174985D03*
X0115400Y0174985D03*
X0116150Y0174985D03*
X0116900Y0174985D03*
X0109400Y0183985D03*
X0108650Y0183985D03*
X0110150Y0184735D03*
X0110900Y0184735D03*
X0111650Y0184735D03*
X0113150Y0185485D03*
X0113900Y0185485D03*
X0114650Y0185485D03*
X0113900Y0187735D03*
X0113150Y0187735D03*
X0111650Y0188485D03*
X0109400Y0189235D03*
X0108650Y0189235D03*
X0110150Y0193735D03*
X0110900Y0193735D03*
X0111650Y0193735D03*
X0113150Y0192985D03*
X0113900Y0192985D03*
X0114650Y0192985D03*
X0113900Y0190735D03*
X0113150Y0190735D03*
X0109400Y0194485D03*
X0108650Y0194485D03*
D13*
X0108650Y0162985D03*
X0113900Y0162985D03*
X0112400Y0147235D03*
X0117650Y0146485D03*
X0112400Y0117985D03*
X0108650Y0117235D03*
X0117650Y0117235D03*
X0116900Y0102235D03*
X0109400Y0102235D03*
X0109400Y0086485D03*
X0116900Y0086485D03*
D14*
X0117650Y0131860D03*
D15*
X0117650Y0102235D03*
X0117650Y0086485D03*
X0047900Y0087985D03*
X0046400Y0090235D03*
X0045650Y0091735D03*
X0042650Y0088735D03*
X0043400Y0087235D03*
X0044900Y0084985D03*
X0045650Y0110485D03*
X0046400Y0111985D03*
X0047900Y0114235D03*
X0044150Y0116485D03*
X0043400Y0114985D03*
X0042650Y0113485D03*
X0110150Y0189235D03*
X0110900Y0189235D03*
X0089150Y0191485D03*
D16*
X0088400Y0191110D03*
X0115400Y0191860D03*
X0116150Y0191860D03*
X0116900Y0191860D03*
X0116900Y0186610D03*
X0116150Y0186610D03*
X0115400Y0186610D03*
X0115400Y0160360D03*
X0116900Y0159610D03*
X0110150Y0159610D03*
X0110150Y0134110D03*
X0109400Y0134110D03*
X0110900Y0134110D03*
X0111650Y0134110D03*
X0112400Y0134110D03*
X0113150Y0134110D03*
X0113900Y0134110D03*
X0114650Y0134110D03*
X0115400Y0134110D03*
X0116150Y0134110D03*
X0110900Y0104860D03*
X0110150Y0099610D03*
X0113900Y0099610D03*
X0111650Y0089110D03*
X0113900Y0084610D03*
X0116150Y0089110D03*
X0051650Y0090610D03*
X0049400Y0092860D03*
X0048650Y0094360D03*
X0047150Y0089110D03*
X0048650Y0087610D03*
X0049400Y0086860D03*
X0047900Y0082360D03*
X0047150Y0082360D03*
X0046400Y0083110D03*
X0045650Y0083860D03*
X0044150Y0086110D03*
X0041900Y0090610D03*
X0049400Y0081610D03*
X0050150Y0081610D03*
X0050900Y0081610D03*
X0049400Y0109360D03*
X0047150Y0113110D03*
X0048650Y0114610D03*
X0049400Y0115360D03*
X0046400Y0119110D03*
X0047150Y0119860D03*
X0048650Y0120610D03*
X0049400Y0120610D03*
X0051650Y0120610D03*
X0045650Y0118360D03*
X0044900Y0117610D03*
D17*
X0065900Y0135610D03*
X0066650Y0135610D03*
X0069650Y0136360D03*
X0072650Y0137110D03*
X0073400Y0137110D03*
X0076400Y0137860D03*
X0077150Y0137860D03*
X0079400Y0138610D03*
X0080150Y0138610D03*
X0080900Y0138610D03*
X0083150Y0139360D03*
X0083900Y0139360D03*
X0084650Y0139360D03*
X0084650Y0146860D03*
X0083900Y0146860D03*
X0081650Y0147610D03*
X0080900Y0147610D03*
X0080150Y0147610D03*
X0078650Y0148360D03*
X0077900Y0148360D03*
X0077150Y0148360D03*
X0074900Y0149110D03*
X0074150Y0149110D03*
X0073400Y0149110D03*
X0071150Y0149860D03*
X0070400Y0149860D03*
X0067400Y0150610D03*
X0100400Y0185860D03*
X0109400Y0162610D03*
X0113150Y0162610D03*
X0113150Y0146860D03*
X0116900Y0146860D03*
X0109400Y0146860D03*
X0108650Y0146860D03*
X0116900Y0131860D03*
X0116900Y0117610D03*
X0113150Y0117610D03*
X0109400Y0117610D03*
D18*
X0112400Y0102985D03*
X0113150Y0101485D03*
X0108650Y0102235D03*
X0113150Y0085735D03*
X0089900Y0191485D03*
D19*
X0112400Y0087610D03*
X0108650Y0086860D03*
D20*
X0053150Y0101110D03*
X0090650Y0143110D03*
X0091400Y0143110D03*
X0092150Y0143110D03*
X0099650Y0185860D03*
D21*
X0099650Y0159610D03*
X0098900Y0143110D03*
X0098150Y0143110D03*
X0097400Y0143110D03*
X0078650Y0109360D03*
X0075650Y0108610D03*
X0072650Y0107860D03*
X0071900Y0107860D03*
X0069650Y0107110D03*
X0068900Y0107110D03*
X0068150Y0107110D03*
X0066650Y0106360D03*
X0065900Y0106360D03*
X0065150Y0106360D03*
X0063650Y0105610D03*
X0062900Y0105610D03*
X0062150Y0105610D03*
X0062150Y0096610D03*
X0062900Y0096610D03*
X0063650Y0096610D03*
X0064400Y0096610D03*
X0065150Y0095860D03*
X0065900Y0095860D03*
X0066650Y0095860D03*
X0067400Y0095860D03*
X0068150Y0095110D03*
X0068900Y0095110D03*
X0069650Y0095110D03*
X0070400Y0095110D03*
X0071900Y0094360D03*
X0072650Y0094360D03*
X0073400Y0094360D03*
X0075650Y0093610D03*
D22*
X0064400Y0105985D03*
X0061400Y0105235D03*
X0061400Y0096985D03*
X0067400Y0135985D03*
X0068150Y0135985D03*
X0068900Y0135985D03*
X0070400Y0136735D03*
X0071150Y0136735D03*
X0071900Y0136735D03*
X0074150Y0137485D03*
X0074900Y0137485D03*
X0075650Y0137485D03*
X0077900Y0138235D03*
X0078650Y0138235D03*
X0081650Y0138985D03*
X0082400Y0138985D03*
X0082400Y0147235D03*
X0083150Y0147235D03*
X0079400Y0147985D03*
X0076400Y0148735D03*
X0075650Y0148735D03*
X0072650Y0149485D03*
X0071900Y0149485D03*
X0069650Y0150235D03*
X0068900Y0150235D03*
X0068150Y0150235D03*
X0099650Y0143485D03*
X0090650Y0191485D03*
D23*
X0090650Y0159235D03*
X0089900Y0159235D03*
X0089150Y0159235D03*
X0088400Y0159235D03*
X0087650Y0159235D03*
X0086900Y0159235D03*
X0086150Y0159235D03*
X0085400Y0159235D03*
X0084650Y0159235D03*
X0083900Y0159235D03*
X0083150Y0159235D03*
X0082400Y0159235D03*
X0081650Y0159235D03*
X0080900Y0159235D03*
X0080150Y0159235D03*
X0079400Y0159235D03*
X0078650Y0159235D03*
X0077900Y0159235D03*
X0077150Y0159235D03*
X0076400Y0159235D03*
X0075650Y0159235D03*
X0074900Y0159235D03*
X0074150Y0159235D03*
X0073400Y0159235D03*
X0072650Y0159235D03*
X0071900Y0159235D03*
X0071150Y0159235D03*
X0070400Y0159235D03*
X0069650Y0159235D03*
X0068900Y0159235D03*
X0068150Y0159235D03*
X0067400Y0159235D03*
X0053150Y0176485D03*
X0091400Y0159235D03*
X0092150Y0159235D03*
X0092900Y0159235D03*
X0093650Y0159235D03*
X0094400Y0159235D03*
X0095150Y0159235D03*
X0095900Y0159235D03*
X0096650Y0159235D03*
X0097400Y0159235D03*
X0098150Y0159235D03*
X0098900Y0159235D03*
X0096650Y0143485D03*
X0096650Y0126985D03*
X0095900Y0126985D03*
X0095150Y0126985D03*
X0094400Y0126985D03*
X0093650Y0126985D03*
X0092900Y0126985D03*
X0092150Y0126985D03*
X0091400Y0126985D03*
X0090650Y0126985D03*
X0089900Y0126985D03*
X0089150Y0126985D03*
X0088400Y0126985D03*
X0087650Y0126985D03*
X0086900Y0126985D03*
X0086150Y0126985D03*
X0085400Y0126985D03*
X0084650Y0126985D03*
X0083900Y0126985D03*
X0083150Y0126985D03*
X0082400Y0126985D03*
X0081650Y0126985D03*
X0080900Y0126985D03*
X0080150Y0126985D03*
X0079400Y0126985D03*
X0078650Y0126985D03*
X0077900Y0126985D03*
X0077150Y0126985D03*
X0076400Y0126985D03*
X0075650Y0126985D03*
X0074900Y0126985D03*
X0074150Y0126985D03*
X0073400Y0126985D03*
X0072650Y0126985D03*
X0071900Y0126985D03*
X0071150Y0126985D03*
X0070400Y0126985D03*
X0069650Y0126985D03*
X0068900Y0126985D03*
X0068150Y0126985D03*
X0067400Y0126985D03*
X0066650Y0126985D03*
X0065900Y0126985D03*
X0073400Y0108235D03*
X0074150Y0108235D03*
X0074900Y0108235D03*
X0076400Y0108985D03*
X0077150Y0108985D03*
X0077900Y0108985D03*
X0079400Y0109735D03*
X0080150Y0109735D03*
X0080900Y0109735D03*
X0071150Y0107485D03*
X0070400Y0107485D03*
X0067400Y0106735D03*
X0071150Y0094735D03*
X0074150Y0093985D03*
X0074900Y0093985D03*
X0076400Y0093235D03*
X0077150Y0093235D03*
X0077900Y0093235D03*
X0078650Y0093235D03*
X0079400Y0092485D03*
X0080150Y0092485D03*
X0080900Y0092485D03*
X0081650Y0092485D03*
X0097400Y0126985D03*
X0098150Y0126985D03*
X0098900Y0126985D03*
X0099650Y0126985D03*
D24*
X0099650Y0114610D03*
X0098150Y0113860D03*
X0097400Y0113860D03*
X0096650Y0113860D03*
X0095150Y0113110D03*
X0094400Y0113110D03*
X0093650Y0113110D03*
X0092900Y0113110D03*
X0092150Y0112360D03*
X0091400Y0112360D03*
X0090650Y0112360D03*
X0081650Y0110110D03*
X0090650Y0089860D03*
X0091400Y0089860D03*
X0092150Y0089860D03*
X0092900Y0089860D03*
X0093650Y0089110D03*
X0094400Y0089110D03*
X0095150Y0089110D03*
X0095900Y0089110D03*
X0097400Y0088360D03*
X0098150Y0088360D03*
X0098900Y0088360D03*
X0095900Y0143110D03*
X0095150Y0143110D03*
X0094400Y0143110D03*
X0093650Y0143110D03*
X0087650Y0176110D03*
X0086900Y0176110D03*
X0086150Y0176110D03*
X0085400Y0176110D03*
X0084650Y0176110D03*
X0083900Y0176110D03*
X0083150Y0176110D03*
X0082400Y0176110D03*
X0081650Y0176110D03*
X0080900Y0176110D03*
X0080150Y0176110D03*
X0079400Y0176110D03*
X0078650Y0176110D03*
X0077900Y0176110D03*
X0077150Y0176110D03*
X0076400Y0176110D03*
X0075650Y0176110D03*
X0074900Y0176110D03*
X0074150Y0176110D03*
X0073400Y0176110D03*
X0072650Y0176110D03*
X0071900Y0176110D03*
X0071150Y0176110D03*
X0070400Y0176110D03*
X0069650Y0176110D03*
X0068900Y0176110D03*
X0068150Y0176110D03*
X0067400Y0176110D03*
X0066650Y0176110D03*
X0065900Y0176110D03*
X0065150Y0176110D03*
X0064400Y0176110D03*
X0063650Y0176110D03*
X0062900Y0176110D03*
X0062150Y0176110D03*
X0061400Y0176110D03*
X0060650Y0176110D03*
X0059900Y0176110D03*
X0059150Y0176110D03*
X0058400Y0176110D03*
X0057650Y0176110D03*
X0056900Y0176110D03*
X0056150Y0176110D03*
X0055400Y0176110D03*
X0054650Y0176110D03*
X0053900Y0176110D03*
X0088400Y0176860D03*
X0089150Y0176860D03*
D25*
X0089900Y0177235D03*
X0092900Y0143485D03*
X0098900Y0114235D03*
X0095900Y0113485D03*
X0096650Y0088735D03*
X0099650Y0087985D03*
D26*
X0058400Y0101110D03*
X0057650Y0101110D03*
X0056900Y0101110D03*
X0055400Y0129610D03*
X0054650Y0129610D03*
X0053900Y0129610D03*
X0053900Y0156610D03*
X0054650Y0156610D03*
X0055400Y0156610D03*
X0056150Y0156610D03*
X0085400Y0143110D03*
X0098900Y0185860D03*
D27*
X0098150Y0185860D03*
D28*
X0097400Y0185860D03*
D29*
X0096650Y0185860D03*
D30*
X0095900Y0185860D03*
D31*
X0095150Y0185860D03*
X0091400Y0184360D03*
D32*
X0092150Y0184735D03*
X0094400Y0186235D03*
D33*
X0093650Y0185860D03*
X0092900Y0185110D03*
D34*
X0090650Y0177985D03*
X0089900Y0143485D03*
D35*
X0089900Y0101110D03*
X0089150Y0101110D03*
X0088400Y0101110D03*
X0087650Y0101110D03*
D36*
X0055400Y0101110D03*
X0054650Y0101110D03*
X0053900Y0101110D03*
X0086900Y0143110D03*
X0087650Y0143110D03*
X0088400Y0143110D03*
X0089150Y0143110D03*
D37*
X0086900Y0101110D03*
X0086150Y0101110D03*
X0085400Y0101110D03*
D38*
X0056150Y0101485D03*
X0053150Y0129235D03*
X0053150Y0156985D03*
X0086150Y0143485D03*
D39*
X0084650Y0101485D03*
D40*
X0083900Y0101110D03*
X0083150Y0101110D03*
X0082400Y0101110D03*
D41*
X0065150Y0130735D03*
X0064400Y0130735D03*
X0063650Y0130735D03*
X0064400Y0155485D03*
X0065150Y0155485D03*
X0065900Y0155485D03*
X0066650Y0155485D03*
D42*
X0063650Y0155860D03*
X0062900Y0155860D03*
X0062150Y0155860D03*
X0061400Y0155860D03*
X0060650Y0155860D03*
X0060650Y0130360D03*
X0059900Y0130360D03*
X0061400Y0130360D03*
X0062150Y0130360D03*
X0062900Y0130360D03*
X0060650Y0101110D03*
X0059900Y0101110D03*
X0059150Y0101110D03*
D43*
X0059150Y0129985D03*
X0058400Y0129985D03*
X0057650Y0129985D03*
X0056900Y0129985D03*
X0056150Y0129985D03*
X0056900Y0156235D03*
X0057650Y0156235D03*
X0058400Y0156235D03*
X0059150Y0156235D03*
X0059900Y0156235D03*
D44*
X0072868Y0016731D02*
X0112029Y0016731D01*
X0103677Y0031393D01*
X0100151Y0029723D01*
X0100707Y0028795D01*
X0100893Y0028424D01*
X0100893Y0026939D01*
X0100336Y0019515D01*
X0099965Y0019515D01*
X0099408Y0019886D01*
X0099037Y0020629D01*
X0098666Y0021742D01*
X0098480Y0023413D01*
X0098480Y0026939D01*
X0097552Y0028238D01*
X0096996Y0028238D01*
X0091985Y0025825D01*
X0091985Y0025640D01*
X0095511Y0022485D01*
X0096253Y0021371D01*
X0096624Y0020629D01*
X0096624Y0020072D01*
X0096439Y0019701D01*
X0096253Y0019515D01*
X0095882Y0019515D01*
X0094583Y0020258D01*
X0093098Y0021186D01*
X0091799Y0022114D01*
X0090128Y0023227D01*
X0088644Y0024155D01*
X0088272Y0024155D01*
X0072868Y0017103D01*
X0072868Y0016731D01*
X0072868Y0016765D02*
X0112009Y0016765D01*
X0111905Y0016949D02*
X0072868Y0016949D01*
X0072933Y0017132D02*
X0111800Y0017132D01*
X0111696Y0017316D02*
X0073334Y0017316D01*
X0073735Y0017499D02*
X0111591Y0017499D01*
X0111487Y0017683D02*
X0074136Y0017683D01*
X0074537Y0017867D02*
X0111382Y0017867D01*
X0111278Y0018050D02*
X0074938Y0018050D01*
X0075339Y0018234D02*
X0111173Y0018234D01*
X0111068Y0018417D02*
X0075740Y0018417D01*
X0076141Y0018601D02*
X0110964Y0018601D01*
X0110859Y0018784D02*
X0076542Y0018784D01*
X0076942Y0018968D02*
X0110755Y0018968D01*
X0110650Y0019151D02*
X0077343Y0019151D01*
X0077744Y0019335D02*
X0110546Y0019335D01*
X0110441Y0019518D02*
X0100336Y0019518D01*
X0100350Y0019702D02*
X0110337Y0019702D01*
X0110232Y0019886D02*
X0100364Y0019886D01*
X0100378Y0020069D02*
X0110127Y0020069D01*
X0110023Y0020253D02*
X0100392Y0020253D01*
X0100405Y0020436D02*
X0109918Y0020436D01*
X0109814Y0020620D02*
X0100419Y0020620D01*
X0100433Y0020803D02*
X0109709Y0020803D01*
X0109605Y0020987D02*
X0100447Y0020987D01*
X0100460Y0021170D02*
X0109500Y0021170D01*
X0109396Y0021354D02*
X0100474Y0021354D01*
X0100488Y0021538D02*
X0109291Y0021538D01*
X0109186Y0021721D02*
X0100502Y0021721D01*
X0100515Y0021905D02*
X0109082Y0021905D01*
X0108977Y0022088D02*
X0100529Y0022088D01*
X0100543Y0022272D02*
X0108873Y0022272D01*
X0108768Y0022455D02*
X0100557Y0022455D01*
X0100570Y0022639D02*
X0108664Y0022639D01*
X0108559Y0022822D02*
X0100584Y0022822D01*
X0100598Y0023006D02*
X0108455Y0023006D01*
X0108350Y0023189D02*
X0100612Y0023189D01*
X0100626Y0023373D02*
X0108245Y0023373D01*
X0108141Y0023557D02*
X0100639Y0023557D01*
X0100653Y0023740D02*
X0108036Y0023740D01*
X0107932Y0023924D02*
X0100667Y0023924D01*
X0100681Y0024107D02*
X0107827Y0024107D01*
X0107723Y0024291D02*
X0100694Y0024291D01*
X0100708Y0024474D02*
X0107618Y0024474D01*
X0107514Y0024658D02*
X0100722Y0024658D01*
X0100736Y0024841D02*
X0107409Y0024841D01*
X0107305Y0025025D02*
X0100749Y0025025D01*
X0100763Y0025209D02*
X0107200Y0025209D01*
X0107095Y0025392D02*
X0100777Y0025392D01*
X0100791Y0025576D02*
X0106991Y0025576D01*
X0106886Y0025759D02*
X0100804Y0025759D01*
X0100818Y0025943D02*
X0106782Y0025943D01*
X0106677Y0026126D02*
X0100832Y0026126D01*
X0100846Y0026310D02*
X0106573Y0026310D01*
X0106468Y0026493D02*
X0100859Y0026493D01*
X0100873Y0026677D02*
X0106364Y0026677D01*
X0106259Y0026860D02*
X0100887Y0026860D01*
X0100893Y0027044D02*
X0106154Y0027044D01*
X0106050Y0027228D02*
X0100893Y0027228D01*
X0100893Y0027411D02*
X0105945Y0027411D01*
X0105841Y0027595D02*
X0100893Y0027595D01*
X0100893Y0027778D02*
X0105736Y0027778D01*
X0105632Y0027962D02*
X0100893Y0027962D01*
X0100893Y0028145D02*
X0105527Y0028145D01*
X0105423Y0028329D02*
X0100893Y0028329D01*
X0100849Y0028512D02*
X0105318Y0028512D01*
X0105213Y0028696D02*
X0100757Y0028696D01*
X0100657Y0028880D02*
X0105109Y0028880D01*
X0105004Y0029063D02*
X0100547Y0029063D01*
X0100437Y0029247D02*
X0104900Y0029247D01*
X0104795Y0029430D02*
X0100326Y0029430D01*
X0100216Y0029614D02*
X0104691Y0029614D01*
X0104586Y0029797D02*
X0100308Y0029797D01*
X0100695Y0029981D02*
X0104482Y0029981D01*
X0104377Y0030164D02*
X0101083Y0030164D01*
X0101470Y0030348D02*
X0104272Y0030348D01*
X0104168Y0030532D02*
X0101858Y0030532D01*
X0102246Y0030715D02*
X0104063Y0030715D01*
X0103959Y0030899D02*
X0102633Y0030899D01*
X0103021Y0031082D02*
X0103854Y0031082D01*
X0103750Y0031266D02*
X0103408Y0031266D01*
X0102007Y0033435D02*
X0098295Y0031579D01*
X0097924Y0031579D01*
X0094026Y0035105D01*
X0093841Y0035291D01*
X0084932Y0036961D01*
X0084932Y0037332D01*
X0092356Y0050138D01*
X0102007Y0033435D01*
X0101987Y0033468D02*
X0095835Y0033468D01*
X0096038Y0033285D02*
X0101707Y0033285D01*
X0101881Y0033652D02*
X0095632Y0033652D01*
X0095430Y0033835D02*
X0101775Y0033835D01*
X0101669Y0034019D02*
X0095227Y0034019D01*
X0095024Y0034203D02*
X0101563Y0034203D01*
X0101457Y0034386D02*
X0094821Y0034386D01*
X0094618Y0034570D02*
X0101351Y0034570D01*
X0101245Y0034753D02*
X0094415Y0034753D01*
X0094212Y0034937D02*
X0101139Y0034937D01*
X0101033Y0035120D02*
X0094011Y0035120D01*
X0093771Y0035304D02*
X0100927Y0035304D01*
X0100821Y0035487D02*
X0092792Y0035487D01*
X0091813Y0035671D02*
X0100715Y0035671D01*
X0100609Y0035854D02*
X0090834Y0035854D01*
X0089855Y0036038D02*
X0100503Y0036038D01*
X0100397Y0036222D02*
X0088876Y0036222D01*
X0087897Y0036405D02*
X0100290Y0036405D01*
X0100184Y0036589D02*
X0086918Y0036589D01*
X0085940Y0036772D02*
X0100078Y0036772D01*
X0099972Y0036956D02*
X0084961Y0036956D01*
X0084932Y0037139D02*
X0099866Y0037139D01*
X0099760Y0037323D02*
X0084932Y0037323D01*
X0085033Y0037506D02*
X0099654Y0037506D01*
X0099548Y0037690D02*
X0085139Y0037690D01*
X0085246Y0037874D02*
X0099442Y0037874D01*
X0099336Y0038057D02*
X0085352Y0038057D01*
X0085458Y0038241D02*
X0099230Y0038241D01*
X0099124Y0038424D02*
X0085565Y0038424D01*
X0085671Y0038608D02*
X0099018Y0038608D01*
X0098912Y0038791D02*
X0085778Y0038791D01*
X0085884Y0038975D02*
X0098806Y0038975D01*
X0098700Y0039158D02*
X0085990Y0039158D01*
X0086097Y0039342D02*
X0098594Y0039342D01*
X0098488Y0039525D02*
X0086203Y0039525D01*
X0086310Y0039709D02*
X0098381Y0039709D01*
X0098275Y0039893D02*
X0086416Y0039893D01*
X0086522Y0040076D02*
X0098169Y0040076D01*
X0098063Y0040260D02*
X0086629Y0040260D01*
X0086735Y0040443D02*
X0097957Y0040443D01*
X0097851Y0040627D02*
X0086842Y0040627D01*
X0086948Y0040810D02*
X0097745Y0040810D01*
X0097639Y0040994D02*
X0087054Y0040994D01*
X0087161Y0041177D02*
X0097533Y0041177D01*
X0097427Y0041361D02*
X0087267Y0041361D01*
X0087374Y0041545D02*
X0097321Y0041545D01*
X0097215Y0041728D02*
X0087480Y0041728D01*
X0087586Y0041912D02*
X0097109Y0041912D01*
X0097003Y0042095D02*
X0087693Y0042095D01*
X0087799Y0042279D02*
X0096897Y0042279D01*
X0096791Y0042462D02*
X0087906Y0042462D01*
X0088012Y0042646D02*
X0096685Y0042646D01*
X0096579Y0042829D02*
X0088119Y0042829D01*
X0088225Y0043013D02*
X0096473Y0043013D01*
X0096366Y0043197D02*
X0088331Y0043197D01*
X0088438Y0043380D02*
X0096260Y0043380D01*
X0096154Y0043564D02*
X0088544Y0043564D01*
X0088651Y0043747D02*
X0096048Y0043747D01*
X0095942Y0043931D02*
X0088757Y0043931D01*
X0088863Y0044114D02*
X0095836Y0044114D01*
X0095730Y0044298D02*
X0088970Y0044298D01*
X0089076Y0044481D02*
X0095624Y0044481D01*
X0095518Y0044665D02*
X0089183Y0044665D01*
X0089289Y0044848D02*
X0095412Y0044848D01*
X0095306Y0045032D02*
X0089395Y0045032D01*
X0089502Y0045216D02*
X0095200Y0045216D01*
X0095094Y0045399D02*
X0089608Y0045399D01*
X0089715Y0045583D02*
X0094988Y0045583D01*
X0094882Y0045766D02*
X0089821Y0045766D01*
X0089927Y0045950D02*
X0094776Y0045950D01*
X0094670Y0046133D02*
X0090034Y0046133D01*
X0090140Y0046317D02*
X0094564Y0046317D01*
X0094457Y0046500D02*
X0090247Y0046500D01*
X0090353Y0046684D02*
X0094351Y0046684D01*
X0094245Y0046868D02*
X0090459Y0046868D01*
X0090566Y0047051D02*
X0094139Y0047051D01*
X0094033Y0047235D02*
X0090672Y0047235D01*
X0090779Y0047418D02*
X0093927Y0047418D01*
X0093821Y0047602D02*
X0090885Y0047602D01*
X0090991Y0047785D02*
X0093715Y0047785D01*
X0093609Y0047969D02*
X0091098Y0047969D01*
X0091204Y0048152D02*
X0093503Y0048152D01*
X0093397Y0048336D02*
X0091311Y0048336D01*
X0091417Y0048519D02*
X0093291Y0048519D01*
X0093185Y0048703D02*
X0091523Y0048703D01*
X0091630Y0048887D02*
X0093079Y0048887D01*
X0092973Y0049070D02*
X0091736Y0049070D01*
X0091843Y0049254D02*
X0092867Y0049254D01*
X0092761Y0049437D02*
X0091949Y0049437D01*
X0092055Y0049621D02*
X0092655Y0049621D01*
X0092548Y0049804D02*
X0092162Y0049804D01*
X0092268Y0049988D02*
X0092442Y0049988D01*
X0096241Y0033101D02*
X0101340Y0033101D01*
X0100972Y0032918D02*
X0096444Y0032918D01*
X0096647Y0032734D02*
X0100605Y0032734D01*
X0100238Y0032551D02*
X0096850Y0032551D01*
X0097053Y0032367D02*
X0099871Y0032367D01*
X0099504Y0032183D02*
X0097255Y0032183D01*
X0097458Y0032000D02*
X0099137Y0032000D01*
X0098770Y0031816D02*
X0097661Y0031816D01*
X0097864Y0031633D02*
X0098403Y0031633D01*
X0097619Y0028145D02*
X0096803Y0028145D01*
X0096422Y0027962D02*
X0097750Y0027962D01*
X0097881Y0027778D02*
X0096041Y0027778D01*
X0095660Y0027595D02*
X0098012Y0027595D01*
X0098143Y0027411D02*
X0095278Y0027411D01*
X0094897Y0027228D02*
X0098274Y0027228D01*
X0098405Y0027044D02*
X0094516Y0027044D01*
X0094135Y0026860D02*
X0098480Y0026860D01*
X0098480Y0026677D02*
X0093753Y0026677D01*
X0093372Y0026493D02*
X0098480Y0026493D01*
X0098480Y0026310D02*
X0092991Y0026310D01*
X0092610Y0026126D02*
X0098480Y0026126D01*
X0098480Y0025943D02*
X0092228Y0025943D01*
X0091985Y0025759D02*
X0098480Y0025759D01*
X0098480Y0025576D02*
X0092056Y0025576D01*
X0092262Y0025392D02*
X0098480Y0025392D01*
X0098480Y0025209D02*
X0092467Y0025209D01*
X0092672Y0025025D02*
X0098480Y0025025D01*
X0098480Y0024841D02*
X0092877Y0024841D01*
X0093082Y0024658D02*
X0098480Y0024658D01*
X0098480Y0024474D02*
X0093287Y0024474D01*
X0093492Y0024291D02*
X0098480Y0024291D01*
X0098480Y0024107D02*
X0093697Y0024107D01*
X0093903Y0023924D02*
X0098480Y0023924D01*
X0098480Y0023740D02*
X0094108Y0023740D01*
X0094313Y0023557D02*
X0098480Y0023557D01*
X0098485Y0023373D02*
X0094518Y0023373D01*
X0094723Y0023189D02*
X0098505Y0023189D01*
X0098525Y0023006D02*
X0094928Y0023006D01*
X0095133Y0022822D02*
X0098546Y0022822D01*
X0098566Y0022639D02*
X0095338Y0022639D01*
X0095530Y0022455D02*
X0098587Y0022455D01*
X0098607Y0022272D02*
X0095653Y0022272D01*
X0095775Y0022088D02*
X0098627Y0022088D01*
X0098648Y0021905D02*
X0095897Y0021905D01*
X0096020Y0021721D02*
X0098673Y0021721D01*
X0098734Y0021538D02*
X0096142Y0021538D01*
X0096262Y0021354D02*
X0098795Y0021354D01*
X0098856Y0021170D02*
X0096353Y0021170D01*
X0096445Y0020987D02*
X0098918Y0020987D01*
X0098979Y0020803D02*
X0096537Y0020803D01*
X0096624Y0020620D02*
X0099042Y0020620D01*
X0099133Y0020436D02*
X0096624Y0020436D01*
X0096624Y0020253D02*
X0099225Y0020253D01*
X0099317Y0020069D02*
X0096623Y0020069D01*
X0096531Y0019886D02*
X0099409Y0019886D01*
X0099685Y0019702D02*
X0096439Y0019702D01*
X0096257Y0019518D02*
X0099960Y0019518D01*
X0095876Y0019518D02*
X0078145Y0019518D01*
X0078546Y0019702D02*
X0095555Y0019702D01*
X0095234Y0019886D02*
X0078947Y0019886D01*
X0079348Y0020069D02*
X0094913Y0020069D01*
X0094591Y0020253D02*
X0079749Y0020253D01*
X0080150Y0020436D02*
X0094297Y0020436D01*
X0094003Y0020620D02*
X0080551Y0020620D01*
X0080952Y0020803D02*
X0093710Y0020803D01*
X0093416Y0020987D02*
X0081353Y0020987D01*
X0081754Y0021170D02*
X0093122Y0021170D01*
X0092862Y0021354D02*
X0082155Y0021354D01*
X0082555Y0021538D02*
X0092605Y0021538D01*
X0092348Y0021721D02*
X0082956Y0021721D01*
X0083357Y0021905D02*
X0092091Y0021905D01*
X0091834Y0022088D02*
X0083758Y0022088D01*
X0084159Y0022272D02*
X0091561Y0022272D01*
X0091286Y0022455D02*
X0084560Y0022455D01*
X0084961Y0022639D02*
X0091011Y0022639D01*
X0090735Y0022822D02*
X0085362Y0022822D01*
X0085763Y0023006D02*
X0090460Y0023006D01*
X0090185Y0023189D02*
X0086164Y0023189D01*
X0086565Y0023373D02*
X0089895Y0023373D01*
X0089601Y0023557D02*
X0086966Y0023557D01*
X0087367Y0023740D02*
X0089307Y0023740D01*
X0089014Y0023924D02*
X0087767Y0023924D01*
X0088168Y0024107D02*
X0088720Y0024107D01*
X0090685Y0027867D02*
X0094583Y0029723D01*
X0093283Y0030651D01*
X0092913Y0030651D01*
X0091056Y0030094D01*
X0090500Y0029723D01*
X0090128Y0029166D01*
X0090314Y0028424D01*
X0090685Y0027867D01*
X0090622Y0027962D02*
X0090884Y0027962D01*
X0090500Y0028145D02*
X0091270Y0028145D01*
X0091655Y0028329D02*
X0090377Y0028329D01*
X0090292Y0028512D02*
X0092041Y0028512D01*
X0092426Y0028696D02*
X0090246Y0028696D01*
X0090200Y0028880D02*
X0092812Y0028880D01*
X0093197Y0029063D02*
X0090154Y0029063D01*
X0090182Y0029247D02*
X0093582Y0029247D01*
X0093968Y0029430D02*
X0090304Y0029430D01*
X0090427Y0029614D02*
X0094353Y0029614D01*
X0094479Y0029797D02*
X0090611Y0029797D01*
X0090886Y0029981D02*
X0094222Y0029981D01*
X0093965Y0030164D02*
X0091290Y0030164D01*
X0091902Y0030348D02*
X0093708Y0030348D01*
X0093451Y0030532D02*
X0092514Y0030532D01*
X0085117Y0025825D02*
X0081034Y0030280D01*
X0075838Y0021186D01*
X0085117Y0025640D01*
X0085117Y0025825D01*
X0085117Y0025759D02*
X0078451Y0025759D01*
X0078346Y0025576D02*
X0084983Y0025576D01*
X0085010Y0025943D02*
X0078556Y0025943D01*
X0078661Y0026126D02*
X0084841Y0026126D01*
X0084673Y0026310D02*
X0078766Y0026310D01*
X0078871Y0026493D02*
X0084505Y0026493D01*
X0084337Y0026677D02*
X0078976Y0026677D01*
X0079080Y0026860D02*
X0084168Y0026860D01*
X0084000Y0027044D02*
X0079185Y0027044D01*
X0079290Y0027228D02*
X0083832Y0027228D01*
X0083664Y0027411D02*
X0079395Y0027411D01*
X0079500Y0027595D02*
X0083495Y0027595D01*
X0083327Y0027778D02*
X0079605Y0027778D01*
X0079710Y0027962D02*
X0083159Y0027962D01*
X0082991Y0028145D02*
X0079815Y0028145D01*
X0079920Y0028329D02*
X0082822Y0028329D01*
X0082654Y0028512D02*
X0080024Y0028512D01*
X0080129Y0028696D02*
X0082486Y0028696D01*
X0082318Y0028880D02*
X0080234Y0028880D01*
X0080339Y0029063D02*
X0082149Y0029063D01*
X0081981Y0029247D02*
X0080444Y0029247D01*
X0080549Y0029430D02*
X0081813Y0029430D01*
X0081645Y0029614D02*
X0080654Y0029614D01*
X0080759Y0029797D02*
X0081476Y0029797D01*
X0081308Y0029981D02*
X0080864Y0029981D01*
X0080968Y0030164D02*
X0081140Y0030164D01*
X0078241Y0025392D02*
X0084601Y0025392D01*
X0084219Y0025209D02*
X0078137Y0025209D01*
X0078032Y0025025D02*
X0083836Y0025025D01*
X0083454Y0024841D02*
X0077927Y0024841D01*
X0077822Y0024658D02*
X0083072Y0024658D01*
X0082689Y0024474D02*
X0077717Y0024474D01*
X0077612Y0024291D02*
X0082307Y0024291D01*
X0081924Y0024107D02*
X0077507Y0024107D01*
X0077402Y0023924D02*
X0081542Y0023924D01*
X0081160Y0023740D02*
X0077298Y0023740D01*
X0077193Y0023557D02*
X0080777Y0023557D01*
X0080395Y0023373D02*
X0077088Y0023373D01*
X0076983Y0023189D02*
X0080012Y0023189D01*
X0079630Y0023006D02*
X0076878Y0023006D01*
X0076773Y0022822D02*
X0079248Y0022822D01*
X0078865Y0022639D02*
X0076668Y0022639D01*
X0076563Y0022455D02*
X0078483Y0022455D01*
X0078101Y0022272D02*
X0076458Y0022272D01*
X0076354Y0022088D02*
X0077718Y0022088D01*
X0077336Y0021905D02*
X0076249Y0021905D01*
X0076144Y0021721D02*
X0076953Y0021721D01*
X0076571Y0021538D02*
X0076039Y0021538D01*
X0075934Y0021354D02*
X0076189Y0021354D01*
M02*
