G75*
%MOIN*%
%OFA0B0*%
%FSLAX25Y25*%
%IPPOS*%
%LPD*%
%AMOC8*
5,1,8,0,0,1.08239X$1,22.5*
%
%ADD10C,0.00000*%
%ADD11C,0.00400*%
%ADD12C,0.00800*%
D10*
X0021414Y0111290D02*
X0152414Y0111290D01*
X0152512Y0111292D01*
X0152610Y0111298D01*
X0152708Y0111307D01*
X0152805Y0111321D01*
X0152902Y0111338D01*
X0152998Y0111359D01*
X0153093Y0111384D01*
X0153187Y0111412D01*
X0153279Y0111445D01*
X0153371Y0111480D01*
X0153461Y0111520D01*
X0153549Y0111562D01*
X0153636Y0111609D01*
X0153720Y0111658D01*
X0153803Y0111711D01*
X0153883Y0111767D01*
X0153962Y0111827D01*
X0154038Y0111889D01*
X0154111Y0111954D01*
X0154182Y0112022D01*
X0154250Y0112093D01*
X0154315Y0112166D01*
X0154377Y0112242D01*
X0154437Y0112321D01*
X0154493Y0112401D01*
X0154546Y0112484D01*
X0154595Y0112568D01*
X0154642Y0112655D01*
X0154684Y0112743D01*
X0154724Y0112833D01*
X0154759Y0112925D01*
X0154792Y0113017D01*
X0154820Y0113111D01*
X0154845Y0113206D01*
X0154866Y0113302D01*
X0154883Y0113399D01*
X0154897Y0113496D01*
X0154906Y0113594D01*
X0154912Y0113692D01*
X0154914Y0113790D01*
X0154914Y0358790D01*
X0154912Y0358888D01*
X0154906Y0358986D01*
X0154897Y0359084D01*
X0154883Y0359181D01*
X0154866Y0359278D01*
X0154845Y0359374D01*
X0154820Y0359469D01*
X0154792Y0359563D01*
X0154759Y0359655D01*
X0154724Y0359747D01*
X0154684Y0359837D01*
X0154642Y0359925D01*
X0154595Y0360012D01*
X0154546Y0360096D01*
X0154493Y0360179D01*
X0154437Y0360259D01*
X0154377Y0360338D01*
X0154315Y0360414D01*
X0154250Y0360487D01*
X0154182Y0360558D01*
X0154111Y0360626D01*
X0154038Y0360691D01*
X0153962Y0360753D01*
X0153883Y0360813D01*
X0153803Y0360869D01*
X0153720Y0360922D01*
X0153636Y0360971D01*
X0153549Y0361018D01*
X0153461Y0361060D01*
X0153371Y0361100D01*
X0153279Y0361135D01*
X0153187Y0361168D01*
X0153093Y0361196D01*
X0152998Y0361221D01*
X0152902Y0361242D01*
X0152805Y0361259D01*
X0152708Y0361273D01*
X0152610Y0361282D01*
X0152512Y0361288D01*
X0152414Y0361290D01*
X0021414Y0361290D01*
X0021316Y0361288D01*
X0021218Y0361282D01*
X0021120Y0361273D01*
X0021023Y0361259D01*
X0020926Y0361242D01*
X0020830Y0361221D01*
X0020735Y0361196D01*
X0020641Y0361168D01*
X0020549Y0361135D01*
X0020457Y0361100D01*
X0020367Y0361060D01*
X0020279Y0361018D01*
X0020192Y0360971D01*
X0020108Y0360922D01*
X0020025Y0360869D01*
X0019945Y0360813D01*
X0019866Y0360753D01*
X0019790Y0360691D01*
X0019717Y0360626D01*
X0019646Y0360558D01*
X0019578Y0360487D01*
X0019513Y0360414D01*
X0019451Y0360338D01*
X0019391Y0360259D01*
X0019335Y0360179D01*
X0019282Y0360096D01*
X0019233Y0360012D01*
X0019186Y0359925D01*
X0019144Y0359837D01*
X0019104Y0359747D01*
X0019069Y0359655D01*
X0019036Y0359563D01*
X0019008Y0359469D01*
X0018983Y0359374D01*
X0018962Y0359278D01*
X0018945Y0359181D01*
X0018931Y0359084D01*
X0018922Y0358986D01*
X0018916Y0358888D01*
X0018914Y0358790D01*
X0018914Y0113790D01*
X0018916Y0113692D01*
X0018922Y0113594D01*
X0018931Y0113496D01*
X0018945Y0113399D01*
X0018962Y0113302D01*
X0018983Y0113206D01*
X0019008Y0113111D01*
X0019036Y0113017D01*
X0019069Y0112925D01*
X0019104Y0112833D01*
X0019144Y0112743D01*
X0019186Y0112655D01*
X0019233Y0112568D01*
X0019282Y0112484D01*
X0019335Y0112401D01*
X0019391Y0112321D01*
X0019451Y0112242D01*
X0019513Y0112166D01*
X0019578Y0112093D01*
X0019646Y0112022D01*
X0019717Y0111954D01*
X0019790Y0111889D01*
X0019866Y0111827D01*
X0019945Y0111767D01*
X0020025Y0111711D01*
X0020108Y0111658D01*
X0020192Y0111609D01*
X0020279Y0111562D01*
X0020367Y0111520D01*
X0020457Y0111480D01*
X0020549Y0111445D01*
X0020641Y0111412D01*
X0020735Y0111384D01*
X0020830Y0111359D01*
X0020926Y0111338D01*
X0021023Y0111321D01*
X0021120Y0111307D01*
X0021218Y0111298D01*
X0021316Y0111292D01*
X0021414Y0111290D01*
X0031914Y0136290D02*
X0031916Y0136462D01*
X0031922Y0136633D01*
X0031933Y0136805D01*
X0031948Y0136976D01*
X0031967Y0137147D01*
X0031990Y0137317D01*
X0032017Y0137487D01*
X0032049Y0137656D01*
X0032084Y0137824D01*
X0032124Y0137991D01*
X0032168Y0138157D01*
X0032215Y0138322D01*
X0032267Y0138486D01*
X0032323Y0138648D01*
X0032383Y0138809D01*
X0032447Y0138969D01*
X0032515Y0139127D01*
X0032586Y0139283D01*
X0032661Y0139437D01*
X0032741Y0139590D01*
X0032823Y0139740D01*
X0032910Y0139889D01*
X0033000Y0140035D01*
X0033094Y0140179D01*
X0033191Y0140321D01*
X0033292Y0140460D01*
X0033396Y0140597D01*
X0033503Y0140731D01*
X0033614Y0140862D01*
X0033727Y0140991D01*
X0033844Y0141117D01*
X0033964Y0141240D01*
X0034087Y0141360D01*
X0034213Y0141477D01*
X0034342Y0141590D01*
X0034473Y0141701D01*
X0034607Y0141808D01*
X0034744Y0141912D01*
X0034883Y0142013D01*
X0035025Y0142110D01*
X0035169Y0142204D01*
X0035315Y0142294D01*
X0035464Y0142381D01*
X0035614Y0142463D01*
X0035767Y0142543D01*
X0035921Y0142618D01*
X0036077Y0142689D01*
X0036235Y0142757D01*
X0036395Y0142821D01*
X0036556Y0142881D01*
X0036718Y0142937D01*
X0036882Y0142989D01*
X0037047Y0143036D01*
X0037213Y0143080D01*
X0037380Y0143120D01*
X0037548Y0143155D01*
X0037717Y0143187D01*
X0037887Y0143214D01*
X0038057Y0143237D01*
X0038228Y0143256D01*
X0038399Y0143271D01*
X0038571Y0143282D01*
X0038742Y0143288D01*
X0038914Y0143290D01*
X0039086Y0143288D01*
X0039257Y0143282D01*
X0039429Y0143271D01*
X0039600Y0143256D01*
X0039771Y0143237D01*
X0039941Y0143214D01*
X0040111Y0143187D01*
X0040280Y0143155D01*
X0040448Y0143120D01*
X0040615Y0143080D01*
X0040781Y0143036D01*
X0040946Y0142989D01*
X0041110Y0142937D01*
X0041272Y0142881D01*
X0041433Y0142821D01*
X0041593Y0142757D01*
X0041751Y0142689D01*
X0041907Y0142618D01*
X0042061Y0142543D01*
X0042214Y0142463D01*
X0042364Y0142381D01*
X0042513Y0142294D01*
X0042659Y0142204D01*
X0042803Y0142110D01*
X0042945Y0142013D01*
X0043084Y0141912D01*
X0043221Y0141808D01*
X0043355Y0141701D01*
X0043486Y0141590D01*
X0043615Y0141477D01*
X0043741Y0141360D01*
X0043864Y0141240D01*
X0043984Y0141117D01*
X0044101Y0140991D01*
X0044214Y0140862D01*
X0044325Y0140731D01*
X0044432Y0140597D01*
X0044536Y0140460D01*
X0044637Y0140321D01*
X0044734Y0140179D01*
X0044828Y0140035D01*
X0044918Y0139889D01*
X0045005Y0139740D01*
X0045087Y0139590D01*
X0045167Y0139437D01*
X0045242Y0139283D01*
X0045313Y0139127D01*
X0045381Y0138969D01*
X0045445Y0138809D01*
X0045505Y0138648D01*
X0045561Y0138486D01*
X0045613Y0138322D01*
X0045660Y0138157D01*
X0045704Y0137991D01*
X0045744Y0137824D01*
X0045779Y0137656D01*
X0045811Y0137487D01*
X0045838Y0137317D01*
X0045861Y0137147D01*
X0045880Y0136976D01*
X0045895Y0136805D01*
X0045906Y0136633D01*
X0045912Y0136462D01*
X0045914Y0136290D01*
X0045912Y0136118D01*
X0045906Y0135947D01*
X0045895Y0135775D01*
X0045880Y0135604D01*
X0045861Y0135433D01*
X0045838Y0135263D01*
X0045811Y0135093D01*
X0045779Y0134924D01*
X0045744Y0134756D01*
X0045704Y0134589D01*
X0045660Y0134423D01*
X0045613Y0134258D01*
X0045561Y0134094D01*
X0045505Y0133932D01*
X0045445Y0133771D01*
X0045381Y0133611D01*
X0045313Y0133453D01*
X0045242Y0133297D01*
X0045167Y0133143D01*
X0045087Y0132990D01*
X0045005Y0132840D01*
X0044918Y0132691D01*
X0044828Y0132545D01*
X0044734Y0132401D01*
X0044637Y0132259D01*
X0044536Y0132120D01*
X0044432Y0131983D01*
X0044325Y0131849D01*
X0044214Y0131718D01*
X0044101Y0131589D01*
X0043984Y0131463D01*
X0043864Y0131340D01*
X0043741Y0131220D01*
X0043615Y0131103D01*
X0043486Y0130990D01*
X0043355Y0130879D01*
X0043221Y0130772D01*
X0043084Y0130668D01*
X0042945Y0130567D01*
X0042803Y0130470D01*
X0042659Y0130376D01*
X0042513Y0130286D01*
X0042364Y0130199D01*
X0042214Y0130117D01*
X0042061Y0130037D01*
X0041907Y0129962D01*
X0041751Y0129891D01*
X0041593Y0129823D01*
X0041433Y0129759D01*
X0041272Y0129699D01*
X0041110Y0129643D01*
X0040946Y0129591D01*
X0040781Y0129544D01*
X0040615Y0129500D01*
X0040448Y0129460D01*
X0040280Y0129425D01*
X0040111Y0129393D01*
X0039941Y0129366D01*
X0039771Y0129343D01*
X0039600Y0129324D01*
X0039429Y0129309D01*
X0039257Y0129298D01*
X0039086Y0129292D01*
X0038914Y0129290D01*
X0038742Y0129292D01*
X0038571Y0129298D01*
X0038399Y0129309D01*
X0038228Y0129324D01*
X0038057Y0129343D01*
X0037887Y0129366D01*
X0037717Y0129393D01*
X0037548Y0129425D01*
X0037380Y0129460D01*
X0037213Y0129500D01*
X0037047Y0129544D01*
X0036882Y0129591D01*
X0036718Y0129643D01*
X0036556Y0129699D01*
X0036395Y0129759D01*
X0036235Y0129823D01*
X0036077Y0129891D01*
X0035921Y0129962D01*
X0035767Y0130037D01*
X0035614Y0130117D01*
X0035464Y0130199D01*
X0035315Y0130286D01*
X0035169Y0130376D01*
X0035025Y0130470D01*
X0034883Y0130567D01*
X0034744Y0130668D01*
X0034607Y0130772D01*
X0034473Y0130879D01*
X0034342Y0130990D01*
X0034213Y0131103D01*
X0034087Y0131220D01*
X0033964Y0131340D01*
X0033844Y0131463D01*
X0033727Y0131589D01*
X0033614Y0131718D01*
X0033503Y0131849D01*
X0033396Y0131983D01*
X0033292Y0132120D01*
X0033191Y0132259D01*
X0033094Y0132401D01*
X0033000Y0132545D01*
X0032910Y0132691D01*
X0032823Y0132840D01*
X0032741Y0132990D01*
X0032661Y0133143D01*
X0032586Y0133297D01*
X0032515Y0133453D01*
X0032447Y0133611D01*
X0032383Y0133771D01*
X0032323Y0133932D01*
X0032267Y0134094D01*
X0032215Y0134258D01*
X0032168Y0134423D01*
X0032124Y0134589D01*
X0032084Y0134756D01*
X0032049Y0134924D01*
X0032017Y0135093D01*
X0031990Y0135263D01*
X0031967Y0135433D01*
X0031948Y0135604D01*
X0031933Y0135775D01*
X0031922Y0135947D01*
X0031916Y0136118D01*
X0031914Y0136290D01*
X0116914Y0131290D02*
X0116916Y0131462D01*
X0116922Y0131633D01*
X0116933Y0131805D01*
X0116948Y0131976D01*
X0116967Y0132147D01*
X0116990Y0132317D01*
X0117017Y0132487D01*
X0117049Y0132656D01*
X0117084Y0132824D01*
X0117124Y0132991D01*
X0117168Y0133157D01*
X0117215Y0133322D01*
X0117267Y0133486D01*
X0117323Y0133648D01*
X0117383Y0133809D01*
X0117447Y0133969D01*
X0117515Y0134127D01*
X0117586Y0134283D01*
X0117661Y0134437D01*
X0117741Y0134590D01*
X0117823Y0134740D01*
X0117910Y0134889D01*
X0118000Y0135035D01*
X0118094Y0135179D01*
X0118191Y0135321D01*
X0118292Y0135460D01*
X0118396Y0135597D01*
X0118503Y0135731D01*
X0118614Y0135862D01*
X0118727Y0135991D01*
X0118844Y0136117D01*
X0118964Y0136240D01*
X0119087Y0136360D01*
X0119213Y0136477D01*
X0119342Y0136590D01*
X0119473Y0136701D01*
X0119607Y0136808D01*
X0119744Y0136912D01*
X0119883Y0137013D01*
X0120025Y0137110D01*
X0120169Y0137204D01*
X0120315Y0137294D01*
X0120464Y0137381D01*
X0120614Y0137463D01*
X0120767Y0137543D01*
X0120921Y0137618D01*
X0121077Y0137689D01*
X0121235Y0137757D01*
X0121395Y0137821D01*
X0121556Y0137881D01*
X0121718Y0137937D01*
X0121882Y0137989D01*
X0122047Y0138036D01*
X0122213Y0138080D01*
X0122380Y0138120D01*
X0122548Y0138155D01*
X0122717Y0138187D01*
X0122887Y0138214D01*
X0123057Y0138237D01*
X0123228Y0138256D01*
X0123399Y0138271D01*
X0123571Y0138282D01*
X0123742Y0138288D01*
X0123914Y0138290D01*
X0124086Y0138288D01*
X0124257Y0138282D01*
X0124429Y0138271D01*
X0124600Y0138256D01*
X0124771Y0138237D01*
X0124941Y0138214D01*
X0125111Y0138187D01*
X0125280Y0138155D01*
X0125448Y0138120D01*
X0125615Y0138080D01*
X0125781Y0138036D01*
X0125946Y0137989D01*
X0126110Y0137937D01*
X0126272Y0137881D01*
X0126433Y0137821D01*
X0126593Y0137757D01*
X0126751Y0137689D01*
X0126907Y0137618D01*
X0127061Y0137543D01*
X0127214Y0137463D01*
X0127364Y0137381D01*
X0127513Y0137294D01*
X0127659Y0137204D01*
X0127803Y0137110D01*
X0127945Y0137013D01*
X0128084Y0136912D01*
X0128221Y0136808D01*
X0128355Y0136701D01*
X0128486Y0136590D01*
X0128615Y0136477D01*
X0128741Y0136360D01*
X0128864Y0136240D01*
X0128984Y0136117D01*
X0129101Y0135991D01*
X0129214Y0135862D01*
X0129325Y0135731D01*
X0129432Y0135597D01*
X0129536Y0135460D01*
X0129637Y0135321D01*
X0129734Y0135179D01*
X0129828Y0135035D01*
X0129918Y0134889D01*
X0130005Y0134740D01*
X0130087Y0134590D01*
X0130167Y0134437D01*
X0130242Y0134283D01*
X0130313Y0134127D01*
X0130381Y0133969D01*
X0130445Y0133809D01*
X0130505Y0133648D01*
X0130561Y0133486D01*
X0130613Y0133322D01*
X0130660Y0133157D01*
X0130704Y0132991D01*
X0130744Y0132824D01*
X0130779Y0132656D01*
X0130811Y0132487D01*
X0130838Y0132317D01*
X0130861Y0132147D01*
X0130880Y0131976D01*
X0130895Y0131805D01*
X0130906Y0131633D01*
X0130912Y0131462D01*
X0130914Y0131290D01*
X0130912Y0131118D01*
X0130906Y0130947D01*
X0130895Y0130775D01*
X0130880Y0130604D01*
X0130861Y0130433D01*
X0130838Y0130263D01*
X0130811Y0130093D01*
X0130779Y0129924D01*
X0130744Y0129756D01*
X0130704Y0129589D01*
X0130660Y0129423D01*
X0130613Y0129258D01*
X0130561Y0129094D01*
X0130505Y0128932D01*
X0130445Y0128771D01*
X0130381Y0128611D01*
X0130313Y0128453D01*
X0130242Y0128297D01*
X0130167Y0128143D01*
X0130087Y0127990D01*
X0130005Y0127840D01*
X0129918Y0127691D01*
X0129828Y0127545D01*
X0129734Y0127401D01*
X0129637Y0127259D01*
X0129536Y0127120D01*
X0129432Y0126983D01*
X0129325Y0126849D01*
X0129214Y0126718D01*
X0129101Y0126589D01*
X0128984Y0126463D01*
X0128864Y0126340D01*
X0128741Y0126220D01*
X0128615Y0126103D01*
X0128486Y0125990D01*
X0128355Y0125879D01*
X0128221Y0125772D01*
X0128084Y0125668D01*
X0127945Y0125567D01*
X0127803Y0125470D01*
X0127659Y0125376D01*
X0127513Y0125286D01*
X0127364Y0125199D01*
X0127214Y0125117D01*
X0127061Y0125037D01*
X0126907Y0124962D01*
X0126751Y0124891D01*
X0126593Y0124823D01*
X0126433Y0124759D01*
X0126272Y0124699D01*
X0126110Y0124643D01*
X0125946Y0124591D01*
X0125781Y0124544D01*
X0125615Y0124500D01*
X0125448Y0124460D01*
X0125280Y0124425D01*
X0125111Y0124393D01*
X0124941Y0124366D01*
X0124771Y0124343D01*
X0124600Y0124324D01*
X0124429Y0124309D01*
X0124257Y0124298D01*
X0124086Y0124292D01*
X0123914Y0124290D01*
X0123742Y0124292D01*
X0123571Y0124298D01*
X0123399Y0124309D01*
X0123228Y0124324D01*
X0123057Y0124343D01*
X0122887Y0124366D01*
X0122717Y0124393D01*
X0122548Y0124425D01*
X0122380Y0124460D01*
X0122213Y0124500D01*
X0122047Y0124544D01*
X0121882Y0124591D01*
X0121718Y0124643D01*
X0121556Y0124699D01*
X0121395Y0124759D01*
X0121235Y0124823D01*
X0121077Y0124891D01*
X0120921Y0124962D01*
X0120767Y0125037D01*
X0120614Y0125117D01*
X0120464Y0125199D01*
X0120315Y0125286D01*
X0120169Y0125376D01*
X0120025Y0125470D01*
X0119883Y0125567D01*
X0119744Y0125668D01*
X0119607Y0125772D01*
X0119473Y0125879D01*
X0119342Y0125990D01*
X0119213Y0126103D01*
X0119087Y0126220D01*
X0118964Y0126340D01*
X0118844Y0126463D01*
X0118727Y0126589D01*
X0118614Y0126718D01*
X0118503Y0126849D01*
X0118396Y0126983D01*
X0118292Y0127120D01*
X0118191Y0127259D01*
X0118094Y0127401D01*
X0118000Y0127545D01*
X0117910Y0127691D01*
X0117823Y0127840D01*
X0117741Y0127990D01*
X0117661Y0128143D01*
X0117586Y0128297D01*
X0117515Y0128453D01*
X0117447Y0128611D01*
X0117383Y0128771D01*
X0117323Y0128932D01*
X0117267Y0129094D01*
X0117215Y0129258D01*
X0117168Y0129423D01*
X0117124Y0129589D01*
X0117084Y0129756D01*
X0117049Y0129924D01*
X0117017Y0130093D01*
X0116990Y0130263D01*
X0116967Y0130433D01*
X0116948Y0130604D01*
X0116933Y0130775D01*
X0116922Y0130947D01*
X0116916Y0131118D01*
X0116914Y0131290D01*
X0142300Y0275286D02*
X0142302Y0275365D01*
X0142308Y0275444D01*
X0142318Y0275523D01*
X0142332Y0275601D01*
X0142349Y0275678D01*
X0142371Y0275754D01*
X0142396Y0275829D01*
X0142426Y0275902D01*
X0142458Y0275974D01*
X0142495Y0276045D01*
X0142535Y0276113D01*
X0142578Y0276179D01*
X0142624Y0276243D01*
X0142674Y0276305D01*
X0142727Y0276364D01*
X0142782Y0276420D01*
X0142841Y0276474D01*
X0142902Y0276524D01*
X0142965Y0276572D01*
X0143031Y0276616D01*
X0143099Y0276657D01*
X0143169Y0276694D01*
X0143240Y0276728D01*
X0143314Y0276758D01*
X0143388Y0276784D01*
X0143464Y0276806D01*
X0143541Y0276825D01*
X0143619Y0276840D01*
X0143697Y0276851D01*
X0143776Y0276858D01*
X0143855Y0276861D01*
X0143934Y0276860D01*
X0144013Y0276855D01*
X0144092Y0276846D01*
X0144170Y0276833D01*
X0144247Y0276816D01*
X0144324Y0276796D01*
X0144399Y0276771D01*
X0144473Y0276743D01*
X0144546Y0276711D01*
X0144616Y0276676D01*
X0144685Y0276637D01*
X0144752Y0276594D01*
X0144817Y0276548D01*
X0144879Y0276500D01*
X0144939Y0276448D01*
X0144996Y0276393D01*
X0145050Y0276335D01*
X0145101Y0276275D01*
X0145149Y0276212D01*
X0145194Y0276147D01*
X0145236Y0276079D01*
X0145274Y0276010D01*
X0145308Y0275939D01*
X0145339Y0275866D01*
X0145367Y0275791D01*
X0145390Y0275716D01*
X0145410Y0275639D01*
X0145426Y0275562D01*
X0145438Y0275483D01*
X0145446Y0275405D01*
X0145450Y0275326D01*
X0145450Y0275246D01*
X0145446Y0275167D01*
X0145438Y0275089D01*
X0145426Y0275010D01*
X0145410Y0274933D01*
X0145390Y0274856D01*
X0145367Y0274781D01*
X0145339Y0274706D01*
X0145308Y0274633D01*
X0145274Y0274562D01*
X0145236Y0274493D01*
X0145194Y0274425D01*
X0145149Y0274360D01*
X0145101Y0274297D01*
X0145050Y0274237D01*
X0144996Y0274179D01*
X0144939Y0274124D01*
X0144879Y0274072D01*
X0144817Y0274024D01*
X0144752Y0273978D01*
X0144685Y0273935D01*
X0144616Y0273896D01*
X0144546Y0273861D01*
X0144473Y0273829D01*
X0144399Y0273801D01*
X0144324Y0273776D01*
X0144247Y0273756D01*
X0144170Y0273739D01*
X0144092Y0273726D01*
X0144013Y0273717D01*
X0143934Y0273712D01*
X0143855Y0273711D01*
X0143776Y0273714D01*
X0143697Y0273721D01*
X0143619Y0273732D01*
X0143541Y0273747D01*
X0143464Y0273766D01*
X0143388Y0273788D01*
X0143314Y0273814D01*
X0143240Y0273844D01*
X0143169Y0273878D01*
X0143099Y0273915D01*
X0143031Y0273956D01*
X0142965Y0274000D01*
X0142902Y0274048D01*
X0142841Y0274098D01*
X0142782Y0274152D01*
X0142727Y0274208D01*
X0142674Y0274267D01*
X0142624Y0274329D01*
X0142578Y0274393D01*
X0142535Y0274459D01*
X0142495Y0274527D01*
X0142458Y0274598D01*
X0142426Y0274670D01*
X0142396Y0274743D01*
X0142371Y0274818D01*
X0142349Y0274894D01*
X0142332Y0274971D01*
X0142318Y0275049D01*
X0142308Y0275128D01*
X0142302Y0275207D01*
X0142300Y0275286D01*
X0116914Y0341290D02*
X0116916Y0341462D01*
X0116922Y0341633D01*
X0116933Y0341805D01*
X0116948Y0341976D01*
X0116967Y0342147D01*
X0116990Y0342317D01*
X0117017Y0342487D01*
X0117049Y0342656D01*
X0117084Y0342824D01*
X0117124Y0342991D01*
X0117168Y0343157D01*
X0117215Y0343322D01*
X0117267Y0343486D01*
X0117323Y0343648D01*
X0117383Y0343809D01*
X0117447Y0343969D01*
X0117515Y0344127D01*
X0117586Y0344283D01*
X0117661Y0344437D01*
X0117741Y0344590D01*
X0117823Y0344740D01*
X0117910Y0344889D01*
X0118000Y0345035D01*
X0118094Y0345179D01*
X0118191Y0345321D01*
X0118292Y0345460D01*
X0118396Y0345597D01*
X0118503Y0345731D01*
X0118614Y0345862D01*
X0118727Y0345991D01*
X0118844Y0346117D01*
X0118964Y0346240D01*
X0119087Y0346360D01*
X0119213Y0346477D01*
X0119342Y0346590D01*
X0119473Y0346701D01*
X0119607Y0346808D01*
X0119744Y0346912D01*
X0119883Y0347013D01*
X0120025Y0347110D01*
X0120169Y0347204D01*
X0120315Y0347294D01*
X0120464Y0347381D01*
X0120614Y0347463D01*
X0120767Y0347543D01*
X0120921Y0347618D01*
X0121077Y0347689D01*
X0121235Y0347757D01*
X0121395Y0347821D01*
X0121556Y0347881D01*
X0121718Y0347937D01*
X0121882Y0347989D01*
X0122047Y0348036D01*
X0122213Y0348080D01*
X0122380Y0348120D01*
X0122548Y0348155D01*
X0122717Y0348187D01*
X0122887Y0348214D01*
X0123057Y0348237D01*
X0123228Y0348256D01*
X0123399Y0348271D01*
X0123571Y0348282D01*
X0123742Y0348288D01*
X0123914Y0348290D01*
X0124086Y0348288D01*
X0124257Y0348282D01*
X0124429Y0348271D01*
X0124600Y0348256D01*
X0124771Y0348237D01*
X0124941Y0348214D01*
X0125111Y0348187D01*
X0125280Y0348155D01*
X0125448Y0348120D01*
X0125615Y0348080D01*
X0125781Y0348036D01*
X0125946Y0347989D01*
X0126110Y0347937D01*
X0126272Y0347881D01*
X0126433Y0347821D01*
X0126593Y0347757D01*
X0126751Y0347689D01*
X0126907Y0347618D01*
X0127061Y0347543D01*
X0127214Y0347463D01*
X0127364Y0347381D01*
X0127513Y0347294D01*
X0127659Y0347204D01*
X0127803Y0347110D01*
X0127945Y0347013D01*
X0128084Y0346912D01*
X0128221Y0346808D01*
X0128355Y0346701D01*
X0128486Y0346590D01*
X0128615Y0346477D01*
X0128741Y0346360D01*
X0128864Y0346240D01*
X0128984Y0346117D01*
X0129101Y0345991D01*
X0129214Y0345862D01*
X0129325Y0345731D01*
X0129432Y0345597D01*
X0129536Y0345460D01*
X0129637Y0345321D01*
X0129734Y0345179D01*
X0129828Y0345035D01*
X0129918Y0344889D01*
X0130005Y0344740D01*
X0130087Y0344590D01*
X0130167Y0344437D01*
X0130242Y0344283D01*
X0130313Y0344127D01*
X0130381Y0343969D01*
X0130445Y0343809D01*
X0130505Y0343648D01*
X0130561Y0343486D01*
X0130613Y0343322D01*
X0130660Y0343157D01*
X0130704Y0342991D01*
X0130744Y0342824D01*
X0130779Y0342656D01*
X0130811Y0342487D01*
X0130838Y0342317D01*
X0130861Y0342147D01*
X0130880Y0341976D01*
X0130895Y0341805D01*
X0130906Y0341633D01*
X0130912Y0341462D01*
X0130914Y0341290D01*
X0130912Y0341118D01*
X0130906Y0340947D01*
X0130895Y0340775D01*
X0130880Y0340604D01*
X0130861Y0340433D01*
X0130838Y0340263D01*
X0130811Y0340093D01*
X0130779Y0339924D01*
X0130744Y0339756D01*
X0130704Y0339589D01*
X0130660Y0339423D01*
X0130613Y0339258D01*
X0130561Y0339094D01*
X0130505Y0338932D01*
X0130445Y0338771D01*
X0130381Y0338611D01*
X0130313Y0338453D01*
X0130242Y0338297D01*
X0130167Y0338143D01*
X0130087Y0337990D01*
X0130005Y0337840D01*
X0129918Y0337691D01*
X0129828Y0337545D01*
X0129734Y0337401D01*
X0129637Y0337259D01*
X0129536Y0337120D01*
X0129432Y0336983D01*
X0129325Y0336849D01*
X0129214Y0336718D01*
X0129101Y0336589D01*
X0128984Y0336463D01*
X0128864Y0336340D01*
X0128741Y0336220D01*
X0128615Y0336103D01*
X0128486Y0335990D01*
X0128355Y0335879D01*
X0128221Y0335772D01*
X0128084Y0335668D01*
X0127945Y0335567D01*
X0127803Y0335470D01*
X0127659Y0335376D01*
X0127513Y0335286D01*
X0127364Y0335199D01*
X0127214Y0335117D01*
X0127061Y0335037D01*
X0126907Y0334962D01*
X0126751Y0334891D01*
X0126593Y0334823D01*
X0126433Y0334759D01*
X0126272Y0334699D01*
X0126110Y0334643D01*
X0125946Y0334591D01*
X0125781Y0334544D01*
X0125615Y0334500D01*
X0125448Y0334460D01*
X0125280Y0334425D01*
X0125111Y0334393D01*
X0124941Y0334366D01*
X0124771Y0334343D01*
X0124600Y0334324D01*
X0124429Y0334309D01*
X0124257Y0334298D01*
X0124086Y0334292D01*
X0123914Y0334290D01*
X0123742Y0334292D01*
X0123571Y0334298D01*
X0123399Y0334309D01*
X0123228Y0334324D01*
X0123057Y0334343D01*
X0122887Y0334366D01*
X0122717Y0334393D01*
X0122548Y0334425D01*
X0122380Y0334460D01*
X0122213Y0334500D01*
X0122047Y0334544D01*
X0121882Y0334591D01*
X0121718Y0334643D01*
X0121556Y0334699D01*
X0121395Y0334759D01*
X0121235Y0334823D01*
X0121077Y0334891D01*
X0120921Y0334962D01*
X0120767Y0335037D01*
X0120614Y0335117D01*
X0120464Y0335199D01*
X0120315Y0335286D01*
X0120169Y0335376D01*
X0120025Y0335470D01*
X0119883Y0335567D01*
X0119744Y0335668D01*
X0119607Y0335772D01*
X0119473Y0335879D01*
X0119342Y0335990D01*
X0119213Y0336103D01*
X0119087Y0336220D01*
X0118964Y0336340D01*
X0118844Y0336463D01*
X0118727Y0336589D01*
X0118614Y0336718D01*
X0118503Y0336849D01*
X0118396Y0336983D01*
X0118292Y0337120D01*
X0118191Y0337259D01*
X0118094Y0337401D01*
X0118000Y0337545D01*
X0117910Y0337691D01*
X0117823Y0337840D01*
X0117741Y0337990D01*
X0117661Y0338143D01*
X0117586Y0338297D01*
X0117515Y0338453D01*
X0117447Y0338611D01*
X0117383Y0338771D01*
X0117323Y0338932D01*
X0117267Y0339094D01*
X0117215Y0339258D01*
X0117168Y0339423D01*
X0117124Y0339589D01*
X0117084Y0339756D01*
X0117049Y0339924D01*
X0117017Y0340093D01*
X0116990Y0340263D01*
X0116967Y0340433D01*
X0116948Y0340604D01*
X0116933Y0340775D01*
X0116922Y0340947D01*
X0116916Y0341118D01*
X0116914Y0341290D01*
X0031914Y0341290D02*
X0031916Y0341462D01*
X0031922Y0341633D01*
X0031933Y0341805D01*
X0031948Y0341976D01*
X0031967Y0342147D01*
X0031990Y0342317D01*
X0032017Y0342487D01*
X0032049Y0342656D01*
X0032084Y0342824D01*
X0032124Y0342991D01*
X0032168Y0343157D01*
X0032215Y0343322D01*
X0032267Y0343486D01*
X0032323Y0343648D01*
X0032383Y0343809D01*
X0032447Y0343969D01*
X0032515Y0344127D01*
X0032586Y0344283D01*
X0032661Y0344437D01*
X0032741Y0344590D01*
X0032823Y0344740D01*
X0032910Y0344889D01*
X0033000Y0345035D01*
X0033094Y0345179D01*
X0033191Y0345321D01*
X0033292Y0345460D01*
X0033396Y0345597D01*
X0033503Y0345731D01*
X0033614Y0345862D01*
X0033727Y0345991D01*
X0033844Y0346117D01*
X0033964Y0346240D01*
X0034087Y0346360D01*
X0034213Y0346477D01*
X0034342Y0346590D01*
X0034473Y0346701D01*
X0034607Y0346808D01*
X0034744Y0346912D01*
X0034883Y0347013D01*
X0035025Y0347110D01*
X0035169Y0347204D01*
X0035315Y0347294D01*
X0035464Y0347381D01*
X0035614Y0347463D01*
X0035767Y0347543D01*
X0035921Y0347618D01*
X0036077Y0347689D01*
X0036235Y0347757D01*
X0036395Y0347821D01*
X0036556Y0347881D01*
X0036718Y0347937D01*
X0036882Y0347989D01*
X0037047Y0348036D01*
X0037213Y0348080D01*
X0037380Y0348120D01*
X0037548Y0348155D01*
X0037717Y0348187D01*
X0037887Y0348214D01*
X0038057Y0348237D01*
X0038228Y0348256D01*
X0038399Y0348271D01*
X0038571Y0348282D01*
X0038742Y0348288D01*
X0038914Y0348290D01*
X0039086Y0348288D01*
X0039257Y0348282D01*
X0039429Y0348271D01*
X0039600Y0348256D01*
X0039771Y0348237D01*
X0039941Y0348214D01*
X0040111Y0348187D01*
X0040280Y0348155D01*
X0040448Y0348120D01*
X0040615Y0348080D01*
X0040781Y0348036D01*
X0040946Y0347989D01*
X0041110Y0347937D01*
X0041272Y0347881D01*
X0041433Y0347821D01*
X0041593Y0347757D01*
X0041751Y0347689D01*
X0041907Y0347618D01*
X0042061Y0347543D01*
X0042214Y0347463D01*
X0042364Y0347381D01*
X0042513Y0347294D01*
X0042659Y0347204D01*
X0042803Y0347110D01*
X0042945Y0347013D01*
X0043084Y0346912D01*
X0043221Y0346808D01*
X0043355Y0346701D01*
X0043486Y0346590D01*
X0043615Y0346477D01*
X0043741Y0346360D01*
X0043864Y0346240D01*
X0043984Y0346117D01*
X0044101Y0345991D01*
X0044214Y0345862D01*
X0044325Y0345731D01*
X0044432Y0345597D01*
X0044536Y0345460D01*
X0044637Y0345321D01*
X0044734Y0345179D01*
X0044828Y0345035D01*
X0044918Y0344889D01*
X0045005Y0344740D01*
X0045087Y0344590D01*
X0045167Y0344437D01*
X0045242Y0344283D01*
X0045313Y0344127D01*
X0045381Y0343969D01*
X0045445Y0343809D01*
X0045505Y0343648D01*
X0045561Y0343486D01*
X0045613Y0343322D01*
X0045660Y0343157D01*
X0045704Y0342991D01*
X0045744Y0342824D01*
X0045779Y0342656D01*
X0045811Y0342487D01*
X0045838Y0342317D01*
X0045861Y0342147D01*
X0045880Y0341976D01*
X0045895Y0341805D01*
X0045906Y0341633D01*
X0045912Y0341462D01*
X0045914Y0341290D01*
X0045912Y0341118D01*
X0045906Y0340947D01*
X0045895Y0340775D01*
X0045880Y0340604D01*
X0045861Y0340433D01*
X0045838Y0340263D01*
X0045811Y0340093D01*
X0045779Y0339924D01*
X0045744Y0339756D01*
X0045704Y0339589D01*
X0045660Y0339423D01*
X0045613Y0339258D01*
X0045561Y0339094D01*
X0045505Y0338932D01*
X0045445Y0338771D01*
X0045381Y0338611D01*
X0045313Y0338453D01*
X0045242Y0338297D01*
X0045167Y0338143D01*
X0045087Y0337990D01*
X0045005Y0337840D01*
X0044918Y0337691D01*
X0044828Y0337545D01*
X0044734Y0337401D01*
X0044637Y0337259D01*
X0044536Y0337120D01*
X0044432Y0336983D01*
X0044325Y0336849D01*
X0044214Y0336718D01*
X0044101Y0336589D01*
X0043984Y0336463D01*
X0043864Y0336340D01*
X0043741Y0336220D01*
X0043615Y0336103D01*
X0043486Y0335990D01*
X0043355Y0335879D01*
X0043221Y0335772D01*
X0043084Y0335668D01*
X0042945Y0335567D01*
X0042803Y0335470D01*
X0042659Y0335376D01*
X0042513Y0335286D01*
X0042364Y0335199D01*
X0042214Y0335117D01*
X0042061Y0335037D01*
X0041907Y0334962D01*
X0041751Y0334891D01*
X0041593Y0334823D01*
X0041433Y0334759D01*
X0041272Y0334699D01*
X0041110Y0334643D01*
X0040946Y0334591D01*
X0040781Y0334544D01*
X0040615Y0334500D01*
X0040448Y0334460D01*
X0040280Y0334425D01*
X0040111Y0334393D01*
X0039941Y0334366D01*
X0039771Y0334343D01*
X0039600Y0334324D01*
X0039429Y0334309D01*
X0039257Y0334298D01*
X0039086Y0334292D01*
X0038914Y0334290D01*
X0038742Y0334292D01*
X0038571Y0334298D01*
X0038399Y0334309D01*
X0038228Y0334324D01*
X0038057Y0334343D01*
X0037887Y0334366D01*
X0037717Y0334393D01*
X0037548Y0334425D01*
X0037380Y0334460D01*
X0037213Y0334500D01*
X0037047Y0334544D01*
X0036882Y0334591D01*
X0036718Y0334643D01*
X0036556Y0334699D01*
X0036395Y0334759D01*
X0036235Y0334823D01*
X0036077Y0334891D01*
X0035921Y0334962D01*
X0035767Y0335037D01*
X0035614Y0335117D01*
X0035464Y0335199D01*
X0035315Y0335286D01*
X0035169Y0335376D01*
X0035025Y0335470D01*
X0034883Y0335567D01*
X0034744Y0335668D01*
X0034607Y0335772D01*
X0034473Y0335879D01*
X0034342Y0335990D01*
X0034213Y0336103D01*
X0034087Y0336220D01*
X0033964Y0336340D01*
X0033844Y0336463D01*
X0033727Y0336589D01*
X0033614Y0336718D01*
X0033503Y0336849D01*
X0033396Y0336983D01*
X0033292Y0337120D01*
X0033191Y0337259D01*
X0033094Y0337401D01*
X0033000Y0337545D01*
X0032910Y0337691D01*
X0032823Y0337840D01*
X0032741Y0337990D01*
X0032661Y0338143D01*
X0032586Y0338297D01*
X0032515Y0338453D01*
X0032447Y0338611D01*
X0032383Y0338771D01*
X0032323Y0338932D01*
X0032267Y0339094D01*
X0032215Y0339258D01*
X0032168Y0339423D01*
X0032124Y0339589D01*
X0032084Y0339756D01*
X0032049Y0339924D01*
X0032017Y0340093D01*
X0031990Y0340263D01*
X0031967Y0340433D01*
X0031948Y0340604D01*
X0031933Y0340775D01*
X0031922Y0340947D01*
X0031916Y0341118D01*
X0031914Y0341290D01*
D11*
X0028000Y0081900D02*
X0028000Y0070400D01*
X0028000Y0058900D01*
X0028000Y0047400D01*
X0028000Y0035900D01*
X0028000Y0024400D01*
X0028000Y0012900D01*
X0028000Y0001400D01*
X0043000Y0001400D01*
X0097000Y0001400D01*
X0097000Y0012900D01*
X0097000Y0024400D01*
X0097000Y0035900D01*
X0097000Y0047400D01*
X0097000Y0058900D01*
X0097000Y0070400D01*
X0136000Y0070400D01*
X0136000Y0058900D01*
X0136000Y0047400D01*
X0136000Y0035900D01*
X0136000Y0024400D01*
X0136000Y0012900D01*
X0136000Y0001400D01*
X0159000Y0001400D01*
X0205000Y0001400D01*
X0282000Y0001400D01*
X0282000Y0012900D01*
X0282000Y0024400D01*
X0282000Y0035900D01*
X0282000Y0047400D01*
X0282000Y0058900D01*
X0282000Y0070400D01*
X0282000Y0081900D01*
X0282000Y0070400D02*
X0205000Y0070400D01*
X0205000Y0058900D01*
X0205000Y0047400D01*
X0205000Y0035900D01*
X0205000Y0024400D01*
X0205000Y0012900D01*
X0205000Y0001400D01*
X0214000Y0007103D02*
X0218404Y0007103D01*
X0220445Y0003800D02*
X0224849Y0010406D01*
X0226891Y0007103D02*
X0231295Y0007103D01*
X0229093Y0009305D02*
X0229093Y0004901D01*
X0229093Y0016401D02*
X0229093Y0020805D01*
X0226891Y0018603D02*
X0231295Y0018603D01*
X0224849Y0021906D02*
X0220445Y0015300D01*
X0218404Y0018603D02*
X0214000Y0018603D01*
X0220445Y0026800D02*
X0224849Y0033406D01*
X0226891Y0030103D02*
X0231295Y0030103D01*
X0229093Y0032305D02*
X0229093Y0027901D01*
X0218404Y0030103D02*
X0214000Y0030103D01*
X0220445Y0038300D02*
X0224849Y0044906D01*
X0226891Y0041603D02*
X0231295Y0041603D01*
X0229093Y0043805D02*
X0229093Y0039401D01*
X0218404Y0041603D02*
X0214000Y0041603D01*
X0220445Y0049800D02*
X0224849Y0056406D01*
X0226891Y0053103D02*
X0231295Y0053103D01*
X0229093Y0055305D02*
X0229093Y0050901D01*
X0218404Y0053103D02*
X0214000Y0053103D01*
X0220445Y0061300D02*
X0224849Y0067906D01*
X0226891Y0064603D02*
X0231295Y0064603D01*
X0229093Y0066805D02*
X0229093Y0062401D01*
X0218404Y0064603D02*
X0214000Y0064603D01*
X0205000Y0058900D02*
X0282000Y0058900D01*
X0273190Y0061300D02*
X0273190Y0067906D01*
X0270989Y0065704D01*
X0268787Y0067906D01*
X0268787Y0061300D01*
X0266745Y0061300D02*
X0266745Y0067906D01*
X0264543Y0065704D01*
X0262341Y0067906D01*
X0262341Y0061300D01*
X0260299Y0062401D02*
X0259199Y0061300D01*
X0256997Y0061300D01*
X0255896Y0062401D01*
X0253854Y0062401D02*
X0252753Y0061300D01*
X0250551Y0061300D01*
X0249450Y0062401D01*
X0253854Y0066805D01*
X0253854Y0062401D01*
X0255896Y0064603D02*
X0255896Y0067906D01*
X0260299Y0067906D01*
X0259199Y0065704D02*
X0260299Y0064603D01*
X0260299Y0062401D01*
X0259199Y0065704D02*
X0258098Y0065704D01*
X0255896Y0064603D01*
X0253854Y0066805D02*
X0252753Y0067906D01*
X0250551Y0067906D01*
X0249450Y0066805D01*
X0249450Y0062401D01*
X0247328Y0062401D02*
X0247328Y0061300D01*
X0246227Y0061300D01*
X0246227Y0062401D01*
X0247328Y0062401D01*
X0244186Y0062401D02*
X0244186Y0066805D01*
X0239782Y0062401D01*
X0240883Y0061300D01*
X0243085Y0061300D01*
X0244186Y0062401D01*
X0244186Y0066805D02*
X0243085Y0067906D01*
X0240883Y0067906D01*
X0239782Y0066805D01*
X0239782Y0062401D01*
X0240883Y0056406D02*
X0243085Y0056406D01*
X0244186Y0055305D01*
X0239782Y0050901D01*
X0240883Y0049800D01*
X0243085Y0049800D01*
X0244186Y0050901D01*
X0244186Y0055305D01*
X0246227Y0050901D02*
X0247328Y0050901D01*
X0247328Y0049800D01*
X0246227Y0049800D01*
X0246227Y0050901D01*
X0249450Y0050901D02*
X0250551Y0049800D01*
X0252753Y0049800D01*
X0253854Y0050901D01*
X0253854Y0055305D01*
X0249450Y0050901D01*
X0249450Y0055305D01*
X0250551Y0056406D01*
X0252753Y0056406D01*
X0253854Y0055305D01*
X0255896Y0056406D02*
X0255896Y0053103D01*
X0258098Y0054204D01*
X0259199Y0054204D01*
X0260299Y0053103D01*
X0260299Y0050901D01*
X0259199Y0049800D01*
X0256997Y0049800D01*
X0255896Y0050901D01*
X0255896Y0056406D02*
X0260299Y0056406D01*
X0262341Y0056406D02*
X0264543Y0054204D01*
X0266745Y0056406D01*
X0266745Y0049800D01*
X0268787Y0049800D02*
X0268787Y0056406D01*
X0270989Y0054204D01*
X0273190Y0056406D01*
X0273190Y0049800D01*
X0273190Y0044906D02*
X0273190Y0038300D01*
X0273190Y0033406D02*
X0273190Y0026800D01*
X0273190Y0021906D02*
X0273190Y0015300D01*
X0270989Y0019704D02*
X0273190Y0021906D01*
X0270989Y0019704D02*
X0268787Y0021906D01*
X0268787Y0015300D01*
X0266745Y0015300D02*
X0266745Y0021906D01*
X0264543Y0019704D01*
X0262341Y0021906D01*
X0262341Y0015300D01*
X0260299Y0016401D02*
X0260299Y0018603D01*
X0259199Y0019704D01*
X0258098Y0019704D01*
X0255896Y0018603D01*
X0255896Y0021906D01*
X0260299Y0021906D01*
X0259199Y0026800D02*
X0256997Y0026800D01*
X0255896Y0027901D01*
X0253854Y0027901D02*
X0253854Y0032305D01*
X0249450Y0027901D01*
X0250551Y0026800D01*
X0252753Y0026800D01*
X0253854Y0027901D01*
X0255896Y0030103D02*
X0258098Y0031204D01*
X0259199Y0031204D01*
X0260299Y0030103D01*
X0260299Y0027901D01*
X0259199Y0026800D01*
X0262341Y0026800D02*
X0262341Y0033406D01*
X0264543Y0031204D01*
X0266745Y0033406D01*
X0266745Y0026800D01*
X0268787Y0026800D02*
X0268787Y0033406D01*
X0270989Y0031204D01*
X0273190Y0033406D01*
X0268787Y0038300D02*
X0268787Y0044906D01*
X0270989Y0042704D01*
X0273190Y0044906D01*
X0266745Y0044906D02*
X0266745Y0038300D01*
X0264543Y0042704D02*
X0266745Y0044906D01*
X0264543Y0042704D02*
X0262341Y0044906D01*
X0262341Y0038300D01*
X0260299Y0039401D02*
X0260299Y0041603D01*
X0259199Y0042704D01*
X0258098Y0042704D01*
X0255896Y0041603D01*
X0255896Y0044906D01*
X0260299Y0044906D01*
X0262341Y0049800D02*
X0262341Y0056406D01*
X0252753Y0044906D02*
X0253854Y0043805D01*
X0249450Y0039401D01*
X0250551Y0038300D01*
X0252753Y0038300D01*
X0253854Y0039401D01*
X0253854Y0043805D01*
X0252753Y0044906D02*
X0250551Y0044906D01*
X0249450Y0043805D01*
X0249450Y0039401D01*
X0247328Y0039401D02*
X0247328Y0038300D01*
X0246227Y0038300D01*
X0246227Y0039401D01*
X0247328Y0039401D01*
X0244186Y0039401D02*
X0243085Y0038300D01*
X0240883Y0038300D01*
X0239782Y0039401D01*
X0244186Y0043805D01*
X0244186Y0039401D01*
X0243085Y0033406D02*
X0244186Y0032305D01*
X0239782Y0027901D01*
X0240883Y0026800D01*
X0243085Y0026800D01*
X0244186Y0027901D01*
X0244186Y0032305D01*
X0243085Y0033406D02*
X0240883Y0033406D01*
X0239782Y0032305D01*
X0239782Y0027901D01*
X0240883Y0021906D02*
X0243085Y0021906D01*
X0244186Y0020805D01*
X0239782Y0016401D01*
X0240883Y0015300D01*
X0243085Y0015300D01*
X0244186Y0016401D01*
X0244186Y0020805D01*
X0246227Y0016401D02*
X0247328Y0016401D01*
X0247328Y0015300D01*
X0246227Y0015300D01*
X0246227Y0016401D01*
X0249450Y0016401D02*
X0253854Y0020805D01*
X0253854Y0016401D01*
X0252753Y0015300D01*
X0250551Y0015300D01*
X0249450Y0016401D01*
X0249450Y0020805D01*
X0250551Y0021906D01*
X0252753Y0021906D01*
X0253854Y0020805D01*
X0255896Y0016401D02*
X0256997Y0015300D01*
X0259199Y0015300D01*
X0260299Y0016401D01*
X0260299Y0010406D02*
X0255896Y0010406D01*
X0255896Y0007103D01*
X0258098Y0008204D01*
X0259199Y0008204D01*
X0260299Y0007103D01*
X0260299Y0004901D01*
X0259199Y0003800D01*
X0256997Y0003800D01*
X0255896Y0004901D01*
X0253854Y0004901D02*
X0253854Y0009305D01*
X0249450Y0004901D01*
X0250551Y0003800D01*
X0252753Y0003800D01*
X0253854Y0004901D01*
X0253854Y0009305D02*
X0252753Y0010406D01*
X0250551Y0010406D01*
X0249450Y0009305D01*
X0249450Y0004901D01*
X0247328Y0004901D02*
X0247328Y0003800D01*
X0246227Y0003800D01*
X0246227Y0004901D01*
X0247328Y0004901D01*
X0244186Y0004901D02*
X0244186Y0009305D01*
X0239782Y0004901D01*
X0240883Y0003800D01*
X0243085Y0003800D01*
X0244186Y0004901D01*
X0244186Y0009305D02*
X0243085Y0010406D01*
X0240883Y0010406D01*
X0239782Y0009305D01*
X0239782Y0004901D01*
X0239782Y0016401D02*
X0239782Y0020805D01*
X0240883Y0021906D01*
X0246227Y0026800D02*
X0247328Y0026800D01*
X0247328Y0027901D01*
X0246227Y0027901D01*
X0246227Y0026800D01*
X0249450Y0027901D02*
X0249450Y0032305D01*
X0250551Y0033406D01*
X0252753Y0033406D01*
X0253854Y0032305D01*
X0255896Y0033406D02*
X0255896Y0030103D01*
X0255896Y0033406D02*
X0260299Y0033406D01*
X0259199Y0038300D02*
X0256997Y0038300D01*
X0255896Y0039401D01*
X0259199Y0038300D02*
X0260299Y0039401D01*
X0244186Y0043805D02*
X0243085Y0044906D01*
X0240883Y0044906D01*
X0239782Y0043805D01*
X0239782Y0039401D01*
X0239782Y0050901D02*
X0239782Y0055305D01*
X0240883Y0056406D01*
X0242346Y0072800D02*
X0241245Y0073901D01*
X0241245Y0076103D01*
X0242346Y0077204D01*
X0244548Y0077204D01*
X0245649Y0076103D01*
X0245649Y0073901D01*
X0244548Y0072800D01*
X0242346Y0072800D01*
X0239204Y0079406D02*
X0234800Y0079406D01*
X0237002Y0079406D02*
X0237002Y0072800D01*
X0247691Y0072800D02*
X0249893Y0072800D01*
X0248792Y0072800D02*
X0248792Y0079406D01*
X0247691Y0079406D01*
X0282000Y0047400D02*
X0205000Y0047400D01*
X0159000Y0047400D01*
X0159000Y0035900D01*
X0159000Y0024400D01*
X0159000Y0012900D01*
X0159000Y0001400D01*
X0159000Y0012900D02*
X0205000Y0012900D01*
X0282000Y0012900D01*
X0273190Y0010406D02*
X0273190Y0003800D01*
X0270989Y0008204D02*
X0273190Y0010406D01*
X0270989Y0008204D02*
X0268787Y0010406D01*
X0268787Y0003800D01*
X0266745Y0003800D02*
X0266745Y0010406D01*
X0264543Y0008204D01*
X0262341Y0010406D01*
X0262341Y0003800D01*
X0282000Y0024400D02*
X0205000Y0024400D01*
X0159000Y0024400D01*
X0136000Y0024400D01*
X0097000Y0024400D01*
X0043000Y0024400D01*
X0043000Y0012900D01*
X0043000Y0001400D01*
X0049400Y0003800D02*
X0053804Y0003800D01*
X0051602Y0003800D02*
X0051602Y0010406D01*
X0049400Y0008204D01*
X0055845Y0007103D02*
X0060249Y0007103D01*
X0062291Y0004901D02*
X0062291Y0009305D01*
X0063392Y0010406D01*
X0065594Y0010406D01*
X0066695Y0009305D01*
X0062291Y0004901D01*
X0063392Y0003800D01*
X0065594Y0003800D01*
X0066695Y0004901D01*
X0066695Y0009305D01*
X0068736Y0004901D02*
X0069837Y0004901D01*
X0069837Y0003800D01*
X0068736Y0003800D01*
X0068736Y0004901D01*
X0071959Y0004901D02*
X0071959Y0009305D01*
X0073060Y0010406D01*
X0075262Y0010406D01*
X0076363Y0009305D01*
X0071959Y0004901D01*
X0073060Y0003800D01*
X0075262Y0003800D01*
X0076363Y0004901D01*
X0076363Y0009305D01*
X0078405Y0009305D02*
X0078405Y0004901D01*
X0082808Y0009305D01*
X0082808Y0004901D01*
X0081708Y0003800D01*
X0079506Y0003800D01*
X0078405Y0004901D01*
X0078405Y0009305D02*
X0079506Y0010406D01*
X0081708Y0010406D01*
X0082808Y0009305D01*
X0084850Y0009305D02*
X0085951Y0010406D01*
X0088153Y0010406D01*
X0089254Y0009305D01*
X0084850Y0004901D01*
X0085951Y0003800D01*
X0088153Y0003800D01*
X0089254Y0004901D01*
X0089254Y0009305D01*
X0084850Y0009305D02*
X0084850Y0004901D01*
X0084708Y0015300D02*
X0084708Y0021906D01*
X0081405Y0018603D01*
X0085808Y0018603D01*
X0079363Y0018603D02*
X0074959Y0018603D01*
X0078262Y0021906D01*
X0078262Y0015300D01*
X0072917Y0015300D02*
X0068514Y0015300D01*
X0072917Y0019704D01*
X0072917Y0020805D01*
X0071817Y0021906D01*
X0069615Y0021906D01*
X0068514Y0020805D01*
X0066392Y0016401D02*
X0066392Y0015300D01*
X0065291Y0015300D01*
X0065291Y0016401D01*
X0066392Y0016401D01*
X0063249Y0020805D02*
X0058845Y0016401D01*
X0058845Y0015300D01*
X0055703Y0015300D02*
X0055703Y0021906D01*
X0052400Y0018603D01*
X0056804Y0018603D01*
X0058845Y0021906D02*
X0063249Y0021906D01*
X0063249Y0020805D01*
X0062148Y0026800D02*
X0059946Y0026800D01*
X0058845Y0027901D01*
X0056804Y0030103D02*
X0052400Y0030103D01*
X0055703Y0033406D01*
X0055703Y0026800D01*
X0058845Y0032305D02*
X0059946Y0033406D01*
X0062148Y0033406D01*
X0063249Y0032305D01*
X0063249Y0031204D01*
X0062148Y0030103D01*
X0063249Y0029002D01*
X0063249Y0027901D01*
X0062148Y0026800D01*
X0062148Y0030103D02*
X0061047Y0030103D01*
X0065291Y0027901D02*
X0066392Y0027901D01*
X0066392Y0026800D01*
X0065291Y0026800D01*
X0065291Y0027901D01*
X0068514Y0027901D02*
X0069615Y0026800D01*
X0071817Y0026800D01*
X0072917Y0027901D01*
X0072917Y0029002D01*
X0071817Y0030103D01*
X0070716Y0030103D01*
X0071817Y0030103D02*
X0072917Y0031204D01*
X0072917Y0032305D01*
X0071817Y0033406D01*
X0069615Y0033406D01*
X0068514Y0032305D01*
X0066392Y0038300D02*
X0065291Y0038300D01*
X0065291Y0039401D01*
X0066392Y0039401D01*
X0066392Y0038300D01*
X0063249Y0038300D02*
X0058845Y0038300D01*
X0061047Y0038300D02*
X0061047Y0044906D01*
X0058845Y0042704D01*
X0056804Y0042704D02*
X0055703Y0041603D01*
X0056804Y0040502D01*
X0056804Y0039401D01*
X0055703Y0038300D01*
X0053501Y0038300D01*
X0052400Y0039401D01*
X0054602Y0041603D02*
X0055703Y0041603D01*
X0056804Y0042704D02*
X0056804Y0043805D01*
X0055703Y0044906D01*
X0053501Y0044906D01*
X0052400Y0043805D01*
X0052400Y0049800D02*
X0056804Y0054204D01*
X0056804Y0055305D01*
X0055703Y0056406D01*
X0053501Y0056406D01*
X0052400Y0055305D01*
X0052400Y0061300D02*
X0056804Y0061300D01*
X0054602Y0061300D02*
X0054602Y0067906D01*
X0052400Y0065704D01*
X0058845Y0066805D02*
X0058845Y0062401D01*
X0063249Y0066805D01*
X0063249Y0062401D01*
X0062148Y0061300D01*
X0059946Y0061300D01*
X0058845Y0062401D01*
X0058845Y0066805D02*
X0059946Y0067906D01*
X0062148Y0067906D01*
X0063249Y0066805D01*
X0065291Y0062401D02*
X0066392Y0062401D01*
X0066392Y0061300D01*
X0065291Y0061300D01*
X0065291Y0062401D01*
X0068514Y0062401D02*
X0069615Y0061300D01*
X0071817Y0061300D01*
X0072917Y0062401D01*
X0072917Y0066805D01*
X0068514Y0062401D01*
X0068514Y0066805D01*
X0069615Y0067906D01*
X0071817Y0067906D01*
X0072917Y0066805D01*
X0074959Y0066805D02*
X0074959Y0062401D01*
X0079363Y0066805D01*
X0079363Y0062401D01*
X0078262Y0061300D01*
X0076060Y0061300D01*
X0074959Y0062401D01*
X0074959Y0066805D02*
X0076060Y0067906D01*
X0078262Y0067906D01*
X0079363Y0066805D01*
X0081405Y0066805D02*
X0082506Y0067906D01*
X0084708Y0067906D01*
X0085808Y0066805D01*
X0081405Y0062401D01*
X0082506Y0061300D01*
X0084708Y0061300D01*
X0085808Y0062401D01*
X0085808Y0066805D01*
X0081405Y0066805D02*
X0081405Y0062401D01*
X0082506Y0056406D02*
X0081405Y0055305D01*
X0081405Y0054204D01*
X0082506Y0053103D01*
X0085808Y0053103D01*
X0085808Y0050901D02*
X0085808Y0055305D01*
X0084708Y0056406D01*
X0082506Y0056406D01*
X0079363Y0056406D02*
X0074959Y0056406D01*
X0074959Y0053103D01*
X0077161Y0054204D01*
X0078262Y0054204D01*
X0079363Y0053103D01*
X0079363Y0050901D01*
X0078262Y0049800D01*
X0076060Y0049800D01*
X0074959Y0050901D01*
X0072917Y0050901D02*
X0071817Y0049800D01*
X0069615Y0049800D01*
X0068514Y0050901D01*
X0066392Y0050901D02*
X0066392Y0049800D01*
X0065291Y0049800D01*
X0065291Y0050901D01*
X0066392Y0050901D01*
X0068514Y0053103D02*
X0068514Y0056406D01*
X0072917Y0056406D01*
X0071817Y0054204D02*
X0070716Y0054204D01*
X0068514Y0053103D01*
X0071817Y0054204D02*
X0072917Y0053103D01*
X0072917Y0050901D01*
X0071817Y0044906D02*
X0068514Y0041603D01*
X0072917Y0041603D01*
X0074959Y0042704D02*
X0074959Y0043805D01*
X0076060Y0044906D01*
X0078262Y0044906D01*
X0079363Y0043805D01*
X0079363Y0039401D01*
X0078262Y0038300D01*
X0076060Y0038300D01*
X0074959Y0039401D01*
X0076060Y0041603D02*
X0079363Y0041603D01*
X0081405Y0041603D02*
X0084708Y0041603D01*
X0085808Y0040502D01*
X0085808Y0039401D01*
X0084708Y0038300D01*
X0082506Y0038300D01*
X0081405Y0039401D01*
X0081405Y0041603D01*
X0083607Y0043805D01*
X0085808Y0044906D01*
X0084708Y0049800D02*
X0085808Y0050901D01*
X0084708Y0049800D02*
X0082506Y0049800D01*
X0081405Y0050901D01*
X0074959Y0042704D02*
X0076060Y0041603D01*
X0071817Y0038300D02*
X0071817Y0044906D01*
X0076060Y0033406D02*
X0078262Y0033406D01*
X0079363Y0032305D01*
X0074959Y0027901D01*
X0076060Y0026800D01*
X0078262Y0026800D01*
X0079363Y0027901D01*
X0079363Y0032305D01*
X0081405Y0033406D02*
X0085808Y0033406D01*
X0085808Y0032305D01*
X0081405Y0027901D01*
X0081405Y0026800D01*
X0074959Y0027901D02*
X0074959Y0032305D01*
X0076060Y0033406D01*
X0058845Y0049800D02*
X0058845Y0050901D01*
X0063249Y0055305D01*
X0063249Y0056406D01*
X0058845Y0056406D01*
X0056804Y0049800D02*
X0052400Y0049800D01*
X0043000Y0047400D02*
X0043000Y0058900D01*
X0097000Y0058900D01*
X0136000Y0058900D01*
X0159000Y0058900D01*
X0159000Y0047400D01*
X0136000Y0047400D01*
X0097000Y0047400D01*
X0043000Y0047400D01*
X0043000Y0035900D01*
X0043000Y0024400D01*
X0028000Y0024400D01*
X0005000Y0024400D01*
X0005000Y0012900D02*
X0028000Y0012900D01*
X0043000Y0012900D01*
X0097000Y0012900D01*
X0136000Y0012900D01*
X0159000Y0012900D01*
X0149104Y0015300D02*
X0144700Y0015300D01*
X0149104Y0019704D01*
X0149104Y0020805D01*
X0148003Y0021906D01*
X0145801Y0021906D01*
X0144700Y0020805D01*
X0144002Y0026800D02*
X0144002Y0033406D01*
X0141800Y0031204D01*
X0141800Y0026800D02*
X0146204Y0026800D01*
X0148245Y0027901D02*
X0148245Y0030103D01*
X0151548Y0030103D01*
X0152649Y0029002D01*
X0152649Y0027901D01*
X0151548Y0026800D01*
X0149346Y0026800D01*
X0148245Y0027901D01*
X0148245Y0030103D02*
X0150447Y0032305D01*
X0152649Y0033406D01*
X0149104Y0038300D02*
X0144700Y0038300D01*
X0146902Y0038300D02*
X0146902Y0044906D01*
X0144700Y0042704D01*
X0144002Y0049800D02*
X0144002Y0056406D01*
X0141800Y0054204D01*
X0141800Y0049800D02*
X0146204Y0049800D01*
X0148245Y0049800D02*
X0152649Y0054204D01*
X0152649Y0055305D01*
X0151548Y0056406D01*
X0149346Y0056406D01*
X0148245Y0055305D01*
X0147447Y0061300D02*
X0147447Y0067906D01*
X0145245Y0065704D01*
X0145245Y0061300D02*
X0149649Y0061300D01*
X0151691Y0062401D02*
X0152792Y0061300D01*
X0154994Y0061300D01*
X0156095Y0062401D01*
X0156095Y0064603D01*
X0154994Y0065704D01*
X0153893Y0065704D01*
X0151691Y0064603D01*
X0151691Y0067906D01*
X0156095Y0067906D01*
X0159000Y0070400D02*
X0159000Y0058900D01*
X0205000Y0058900D01*
X0205000Y0070400D02*
X0205000Y0081900D01*
X0196734Y0079406D02*
X0196734Y0072800D01*
X0193431Y0072800D01*
X0192330Y0073901D01*
X0192330Y0076103D01*
X0193431Y0077204D01*
X0196734Y0077204D01*
X0190289Y0076103D02*
X0190289Y0075002D01*
X0185885Y0075002D01*
X0185885Y0076103D02*
X0186986Y0077204D01*
X0189188Y0077204D01*
X0190289Y0076103D01*
X0189188Y0072800D02*
X0186986Y0072800D01*
X0185885Y0073901D01*
X0185885Y0076103D01*
X0183790Y0077204D02*
X0181588Y0077204D01*
X0182689Y0078305D02*
X0182689Y0073901D01*
X0183790Y0072800D01*
X0179546Y0072800D02*
X0176243Y0072800D01*
X0175142Y0073901D01*
X0176243Y0075002D01*
X0179546Y0075002D01*
X0179546Y0076103D02*
X0179546Y0072800D01*
X0179546Y0076103D02*
X0178445Y0077204D01*
X0176243Y0077204D01*
X0173047Y0072800D02*
X0170845Y0072800D01*
X0171946Y0072800D02*
X0171946Y0079406D01*
X0170845Y0079406D01*
X0168804Y0078305D02*
X0168804Y0076103D01*
X0167703Y0075002D01*
X0164400Y0075002D01*
X0164400Y0072800D02*
X0164400Y0079406D01*
X0167703Y0079406D01*
X0168804Y0078305D01*
X0159000Y0081900D02*
X0159000Y0070400D01*
X0205000Y0070400D01*
X0190595Y0066805D02*
X0189494Y0067906D01*
X0187292Y0067906D01*
X0186191Y0066805D01*
X0186191Y0065704D01*
X0187292Y0064603D01*
X0189494Y0064603D01*
X0190595Y0063502D01*
X0190595Y0062401D01*
X0189494Y0061300D01*
X0187292Y0061300D01*
X0186191Y0062401D01*
X0184149Y0061300D02*
X0179745Y0061300D01*
X0179745Y0067906D01*
X0184149Y0067906D01*
X0181947Y0064603D02*
X0179745Y0064603D01*
X0177704Y0066805D02*
X0177704Y0067906D01*
X0177704Y0066805D02*
X0175502Y0064603D01*
X0175502Y0061300D01*
X0175502Y0064603D02*
X0173300Y0066805D01*
X0173300Y0067906D01*
X0173300Y0056406D02*
X0173300Y0055305D01*
X0175502Y0053103D01*
X0175502Y0049800D01*
X0175502Y0053103D02*
X0177704Y0055305D01*
X0177704Y0056406D01*
X0179745Y0056406D02*
X0179745Y0049800D01*
X0184149Y0049800D01*
X0186191Y0050901D02*
X0187292Y0049800D01*
X0189494Y0049800D01*
X0190595Y0050901D01*
X0190595Y0052002D01*
X0189494Y0053103D01*
X0187292Y0053103D01*
X0186191Y0054204D01*
X0186191Y0055305D01*
X0187292Y0056406D01*
X0189494Y0056406D01*
X0190595Y0055305D01*
X0184149Y0056406D02*
X0179745Y0056406D01*
X0179745Y0053103D02*
X0181947Y0053103D01*
X0180846Y0044906D02*
X0179745Y0043805D01*
X0179745Y0039401D01*
X0180846Y0038300D01*
X0183048Y0038300D01*
X0184149Y0039401D01*
X0184149Y0043805D01*
X0183048Y0044906D01*
X0180846Y0044906D01*
X0177704Y0044906D02*
X0177704Y0038300D01*
X0173300Y0044906D01*
X0173300Y0038300D01*
X0173300Y0033406D02*
X0173300Y0032305D01*
X0175502Y0030103D01*
X0175502Y0026800D01*
X0175502Y0030103D02*
X0177704Y0032305D01*
X0177704Y0033406D01*
X0179745Y0033406D02*
X0179745Y0026800D01*
X0184149Y0026800D01*
X0186191Y0027901D02*
X0187292Y0026800D01*
X0189494Y0026800D01*
X0190595Y0027901D01*
X0190595Y0029002D01*
X0189494Y0030103D01*
X0187292Y0030103D01*
X0186191Y0031204D01*
X0186191Y0032305D01*
X0187292Y0033406D01*
X0189494Y0033406D01*
X0190595Y0032305D01*
X0188393Y0038300D02*
X0188393Y0044906D01*
X0186191Y0044906D02*
X0190595Y0044906D01*
X0184149Y0033406D02*
X0179745Y0033406D01*
X0179745Y0030103D02*
X0181947Y0030103D01*
X0179745Y0021906D02*
X0179745Y0015300D01*
X0184149Y0015300D01*
X0186191Y0016401D02*
X0187292Y0015300D01*
X0189494Y0015300D01*
X0190595Y0016401D01*
X0190595Y0017502D01*
X0189494Y0018603D01*
X0187292Y0018603D01*
X0186191Y0019704D01*
X0186191Y0020805D01*
X0187292Y0021906D01*
X0189494Y0021906D01*
X0190595Y0020805D01*
X0184149Y0021906D02*
X0179745Y0021906D01*
X0177704Y0021906D02*
X0177704Y0020805D01*
X0175502Y0018603D01*
X0175502Y0015300D01*
X0175502Y0018603D02*
X0173300Y0020805D01*
X0173300Y0021906D01*
X0179745Y0018603D02*
X0181947Y0018603D01*
X0180846Y0010406D02*
X0179745Y0009305D01*
X0179745Y0004901D01*
X0180846Y0003800D01*
X0183048Y0003800D01*
X0184149Y0004901D01*
X0184149Y0009305D01*
X0183048Y0010406D01*
X0180846Y0010406D01*
X0177704Y0010406D02*
X0177704Y0003800D01*
X0173300Y0010406D01*
X0173300Y0003800D01*
X0186191Y0010406D02*
X0190595Y0010406D01*
X0188393Y0010406D02*
X0188393Y0003800D01*
X0205000Y0035900D02*
X0282000Y0035900D01*
X0205000Y0035900D02*
X0159000Y0035900D01*
X0136000Y0035900D01*
X0097000Y0035900D01*
X0043000Y0035900D01*
X0028000Y0035900D01*
X0005000Y0035900D01*
X0014500Y0039600D02*
X0014500Y0043600D01*
X0016500Y0043600D01*
X0018500Y0043600D01*
X0018500Y0039600D01*
X0014500Y0039600D01*
X0016500Y0041600D02*
X0016500Y0043600D01*
X0014500Y0051100D02*
X0018500Y0055100D01*
X0014500Y0055100D02*
X0018500Y0051100D01*
X0028000Y0047400D02*
X0043000Y0047400D01*
X0037104Y0049800D02*
X0032700Y0049800D01*
X0037104Y0054204D01*
X0037104Y0055305D01*
X0036003Y0056406D01*
X0033801Y0056406D01*
X0032700Y0055305D01*
X0032700Y0061300D02*
X0037104Y0061300D01*
X0034902Y0061300D02*
X0034902Y0067906D01*
X0032700Y0065704D01*
X0028000Y0070400D02*
X0043000Y0070400D01*
X0043000Y0058900D01*
X0028000Y0058900D01*
X0005000Y0058900D01*
X0005000Y0047400D02*
X0028000Y0047400D01*
X0032700Y0043805D02*
X0033801Y0044906D01*
X0036003Y0044906D01*
X0037104Y0043805D01*
X0037104Y0042704D01*
X0036003Y0041603D01*
X0037104Y0040502D01*
X0037104Y0039401D01*
X0036003Y0038300D01*
X0033801Y0038300D01*
X0032700Y0039401D01*
X0034902Y0041603D02*
X0036003Y0041603D01*
X0036003Y0033406D02*
X0032700Y0030103D01*
X0037104Y0030103D01*
X0036003Y0026800D02*
X0036003Y0033406D01*
X0037104Y0021906D02*
X0032700Y0021906D01*
X0032700Y0018603D01*
X0034902Y0019704D01*
X0036003Y0019704D01*
X0037104Y0018603D01*
X0037104Y0016401D01*
X0036003Y0015300D01*
X0033801Y0015300D01*
X0032700Y0016401D01*
X0034902Y0009305D02*
X0032700Y0007103D01*
X0036003Y0007103D01*
X0037104Y0006002D01*
X0037104Y0004901D01*
X0036003Y0003800D01*
X0033801Y0003800D01*
X0032700Y0004901D01*
X0032700Y0007103D01*
X0034902Y0009305D02*
X0037104Y0010406D01*
X0028000Y0001400D02*
X0005000Y0001400D01*
X0014500Y0005100D02*
X0014500Y0009100D01*
X0018500Y0005100D01*
X0018500Y0009100D01*
X0014500Y0005100D01*
X0014500Y0016600D02*
X0018500Y0016600D01*
X0014500Y0020600D01*
X0018500Y0020600D01*
X0014500Y0016600D01*
X0016500Y0028100D02*
X0014500Y0030100D01*
X0016500Y0032100D01*
X0018500Y0030100D01*
X0016500Y0028100D01*
X0016500Y0030100D02*
X0016500Y0032100D01*
X0016500Y0062600D02*
X0016500Y0066600D01*
X0014500Y0064600D02*
X0018500Y0064600D01*
X0017548Y0070598D02*
X0016447Y0070598D01*
X0017548Y0070598D02*
X0018649Y0071699D01*
X0018649Y0077204D01*
X0020691Y0077204D02*
X0020691Y0072800D01*
X0018649Y0072800D02*
X0015346Y0072800D01*
X0014245Y0073901D01*
X0014245Y0077204D01*
X0012204Y0078305D02*
X0011103Y0079406D01*
X0008901Y0079406D01*
X0007800Y0078305D01*
X0007800Y0077204D01*
X0008901Y0076103D01*
X0011103Y0076103D01*
X0012204Y0075002D01*
X0012204Y0073901D01*
X0011103Y0072800D01*
X0008901Y0072800D01*
X0007800Y0073901D01*
X0005000Y0070400D02*
X0005000Y0081900D01*
X0005000Y0070400D02*
X0028000Y0070400D01*
X0029800Y0072800D02*
X0029800Y0079406D01*
X0034204Y0072800D01*
X0034204Y0079406D01*
X0036245Y0078305D02*
X0037346Y0079406D01*
X0038447Y0079406D01*
X0039548Y0078305D01*
X0039548Y0077204D01*
X0038447Y0076103D01*
X0037346Y0076103D01*
X0036245Y0077204D01*
X0036245Y0078305D01*
X0043000Y0081900D02*
X0043000Y0070400D01*
X0097000Y0070400D01*
X0097000Y0081900D01*
X0102901Y0067906D02*
X0101800Y0066805D01*
X0101800Y0062401D01*
X0106204Y0066805D01*
X0106204Y0062401D01*
X0105103Y0061300D01*
X0102901Y0061300D01*
X0101800Y0062401D01*
X0102901Y0067906D02*
X0105103Y0067906D01*
X0106204Y0066805D01*
X0108245Y0062401D02*
X0109346Y0062401D01*
X0109346Y0061300D01*
X0108245Y0061300D01*
X0108245Y0062401D01*
X0111468Y0061300D02*
X0115872Y0065704D01*
X0115872Y0066805D01*
X0114771Y0067906D01*
X0112569Y0067906D01*
X0111468Y0066805D01*
X0111468Y0061300D02*
X0115872Y0061300D01*
X0117914Y0062401D02*
X0119015Y0061300D01*
X0121217Y0061300D01*
X0122317Y0062401D01*
X0122317Y0064603D01*
X0121217Y0065704D01*
X0120116Y0065704D01*
X0117914Y0064603D01*
X0117914Y0067906D01*
X0122317Y0067906D01*
X0124359Y0064603D02*
X0128763Y0064603D01*
X0127662Y0061300D02*
X0127662Y0067906D01*
X0124359Y0064603D01*
X0125460Y0056406D02*
X0124359Y0055305D01*
X0124359Y0050901D01*
X0128763Y0055305D01*
X0128763Y0050901D01*
X0127662Y0049800D01*
X0125460Y0049800D01*
X0124359Y0050901D01*
X0122317Y0050901D02*
X0121217Y0049800D01*
X0119015Y0049800D01*
X0117914Y0050901D01*
X0122317Y0055305D01*
X0122317Y0050901D01*
X0122317Y0055305D02*
X0121217Y0056406D01*
X0119015Y0056406D01*
X0117914Y0055305D01*
X0117914Y0050901D01*
X0115872Y0055305D02*
X0111468Y0050901D01*
X0111468Y0049800D01*
X0109346Y0049800D02*
X0109346Y0050901D01*
X0108245Y0050901D01*
X0108245Y0049800D01*
X0109346Y0049800D01*
X0106204Y0050901D02*
X0105103Y0049800D01*
X0102901Y0049800D01*
X0101800Y0050901D01*
X0106204Y0055305D01*
X0106204Y0050901D01*
X0106204Y0055305D02*
X0105103Y0056406D01*
X0102901Y0056406D01*
X0101800Y0055305D01*
X0101800Y0050901D01*
X0102901Y0044906D02*
X0101800Y0043805D01*
X0101800Y0039401D01*
X0106204Y0043805D01*
X0106204Y0039401D01*
X0105103Y0038300D01*
X0102901Y0038300D01*
X0101800Y0039401D01*
X0104002Y0033406D02*
X0104002Y0026800D01*
X0101800Y0026800D02*
X0106204Y0026800D01*
X0108245Y0026800D02*
X0109346Y0026800D01*
X0109346Y0027901D01*
X0108245Y0027901D01*
X0108245Y0026800D01*
X0111468Y0026800D02*
X0115872Y0026800D01*
X0113670Y0026800D02*
X0113670Y0033406D01*
X0111468Y0031204D01*
X0117914Y0032305D02*
X0117914Y0027901D01*
X0122317Y0032305D01*
X0122317Y0027901D01*
X0121217Y0026800D01*
X0119015Y0026800D01*
X0117914Y0027901D01*
X0117914Y0032305D02*
X0119015Y0033406D01*
X0121217Y0033406D01*
X0122317Y0032305D01*
X0124359Y0032305D02*
X0125460Y0033406D01*
X0127662Y0033406D01*
X0128763Y0032305D01*
X0124359Y0027901D01*
X0125460Y0026800D01*
X0127662Y0026800D01*
X0128763Y0027901D01*
X0128763Y0032305D01*
X0124359Y0032305D02*
X0124359Y0027901D01*
X0125460Y0021906D02*
X0127662Y0021906D01*
X0128763Y0020805D01*
X0124359Y0016401D01*
X0125460Y0015300D01*
X0127662Y0015300D01*
X0128763Y0016401D01*
X0128763Y0020805D01*
X0125460Y0021906D02*
X0124359Y0020805D01*
X0124359Y0016401D01*
X0122317Y0016401D02*
X0121217Y0015300D01*
X0119015Y0015300D01*
X0117914Y0016401D01*
X0122317Y0020805D01*
X0122317Y0016401D01*
X0122317Y0020805D02*
X0121217Y0021906D01*
X0119015Y0021906D01*
X0117914Y0020805D01*
X0117914Y0016401D01*
X0115872Y0015300D02*
X0111468Y0015300D01*
X0115872Y0019704D01*
X0115872Y0020805D01*
X0114771Y0021906D01*
X0112569Y0021906D01*
X0111468Y0020805D01*
X0109346Y0016401D02*
X0109346Y0015300D01*
X0108245Y0015300D01*
X0108245Y0016401D01*
X0109346Y0016401D01*
X0106204Y0015300D02*
X0101800Y0015300D01*
X0104002Y0015300D02*
X0104002Y0021906D01*
X0101800Y0019704D01*
X0102901Y0010406D02*
X0101800Y0009305D01*
X0102901Y0010406D02*
X0105103Y0010406D01*
X0106204Y0009305D01*
X0106204Y0008204D01*
X0105103Y0007103D01*
X0106204Y0006002D01*
X0106204Y0004901D01*
X0105103Y0003800D01*
X0102901Y0003800D01*
X0101800Y0004901D01*
X0104002Y0007103D02*
X0105103Y0007103D01*
X0108245Y0004901D02*
X0109346Y0004901D01*
X0109346Y0003800D01*
X0108245Y0003800D01*
X0108245Y0004901D01*
X0111468Y0004901D02*
X0112569Y0003800D01*
X0114771Y0003800D01*
X0115872Y0004901D01*
X0115872Y0007103D01*
X0114771Y0008204D01*
X0113670Y0008204D01*
X0111468Y0007103D01*
X0111468Y0010406D01*
X0115872Y0010406D01*
X0117914Y0010406D02*
X0117914Y0007103D01*
X0120116Y0008204D01*
X0121217Y0008204D01*
X0122317Y0007103D01*
X0122317Y0004901D01*
X0121217Y0003800D01*
X0119015Y0003800D01*
X0117914Y0004901D01*
X0117914Y0010406D02*
X0122317Y0010406D01*
X0124359Y0007103D02*
X0127662Y0007103D01*
X0128763Y0006002D01*
X0128763Y0004901D01*
X0127662Y0003800D01*
X0125460Y0003800D01*
X0124359Y0004901D01*
X0124359Y0007103D01*
X0126561Y0009305D01*
X0128763Y0010406D01*
X0136000Y0001400D02*
X0097000Y0001400D01*
X0101800Y0031204D02*
X0104002Y0033406D01*
X0108245Y0038300D02*
X0109346Y0038300D01*
X0109346Y0039401D01*
X0108245Y0039401D01*
X0108245Y0038300D01*
X0111468Y0039401D02*
X0111468Y0040502D01*
X0112569Y0041603D01*
X0114771Y0041603D01*
X0115872Y0040502D01*
X0115872Y0039401D01*
X0114771Y0038300D01*
X0112569Y0038300D01*
X0111468Y0039401D01*
X0112569Y0041603D02*
X0111468Y0042704D01*
X0111468Y0043805D01*
X0112569Y0044906D01*
X0114771Y0044906D01*
X0115872Y0043805D01*
X0115872Y0042704D01*
X0114771Y0041603D01*
X0117914Y0039401D02*
X0117914Y0043805D01*
X0119015Y0044906D01*
X0121217Y0044906D01*
X0122317Y0043805D01*
X0117914Y0039401D01*
X0119015Y0038300D01*
X0121217Y0038300D01*
X0122317Y0039401D01*
X0122317Y0043805D01*
X0124359Y0043805D02*
X0125460Y0044906D01*
X0127662Y0044906D01*
X0128763Y0043805D01*
X0124359Y0039401D01*
X0125460Y0038300D01*
X0127662Y0038300D01*
X0128763Y0039401D01*
X0128763Y0043805D01*
X0124359Y0043805D02*
X0124359Y0039401D01*
X0128763Y0055305D02*
X0127662Y0056406D01*
X0125460Y0056406D01*
X0115872Y0056406D02*
X0115872Y0055305D01*
X0115872Y0056406D02*
X0111468Y0056406D01*
X0105103Y0044906D02*
X0102901Y0044906D01*
X0105103Y0044906D02*
X0106204Y0043805D01*
X0110800Y0072800D02*
X0110800Y0079406D01*
X0113002Y0077204D01*
X0115204Y0079406D01*
X0115204Y0072800D01*
X0117245Y0072800D02*
X0117245Y0079406D01*
X0119447Y0077204D01*
X0121649Y0079406D01*
X0121649Y0072800D01*
X0136000Y0070400D02*
X0159000Y0070400D01*
X0153946Y0071699D02*
X0153946Y0077204D01*
X0153946Y0072800D02*
X0150643Y0072800D01*
X0149542Y0073901D01*
X0149542Y0077204D01*
X0147447Y0077204D02*
X0145245Y0077204D01*
X0146346Y0078305D02*
X0146346Y0073901D01*
X0147447Y0072800D01*
X0151744Y0070598D02*
X0152845Y0070598D01*
X0153946Y0071699D01*
X0143204Y0072800D02*
X0141002Y0075002D01*
X0143204Y0073901D02*
X0143204Y0078305D01*
X0142103Y0079406D01*
X0139901Y0079406D01*
X0138800Y0078305D01*
X0138800Y0073901D01*
X0139901Y0072800D01*
X0142103Y0072800D01*
X0143204Y0073901D01*
X0141002Y0067906D02*
X0138800Y0065704D01*
X0141002Y0067906D02*
X0141002Y0061300D01*
X0138800Y0061300D02*
X0143204Y0061300D01*
X0136000Y0070400D02*
X0136000Y0081900D01*
X0148245Y0049800D02*
X0152649Y0049800D01*
X0148003Y0010406D02*
X0144700Y0007103D01*
X0149104Y0007103D01*
X0148003Y0003800D02*
X0148003Y0010406D01*
X0077743Y0073901D02*
X0076642Y0075002D01*
X0074440Y0075002D01*
X0073339Y0076103D01*
X0074440Y0077204D01*
X0077743Y0077204D01*
X0077743Y0073901D02*
X0076642Y0072800D01*
X0073339Y0072800D01*
X0071244Y0072800D02*
X0069042Y0072800D01*
X0070143Y0072800D02*
X0070143Y0079406D01*
X0069042Y0079406D01*
X0065846Y0079406D02*
X0065846Y0080507D01*
X0065846Y0077204D02*
X0064745Y0077204D01*
X0065846Y0077204D02*
X0065846Y0072800D01*
X0064745Y0072800D02*
X0066947Y0072800D01*
X0062704Y0072800D02*
X0062704Y0079406D01*
X0060502Y0077204D01*
X0058300Y0079406D01*
X0058300Y0072800D01*
X0025095Y0072800D02*
X0025095Y0076103D01*
X0023994Y0077204D01*
X0022893Y0076103D01*
X0022893Y0072800D01*
X0022893Y0076103D02*
X0021792Y0077204D01*
X0020691Y0077204D01*
X0059148Y0010406D02*
X0055845Y0007103D01*
X0059148Y0003800D02*
X0059148Y0010406D01*
D12*
X0005000Y0001400D02*
X0005000Y0081900D01*
X0282000Y0081900D01*
X0282000Y0001400D01*
X0005000Y0001400D01*
M02*
