%
M48
M72
T01C0.01000
T02C0.02756
T03C0.03937
%
T01
X27780Y106732
X27780Y136732
X53780Y106732
X60780Y138232
X59780Y148732
X67780Y148732
X75780Y148732
X75680Y154732
X75680Y160932
X82780Y161232
X89780Y161232
X90780Y154732
X90780Y149232
X93780Y140732
X99780Y140732
X104780Y143232
X104780Y148232
X108780Y148232
X104280Y156732
X99780Y154732
X100780Y161232
X95780Y161232
X99780Y149232
X109280Y165732
X119280Y165732
X108780Y193732
X105780Y200732
X105780Y206732
X100780Y203732
X108780Y214732
X86780Y213232
X86780Y207732
X86780Y201232
X86780Y194732
X78780Y194732
X78780Y201232
X78780Y207732
X78780Y213232
X65780Y211732
X62780Y215232
X53780Y205732
X50780Y190732
X63780Y186232
X69780Y189732
X65780Y167732
X59780Y167732
X59780Y158732
X75780Y138232
X88780Y128732
X93780Y128732
X99280Y128732
X96780Y121232
X89780Y112232
X89780Y104732
X104780Y107232
X137280Y107232
X137280Y115232
X146280Y115232
X153780Y115232
X161280Y115232
X168280Y115232
X168280Y107232
X173780Y106732
X173780Y103732
X177780Y103732
X177780Y106732
X188780Y105232
X195780Y105232
X199580Y103132
X203780Y105732
X203780Y112732
X199580Y113132
X203780Y119732
X199580Y121132
X200680Y125932
X195280Y120732
X188280Y120732
X209780Y119732
X210780Y125732
X217780Y123732
X217780Y129732
X225780Y129732
X225780Y123732
X225780Y117732
X217780Y117732
X214780Y112732
X212780Y105732
X217780Y103132
X223780Y103132
X229780Y103082
X235880Y103132
X239780Y104732
X249780Y104732
X240280Y114732
X234780Y117732
X234780Y123732
X240280Y124732
X233280Y137732
X235780Y150732
X235780Y157732
X235780Y164732
X228780Y164732
X228780Y157732
X228780Y150732
X216780Y156232
X207580Y156132
X209580Y148132
X205580Y148132
X209580Y138132
X185780Y161732
X190780Y167732
X194780Y171732
X190780Y174732
X192780Y184732
X192780Y189732
X192780Y196732
X199780Y196732
X206780Y189732
X208780Y186732
X216780Y192732
X216780Y200732
X210780Y200732
X199780Y208732
X194280Y211732
X196780Y214732
X191780Y214732
X190780Y220732
X179780Y230232
X165780Y226732
X159780Y223732
X162780Y217732
X148780Y238732
X154780Y239232
X159780Y239232
X166780Y253232
X166780Y257732
X166780Y263732
X170780Y268732
X165780Y275232
X171780Y281232
X165280Y285232
X157280Y282232
X151780Y282732
X149780Y289732
X142280Y289732
X134780Y289732
X127280Y289732
X119780Y289732
X119780Y284732
X119780Y297232
X119780Y307232
X119780Y317232
X119780Y322232
X119780Y329732
X112280Y329732
X112280Y322732
X92780Y322732
X92780Y316232
X92780Y330232
X92780Y340232
X89780Y344732
X99780Y344732
X109780Y344732
X119780Y344732
X129780Y344732
X139780Y344732
X149780Y344732
X159780Y344732
X164780Y334732
X164780Y326732
X164780Y318732
X174780Y318732
X178780Y322732
X183780Y326732
X178780Y330732
X183780Y334732
X188280Y330732
X192280Y326732
X188780Y322232
X192780Y318732
X192780Y314232
X202780Y314732
X204780Y324732
X199780Y334732
X219780Y334732
X219780Y324732
X226780Y324232
X232780Y326732
X231780Y317232
X240280Y317232
X244280Y310232
X244280Y295232
X242780Y287732
X237780Y286732
X247280Y274732
X240280Y271732
X251780Y283232
X257280Y272232
X260780Y256732
X258280Y249232
X258780Y244732
X262780Y239732
X257780Y228732
X253780Y224732
X257780Y220232
X253780Y213732
X258780Y205732
X251280Y190232
X251280Y179232
X239780Y178232
X233780Y178232
X234780Y190732
X234780Y196732
X228780Y198732
X234780Y203732
X243780Y214732
X237780Y221732
X239780Y227732
X234780Y240232
X231780Y248732
X224780Y244732
X224780Y234732
X214780Y234732
X209780Y234732
X209780Y244732
X214780Y244732
X214780Y254732
X209780Y259732
X205780Y263732
X202780Y260232
X196780Y251232
X196780Y244732
X196780Y234732
X214780Y217232
X227780Y216732
X248780Y242732
X248780Y249232
X224780Y254732
X224780Y265732
X214780Y264732
X209780Y282732
X204780Y287732
X204780Y294732
X194780Y294732
X194780Y287732
X191780Y282732
X186780Y287732
X183780Y282732
X178780Y277732
X178780Y287732
X189780Y274732
X178780Y268732
X179780Y254732
X175780Y253732
X158780Y265732
X144780Y254732
X137780Y255232
X134280Y253732
X128780Y258232
X132780Y263232
X132780Y274232
X132780Y279232
X157280Y289732
X144780Y244732
X140780Y238732
X140780Y218732
X146780Y218732
X169780Y189732
X169780Y181732
X169780Y174732
X180780Y174732
X180780Y181732
X180780Y189732
X175280Y153332
X242780Y150732
X242780Y157732
X242780Y164732
X254280Y166732
X263780Y172732
X280780Y185732
X254780Y149732
X248780Y144732
X267780Y128732
X280280Y128732
X279780Y104732
X280780Y225732
X280780Y273732
X273780Y287232
X269280Y295232
X269280Y301232
X263280Y298232
X257280Y295232
X257280Y301232
X265780Y316732
X274780Y323732
X280780Y329732
X269780Y334732
X261780Y343732
X249780Y343732
X239780Y343732
X239780Y334732
X221780Y305982
X221780Y299732
X220780Y295732
X226030Y285982
X222780Y284732
X177780Y341232
X113780Y248732
X113780Y239732
X91780Y239732
X91780Y248732
X68780Y248732
X68780Y239732
X67280Y281232
X67280Y286732
X73280Y286732
X73280Y281232
X80280Y282232
X86280Y282232
X86280Y289732
X86280Y297232
X78280Y297232
X79780Y304732
X71780Y306232
X79780Y314732
X59780Y322732
X59780Y342732
X79780Y344732
X59780Y300732
X59780Y289232
X27780Y300732
X27780Y322732
X27780Y342732
X27780Y276732
X27780Y252732
X27780Y179732
X280780Y303732
X280780Y343732
T02
X270905Y165449
X278780Y159543
X270905Y153638
X278780Y147732
X36654Y205015
X28780Y210921
X36654Y216826
X28780Y222732
T03
X192780Y341732
X202780Y341732
X212780Y341732
X222780Y341732
X232780Y341732
X268780Y264732
X268780Y254732
X268780Y244732
X268780Y234732
X268780Y209732
X268780Y199732
X268780Y189732
M30
