G75*
%MOIN*%
%OFA0B0*%
%FSLAX25Y25*%
%IPPOS*%
%LPD*%
%AMOC8*
5,1,8,0,0,1.08239X$1,22.5*
%
%ADD10C,0.00800*%
%ADD11R,0.00750X0.00750*%
%ADD12R,0.00750X0.01500*%
%ADD13R,0.00750X0.06000*%
%ADD14R,0.00750X0.05250*%
%ADD15R,0.00750X0.03000*%
%ADD16R,0.00750X0.02250*%
%ADD17R,0.00750X0.06750*%
%ADD18R,0.00750X0.04500*%
%ADD19R,0.00750X0.03750*%
%ADD20R,0.00750X0.11250*%
%ADD21R,0.00750X0.08250*%
%ADD22R,0.00750X0.07500*%
%ADD23R,0.00750X0.09000*%
%ADD24R,0.00750X0.09750*%
%ADD25R,0.00750X0.10500*%
%ADD26R,0.00750X0.14250*%
%ADD27R,0.00750X0.17250*%
%ADD28R,0.00750X0.18750*%
%ADD29R,0.00750X0.20250*%
%ADD30R,0.00750X0.21750*%
%ADD31R,0.00750X0.23250*%
%ADD32R,0.00750X0.24000*%
%ADD33R,0.00750X0.24750*%
%ADD34R,0.00750X0.12000*%
%ADD35R,0.00750X0.30750*%
%ADD36R,0.00750X0.12750*%
%ADD37R,0.00750X0.29250*%
%ADD38R,0.00750X0.13500*%
%ADD39R,0.00750X0.28500*%
%ADD40R,0.00750X0.27750*%
%ADD41R,0.00750X0.16500*%
%ADD42R,0.00750X0.15750*%
%ADD43R,0.00750X0.15000*%
%ADD44C,0.00185*%
D10*
X0114983Y0335132D02*
X0114983Y0335833D01*
X0112181Y0338635D01*
X0112181Y0339336D01*
X0114983Y0339336D01*
X0115951Y0341132D02*
X0115250Y0341833D01*
X0115250Y0344635D01*
X0115951Y0345336D01*
X0118053Y0345336D01*
X0118053Y0341132D01*
X0115951Y0341132D01*
X0113449Y0341132D02*
X0112048Y0342533D01*
X0112048Y0343934D01*
X0113449Y0345336D01*
X0119721Y0345336D02*
X0121122Y0343934D01*
X0121122Y0342533D01*
X0119721Y0341132D01*
X0118186Y0339336D02*
X0118186Y0335132D01*
X0119587Y0335132D02*
X0116785Y0335132D01*
X0119587Y0337934D02*
X0118186Y0339336D01*
X0121389Y0338635D02*
X0121389Y0337934D01*
X0122090Y0337234D01*
X0121389Y0336533D01*
X0121389Y0335833D01*
X0122090Y0335132D01*
X0123491Y0335132D01*
X0124191Y0335833D01*
X0125993Y0335132D02*
X0128795Y0335132D01*
X0125993Y0337934D01*
X0125993Y0338635D01*
X0126693Y0339336D01*
X0128095Y0339336D01*
X0128795Y0338635D01*
X0128028Y0341132D02*
X0127327Y0341132D01*
X0127327Y0341833D01*
X0128028Y0341833D01*
X0128028Y0341132D01*
X0129830Y0341833D02*
X0130530Y0341132D01*
X0131931Y0341132D01*
X0132632Y0341833D01*
X0134434Y0342533D02*
X0134434Y0345336D01*
X0132632Y0344635D02*
X0131931Y0345336D01*
X0130530Y0345336D01*
X0129830Y0344635D01*
X0129830Y0343934D01*
X0130530Y0343234D01*
X0129830Y0342533D01*
X0129830Y0341833D01*
X0130530Y0343234D02*
X0131231Y0343234D01*
X0134434Y0342533D02*
X0135835Y0341132D01*
X0137236Y0342533D01*
X0137236Y0345336D01*
X0143641Y0344635D02*
X0143641Y0343934D01*
X0146444Y0341132D01*
X0143641Y0341132D01*
X0143641Y0344635D02*
X0144342Y0345336D01*
X0145743Y0345336D01*
X0146444Y0344635D01*
X0148245Y0343234D02*
X0151048Y0343234D01*
X0152849Y0341132D02*
X0152849Y0345336D01*
X0155652Y0345336D02*
X0152849Y0341132D01*
X0155652Y0341132D02*
X0155652Y0345336D01*
X0157453Y0345336D02*
X0160256Y0345336D01*
X0160256Y0341132D01*
X0157453Y0341132D01*
X0158854Y0343234D02*
X0160256Y0343234D01*
X0162057Y0343234D02*
X0163458Y0343234D01*
X0162057Y0343234D02*
X0162057Y0341833D01*
X0162758Y0341132D01*
X0164159Y0341132D01*
X0164859Y0341833D01*
X0164859Y0344635D01*
X0164159Y0345336D01*
X0162758Y0345336D01*
X0162057Y0344635D01*
X0171265Y0345336D02*
X0174067Y0345336D01*
X0172666Y0345336D02*
X0172666Y0341132D01*
X0175869Y0341132D02*
X0178671Y0341132D01*
X0178671Y0345336D01*
X0175869Y0345336D01*
X0177270Y0343234D02*
X0178671Y0343234D01*
X0180473Y0343234D02*
X0180473Y0344635D01*
X0181173Y0345336D01*
X0183275Y0345336D01*
X0183275Y0341132D01*
X0183275Y0342533D02*
X0181173Y0342533D01*
X0180473Y0343234D01*
X0181874Y0342533D02*
X0180473Y0341132D01*
X0125726Y0341833D02*
X0122924Y0344635D01*
X0122924Y0341833D01*
X0123624Y0341132D01*
X0125025Y0341132D01*
X0125726Y0341833D01*
X0125726Y0344635D01*
X0125025Y0345336D01*
X0123624Y0345336D01*
X0122924Y0344635D01*
X0123491Y0339336D02*
X0122090Y0339336D01*
X0121389Y0338635D01*
X0122090Y0337234D02*
X0122790Y0337234D01*
X0124191Y0338635D02*
X0123491Y0339336D01*
D11*
X0131780Y0280732D03*
X0131780Y0277732D03*
X0131030Y0277732D03*
X0131780Y0275482D03*
X0134030Y0274732D03*
X0137030Y0273982D03*
X0137030Y0279232D03*
X0134030Y0278482D03*
X0131780Y0272482D03*
X0137030Y0262732D03*
X0137030Y0252232D03*
X0128030Y0221482D03*
X0134030Y0177232D03*
X0077030Y0175732D03*
X0076280Y0174232D03*
X0075530Y0176482D03*
X0076280Y0177982D03*
X0064280Y0195982D03*
X0071030Y0203482D03*
X0071780Y0203482D03*
X0075530Y0200482D03*
X0076280Y0198982D03*
X0107030Y0278482D03*
D12*
X0128030Y0276607D03*
X0128780Y0276607D03*
X0131030Y0275857D03*
X0132530Y0275107D03*
X0133280Y0275107D03*
X0133280Y0272857D03*
X0134030Y0272857D03*
X0132530Y0272857D03*
X0131030Y0272107D03*
X0130280Y0272107D03*
X0129530Y0272107D03*
X0128780Y0271357D03*
X0128030Y0271357D03*
X0132530Y0278107D03*
X0133280Y0278107D03*
X0133280Y0280357D03*
X0134030Y0280357D03*
X0132530Y0280357D03*
X0131030Y0281107D03*
X0130280Y0281107D03*
X0129530Y0281107D03*
X0128780Y0281857D03*
X0128030Y0281857D03*
X0128030Y0262357D03*
X0128780Y0262357D03*
X0129530Y0262357D03*
X0130280Y0262357D03*
X0131030Y0262357D03*
X0131780Y0262357D03*
X0132530Y0262357D03*
X0133280Y0262357D03*
X0134030Y0262357D03*
X0134780Y0262357D03*
X0135530Y0262357D03*
X0136280Y0262357D03*
X0136280Y0252607D03*
X0135530Y0252607D03*
X0134780Y0252607D03*
X0134030Y0252607D03*
X0131780Y0252607D03*
X0131030Y0252607D03*
X0130280Y0252607D03*
X0129530Y0252607D03*
X0131780Y0247357D03*
X0131030Y0246607D03*
X0130280Y0246607D03*
X0134030Y0248107D03*
X0135530Y0247357D03*
X0137030Y0246607D03*
X0135530Y0236857D03*
X0134780Y0236857D03*
X0134030Y0236857D03*
X0133280Y0236857D03*
X0131030Y0236857D03*
X0130280Y0236857D03*
X0129530Y0236857D03*
X0129530Y0207607D03*
X0130280Y0207607D03*
X0131030Y0207607D03*
X0133280Y0207607D03*
X0134030Y0207607D03*
X0134780Y0207607D03*
X0135530Y0207607D03*
X0134780Y0192607D03*
X0134030Y0192607D03*
X0135530Y0191857D03*
X0135530Y0186607D03*
X0134780Y0186607D03*
X0134030Y0186607D03*
X0130280Y0186607D03*
X0131030Y0191857D03*
X0129530Y0191857D03*
X0129530Y0176857D03*
X0130280Y0176857D03*
X0134780Y0176857D03*
X0135530Y0171607D03*
X0134780Y0170857D03*
X0134030Y0170857D03*
X0130280Y0171607D03*
X0129530Y0171607D03*
X0075530Y0173107D03*
X0074780Y0171607D03*
X0074030Y0170857D03*
X0073280Y0170107D03*
X0072530Y0170107D03*
X0071780Y0169357D03*
X0071030Y0169357D03*
X0068030Y0169357D03*
X0069530Y0173857D03*
X0070280Y0173857D03*
X0071030Y0173857D03*
X0071780Y0173857D03*
X0072530Y0173857D03*
X0073280Y0173857D03*
X0074030Y0174607D03*
X0074780Y0175357D03*
X0073280Y0177607D03*
X0072530Y0177607D03*
X0071780Y0177607D03*
X0070280Y0178357D03*
X0069530Y0179107D03*
X0074030Y0178357D03*
X0074780Y0179107D03*
X0075530Y0179857D03*
X0064280Y0180607D03*
X0068030Y0195607D03*
X0069530Y0197857D03*
X0070280Y0198607D03*
X0071030Y0199357D03*
X0071780Y0199357D03*
X0072530Y0199357D03*
X0073280Y0199357D03*
X0074030Y0198607D03*
X0074780Y0197857D03*
X0075530Y0197107D03*
X0074780Y0201607D03*
X0074030Y0202357D03*
X0073280Y0203107D03*
X0072530Y0203107D03*
X0070280Y0203107D03*
X0069530Y0203107D03*
X0073280Y0206857D03*
X0074030Y0206107D03*
X0074780Y0205357D03*
X0075530Y0204607D03*
X0076280Y0203107D03*
X0077030Y0201607D03*
X0072530Y0207607D03*
X0071780Y0207607D03*
X0070280Y0208357D03*
X0069530Y0208357D03*
X0067280Y0207607D03*
X0061280Y0199357D03*
D13*
X0128030Y0204607D03*
X0131780Y0205357D03*
X0137030Y0204607D03*
X0136280Y0189607D03*
X0128780Y0189607D03*
X0128780Y0173857D03*
X0136280Y0173857D03*
X0137030Y0233857D03*
X0131780Y0234607D03*
X0133280Y0250357D03*
X0128030Y0250357D03*
D14*
X0137030Y0219232D03*
D15*
X0137030Y0189607D03*
X0137030Y0173857D03*
X0067280Y0175357D03*
X0065780Y0177607D03*
X0065030Y0179107D03*
X0062030Y0176107D03*
X0062780Y0174607D03*
X0064280Y0172357D03*
X0065030Y0197857D03*
X0065780Y0199357D03*
X0067280Y0201607D03*
X0063530Y0203857D03*
X0062780Y0202357D03*
X0062030Y0200857D03*
X0108530Y0278857D03*
X0129530Y0276607D03*
X0130280Y0276607D03*
D16*
X0134780Y0279232D03*
X0135530Y0279232D03*
X0136280Y0279232D03*
X0136280Y0273982D03*
X0135530Y0273982D03*
X0134780Y0273982D03*
X0134780Y0247732D03*
X0136280Y0246982D03*
X0129530Y0246982D03*
X0129530Y0221482D03*
X0130280Y0221482D03*
X0131030Y0221482D03*
X0131780Y0221482D03*
X0132530Y0221482D03*
X0133280Y0221482D03*
X0134030Y0221482D03*
X0134780Y0221482D03*
X0135530Y0221482D03*
X0128780Y0221482D03*
X0130280Y0192232D03*
X0129530Y0186982D03*
X0133280Y0186982D03*
X0135530Y0176482D03*
X0131030Y0176482D03*
X0133280Y0171982D03*
X0071030Y0177982D03*
X0068780Y0180232D03*
X0068030Y0181732D03*
X0066530Y0176482D03*
X0068030Y0174982D03*
X0068780Y0174232D03*
X0067280Y0169732D03*
X0066530Y0169732D03*
X0065780Y0170482D03*
X0065030Y0171232D03*
X0063530Y0173482D03*
X0061280Y0177982D03*
X0068780Y0168982D03*
X0069530Y0168982D03*
X0070280Y0168982D03*
X0068780Y0196732D03*
X0066530Y0200482D03*
X0068030Y0201982D03*
X0068780Y0202732D03*
X0065780Y0206482D03*
X0066530Y0207232D03*
X0068030Y0207982D03*
X0068780Y0207982D03*
X0071030Y0207982D03*
X0065030Y0205732D03*
X0064280Y0204982D03*
X0107780Y0278482D03*
D17*
X0119780Y0273232D03*
X0128780Y0249982D03*
X0132530Y0249982D03*
X0132530Y0234232D03*
X0128780Y0234232D03*
X0128030Y0234232D03*
X0136280Y0234232D03*
X0136280Y0219232D03*
X0136280Y0204982D03*
X0132530Y0204982D03*
X0128780Y0204982D03*
X0104030Y0226732D03*
X0103280Y0226732D03*
X0102530Y0226732D03*
X0100280Y0225982D03*
X0099530Y0225982D03*
X0098780Y0225982D03*
X0096530Y0225232D03*
X0095780Y0225232D03*
X0092780Y0224482D03*
X0092030Y0224482D03*
X0089030Y0223732D03*
X0086030Y0222982D03*
X0085280Y0222982D03*
X0089780Y0237232D03*
X0090530Y0237232D03*
X0092780Y0236482D03*
X0093530Y0236482D03*
X0094280Y0236482D03*
X0096530Y0235732D03*
X0097280Y0235732D03*
X0098030Y0235732D03*
X0099530Y0234982D03*
X0100280Y0234982D03*
X0101030Y0234982D03*
X0103280Y0234232D03*
X0104030Y0234232D03*
X0086780Y0237982D03*
D18*
X0109280Y0278857D03*
X0131780Y0190357D03*
X0132530Y0188857D03*
X0128030Y0189607D03*
X0132530Y0173107D03*
D19*
X0131780Y0174982D03*
X0128030Y0174232D03*
D20*
X0111530Y0230482D03*
X0110780Y0230482D03*
X0110030Y0230482D03*
X0119030Y0273232D03*
X0072530Y0188482D03*
D21*
X0081530Y0183982D03*
X0082280Y0183982D03*
X0083030Y0183982D03*
X0083780Y0183982D03*
X0084530Y0183232D03*
X0085280Y0183232D03*
X0086030Y0183232D03*
X0086780Y0183232D03*
X0087530Y0182482D03*
X0088280Y0182482D03*
X0089030Y0182482D03*
X0089780Y0182482D03*
X0091280Y0181732D03*
X0092030Y0181732D03*
X0092780Y0181732D03*
X0095030Y0180982D03*
X0092030Y0195232D03*
X0091280Y0195232D03*
X0089030Y0194482D03*
X0088280Y0194482D03*
X0087530Y0194482D03*
X0086030Y0193732D03*
X0085280Y0193732D03*
X0084530Y0193732D03*
X0083030Y0192982D03*
X0082280Y0192982D03*
X0081530Y0192982D03*
X0095030Y0195982D03*
X0098030Y0196732D03*
X0116780Y0230482D03*
X0117530Y0230482D03*
X0118280Y0230482D03*
X0119030Y0246982D03*
D22*
X0119030Y0230857D03*
X0102530Y0234607D03*
X0101780Y0234607D03*
X0098780Y0235357D03*
X0095780Y0236107D03*
X0095030Y0236107D03*
X0092030Y0236857D03*
X0091280Y0236857D03*
X0089030Y0237607D03*
X0088280Y0237607D03*
X0087530Y0237607D03*
X0093530Y0224857D03*
X0094280Y0224857D03*
X0095030Y0224857D03*
X0097280Y0225607D03*
X0098030Y0225607D03*
X0101030Y0226357D03*
X0101780Y0226357D03*
X0091280Y0224107D03*
X0090530Y0224107D03*
X0089780Y0224107D03*
X0088280Y0223357D03*
X0087530Y0223357D03*
X0086780Y0223357D03*
X0083780Y0193357D03*
X0080780Y0192607D03*
X0080780Y0184357D03*
X0110030Y0278857D03*
D23*
X0110030Y0246607D03*
X0110780Y0246607D03*
X0111530Y0246607D03*
X0112280Y0246607D03*
X0113030Y0246607D03*
X0113780Y0246607D03*
X0114530Y0246607D03*
X0115280Y0246607D03*
X0116030Y0246607D03*
X0116780Y0246607D03*
X0117530Y0246607D03*
X0118280Y0246607D03*
X0109280Y0246607D03*
X0108530Y0246607D03*
X0107780Y0246607D03*
X0107030Y0246607D03*
X0106280Y0246607D03*
X0105530Y0246607D03*
X0104780Y0246607D03*
X0104030Y0246607D03*
X0103280Y0246607D03*
X0102530Y0246607D03*
X0101780Y0246607D03*
X0101030Y0246607D03*
X0100280Y0246607D03*
X0099530Y0246607D03*
X0098780Y0246607D03*
X0098030Y0246607D03*
X0097280Y0246607D03*
X0096530Y0246607D03*
X0095780Y0246607D03*
X0095030Y0246607D03*
X0094280Y0246607D03*
X0093530Y0246607D03*
X0092780Y0246607D03*
X0092030Y0246607D03*
X0091280Y0246607D03*
X0090530Y0246607D03*
X0089780Y0246607D03*
X0089030Y0246607D03*
X0088280Y0246607D03*
X0087530Y0246607D03*
X0086780Y0246607D03*
X0072530Y0263857D03*
X0085280Y0214357D03*
X0086030Y0214357D03*
X0086780Y0214357D03*
X0087530Y0214357D03*
X0088280Y0214357D03*
X0089030Y0214357D03*
X0089780Y0214357D03*
X0090530Y0214357D03*
X0091280Y0214357D03*
X0092030Y0214357D03*
X0092780Y0214357D03*
X0093530Y0214357D03*
X0094280Y0214357D03*
X0095030Y0214357D03*
X0095780Y0214357D03*
X0096530Y0214357D03*
X0097280Y0214357D03*
X0098030Y0214357D03*
X0098780Y0214357D03*
X0099530Y0214357D03*
X0100280Y0214357D03*
X0101030Y0214357D03*
X0101780Y0214357D03*
X0102530Y0214357D03*
X0103280Y0214357D03*
X0104030Y0214357D03*
X0104780Y0214357D03*
X0105530Y0214357D03*
X0106280Y0214357D03*
X0107030Y0214357D03*
X0107780Y0214357D03*
X0108530Y0214357D03*
X0109280Y0214357D03*
X0110030Y0214357D03*
X0110780Y0214357D03*
X0111530Y0214357D03*
X0112280Y0214357D03*
X0113030Y0214357D03*
X0113780Y0214357D03*
X0114530Y0214357D03*
X0115280Y0214357D03*
X0116030Y0214357D03*
X0116780Y0214357D03*
X0117530Y0214357D03*
X0118280Y0214357D03*
X0119030Y0214357D03*
X0116030Y0230857D03*
X0100280Y0197107D03*
X0099530Y0197107D03*
X0098780Y0197107D03*
X0097280Y0196357D03*
X0096530Y0196357D03*
X0095780Y0196357D03*
X0094280Y0195607D03*
X0093530Y0195607D03*
X0092780Y0195607D03*
X0090530Y0194857D03*
X0089780Y0194857D03*
X0086780Y0194107D03*
X0090530Y0182107D03*
X0093530Y0181357D03*
X0094280Y0181357D03*
X0095780Y0180607D03*
X0096530Y0180607D03*
X0097280Y0180607D03*
X0098030Y0180607D03*
X0098780Y0179857D03*
X0099530Y0179857D03*
X0100280Y0179857D03*
X0101030Y0179857D03*
D24*
X0110030Y0177232D03*
X0110780Y0177232D03*
X0111530Y0177232D03*
X0112280Y0177232D03*
X0113030Y0176482D03*
X0113780Y0176482D03*
X0114530Y0176482D03*
X0115280Y0176482D03*
X0116780Y0175732D03*
X0117530Y0175732D03*
X0118280Y0175732D03*
X0111530Y0199732D03*
X0110780Y0199732D03*
X0110030Y0199732D03*
X0112280Y0200482D03*
X0113030Y0200482D03*
X0113780Y0200482D03*
X0114530Y0200482D03*
X0116030Y0201232D03*
X0116780Y0201232D03*
X0117530Y0201232D03*
X0119030Y0201982D03*
X0101030Y0197482D03*
X0113030Y0230482D03*
X0113780Y0230482D03*
X0114530Y0230482D03*
X0115280Y0230482D03*
X0107030Y0263482D03*
X0106280Y0263482D03*
X0105530Y0263482D03*
X0104780Y0263482D03*
X0104030Y0263482D03*
X0103280Y0263482D03*
X0102530Y0263482D03*
X0101780Y0263482D03*
X0101030Y0263482D03*
X0100280Y0263482D03*
X0099530Y0263482D03*
X0098780Y0263482D03*
X0098030Y0263482D03*
X0097280Y0263482D03*
X0096530Y0263482D03*
X0095780Y0263482D03*
X0095030Y0263482D03*
X0094280Y0263482D03*
X0093530Y0263482D03*
X0092780Y0263482D03*
X0092030Y0263482D03*
X0091280Y0263482D03*
X0090530Y0263482D03*
X0089780Y0263482D03*
X0089030Y0263482D03*
X0088280Y0263482D03*
X0087530Y0263482D03*
X0086780Y0263482D03*
X0086030Y0263482D03*
X0085280Y0263482D03*
X0084530Y0263482D03*
X0083780Y0263482D03*
X0083030Y0263482D03*
X0082280Y0263482D03*
X0081530Y0263482D03*
X0080780Y0263482D03*
X0080030Y0263482D03*
X0079280Y0263482D03*
X0078530Y0263482D03*
X0077780Y0263482D03*
X0077030Y0263482D03*
X0076280Y0263482D03*
X0075530Y0263482D03*
X0074780Y0263482D03*
X0074030Y0263482D03*
X0073280Y0263482D03*
X0107780Y0264232D03*
X0108530Y0264232D03*
D25*
X0109280Y0264607D03*
X0112280Y0230857D03*
X0118280Y0201607D03*
X0115280Y0200857D03*
X0116030Y0176107D03*
X0119030Y0175357D03*
D26*
X0077780Y0188482D03*
X0077030Y0188482D03*
X0076280Y0188482D03*
X0074780Y0216982D03*
X0074030Y0216982D03*
X0073280Y0216982D03*
X0073280Y0243982D03*
X0074030Y0243982D03*
X0074780Y0243982D03*
X0075530Y0243982D03*
X0104780Y0230482D03*
X0118280Y0273232D03*
D27*
X0117530Y0273232D03*
D28*
X0116780Y0273232D03*
D29*
X0116030Y0273232D03*
D30*
X0115280Y0273232D03*
D31*
X0114530Y0273232D03*
X0110780Y0271732D03*
D32*
X0111530Y0272107D03*
X0113780Y0273607D03*
D33*
X0113030Y0273232D03*
X0112280Y0272482D03*
D34*
X0110030Y0265357D03*
X0109280Y0230857D03*
D35*
X0109280Y0188482D03*
X0108530Y0188482D03*
X0107780Y0188482D03*
X0107030Y0188482D03*
D36*
X0074780Y0188482D03*
X0074030Y0188482D03*
X0073280Y0188482D03*
X0106280Y0230482D03*
X0107030Y0230482D03*
X0107780Y0230482D03*
X0108530Y0230482D03*
D37*
X0106280Y0188482D03*
X0105530Y0188482D03*
X0104780Y0188482D03*
D38*
X0075530Y0188857D03*
X0072530Y0216607D03*
X0072530Y0244357D03*
X0105530Y0230857D03*
D39*
X0104030Y0188857D03*
D40*
X0103280Y0188482D03*
X0102530Y0188482D03*
X0101780Y0188482D03*
D41*
X0084530Y0218107D03*
X0083780Y0218107D03*
X0083030Y0218107D03*
X0083780Y0242857D03*
X0084530Y0242857D03*
X0085280Y0242857D03*
X0086030Y0242857D03*
D42*
X0083030Y0243232D03*
X0082280Y0243232D03*
X0081530Y0243232D03*
X0080780Y0243232D03*
X0080030Y0243232D03*
X0080030Y0217732D03*
X0080780Y0217732D03*
X0081530Y0217732D03*
X0082280Y0217732D03*
X0079280Y0217732D03*
X0079280Y0188482D03*
X0080030Y0188482D03*
X0078530Y0188482D03*
D43*
X0078530Y0217357D03*
X0077780Y0217357D03*
X0077030Y0217357D03*
X0076280Y0217357D03*
X0075530Y0217357D03*
X0076280Y0243607D03*
X0077030Y0243607D03*
X0077780Y0243607D03*
X0078530Y0243607D03*
X0079280Y0243607D03*
D44*
X0092248Y0104103D02*
X0131408Y0104103D01*
X0123057Y0118765D01*
X0119530Y0117095D01*
X0120087Y0116167D01*
X0120272Y0115796D01*
X0120272Y0114311D01*
X0119716Y0106887D01*
X0119344Y0106887D01*
X0118788Y0107258D01*
X0118417Y0108001D01*
X0118045Y0109114D01*
X0117860Y0110785D01*
X0117860Y0114311D01*
X0116932Y0115610D01*
X0116375Y0115610D01*
X0111364Y0113197D01*
X0111364Y0113012D01*
X0114890Y0109857D01*
X0115633Y0108743D01*
X0116004Y0108001D01*
X0116004Y0107444D01*
X0115818Y0107073D01*
X0115633Y0106887D01*
X0115261Y0106887D01*
X0113962Y0107630D01*
X0112478Y0108558D01*
X0111178Y0109486D01*
X0109508Y0110599D01*
X0108023Y0111527D01*
X0107652Y0111527D01*
X0092248Y0104475D01*
X0092248Y0104103D01*
X0092248Y0104137D02*
X0131389Y0104137D01*
X0131284Y0104321D02*
X0092248Y0104321D01*
X0092313Y0104504D02*
X0131180Y0104504D01*
X0131075Y0104688D02*
X0092714Y0104688D01*
X0093115Y0104871D02*
X0130971Y0104871D01*
X0130866Y0105055D02*
X0093515Y0105055D01*
X0093916Y0105239D02*
X0130762Y0105239D01*
X0130657Y0105422D02*
X0094317Y0105422D01*
X0094718Y0105606D02*
X0130552Y0105606D01*
X0130448Y0105789D02*
X0095119Y0105789D01*
X0095520Y0105973D02*
X0130343Y0105973D01*
X0130239Y0106156D02*
X0095921Y0106156D01*
X0096322Y0106340D02*
X0130134Y0106340D01*
X0130030Y0106523D02*
X0096723Y0106523D01*
X0097124Y0106707D02*
X0129925Y0106707D01*
X0129821Y0106890D02*
X0119716Y0106890D01*
X0119730Y0107074D02*
X0129716Y0107074D01*
X0129612Y0107258D02*
X0119744Y0107258D01*
X0119757Y0107441D02*
X0129507Y0107441D01*
X0129402Y0107625D02*
X0119771Y0107625D01*
X0119785Y0107808D02*
X0129298Y0107808D01*
X0129193Y0107992D02*
X0119799Y0107992D01*
X0119812Y0108175D02*
X0129089Y0108175D01*
X0128984Y0108359D02*
X0119826Y0108359D01*
X0119840Y0108542D02*
X0128880Y0108542D01*
X0128775Y0108726D02*
X0119854Y0108726D01*
X0119867Y0108910D02*
X0128671Y0108910D01*
X0128566Y0109093D02*
X0119881Y0109093D01*
X0119895Y0109277D02*
X0128461Y0109277D01*
X0128357Y0109460D02*
X0119909Y0109460D01*
X0119922Y0109644D02*
X0128252Y0109644D01*
X0128148Y0109827D02*
X0119936Y0109827D01*
X0119950Y0110011D02*
X0128043Y0110011D01*
X0127939Y0110194D02*
X0119964Y0110194D01*
X0119977Y0110378D02*
X0127834Y0110378D01*
X0127730Y0110561D02*
X0119991Y0110561D01*
X0120005Y0110745D02*
X0127625Y0110745D01*
X0127520Y0110929D02*
X0120019Y0110929D01*
X0120033Y0111112D02*
X0127416Y0111112D01*
X0127311Y0111296D02*
X0120046Y0111296D01*
X0120060Y0111479D02*
X0127207Y0111479D01*
X0127102Y0111663D02*
X0120074Y0111663D01*
X0120088Y0111846D02*
X0126998Y0111846D01*
X0126893Y0112030D02*
X0120101Y0112030D01*
X0120115Y0112213D02*
X0126789Y0112213D01*
X0126684Y0112397D02*
X0120129Y0112397D01*
X0120143Y0112581D02*
X0126579Y0112581D01*
X0126475Y0112764D02*
X0120156Y0112764D01*
X0120170Y0112948D02*
X0126370Y0112948D01*
X0126266Y0113131D02*
X0120184Y0113131D01*
X0120198Y0113315D02*
X0126161Y0113315D01*
X0126057Y0113498D02*
X0120211Y0113498D01*
X0120225Y0113682D02*
X0125952Y0113682D01*
X0125848Y0113865D02*
X0120239Y0113865D01*
X0120253Y0114049D02*
X0125743Y0114049D01*
X0125638Y0114233D02*
X0120267Y0114233D01*
X0120272Y0114416D02*
X0125534Y0114416D01*
X0125429Y0114600D02*
X0120272Y0114600D01*
X0120272Y0114783D02*
X0125325Y0114783D01*
X0125220Y0114967D02*
X0120272Y0114967D01*
X0120272Y0115150D02*
X0125116Y0115150D01*
X0125011Y0115334D02*
X0120272Y0115334D01*
X0120272Y0115517D02*
X0124907Y0115517D01*
X0124802Y0115701D02*
X0120272Y0115701D01*
X0120228Y0115884D02*
X0124698Y0115884D01*
X0124593Y0116068D02*
X0120136Y0116068D01*
X0120036Y0116252D02*
X0124488Y0116252D01*
X0124384Y0116435D02*
X0119926Y0116435D01*
X0119816Y0116619D02*
X0124279Y0116619D01*
X0124175Y0116802D02*
X0119706Y0116802D01*
X0119596Y0116986D02*
X0124070Y0116986D01*
X0123966Y0117169D02*
X0119687Y0117169D01*
X0120075Y0117353D02*
X0123861Y0117353D01*
X0123757Y0117536D02*
X0120462Y0117536D01*
X0120850Y0117720D02*
X0123652Y0117720D01*
X0123547Y0117904D02*
X0121237Y0117904D01*
X0121625Y0118087D02*
X0123443Y0118087D01*
X0123338Y0118271D02*
X0122013Y0118271D01*
X0122400Y0118454D02*
X0123234Y0118454D01*
X0123129Y0118638D02*
X0122788Y0118638D01*
X0121386Y0120807D02*
X0117674Y0118951D01*
X0117303Y0118951D01*
X0113405Y0122477D01*
X0113220Y0122663D01*
X0104311Y0124333D01*
X0104311Y0124704D01*
X0111735Y0137510D01*
X0121386Y0120807D01*
X0121367Y0120840D02*
X0115215Y0120840D01*
X0115418Y0120657D02*
X0121086Y0120657D01*
X0121261Y0121024D02*
X0115012Y0121024D01*
X0114809Y0121207D02*
X0121155Y0121207D01*
X0121049Y0121391D02*
X0114606Y0121391D01*
X0114403Y0121575D02*
X0120943Y0121575D01*
X0120837Y0121758D02*
X0114200Y0121758D01*
X0113998Y0121942D02*
X0120731Y0121942D01*
X0120624Y0122125D02*
X0113795Y0122125D01*
X0113592Y0122309D02*
X0120518Y0122309D01*
X0120412Y0122492D02*
X0113390Y0122492D01*
X0113150Y0122676D02*
X0120306Y0122676D01*
X0120200Y0122859D02*
X0112171Y0122859D01*
X0111192Y0123043D02*
X0120094Y0123043D01*
X0119988Y0123226D02*
X0110213Y0123226D01*
X0109235Y0123410D02*
X0119882Y0123410D01*
X0119776Y0123594D02*
X0108256Y0123594D01*
X0107277Y0123777D02*
X0119670Y0123777D01*
X0119564Y0123961D02*
X0106298Y0123961D01*
X0105319Y0124144D02*
X0119458Y0124144D01*
X0119352Y0124328D02*
X0104340Y0124328D01*
X0104311Y0124511D02*
X0119246Y0124511D01*
X0119140Y0124695D02*
X0104311Y0124695D01*
X0104412Y0124878D02*
X0119034Y0124878D01*
X0118928Y0125062D02*
X0104519Y0125062D01*
X0104625Y0125246D02*
X0118822Y0125246D01*
X0118715Y0125429D02*
X0104731Y0125429D01*
X0104838Y0125613D02*
X0118609Y0125613D01*
X0118503Y0125796D02*
X0104944Y0125796D01*
X0105051Y0125980D02*
X0118397Y0125980D01*
X0118291Y0126163D02*
X0105157Y0126163D01*
X0105264Y0126347D02*
X0118185Y0126347D01*
X0118079Y0126530D02*
X0105370Y0126530D01*
X0105476Y0126714D02*
X0117973Y0126714D01*
X0117867Y0126898D02*
X0105583Y0126898D01*
X0105689Y0127081D02*
X0117761Y0127081D01*
X0117655Y0127265D02*
X0105796Y0127265D01*
X0105902Y0127448D02*
X0117549Y0127448D01*
X0117443Y0127632D02*
X0106008Y0127632D01*
X0106115Y0127815D02*
X0117337Y0127815D01*
X0117231Y0127999D02*
X0106221Y0127999D01*
X0106328Y0128182D02*
X0117125Y0128182D01*
X0117019Y0128366D02*
X0106434Y0128366D01*
X0106540Y0128549D02*
X0116913Y0128549D01*
X0116806Y0128733D02*
X0106647Y0128733D01*
X0106753Y0128917D02*
X0116700Y0128917D01*
X0116594Y0129100D02*
X0106860Y0129100D01*
X0106966Y0129284D02*
X0116488Y0129284D01*
X0116382Y0129467D02*
X0107072Y0129467D01*
X0107179Y0129651D02*
X0116276Y0129651D01*
X0116170Y0129834D02*
X0107285Y0129834D01*
X0107392Y0130018D02*
X0116064Y0130018D01*
X0115958Y0130201D02*
X0107498Y0130201D01*
X0107604Y0130385D02*
X0115852Y0130385D01*
X0115746Y0130569D02*
X0107711Y0130569D01*
X0107817Y0130752D02*
X0115640Y0130752D01*
X0115534Y0130936D02*
X0107924Y0130936D01*
X0108030Y0131119D02*
X0115428Y0131119D01*
X0115322Y0131303D02*
X0108136Y0131303D01*
X0108243Y0131486D02*
X0115216Y0131486D01*
X0115110Y0131670D02*
X0108349Y0131670D01*
X0108456Y0131853D02*
X0115004Y0131853D01*
X0114898Y0132037D02*
X0108562Y0132037D01*
X0108668Y0132220D02*
X0114791Y0132220D01*
X0114685Y0132404D02*
X0108775Y0132404D01*
X0108881Y0132588D02*
X0114579Y0132588D01*
X0114473Y0132771D02*
X0108988Y0132771D01*
X0109094Y0132955D02*
X0114367Y0132955D01*
X0114261Y0133138D02*
X0109200Y0133138D01*
X0109307Y0133322D02*
X0114155Y0133322D01*
X0114049Y0133505D02*
X0109413Y0133505D01*
X0109520Y0133689D02*
X0113943Y0133689D01*
X0113837Y0133872D02*
X0109626Y0133872D01*
X0109733Y0134056D02*
X0113731Y0134056D01*
X0113625Y0134240D02*
X0109839Y0134240D01*
X0109945Y0134423D02*
X0113519Y0134423D01*
X0113413Y0134607D02*
X0110052Y0134607D01*
X0110158Y0134790D02*
X0113307Y0134790D01*
X0113201Y0134974D02*
X0110265Y0134974D01*
X0110371Y0135157D02*
X0113095Y0135157D01*
X0112989Y0135341D02*
X0110477Y0135341D01*
X0110584Y0135524D02*
X0112882Y0135524D01*
X0112776Y0135708D02*
X0110690Y0135708D01*
X0110797Y0135891D02*
X0112670Y0135891D01*
X0112564Y0136075D02*
X0110903Y0136075D01*
X0111009Y0136259D02*
X0112458Y0136259D01*
X0112352Y0136442D02*
X0111116Y0136442D01*
X0111222Y0136626D02*
X0112246Y0136626D01*
X0112140Y0136809D02*
X0111329Y0136809D01*
X0111435Y0136993D02*
X0112034Y0136993D01*
X0111928Y0137176D02*
X0111541Y0137176D01*
X0111648Y0137360D02*
X0111822Y0137360D01*
X0115621Y0120473D02*
X0120719Y0120473D01*
X0120352Y0120290D02*
X0115823Y0120290D01*
X0116026Y0120106D02*
X0119985Y0120106D01*
X0119618Y0119923D02*
X0116229Y0119923D01*
X0116432Y0119739D02*
X0119251Y0119739D01*
X0118884Y0119555D02*
X0116635Y0119555D01*
X0116838Y0119372D02*
X0118516Y0119372D01*
X0118149Y0119188D02*
X0117041Y0119188D01*
X0117244Y0119005D02*
X0117782Y0119005D01*
X0116998Y0115517D02*
X0116183Y0115517D01*
X0115802Y0115334D02*
X0117129Y0115334D01*
X0117260Y0115150D02*
X0115420Y0115150D01*
X0115039Y0114967D02*
X0117391Y0114967D01*
X0117523Y0114783D02*
X0114658Y0114783D01*
X0114277Y0114600D02*
X0117654Y0114600D01*
X0117785Y0114416D02*
X0113895Y0114416D01*
X0113514Y0114233D02*
X0117860Y0114233D01*
X0117860Y0114049D02*
X0113133Y0114049D01*
X0112752Y0113865D02*
X0117860Y0113865D01*
X0117860Y0113682D02*
X0112370Y0113682D01*
X0111989Y0113498D02*
X0117860Y0113498D01*
X0117860Y0113315D02*
X0111608Y0113315D01*
X0111364Y0113131D02*
X0117860Y0113131D01*
X0117860Y0112948D02*
X0111436Y0112948D01*
X0111641Y0112764D02*
X0117860Y0112764D01*
X0117860Y0112581D02*
X0111846Y0112581D01*
X0112051Y0112397D02*
X0117860Y0112397D01*
X0117860Y0112213D02*
X0112256Y0112213D01*
X0112462Y0112030D02*
X0117860Y0112030D01*
X0117860Y0111846D02*
X0112667Y0111846D01*
X0112872Y0111663D02*
X0117860Y0111663D01*
X0117860Y0111479D02*
X0113077Y0111479D01*
X0113282Y0111296D02*
X0117860Y0111296D01*
X0117860Y0111112D02*
X0113487Y0111112D01*
X0113692Y0110929D02*
X0117860Y0110929D01*
X0117864Y0110745D02*
X0113897Y0110745D01*
X0114103Y0110561D02*
X0117885Y0110561D01*
X0117905Y0110378D02*
X0114308Y0110378D01*
X0114513Y0110194D02*
X0117925Y0110194D01*
X0117946Y0110011D02*
X0114718Y0110011D01*
X0114910Y0109827D02*
X0117966Y0109827D01*
X0117986Y0109644D02*
X0115032Y0109644D01*
X0115155Y0109460D02*
X0118007Y0109460D01*
X0118027Y0109277D02*
X0115277Y0109277D01*
X0115399Y0109093D02*
X0118052Y0109093D01*
X0118114Y0108910D02*
X0115522Y0108910D01*
X0115641Y0108726D02*
X0118175Y0108726D01*
X0118236Y0108542D02*
X0115733Y0108542D01*
X0115825Y0108359D02*
X0118297Y0108359D01*
X0118358Y0108175D02*
X0115917Y0108175D01*
X0116004Y0107992D02*
X0118421Y0107992D01*
X0118513Y0107808D02*
X0116004Y0107808D01*
X0116004Y0107625D02*
X0118605Y0107625D01*
X0118696Y0107441D02*
X0116003Y0107441D01*
X0115911Y0107258D02*
X0118789Y0107258D01*
X0119064Y0107074D02*
X0115819Y0107074D01*
X0115636Y0106890D02*
X0119339Y0106890D01*
X0115256Y0106890D02*
X0097525Y0106890D01*
X0097926Y0107074D02*
X0114934Y0107074D01*
X0114613Y0107258D02*
X0098327Y0107258D01*
X0098728Y0107441D02*
X0114292Y0107441D01*
X0113971Y0107625D02*
X0099128Y0107625D01*
X0099529Y0107808D02*
X0113676Y0107808D01*
X0113383Y0107992D02*
X0099930Y0107992D01*
X0100331Y0108175D02*
X0113089Y0108175D01*
X0112795Y0108359D02*
X0100732Y0108359D01*
X0101133Y0108542D02*
X0112502Y0108542D01*
X0112242Y0108726D02*
X0101534Y0108726D01*
X0101935Y0108910D02*
X0111985Y0108910D01*
X0111728Y0109093D02*
X0102336Y0109093D01*
X0102737Y0109277D02*
X0111471Y0109277D01*
X0111214Y0109460D02*
X0103138Y0109460D01*
X0103539Y0109644D02*
X0110941Y0109644D01*
X0110666Y0109827D02*
X0103940Y0109827D01*
X0104340Y0110011D02*
X0110390Y0110011D01*
X0110115Y0110194D02*
X0104741Y0110194D01*
X0105142Y0110378D02*
X0109839Y0110378D01*
X0109564Y0110561D02*
X0105543Y0110561D01*
X0105944Y0110745D02*
X0109274Y0110745D01*
X0108980Y0110929D02*
X0106345Y0110929D01*
X0106746Y0111112D02*
X0108687Y0111112D01*
X0108393Y0111296D02*
X0107147Y0111296D01*
X0107548Y0111479D02*
X0108099Y0111479D01*
X0104497Y0113012D02*
X0104497Y0113197D01*
X0100414Y0117652D01*
X0095217Y0108558D01*
X0104497Y0113012D01*
X0104497Y0113131D02*
X0097831Y0113131D01*
X0097726Y0112948D02*
X0104363Y0112948D01*
X0104389Y0113315D02*
X0097936Y0113315D01*
X0098040Y0113498D02*
X0104221Y0113498D01*
X0104053Y0113682D02*
X0098145Y0113682D01*
X0098250Y0113865D02*
X0103884Y0113865D01*
X0103716Y0114049D02*
X0098355Y0114049D01*
X0098460Y0114233D02*
X0103548Y0114233D01*
X0103380Y0114416D02*
X0098565Y0114416D01*
X0098670Y0114600D02*
X0103211Y0114600D01*
X0103043Y0114783D02*
X0098775Y0114783D01*
X0098880Y0114967D02*
X0102875Y0114967D01*
X0102707Y0115150D02*
X0098984Y0115150D01*
X0099089Y0115334D02*
X0102538Y0115334D01*
X0102370Y0115517D02*
X0099194Y0115517D01*
X0099299Y0115701D02*
X0102202Y0115701D01*
X0102034Y0115884D02*
X0099404Y0115884D01*
X0099509Y0116068D02*
X0101865Y0116068D01*
X0101697Y0116252D02*
X0099614Y0116252D01*
X0099719Y0116435D02*
X0101529Y0116435D01*
X0101361Y0116619D02*
X0099823Y0116619D01*
X0099928Y0116802D02*
X0101192Y0116802D01*
X0101024Y0116986D02*
X0100033Y0116986D01*
X0100138Y0117169D02*
X0100856Y0117169D01*
X0100688Y0117353D02*
X0100243Y0117353D01*
X0100348Y0117536D02*
X0100519Y0117536D01*
X0097621Y0112764D02*
X0103981Y0112764D01*
X0103598Y0112581D02*
X0097516Y0112581D01*
X0097411Y0112397D02*
X0103216Y0112397D01*
X0102833Y0112213D02*
X0097306Y0112213D01*
X0097201Y0112030D02*
X0102451Y0112030D01*
X0102069Y0111846D02*
X0097097Y0111846D01*
X0096992Y0111663D02*
X0101686Y0111663D01*
X0101304Y0111479D02*
X0096887Y0111479D01*
X0096782Y0111296D02*
X0100921Y0111296D01*
X0100539Y0111112D02*
X0096677Y0111112D01*
X0096572Y0110929D02*
X0100157Y0110929D01*
X0099774Y0110745D02*
X0096467Y0110745D01*
X0096362Y0110561D02*
X0099392Y0110561D01*
X0099010Y0110378D02*
X0096257Y0110378D01*
X0096153Y0110194D02*
X0098627Y0110194D01*
X0098245Y0110011D02*
X0096048Y0110011D01*
X0095943Y0109827D02*
X0097862Y0109827D01*
X0097480Y0109644D02*
X0095838Y0109644D01*
X0095733Y0109460D02*
X0097098Y0109460D01*
X0096715Y0109277D02*
X0095628Y0109277D01*
X0095523Y0109093D02*
X0096333Y0109093D01*
X0095950Y0108910D02*
X0095418Y0108910D01*
X0095314Y0108726D02*
X0095568Y0108726D01*
X0109694Y0115796D02*
X0109508Y0116538D01*
X0109879Y0117095D01*
X0110436Y0117466D01*
X0112292Y0118023D01*
X0112663Y0118023D01*
X0113962Y0117095D01*
X0110065Y0115239D01*
X0109694Y0115796D01*
X0109671Y0115884D02*
X0111420Y0115884D01*
X0111035Y0115701D02*
X0109757Y0115701D01*
X0109879Y0115517D02*
X0110649Y0115517D01*
X0110264Y0115334D02*
X0110002Y0115334D01*
X0109626Y0116068D02*
X0111806Y0116068D01*
X0112191Y0116252D02*
X0109580Y0116252D01*
X0109534Y0116435D02*
X0112576Y0116435D01*
X0112962Y0116619D02*
X0109561Y0116619D01*
X0109684Y0116802D02*
X0113347Y0116802D01*
X0113733Y0116986D02*
X0109806Y0116986D01*
X0109991Y0117169D02*
X0113858Y0117169D01*
X0113601Y0117353D02*
X0110266Y0117353D01*
X0110670Y0117536D02*
X0113344Y0117536D01*
X0113087Y0117720D02*
X0111282Y0117720D01*
X0111894Y0117904D02*
X0112830Y0117904D01*
M02*
