G04 CAM350/DFMSTREAM V11.0 (Build 715) Date:  Tue Apr 04 08:46:31 2017 *
G04 Database: C:\1\NEWARRAY-CONTROLLER.cam *
G04 Layer 10: V3CONTRTOLLER-FAB *
%FSLAX24Y24*%
%MOIN*%
%SFA1.000B1.000*%

%MIA0B0*%
%IPPOS*%
%ADD38C,0.03937*%
%ADD42C,0.01000*%
%ADD112C,0.02756*%
%ADD113C,0.03150*%
%ADD114C,0.14000*%
%ADD201C,0.12500*%
%ADD202C,0.06000*%
%ADD204C,0.01000*%
%ADD205C,0.01000*%
%ADD999C,0.01000*%
%ADD1000C,0.01000*%
%ADD1001C,0.00500*%
%LNV3CONTRTOLLER-FAB*%
%LPD*%
G54D42*
X5700Y5700D03*
X8300D03*
X5700Y8700D03*
X9000Y8850D03*
X8900Y9900D03*
X9700D03*
X10500D03*
X10490Y10500D03*
Y11120D03*
X11200Y11150D03*
X11900D03*
X12500D03*
X13000D03*
X13350Y10700D03*
X12900Y10500D03*
Y9950D03*
X13400Y9850D03*
X13800D03*
X13400Y9350D03*
X12900Y9100D03*
X12300D03*
X12000Y9950D03*
Y10500D03*
X10500Y8850D03*
X11800Y7900D03*
X12300D03*
X12850D03*
X12600Y7150D03*
X11900Y6250D03*
Y5500D03*
X13400Y5750D03*
X16650D03*
Y6550D03*
X17550D03*
X18300D03*
X19050D03*
X19750D03*
Y5750D03*
X20300Y5700D03*
Y5400D03*
X20700D03*
Y5700D03*
X21800Y5550D03*
X22500D03*
X22880Y5340D03*
X23300Y5600D03*
Y6300D03*
X22880Y6340D03*
X23300Y7000D03*
X22880Y7140D03*
X22450Y7100D03*
X22990Y7620D03*
X23900Y7000D03*
X24000Y7600D03*
X24700Y7400D03*
Y6800D03*
X24400Y6300D03*
X24200Y5600D03*
X24700Y5340D03*
X25300D03*
X25900Y5335D03*
X26510Y5340D03*
X26900Y5500D03*
X27900D03*
X26950Y6500D03*
X26400Y6800D03*
Y7400D03*
X26950Y7500D03*
X26250Y8800D03*
X25500Y8000D03*
Y7400D03*
Y6800D03*
X24700Y8000D03*
X23880Y8840D03*
Y9840D03*
X23480D03*
X23680Y10640D03*
X24600Y10650D03*
X25800Y10800D03*
Y10100D03*
X26500D03*
Y10800D03*
Y11500D03*
X25800D03*
X26300Y12850D03*
X26900D03*
X28050Y12950D03*
Y14050D03*
X26400Y14100D03*
Y14700D03*
X25800Y14900D03*
X26400Y15400D03*
X27300Y16500D03*
X26700Y17200D03*
X26900Y17800D03*
X26400Y19050D03*
X26100Y19900D03*
X25400Y19500D03*
Y20500D03*
X24400D03*
X23900Y21000D03*
X23500Y21400D03*
X23200Y21050D03*
X22600Y20150D03*
Y19500D03*
Y18500D03*
X23900D03*
X24400D03*
Y19500D03*
X23900D03*
X25400Y18500D03*
X25700Y16700D03*
X24400Y16750D03*
X22900Y15900D03*
X22350Y16200D03*
X22100Y16500D03*
X22600D03*
X22000Y17100D03*
X20900Y18050D03*
X19500Y17700D03*
X18900Y17400D03*
X19200Y16800D03*
X17600Y16900D03*
X17000D03*
Y18900D03*
X17400Y19500D03*
X17800Y18900D03*
X18400Y18950D03*
X18900D03*
X19600Y20350D03*
Y20800D03*
Y21400D03*
X20000Y21900D03*
X20800D03*
Y22800D03*
X21300Y23300D03*
X21600Y23800D03*
X22100Y23300D03*
X22400Y23800D03*
Y24500D03*
X23400D03*
Y23800D03*
X23900Y23300D03*
X25000Y24600D03*
X25100Y25000D03*
Y25625D03*
X26100Y26750D03*
X25600Y27450D03*
X26200Y27700D03*
X26900Y28500D03*
Y29400D03*
X27900D03*
X29100D03*
X29900Y28500D03*
X30400Y27400D03*
X31000Y28000D03*
Y29400D03*
X29500Y26700D03*
X29850Y25150D03*
X29250Y24850D03*
X28650Y25150D03*
Y24550D03*
X29850D03*
X30300Y23750D03*
X31000Y22400D03*
X29000Y20700D03*
X28750Y19950D03*
X28800Y19500D03*
X29200Y19000D03*
X28700Y17900D03*
X28300Y17500D03*
X28700Y17050D03*
X28300Y16400D03*
X28800Y15600D03*
X31000Y17600D03*
X27800Y19300D03*
Y19950D03*
X26950Y22200D03*
X27650Y22500D03*
X28100Y23350D03*
X27200Y23800D03*
X26700Y23700D03*
X27350Y24550D03*
Y26050D03*
X26950Y26750D03*
X24900Y27500D03*
Y28500D03*
X23400Y27500D03*
X23200Y26500D03*
X22200Y26450D03*
Y26900D03*
X21800Y27250D03*
X22150Y27700D03*
X21750Y28100D03*
X21300Y28500D03*
X20800Y28100D03*
X21300Y27700D03*
X20800Y27300D03*
X20400Y26900D03*
X19400D03*
Y27700D03*
Y28500D03*
X18900Y29500D03*
X17900D03*
X16900D03*
X15900D03*
X14900D03*
X13900D03*
X12900D03*
X12200Y29050D03*
X11900Y29500D03*
X10900D03*
X12200Y28050D03*
Y27300D03*
Y26650D03*
X10900Y26500D03*
Y25500D03*
X10750Y24750D03*
X11550D03*
Y24000D03*
Y23250D03*
X10950D03*
X10250Y23150D03*
Y23700D03*
X9650D03*
Y23150D03*
X8900Y23950D03*
Y25100D03*
X10100Y25650D03*
X8900Y27300D03*
Y29300D03*
X5700D03*
Y27300D03*
Y25100D03*
Y22700D03*
Y20300D03*
X9200Y16550D03*
X9500Y16200D03*
X10800Y16350D03*
Y15800D03*
Y15150D03*
Y14500D03*
X11600D03*
Y15150D03*
Y15800D03*
Y16350D03*
X13000Y15400D03*
X13500Y15700D03*
Y15100D03*
X13800Y14400D03*
Y16500D03*
X14300Y19000D03*
Y19900D03*
X15800Y20850D03*
X16200Y21350D03*
X16700Y20550D03*
X16350Y20400D03*
X17400Y20500D03*
X18800Y21600D03*
X19500Y22550D03*
X20100Y23150D03*
X19450Y23550D03*
X18650Y23250D03*
X18100Y23300D03*
X17900Y24000D03*
X17150D03*
X16400D03*
X15650D03*
X14900D03*
Y23500D03*
Y24750D03*
Y25750D03*
Y26750D03*
Y27250D03*
Y28000D03*
X14150D03*
Y27300D03*
X16200Y22950D03*
Y22450D03*
X18650Y24000D03*
X20800Y23800D03*
X21900Y22500D03*
X20900Y20500D03*
X20500Y20400D03*
X24400Y21500D03*
X25400Y21600D03*
X25200Y23500D03*
X25525Y23625D03*
X28650Y22250D03*
X31000Y25400D03*
X22900Y28500D03*
X20700Y29150D03*
X12100Y19900D03*
Y19000D03*
X9800D03*
Y19900D03*
X8300Y15600D03*
X8000Y14100D03*
X9300Y13650D03*
X9900Y14000D03*
X9500Y11800D03*
X8900D03*
Y10900D03*
X5700Y13000D03*
X13850Y11600D03*
X14850D03*
X19900Y12500D03*
Y13200D03*
Y14000D03*
X21000D03*
Y13200D03*
Y12500D03*
X22000D03*
X22400Y12200D03*
X22000Y11800D03*
X21500Y11200D03*
X20450Y10360D03*
X22200Y13500D03*
Y14000D03*
Y14700D03*
X22900D03*
X23600Y14000D03*
X23800Y13700D03*
X24600Y14300D03*
Y15100D03*
X24000D03*
X27200Y11500D03*
Y10800D03*
Y10100D03*
X27800Y9500D03*
X28400Y10000D03*
X28350Y11700D03*
X29300Y12300D03*
X31000Y13600D03*
X30950Y7900D03*
X29700D03*
X30900Y5500D03*
X21750Y7100D03*
G54D112*
X30013Y10391D03*
X30800Y10981D03*
X30013Y11572D03*
X30800Y9800D03*
X6587Y15528D03*
X5800Y16119D03*
X6587Y16709D03*
X5800Y17300D03*
G54D38*
X22200Y29200D03*
X23200D03*
X24200D03*
X25200D03*
X26200D03*
X29800Y21500D03*
Y20500D03*
Y19500D03*
Y18500D03*
Y16000D03*
Y15000D03*
Y14000D03*
G54D113*
X7296Y17950D03*
X29304Y9150D03*
G54D114*
X10600Y7000D03*
X28400D03*
Y28000D03*
X10600D03*
G54D42*
X32300Y5700D03*
X34900D03*
X32300Y8700D03*
X35600Y8850D03*
X35500Y9900D03*
X36300D03*
X37100D03*
X37090Y10500D03*
Y11120D03*
X37800Y11150D03*
X38500D03*
X39100D03*
X39600D03*
X39950Y10700D03*
X39500Y10500D03*
Y9950D03*
X40000Y9850D03*
X40400D03*
X40000Y9350D03*
X39500Y9100D03*
X38900D03*
X38600Y9950D03*
Y10500D03*
X37100Y8850D03*
X38400Y7900D03*
X38900D03*
X39450D03*
X39200Y7150D03*
X38500Y6250D03*
Y5500D03*
X40000Y5750D03*
X43250D03*
Y6550D03*
X44150D03*
X44900D03*
X45650D03*
X46350D03*
Y5750D03*
X46900Y5700D03*
Y5400D03*
X47300D03*
Y5700D03*
X48400Y5550D03*
X49100D03*
X49480Y5340D03*
X49900Y5600D03*
Y6300D03*
X49480Y6340D03*
X49900Y7000D03*
X49480Y7140D03*
X49050Y7100D03*
X49590Y7620D03*
X50500Y7000D03*
X50600Y7600D03*
X51300Y7400D03*
Y6800D03*
X51000Y6300D03*
X50800Y5600D03*
X51300Y5340D03*
X51900D03*
X52500Y5335D03*
X53110Y5340D03*
X53500Y5500D03*
X54500D03*
X53550Y6500D03*
X53000Y6800D03*
Y7400D03*
X53550Y7500D03*
X52850Y8800D03*
X52100Y8000D03*
Y7400D03*
Y6800D03*
X51300Y8000D03*
X50480Y8840D03*
Y9840D03*
X50080D03*
X50280Y10640D03*
X51200Y10650D03*
X52400Y10800D03*
Y10100D03*
X53100D03*
Y10800D03*
Y11500D03*
X52400D03*
X52900Y12850D03*
X53500D03*
X54650Y12950D03*
Y14050D03*
X53000Y14100D03*
Y14700D03*
X52400Y14900D03*
X53000Y15400D03*
X53900Y16500D03*
X53300Y17200D03*
X53500Y17800D03*
X53000Y19050D03*
X52700Y19900D03*
X52000Y19500D03*
Y20500D03*
X51000D03*
X50500Y21000D03*
X50100Y21400D03*
X49800Y21050D03*
X49200Y20150D03*
Y19500D03*
Y18500D03*
X50500D03*
X51000D03*
Y19500D03*
X50500D03*
X52000Y18500D03*
X52300Y16700D03*
X51000Y16750D03*
X49500Y15900D03*
X48950Y16200D03*
X48700Y16500D03*
X49200D03*
X48600Y17100D03*
X47500Y18050D03*
X46100Y17700D03*
X45500Y17400D03*
X45800Y16800D03*
X44200Y16900D03*
X43600D03*
Y18900D03*
X44000Y19500D03*
X44400Y18900D03*
X45000Y18950D03*
X45500D03*
X46200Y20350D03*
Y20800D03*
Y21400D03*
X46600Y21900D03*
X47400D03*
Y22800D03*
X47900Y23300D03*
X48200Y23800D03*
X48700Y23300D03*
X49000Y23800D03*
Y24500D03*
X50000D03*
Y23800D03*
X50500Y23300D03*
X51600Y24600D03*
X51700Y25000D03*
Y25625D03*
X52700Y26750D03*
X52200Y27450D03*
X52800Y27700D03*
X53500Y28500D03*
Y29400D03*
X54500D03*
X55700D03*
X56500Y28500D03*
X57000Y27400D03*
X57600Y28000D03*
Y29400D03*
X56100Y26700D03*
X56450Y25150D03*
X55850Y24850D03*
X55250Y25150D03*
Y24550D03*
X56450D03*
X56900Y23750D03*
X57600Y22400D03*
X55600Y20700D03*
X55350Y19950D03*
X55400Y19500D03*
X55800Y19000D03*
X55300Y17900D03*
X54900Y17500D03*
X55300Y17050D03*
X54900Y16400D03*
X55400Y15600D03*
X57600Y17600D03*
X54400Y19300D03*
Y19950D03*
X53550Y22200D03*
X54250Y22500D03*
X54700Y23350D03*
X53800Y23800D03*
X53300Y23700D03*
X53950Y24550D03*
Y26050D03*
X53550Y26750D03*
X51500Y27500D03*
Y28500D03*
X50000Y27500D03*
X49800Y26500D03*
X48800Y26450D03*
Y26900D03*
X48400Y27250D03*
X48750Y27700D03*
X48350Y28100D03*
X47900Y28500D03*
X47400Y28100D03*
X47900Y27700D03*
X47400Y27300D03*
X47000Y26900D03*
X46000D03*
Y27700D03*
Y28500D03*
X45500Y29500D03*
X44500D03*
X43500D03*
X42500D03*
X41500D03*
X40500D03*
X39500D03*
X38800Y29050D03*
X38500Y29500D03*
X37500D03*
X38800Y28050D03*
Y27300D03*
Y26650D03*
X37500Y26500D03*
Y25500D03*
X37350Y24750D03*
X38150D03*
Y24000D03*
Y23250D03*
X37550D03*
X36850Y23150D03*
Y23700D03*
X36250D03*
Y23150D03*
X35500Y23950D03*
Y25100D03*
X36700Y25650D03*
X35500Y27300D03*
Y29300D03*
X32300D03*
Y27300D03*
Y25100D03*
Y22700D03*
Y20300D03*
X35800Y16550D03*
X36100Y16200D03*
X37400Y16350D03*
Y15800D03*
Y15150D03*
Y14500D03*
X38200D03*
Y15150D03*
Y15800D03*
Y16350D03*
X39600Y15400D03*
X40100Y15700D03*
Y15100D03*
X40400Y14400D03*
Y16500D03*
X40900Y19000D03*
Y19900D03*
X42400Y20850D03*
X42800Y21350D03*
X43300Y20550D03*
X42950Y20400D03*
X44000Y20500D03*
X45400Y21600D03*
X46100Y22550D03*
X46700Y23150D03*
X46050Y23550D03*
X45250Y23250D03*
X44700Y23300D03*
X44500Y24000D03*
X43750D03*
X43000D03*
X42250D03*
X41500D03*
Y23500D03*
Y24750D03*
Y25750D03*
Y26750D03*
Y27250D03*
Y28000D03*
X40750D03*
Y27300D03*
X42800Y22950D03*
Y22450D03*
X45250Y24000D03*
X47400Y23800D03*
X48500Y22500D03*
X47500Y20500D03*
X47100Y20400D03*
X51000Y21500D03*
X52000Y21600D03*
X51800Y23500D03*
X52125Y23625D03*
X55250Y22250D03*
X57600Y25400D03*
X49500Y28500D03*
X47300Y29150D03*
X38700Y19900D03*
Y19000D03*
X36400D03*
Y19900D03*
X34900Y15600D03*
X34600Y14100D03*
X35900Y13650D03*
X36500Y14000D03*
X36100Y11800D03*
X35500D03*
Y10900D03*
X32300Y13000D03*
X40450Y11600D03*
X41450D03*
X46500Y12500D03*
Y13200D03*
Y14000D03*
X47600D03*
Y13200D03*
Y12500D03*
X48600D03*
X49000Y12200D03*
X48600Y11800D03*
X48100Y11200D03*
X47050Y10360D03*
X48800Y13500D03*
Y14000D03*
Y14700D03*
X49500D03*
X50200Y14000D03*
X50400Y13700D03*
X51200Y14300D03*
Y15100D03*
X50600D03*
X53800Y11500D03*
Y10800D03*
Y10100D03*
X54400Y9500D03*
X55000Y10000D03*
X54950Y11700D03*
X55900Y12300D03*
X57600Y13600D03*
X57550Y7900D03*
X56300D03*
X57500Y5500D03*
X48350Y7100D03*
G54D112*
X56613Y10391D03*
X57400Y10981D03*
X56613Y11572D03*
X57400Y9800D03*
X33187Y15528D03*
X32400Y16119D03*
X33187Y16709D03*
X32400Y17300D03*
G54D38*
X48800Y29200D03*
X49800D03*
X50800D03*
X51800D03*
X52800D03*
X56400Y21500D03*
Y20500D03*
Y19500D03*
Y18500D03*
Y16000D03*
Y15000D03*
Y14000D03*
G54D113*
X33896Y17950D03*
X55904Y9150D03*
G54D114*
X37200Y7000D03*
X55000D03*
Y28000D03*
X37200D03*
G54D42*
X5700Y30700D03*
Y55700D03*
X8300Y30700D03*
Y55700D03*
X5700Y33700D03*
Y58700D03*
X9000Y33850D03*
Y58850D03*
X8900Y34900D03*
Y59900D03*
X9700Y34900D03*
Y59900D03*
X10500Y34900D03*
Y59900D03*
X10490Y35500D03*
Y60500D03*
Y36120D03*
Y61120D03*
X11200Y36150D03*
Y61150D03*
X11900Y36150D03*
Y61150D03*
X12500Y36150D03*
Y61150D03*
X13000Y36150D03*
Y61150D03*
X13350Y35700D03*
Y60700D03*
X12900Y35500D03*
Y60500D03*
Y34950D03*
Y59950D03*
X13400Y34850D03*
Y59850D03*
X13800Y34850D03*
Y59850D03*
X13400Y34350D03*
Y59350D03*
X12900Y34100D03*
Y59100D03*
X12300Y34100D03*
Y59100D03*
X12000Y34950D03*
Y59950D03*
Y35500D03*
Y60500D03*
X10500Y33850D03*
Y58850D03*
X11800Y32900D03*
Y57900D03*
X12300Y32900D03*
Y57900D03*
X12850Y32900D03*
Y57900D03*
X12600Y32150D03*
Y57150D03*
X11900Y31250D03*
Y56250D03*
Y30500D03*
Y55500D03*
X13400Y30750D03*
Y55750D03*
X16650Y30750D03*
Y55750D03*
Y31550D03*
Y56550D03*
X17550Y31550D03*
Y56550D03*
X18300Y31550D03*
Y56550D03*
X19050Y31550D03*
Y56550D03*
X19750Y31550D03*
Y56550D03*
Y30750D03*
Y55750D03*
X20300Y30700D03*
Y55700D03*
Y30400D03*
Y55400D03*
X20700Y30400D03*
Y55400D03*
Y30700D03*
Y55700D03*
X21800Y30550D03*
Y55550D03*
X22500Y30550D03*
Y55550D03*
X22880Y30340D03*
Y55340D03*
X23300Y30600D03*
Y55600D03*
Y31300D03*
Y56300D03*
X22880Y31340D03*
Y56340D03*
X23300Y32000D03*
Y57000D03*
X22880Y32140D03*
Y57140D03*
X22450Y32100D03*
Y57100D03*
X22990Y32620D03*
Y57620D03*
X23900Y32000D03*
Y57000D03*
X24000Y32600D03*
Y57600D03*
X24700Y32400D03*
Y57400D03*
Y31800D03*
Y56800D03*
X24400Y31300D03*
Y56300D03*
X24200Y30600D03*
Y55600D03*
X24700Y30340D03*
Y55340D03*
X25300Y30340D03*
Y55340D03*
X25900Y30335D03*
Y55335D03*
X26510Y30340D03*
Y55340D03*
X26900Y30500D03*
Y55500D03*
X27900Y30500D03*
Y55500D03*
X26950Y31500D03*
Y56500D03*
X26400Y31800D03*
Y56800D03*
Y32400D03*
Y57400D03*
X26950Y32500D03*
Y57500D03*
X26250Y33800D03*
Y58800D03*
X25500Y33000D03*
Y58000D03*
Y32400D03*
Y57400D03*
Y31800D03*
Y56800D03*
X24700Y33000D03*
Y58000D03*
X23880Y33840D03*
Y58840D03*
Y34840D03*
Y59840D03*
X23480Y34840D03*
Y59840D03*
X23680Y35640D03*
Y60640D03*
X24600Y35650D03*
Y60650D03*
X25800Y35800D03*
Y60800D03*
Y35100D03*
Y60100D03*
X26500Y35100D03*
Y60100D03*
Y35800D03*
Y60800D03*
Y36500D03*
Y61500D03*
X25800Y36500D03*
Y61500D03*
X26300Y37850D03*
Y62850D03*
X26900Y37850D03*
Y62850D03*
X28050Y37950D03*
Y62950D03*
Y39050D03*
Y64050D03*
X26400Y39100D03*
Y64100D03*
Y39700D03*
Y64700D03*
X25800Y39900D03*
Y64900D03*
X26400Y40400D03*
Y65400D03*
X27300Y41500D03*
Y66500D03*
X26700Y42200D03*
Y67200D03*
X26900Y42800D03*
Y67800D03*
X26400Y44050D03*
Y69050D03*
X26100Y44900D03*
Y69900D03*
X25400Y44500D03*
Y69500D03*
Y45500D03*
Y70500D03*
X24400Y45500D03*
Y70500D03*
X23900Y46000D03*
Y71000D03*
X23500Y46400D03*
Y71400D03*
X23200Y46050D03*
Y71050D03*
X22600Y45150D03*
Y70150D03*
Y44500D03*
Y69500D03*
Y43500D03*
Y68500D03*
X23900Y43500D03*
Y68500D03*
X24400Y43500D03*
Y68500D03*
Y44500D03*
Y69500D03*
X23900Y44500D03*
Y69500D03*
X25400Y43500D03*
Y68500D03*
X25700Y41700D03*
Y66700D03*
X24400Y41750D03*
Y66750D03*
X22900Y40900D03*
Y65900D03*
X22350Y41200D03*
Y66200D03*
X22100Y41500D03*
Y66500D03*
X22600Y41500D03*
Y66500D03*
X22000Y42100D03*
Y67100D03*
X20900Y43050D03*
Y68050D03*
X19500Y42700D03*
Y67700D03*
X18900Y42400D03*
Y67400D03*
X19200Y41800D03*
Y66800D03*
X17600Y41900D03*
Y66900D03*
X17000Y41900D03*
Y66900D03*
Y43900D03*
Y68900D03*
X17400Y44500D03*
Y69500D03*
X17800Y43900D03*
Y68900D03*
X18400Y43950D03*
Y68950D03*
X18900Y43950D03*
Y68950D03*
X19600Y45350D03*
Y70350D03*
Y45800D03*
Y70800D03*
Y46400D03*
Y71400D03*
X20000Y46900D03*
Y71900D03*
X20800Y46900D03*
Y71900D03*
Y47800D03*
Y72800D03*
X21300Y48300D03*
Y73300D03*
X21600Y48800D03*
Y73800D03*
X22100Y48300D03*
Y73300D03*
X22400Y48800D03*
Y73800D03*
Y49500D03*
Y74500D03*
X23400Y49500D03*
Y74500D03*
Y48800D03*
Y73800D03*
X23900Y48300D03*
Y73300D03*
X25000Y49600D03*
Y74600D03*
X25100Y50000D03*
Y75000D03*
Y50625D03*
Y75625D03*
X26100Y51750D03*
Y76750D03*
X25600Y52450D03*
Y77450D03*
X26200Y52700D03*
Y77700D03*
X26900Y53500D03*
Y78500D03*
Y54400D03*
Y79400D03*
X27900Y54400D03*
Y79400D03*
X29100Y54400D03*
Y79400D03*
X29900Y53500D03*
Y78500D03*
X30400Y52400D03*
Y77400D03*
X31000Y53000D03*
Y78000D03*
Y54400D03*
Y79400D03*
X29500Y51700D03*
Y76700D03*
X29850Y50150D03*
Y75150D03*
X29250Y49850D03*
Y74850D03*
X28650Y50150D03*
Y75150D03*
Y49550D03*
Y74550D03*
X29850Y49550D03*
Y74550D03*
X30300Y48750D03*
Y73750D03*
X31000Y47400D03*
Y72400D03*
X29000Y45700D03*
Y70700D03*
X28750Y44950D03*
Y69950D03*
X28800Y44500D03*
Y69500D03*
X29200Y44000D03*
Y69000D03*
X28700Y42900D03*
Y67900D03*
X28300Y42500D03*
Y67500D03*
X28700Y42050D03*
Y67050D03*
X28300Y41400D03*
Y66400D03*
X28800Y40600D03*
Y65600D03*
X31000Y42600D03*
Y67600D03*
X27800Y44300D03*
Y69300D03*
Y44950D03*
Y69950D03*
X26950Y47200D03*
Y72200D03*
X27650Y47500D03*
Y72500D03*
X28100Y48350D03*
Y73350D03*
X27200Y48800D03*
Y73800D03*
X26700Y48700D03*
Y73700D03*
X27350Y49550D03*
Y74550D03*
Y51050D03*
Y76050D03*
X26950Y51750D03*
Y76750D03*
X24900Y52500D03*
Y77500D03*
Y53500D03*
Y78500D03*
X23400Y52500D03*
Y77500D03*
X23200Y51500D03*
Y76500D03*
X22200Y51450D03*
Y76450D03*
Y51900D03*
Y76900D03*
X21800Y52250D03*
Y77250D03*
X22150Y52700D03*
Y77700D03*
X21750Y53100D03*
Y78100D03*
X21300Y53500D03*
Y78500D03*
X20800Y53100D03*
Y78100D03*
X21300Y52700D03*
Y77700D03*
X20800Y52300D03*
Y77300D03*
X20400Y51900D03*
Y76900D03*
X19400Y51900D03*
Y76900D03*
Y52700D03*
Y77700D03*
Y53500D03*
Y78500D03*
X18900Y54500D03*
Y79500D03*
X17900Y54500D03*
Y79500D03*
X16900Y54500D03*
Y79500D03*
X15900Y54500D03*
Y79500D03*
X14900Y54500D03*
Y79500D03*
X13900Y54500D03*
Y79500D03*
X12900Y54500D03*
Y79500D03*
X12200Y54050D03*
Y79050D03*
X11900Y54500D03*
Y79500D03*
X10900Y54500D03*
Y79500D03*
X12200Y53050D03*
Y78050D03*
Y52300D03*
Y77300D03*
Y51650D03*
Y76650D03*
X10900Y51500D03*
Y76500D03*
Y50500D03*
Y75500D03*
X10750Y49750D03*
Y74750D03*
X11550Y49750D03*
Y74750D03*
Y49000D03*
Y74000D03*
Y48250D03*
Y73250D03*
X10950Y48250D03*
Y73250D03*
X10250Y48150D03*
Y73150D03*
Y48700D03*
Y73700D03*
X9650Y48700D03*
Y73700D03*
Y48150D03*
Y73150D03*
X8900Y48950D03*
Y73950D03*
Y50100D03*
Y75100D03*
X10100Y50650D03*
Y75650D03*
X8900Y52300D03*
Y77300D03*
Y54300D03*
Y79300D03*
X5700Y54300D03*
Y79300D03*
Y52300D03*
Y77300D03*
Y50100D03*
Y75100D03*
Y47700D03*
Y72700D03*
Y45300D03*
Y70300D03*
X9200Y41550D03*
Y66550D03*
X9500Y41200D03*
Y66200D03*
X10800Y41350D03*
Y66350D03*
Y40800D03*
Y65800D03*
Y40150D03*
Y65150D03*
Y39500D03*
Y64500D03*
X11600Y39500D03*
Y64500D03*
Y40150D03*
Y65150D03*
Y40800D03*
Y65800D03*
Y41350D03*
Y66350D03*
X13000Y40400D03*
Y65400D03*
X13500Y40700D03*
Y65700D03*
Y40100D03*
Y65100D03*
X13800Y39400D03*
Y64400D03*
Y41500D03*
Y66500D03*
X14300Y44000D03*
Y69000D03*
Y44900D03*
Y69900D03*
X15800Y45850D03*
Y70850D03*
X16200Y46350D03*
Y71350D03*
X16700Y45550D03*
Y70550D03*
X16350Y45400D03*
Y70400D03*
X17400Y45500D03*
Y70500D03*
X18800Y46600D03*
Y71600D03*
X19500Y47550D03*
Y72550D03*
X20100Y48150D03*
Y73150D03*
X19450Y48550D03*
Y73550D03*
X18650Y48250D03*
Y73250D03*
X18100Y48300D03*
Y73300D03*
X17900Y49000D03*
Y74000D03*
X17150Y49000D03*
Y74000D03*
X16400Y49000D03*
Y74000D03*
X15650Y49000D03*
Y74000D03*
X14900Y49000D03*
Y74000D03*
Y48500D03*
Y73500D03*
Y49750D03*
Y74750D03*
Y50750D03*
Y75750D03*
Y51750D03*
Y76750D03*
Y52250D03*
Y77250D03*
Y53000D03*
Y78000D03*
X14150Y53000D03*
Y78000D03*
Y52300D03*
Y77300D03*
X16200Y47950D03*
Y72950D03*
Y47450D03*
Y72450D03*
X18650Y49000D03*
Y74000D03*
X20800Y48800D03*
Y73800D03*
X21900Y47500D03*
Y72500D03*
X20900Y45500D03*
Y70500D03*
X20500Y45400D03*
Y70400D03*
X24400Y46500D03*
Y71500D03*
X25400Y46600D03*
Y71600D03*
X25200Y48500D03*
Y73500D03*
X25525Y48625D03*
Y73625D03*
X28650Y47250D03*
Y72250D03*
X31000Y50400D03*
Y75400D03*
X22900Y53500D03*
Y78500D03*
X20700Y54150D03*
Y79150D03*
X12100Y44900D03*
Y69900D03*
Y44000D03*
Y69000D03*
X9800Y44000D03*
Y69000D03*
Y44900D03*
Y69900D03*
X8300Y40600D03*
Y65600D03*
X8000Y39100D03*
Y64100D03*
X9300Y38650D03*
Y63650D03*
X9900Y39000D03*
Y64000D03*
X9500Y36800D03*
Y61800D03*
X8900Y36800D03*
Y61800D03*
Y35900D03*
Y60900D03*
X5700Y38000D03*
Y63000D03*
X13850Y36600D03*
Y61600D03*
X14850Y36600D03*
Y61600D03*
X19900Y37500D03*
Y62500D03*
Y38200D03*
Y63200D03*
Y39000D03*
Y64000D03*
X21000Y39000D03*
Y64000D03*
Y38200D03*
Y63200D03*
Y37500D03*
Y62500D03*
X22000Y37500D03*
Y62500D03*
X22400Y37200D03*
Y62200D03*
X22000Y36800D03*
Y61800D03*
X21500Y36200D03*
Y61200D03*
X20450Y35360D03*
Y60360D03*
X22200Y38500D03*
Y63500D03*
Y39000D03*
Y64000D03*
Y39700D03*
Y64700D03*
X22900Y39700D03*
Y64700D03*
X23600Y39000D03*
Y64000D03*
X23800Y38700D03*
Y63700D03*
X24600Y39300D03*
Y64300D03*
Y40100D03*
Y65100D03*
X24000Y40100D03*
Y65100D03*
X27200Y36500D03*
Y61500D03*
Y35800D03*
Y60800D03*
Y35100D03*
Y60100D03*
X27800Y34500D03*
Y59500D03*
X28400Y35000D03*
Y60000D03*
X28350Y36700D03*
Y61700D03*
X29300Y37300D03*
Y62300D03*
X31000Y38600D03*
Y63600D03*
X30950Y32900D03*
Y57900D03*
X29700Y32900D03*
Y57900D03*
X30900Y30500D03*
Y55500D03*
X21750Y32100D03*
Y57100D03*
G54D112*
X30013Y35391D03*
Y60391D03*
X30800Y35981D03*
Y60981D03*
X30013Y36572D03*
Y61572D03*
X30800Y34800D03*
Y59800D03*
X6587Y40528D03*
Y65528D03*
X5800Y41119D03*
Y66119D03*
X6587Y41709D03*
Y66709D03*
X5800Y42300D03*
Y67300D03*
G54D38*
X22200Y54200D03*
Y79200D03*
X23200Y54200D03*
Y79200D03*
X24200Y54200D03*
Y79200D03*
X25200Y54200D03*
Y79200D03*
X26200Y54200D03*
Y79200D03*
X29800Y46500D03*
Y71500D03*
Y45500D03*
Y70500D03*
Y44500D03*
Y69500D03*
Y43500D03*
Y68500D03*
Y41000D03*
Y66000D03*
Y40000D03*
Y65000D03*
Y39000D03*
Y64000D03*
G54D113*
X7296Y42950D03*
Y67950D03*
X29304Y34150D03*
Y59150D03*
G54D114*
X10600Y32000D03*
Y57000D03*
X28400Y32000D03*
Y57000D03*
Y53000D03*
Y78000D03*
X10600Y53000D03*
Y78000D03*
G54D42*
X32300Y30700D03*
Y55700D03*
X34900Y30700D03*
Y55700D03*
X32300Y33700D03*
Y58700D03*
X35600Y33850D03*
Y58850D03*
X35500Y34900D03*
Y59900D03*
X36300Y34900D03*
Y59900D03*
X37100Y34900D03*
Y59900D03*
X37090Y35500D03*
Y60500D03*
Y36120D03*
Y61120D03*
X37800Y36150D03*
Y61150D03*
X38500Y36150D03*
Y61150D03*
X39100Y36150D03*
Y61150D03*
X39600Y36150D03*
Y61150D03*
X39950Y35700D03*
Y60700D03*
X39500Y35500D03*
Y60500D03*
Y34950D03*
Y59950D03*
X40000Y34850D03*
Y59850D03*
X40400Y34850D03*
Y59850D03*
X40000Y34350D03*
Y59350D03*
X39500Y34100D03*
Y59100D03*
X38900Y34100D03*
Y59100D03*
X38600Y34950D03*
Y59950D03*
Y35500D03*
Y60500D03*
X37100Y33850D03*
Y58850D03*
X38400Y32900D03*
Y57900D03*
X38900Y32900D03*
Y57900D03*
X39450Y32900D03*
Y57900D03*
X39200Y32150D03*
Y57150D03*
X38500Y31250D03*
Y56250D03*
Y30500D03*
Y55500D03*
X40000Y30750D03*
Y55750D03*
X43250Y30750D03*
Y55750D03*
Y31550D03*
Y56550D03*
X44150Y31550D03*
Y56550D03*
X44900Y31550D03*
Y56550D03*
X45650Y31550D03*
Y56550D03*
X46350Y31550D03*
Y56550D03*
Y30750D03*
Y55750D03*
X46900Y30700D03*
Y55700D03*
Y30400D03*
Y55400D03*
X47300Y30400D03*
Y55400D03*
Y30700D03*
Y55700D03*
X48400Y30550D03*
Y55550D03*
X49100Y30550D03*
Y55550D03*
X49480Y30340D03*
Y55340D03*
X49900Y30600D03*
Y55600D03*
Y31300D03*
Y56300D03*
X49480Y31340D03*
Y56340D03*
X49900Y32000D03*
Y57000D03*
X49480Y32140D03*
Y57140D03*
X49050Y32100D03*
Y57100D03*
X49590Y32620D03*
Y57620D03*
X50500Y32000D03*
Y57000D03*
X50600Y32600D03*
Y57600D03*
X51300Y32400D03*
Y57400D03*
Y31800D03*
Y56800D03*
X51000Y31300D03*
Y56300D03*
X50800Y30600D03*
Y55600D03*
X51300Y30340D03*
Y55340D03*
X51900Y30340D03*
Y55340D03*
X52500Y30335D03*
Y55335D03*
X53110Y30340D03*
Y55340D03*
X53500Y30500D03*
Y55500D03*
X54500Y30500D03*
Y55500D03*
X53550Y31500D03*
Y56500D03*
X53000Y31800D03*
Y56800D03*
Y32400D03*
Y57400D03*
X53550Y32500D03*
Y57500D03*
X52850Y33800D03*
Y58800D03*
X52100Y33000D03*
Y58000D03*
Y32400D03*
Y57400D03*
Y31800D03*
Y56800D03*
X51300Y33000D03*
Y58000D03*
X50480Y33840D03*
Y58840D03*
Y34840D03*
Y59840D03*
X50080Y34840D03*
Y59840D03*
X50280Y35640D03*
Y60640D03*
X51200Y35650D03*
Y60650D03*
X52400Y35800D03*
Y60800D03*
Y35100D03*
Y60100D03*
X53100Y35100D03*
Y60100D03*
Y35800D03*
Y60800D03*
Y36500D03*
Y61500D03*
X52400Y36500D03*
Y61500D03*
X52900Y37850D03*
Y62850D03*
X53500Y37850D03*
Y62850D03*
X54650Y37950D03*
Y62950D03*
Y39050D03*
Y64050D03*
X53000Y39100D03*
Y64100D03*
Y39700D03*
Y64700D03*
X52400Y39900D03*
Y64900D03*
X53000Y40400D03*
Y65400D03*
X53900Y41500D03*
Y66500D03*
X53300Y42200D03*
Y67200D03*
X53500Y42800D03*
Y67800D03*
X53000Y44050D03*
Y69050D03*
X52700Y44900D03*
Y69900D03*
X52000Y44500D03*
Y69500D03*
Y45500D03*
Y70500D03*
X51000Y45500D03*
Y70500D03*
X50500Y46000D03*
Y71000D03*
X50100Y46400D03*
Y71400D03*
X49800Y46050D03*
Y71050D03*
X49200Y45150D03*
Y70150D03*
Y44500D03*
Y69500D03*
Y43500D03*
Y68500D03*
X50500Y43500D03*
Y68500D03*
X51000Y43500D03*
Y68500D03*
Y44500D03*
Y69500D03*
X50500Y44500D03*
Y69500D03*
X52000Y43500D03*
Y68500D03*
X52300Y41700D03*
Y66700D03*
X51000Y41750D03*
Y66750D03*
X49500Y40900D03*
Y65900D03*
X48950Y41200D03*
Y66200D03*
X48700Y41500D03*
Y66500D03*
X49200Y41500D03*
Y66500D03*
X48600Y42100D03*
Y67100D03*
X47500Y43050D03*
Y68050D03*
X46100Y42700D03*
Y67700D03*
X45500Y42400D03*
Y67400D03*
X45800Y41800D03*
Y66800D03*
X44200Y41900D03*
Y66900D03*
X43600Y41900D03*
Y66900D03*
Y43900D03*
Y68900D03*
X44000Y44500D03*
Y69500D03*
X44400Y43900D03*
Y68900D03*
X45000Y43950D03*
Y68950D03*
X45500Y43950D03*
Y68950D03*
X46200Y45350D03*
Y70350D03*
Y45800D03*
Y70800D03*
Y46400D03*
Y71400D03*
X46600Y46900D03*
Y71900D03*
X47400Y46900D03*
Y71900D03*
Y47800D03*
Y72800D03*
X47900Y48300D03*
Y73300D03*
X48200Y48800D03*
Y73800D03*
X48700Y48300D03*
Y73300D03*
X49000Y48800D03*
Y73800D03*
Y49500D03*
Y74500D03*
X50000Y49500D03*
Y74500D03*
Y48800D03*
Y73800D03*
X50500Y48300D03*
Y73300D03*
X51600Y49600D03*
Y74600D03*
X51700Y50000D03*
Y75000D03*
Y50625D03*
Y75625D03*
X52700Y51750D03*
Y76750D03*
X52200Y52450D03*
Y77450D03*
X52800Y52700D03*
Y77700D03*
X53500Y53500D03*
Y78500D03*
Y54400D03*
Y79400D03*
X54500Y54400D03*
Y79400D03*
X55700Y54400D03*
Y79400D03*
X56500Y53500D03*
Y78500D03*
X57000Y52400D03*
Y77400D03*
X57600Y53000D03*
Y78000D03*
Y54400D03*
Y79400D03*
X56100Y51700D03*
Y76700D03*
X56450Y50150D03*
Y75150D03*
X55850Y49850D03*
Y74850D03*
X55250Y50150D03*
Y75150D03*
Y49550D03*
Y74550D03*
X56450Y49550D03*
Y74550D03*
X56900Y48750D03*
Y73750D03*
X57600Y47400D03*
Y72400D03*
X55600Y45700D03*
Y70700D03*
X55350Y44950D03*
Y69950D03*
X55400Y44500D03*
Y69500D03*
X55800Y44000D03*
Y69000D03*
X55300Y42900D03*
Y67900D03*
X54900Y42500D03*
Y67500D03*
X55300Y42050D03*
Y67050D03*
X54900Y41400D03*
Y66400D03*
X55400Y40600D03*
Y65600D03*
X57600Y42600D03*
Y67600D03*
X54400Y44300D03*
Y69300D03*
Y44950D03*
Y69950D03*
X53550Y47200D03*
Y72200D03*
X54250Y47500D03*
Y72500D03*
X54700Y48350D03*
Y73350D03*
X53800Y48800D03*
Y73800D03*
X53300Y48700D03*
Y73700D03*
X53950Y49550D03*
Y74550D03*
Y51050D03*
Y76050D03*
X53550Y51750D03*
Y76750D03*
X51500Y52500D03*
Y77500D03*
Y53500D03*
Y78500D03*
X50000Y52500D03*
Y77500D03*
X49800Y51500D03*
Y76500D03*
X48800Y51450D03*
Y76450D03*
Y51900D03*
Y76900D03*
X48400Y52250D03*
Y77250D03*
X48750Y52700D03*
Y77700D03*
X48350Y53100D03*
Y78100D03*
X47900Y53500D03*
Y78500D03*
X47400Y53100D03*
Y78100D03*
X47900Y52700D03*
Y77700D03*
X47400Y52300D03*
Y77300D03*
X47000Y51900D03*
Y76900D03*
X46000Y51900D03*
Y76900D03*
Y52700D03*
Y77700D03*
Y53500D03*
Y78500D03*
X45500Y54500D03*
Y79500D03*
X44500Y54500D03*
Y79500D03*
X43500Y54500D03*
Y79500D03*
X42500Y54500D03*
Y79500D03*
X41500Y54500D03*
Y79500D03*
X40500Y54500D03*
Y79500D03*
X39500Y54500D03*
Y79500D03*
X38800Y54050D03*
Y79050D03*
X38500Y54500D03*
Y79500D03*
X37500Y54500D03*
Y79500D03*
X38800Y53050D03*
Y78050D03*
Y52300D03*
Y77300D03*
Y51650D03*
Y76650D03*
X37500Y51500D03*
Y76500D03*
Y50500D03*
Y75500D03*
X37350Y49750D03*
Y74750D03*
X38150Y49750D03*
Y74750D03*
Y49000D03*
Y74000D03*
Y48250D03*
Y73250D03*
X37550Y48250D03*
Y73250D03*
X36850Y48150D03*
Y73150D03*
Y48700D03*
Y73700D03*
X36250Y48700D03*
Y73700D03*
Y48150D03*
Y73150D03*
X35500Y48950D03*
Y73950D03*
Y50100D03*
Y75100D03*
X36700Y50650D03*
Y75650D03*
X35500Y52300D03*
Y77300D03*
Y54300D03*
Y79300D03*
X32300Y54300D03*
Y79300D03*
Y52300D03*
Y77300D03*
Y50100D03*
Y75100D03*
Y47700D03*
Y72700D03*
Y45300D03*
Y70300D03*
X35800Y41550D03*
Y66550D03*
X36100Y41200D03*
Y66200D03*
X37400Y41350D03*
Y66350D03*
Y40800D03*
Y65800D03*
Y40150D03*
Y65150D03*
Y39500D03*
Y64500D03*
X38200Y39500D03*
Y64500D03*
Y40150D03*
Y65150D03*
Y40800D03*
Y65800D03*
Y41350D03*
Y66350D03*
X39600Y40400D03*
Y65400D03*
X40100Y40700D03*
Y65700D03*
Y40100D03*
Y65100D03*
X40400Y39400D03*
Y64400D03*
Y41500D03*
Y66500D03*
X40900Y44000D03*
Y69000D03*
Y44900D03*
Y69900D03*
X42400Y45850D03*
Y70850D03*
X42800Y46350D03*
Y71350D03*
X43300Y45550D03*
Y70550D03*
X42950Y45400D03*
Y70400D03*
X44000Y45500D03*
Y70500D03*
X45400Y46600D03*
Y71600D03*
X46100Y47550D03*
Y72550D03*
X46700Y48150D03*
Y73150D03*
X46050Y48550D03*
Y73550D03*
X45250Y48250D03*
Y73250D03*
X44700Y48300D03*
Y73300D03*
X44500Y49000D03*
Y74000D03*
X43750Y49000D03*
Y74000D03*
X43000Y49000D03*
Y74000D03*
X42250Y49000D03*
Y74000D03*
X41500Y49000D03*
Y74000D03*
Y48500D03*
Y73500D03*
Y49750D03*
Y74750D03*
Y50750D03*
Y75750D03*
Y51750D03*
Y76750D03*
Y52250D03*
Y77250D03*
Y53000D03*
Y78000D03*
X40750Y53000D03*
Y78000D03*
Y52300D03*
Y77300D03*
X42800Y47950D03*
Y72950D03*
Y47450D03*
Y72450D03*
X45250Y49000D03*
Y74000D03*
X47400Y48800D03*
Y73800D03*
X48500Y47500D03*
Y72500D03*
X47500Y45500D03*
Y70500D03*
X47100Y45400D03*
Y70400D03*
X51000Y46500D03*
Y71500D03*
X52000Y46600D03*
Y71600D03*
X51800Y48500D03*
Y73500D03*
X52125Y48625D03*
Y73625D03*
X55250Y47250D03*
Y72250D03*
X57600Y50400D03*
Y75400D03*
X49500Y53500D03*
Y78500D03*
X47300Y54150D03*
Y79150D03*
X38700Y44900D03*
Y69900D03*
Y44000D03*
Y69000D03*
X36400Y44000D03*
Y69000D03*
Y44900D03*
Y69900D03*
X34900Y40600D03*
Y65600D03*
X34600Y39100D03*
Y64100D03*
X35900Y38650D03*
Y63650D03*
X36500Y39000D03*
Y64000D03*
X36100Y36800D03*
Y61800D03*
X35500Y36800D03*
Y61800D03*
Y35900D03*
Y60900D03*
X32300Y38000D03*
Y63000D03*
X40450Y36600D03*
Y61600D03*
X41450Y36600D03*
Y61600D03*
X46500Y37500D03*
Y62500D03*
Y38200D03*
Y63200D03*
Y39000D03*
Y64000D03*
X47600Y39000D03*
Y64000D03*
Y38200D03*
Y63200D03*
Y37500D03*
Y62500D03*
X48600Y37500D03*
Y62500D03*
X49000Y37200D03*
Y62200D03*
X48600Y36800D03*
Y61800D03*
X48100Y36200D03*
Y61200D03*
X47050Y35360D03*
Y60360D03*
X48800Y38500D03*
Y63500D03*
Y39000D03*
Y64000D03*
Y39700D03*
Y64700D03*
X49500Y39700D03*
Y64700D03*
X50200Y39000D03*
Y64000D03*
X50400Y38700D03*
Y63700D03*
X51200Y39300D03*
Y64300D03*
Y40100D03*
Y65100D03*
X50600Y40100D03*
Y65100D03*
X53800Y36500D03*
Y61500D03*
Y35800D03*
Y60800D03*
Y35100D03*
Y60100D03*
X54400Y34500D03*
Y59500D03*
X55000Y35000D03*
Y60000D03*
X54950Y36700D03*
Y61700D03*
X55900Y37300D03*
Y62300D03*
X57600Y38600D03*
Y63600D03*
X57550Y32900D03*
Y57900D03*
X56300Y32900D03*
Y57900D03*
X57500Y30500D03*
Y55500D03*
X48350Y32100D03*
Y57100D03*
G54D112*
X56613Y35391D03*
Y60391D03*
X57400Y35981D03*
Y60981D03*
X56613Y36572D03*
Y61572D03*
X57400Y34800D03*
Y59800D03*
X33187Y40528D03*
Y65528D03*
X32400Y41119D03*
Y66119D03*
X33187Y41709D03*
Y66709D03*
X32400Y42300D03*
Y67300D03*
G54D38*
X48800Y54200D03*
Y79200D03*
X49800Y54200D03*
Y79200D03*
X50800Y54200D03*
Y79200D03*
X51800Y54200D03*
Y79200D03*
X52800Y54200D03*
Y79200D03*
X56400Y46500D03*
Y71500D03*
Y45500D03*
Y70500D03*
Y44500D03*
Y69500D03*
Y43500D03*
Y68500D03*
Y41000D03*
Y66000D03*
Y40000D03*
Y65000D03*
Y39000D03*
Y64000D03*
G54D113*
X33896Y42950D03*
Y67950D03*
X55904Y34150D03*
Y59150D03*
G54D114*
X37200Y32000D03*
Y57000D03*
X55000Y32000D03*
Y57000D03*
Y53000D03*
Y78000D03*
X37200Y53000D03*
Y78000D03*
G54D201*
X2500Y2500D03*
X60700Y82500D03*
X2500D03*
X60700Y2500D03*
G54D202*
X3750Y6250D03*
X59450D03*
X3750Y78750D03*
G54D42*
X5000Y0D02*
G01Y85000D01*
X0Y5000D02*
G01X63200D01*
X58200Y0D02*
G01Y85000D01*
X0Y30000D02*
G01X63200D01*
X0Y55000D02*
G01X63200D01*
X0Y80000D02*
G01X63200D01*
X0Y85000D02*
G01Y0D01*
X63200*
Y85000*
X0*
X31600Y80000D02*
G01Y55000D01*
Y30000*
Y5000*
X0Y85000D02*
G01Y0D01*
X63200*
Y85000*
X0*
G54D999*
G01X-542Y-6443D02*
X-500Y-6568D01*
X-375Y-6651D01*
X-167Y-6693D01*
X-42D01*
X167Y-6651D01*
X292Y-6568D01*
X333Y-6443D01*
Y-6360D01*
X292Y-6235D01*
X167Y-6151D01*
X-42Y-6110D01*
X-167D01*
X-375Y-6151D01*
X-500Y-6235D01*
X-542Y-6360D01*
Y-6443D01*
X250Y-5776D02*
X292Y-5818D01*
X333Y-5776D01*
X292Y-5735D01*
X250Y-5776D01*
X-542Y-5193D02*
X-500Y-5318D01*
X-375Y-5401D01*
X-167Y-5443D01*
X-42D01*
X167Y-5401D01*
X292Y-5318D01*
X333Y-5193D01*
Y-5110D01*
X292Y-4985D01*
X167Y-4901D01*
X-42Y-4860D01*
X-167D01*
X-375Y-4901D01*
X-500Y-4985D01*
X-542Y-5110D01*
Y-5193D01*
G01X1958Y-8110D02*
X2000Y-8235D01*
X2125Y-8318D01*
X2333Y-8360D01*
X2458D01*
X2667Y-8318D01*
X2792Y-8235D01*
X2833Y-8110D01*
Y-8026D01*
X2792Y-7901D01*
X2667Y-7818D01*
X2458Y-7776D01*
X2333D01*
X2125Y-7818D01*
X2000Y-7901D01*
X1958Y-8026D01*
Y-8110D01*
X2750Y-7443D02*
X2792Y-7485D01*
X2833Y-7443D01*
X2792Y-7401D01*
X2750Y-7443D01*
X2167Y-7068D02*
X2125D01*
X2042Y-7026D01*
X2000Y-6985D01*
X1958Y-6901D01*
Y-6735D01*
X2000Y-6651D01*
X2042Y-6610D01*
X2125Y-6568D01*
X2208D01*
X2292Y-6610D01*
X2417Y-6693D01*
X2833Y-7110D01*
Y-6526D01*
X1958Y-5776D02*
Y-6193D01*
X2333Y-6235D01*
X2292Y-6193D01*
X2250Y-6068D01*
Y-5943D01*
X2292Y-5818D01*
X2375Y-5735D01*
X2500Y-5693D01*
X2583D01*
X2708Y-5735D01*
X2792Y-5818D01*
X2833Y-5943D01*
Y-6068D01*
X2792Y-6193D01*
X2750Y-6235D01*
X2667Y-6276D01*
X1958Y-5193D02*
X2000Y-5318D01*
X2125Y-5401D01*
X2333Y-5443D01*
X2458D01*
X2667Y-5401D01*
X2792Y-5318D01*
X2833Y-5193D01*
Y-5110D01*
X2792Y-4985D01*
X2667Y-4901D01*
X2458Y-4860D01*
X2333D01*
X2125Y-4901D01*
X2000Y-4985D01*
X1958Y-5110D01*
Y-5193D01*
G01X3208Y-8110D02*
X3250Y-8235D01*
X3375Y-8318D01*
X3583Y-8360D01*
X3708D01*
X3917Y-8318D01*
X4042Y-8235D01*
X4083Y-8110D01*
Y-8026D01*
X4042Y-7901D01*
X3917Y-7818D01*
X3708Y-7776D01*
X3583D01*
X3375Y-7818D01*
X3250Y-7901D01*
X3208Y-8026D01*
Y-8110D01*
X4000Y-7443D02*
X4042Y-7485D01*
X4083Y-7443D01*
X4042Y-7401D01*
X4000Y-7443D01*
X3208Y-7026D02*
Y-6568D01*
X3542Y-6818D01*
Y-6693D01*
X3583Y-6610D01*
X3625Y-6568D01*
X3750Y-6526D01*
X3833D01*
X3958Y-6568D01*
X4042Y-6651D01*
X4083Y-6776D01*
Y-6901D01*
X4042Y-7026D01*
X4000Y-7068D01*
X3917Y-7110D01*
X3208Y-5693D02*
X4083Y-6110D01*
X3208Y-6276D02*
Y-5693D01*
Y-4943D02*
Y-5360D01*
X3583Y-5401D01*
X3542Y-5360D01*
X3500Y-5235D01*
Y-5110D01*
X3542Y-4985D01*
X3625Y-4901D01*
X3750Y-4860D01*
X3833D01*
X3958Y-4901D01*
X4042Y-4985D01*
X4083Y-5110D01*
Y-5235D01*
X4042Y-5360D01*
X4000Y-5401D01*
X3917Y-5443D01*
G01X4458Y-8110D02*
X4500Y-8235D01*
X4625Y-8318D01*
X4833Y-8360D01*
X4958D01*
X5167Y-8318D01*
X5292Y-8235D01*
X5333Y-8110D01*
Y-8026D01*
X5292Y-7901D01*
X5167Y-7818D01*
X4958Y-7776D01*
X4833D01*
X4625Y-7818D01*
X4500Y-7901D01*
X4458Y-8026D01*
Y-8110D01*
X5250Y-7443D02*
X5292Y-7485D01*
X5333Y-7443D01*
X5292Y-7401D01*
X5250Y-7443D01*
X4458Y-6610D02*
Y-7026D01*
X4833Y-7068D01*
X4792Y-7026D01*
X4750Y-6901D01*
Y-6776D01*
X4792Y-6651D01*
X4875Y-6568D01*
X5000Y-6526D01*
X5083D01*
X5208Y-6568D01*
X5292Y-6651D01*
X5333Y-6776D01*
Y-6901D01*
X5292Y-7026D01*
X5250Y-7068D01*
X5167Y-7110D01*
X4458Y-6026D02*
X4500Y-6151D01*
X4625Y-6235D01*
X4833Y-6276D01*
X4958D01*
X5167Y-6235D01*
X5292Y-6151D01*
X5333Y-6026D01*
Y-5943D01*
X5292Y-5818D01*
X5167Y-5735D01*
X4958Y-5693D01*
X4833D01*
X4625Y-5735D01*
X4500Y-5818D01*
X4458Y-5943D01*
Y-6026D01*
Y-5193D02*
X4500Y-5318D01*
X4625Y-5401D01*
X4833Y-5443D01*
X4958D01*
X5167Y-5401D01*
X5292Y-5318D01*
X5333Y-5193D01*
Y-5110D01*
X5292Y-4985D01*
X5167Y-4901D01*
X4958Y-4860D01*
X4833D01*
X4625Y-4901D01*
X4500Y-4985D01*
X4458Y-5110D01*
Y-5193D01*
G01X31058Y-8276D02*
Y-7818D01*
X31392Y-8068D01*
Y-7943D01*
X31433Y-7860D01*
X31475Y-7818D01*
X31600Y-7776D01*
X31683D01*
X31808Y-7818D01*
X31892Y-7901D01*
X31933Y-8026D01*
Y-8151D01*
X31892Y-8276D01*
X31850Y-8318D01*
X31767Y-8360D01*
X31850Y-7443D02*
X31892Y-7485D01*
X31933Y-7443D01*
X31892Y-7401D01*
X31850Y-7443D01*
X31225Y-6985D02*
X31183Y-6901D01*
X31058Y-6776D01*
X31933D01*
X31183Y-5735D02*
X31100Y-5776D01*
X31058Y-5901D01*
Y-5985D01*
X31100Y-6110D01*
X31225Y-6193D01*
X31433Y-6235D01*
X31642D01*
X31808Y-6193D01*
X31892Y-6110D01*
X31933Y-5985D01*
Y-5943D01*
X31892Y-5818D01*
X31808Y-5735D01*
X31683Y-5693D01*
X31642D01*
X31517Y-5735D01*
X31433Y-5818D01*
X31392Y-5943D01*
Y-5985D01*
X31433Y-6110D01*
X31517Y-6193D01*
X31642Y-6235D01*
X31058Y-5193D02*
X31100Y-5318D01*
X31225Y-5401D01*
X31433Y-5443D01*
X31558D01*
X31767Y-5401D01*
X31892Y-5318D01*
X31933Y-5193D01*
Y-5110D01*
X31892Y-4985D01*
X31767Y-4901D01*
X31558Y-4860D01*
X31433D01*
X31225Y-4901D01*
X31100Y-4985D01*
X31058Y-5110D01*
Y-5193D01*
G01X57658Y-7860D02*
Y-8276D01*
X58033Y-8318D01*
X57992Y-8276D01*
X57950Y-8151D01*
Y-8026D01*
X57992Y-7901D01*
X58075Y-7818D01*
X58200Y-7776D01*
X58283D01*
X58408Y-7818D01*
X58492Y-7901D01*
X58533Y-8026D01*
Y-8151D01*
X58492Y-8276D01*
X58450Y-8318D01*
X58367Y-8360D01*
X58450Y-7443D02*
X58492Y-7485D01*
X58533Y-7443D01*
X58492Y-7401D01*
X58450Y-7443D01*
X57658Y-6901D02*
X57700Y-7026D01*
X57783Y-7068D01*
X57867D01*
X57950Y-7026D01*
X57992Y-6943D01*
X58033Y-6776D01*
X58075Y-6651D01*
X58158Y-6568D01*
X58242Y-6526D01*
X58367D01*
X58450Y-6568D01*
X58492Y-6610D01*
X58533Y-6735D01*
Y-6901D01*
X58492Y-7026D01*
X58450Y-7068D01*
X58367Y-7110D01*
X58242D01*
X58158Y-7068D01*
X58075Y-6985D01*
X58033Y-6860D01*
X57992Y-6693D01*
X57950Y-6610D01*
X57867Y-6568D01*
X57783D01*
X57700Y-6610D01*
X57658Y-6735D01*
Y-6901D01*
X57867Y-6235D02*
X57825D01*
X57742Y-6193D01*
X57700Y-6151D01*
X57658Y-6068D01*
Y-5901D01*
X57700Y-5818D01*
X57742Y-5776D01*
X57825Y-5735D01*
X57908D01*
X57992Y-5776D01*
X58117Y-5860D01*
X58533Y-6276D01*
Y-5693D01*
X57658Y-5193D02*
X57700Y-5318D01*
X57825Y-5401D01*
X58033Y-5443D01*
X58158D01*
X58367Y-5401D01*
X58492Y-5318D01*
X58533Y-5193D01*
Y-5110D01*
X58492Y-4985D01*
X58367Y-4901D01*
X58158Y-4860D01*
X58033D01*
X57825Y-4901D01*
X57700Y-4985D01*
X57658Y-5110D01*
Y-5193D01*
G01X60283Y-7818D02*
X60200Y-7860D01*
X60158Y-7985D01*
Y-8068D01*
X60200Y-8193D01*
X60325Y-8276D01*
X60533Y-8318D01*
X60742D01*
X60908Y-8276D01*
X60992Y-8193D01*
X61033Y-8068D01*
Y-8026D01*
X60992Y-7901D01*
X60908Y-7818D01*
X60783Y-7776D01*
X60742D01*
X60617Y-7818D01*
X60533Y-7901D01*
X60492Y-8026D01*
Y-8068D01*
X60533Y-8193D01*
X60617Y-8276D01*
X60742Y-8318D01*
X60950Y-7443D02*
X60992Y-7485D01*
X61033Y-7443D01*
X60992Y-7401D01*
X60950Y-7443D01*
X60158Y-6860D02*
X60200Y-6985D01*
X60325Y-7068D01*
X60533Y-7110D01*
X60658D01*
X60867Y-7068D01*
X60992Y-6985D01*
X61033Y-6860D01*
Y-6776D01*
X60992Y-6651D01*
X60867Y-6568D01*
X60658Y-6526D01*
X60533D01*
X60325Y-6568D01*
X60200Y-6651D01*
X60158Y-6776D01*
Y-6860D01*
Y-5693D02*
X61033Y-6110D01*
X60158Y-6276D02*
Y-5693D01*
Y-5193D02*
X60200Y-5318D01*
X60325Y-5401D01*
X60533Y-5443D01*
X60658D01*
X60867Y-5401D01*
X60992Y-5318D01*
X61033Y-5193D01*
Y-5110D01*
X60992Y-4985D01*
X60867Y-4901D01*
X60658Y-4860D01*
X60533D01*
X60325Y-4901D01*
X60200Y-4985D01*
X60158Y-5110D01*
Y-5193D01*
G01X62783Y-7818D02*
X62700Y-7860D01*
X62658Y-7985D01*
Y-8068D01*
X62700Y-8193D01*
X62825Y-8276D01*
X63033Y-8318D01*
X63242D01*
X63408Y-8276D01*
X63492Y-8193D01*
X63533Y-8068D01*
Y-8026D01*
X63492Y-7901D01*
X63408Y-7818D01*
X63283Y-7776D01*
X63242D01*
X63117Y-7818D01*
X63033Y-7901D01*
X62992Y-8026D01*
Y-8068D01*
X63033Y-8193D01*
X63117Y-8276D01*
X63242Y-8318D01*
X63450Y-7443D02*
X63492Y-7485D01*
X63533Y-7443D01*
X63492Y-7401D01*
X63450Y-7443D01*
X62658Y-7026D02*
Y-6568D01*
X62992Y-6818D01*
Y-6693D01*
X63033Y-6610D01*
X63075Y-6568D01*
X63200Y-6526D01*
X63283D01*
X63408Y-6568D01*
X63492Y-6651D01*
X63533Y-6776D01*
Y-6901D01*
X63492Y-7026D01*
X63450Y-7068D01*
X63367Y-7110D01*
X62867Y-6235D02*
X62825D01*
X62742Y-6193D01*
X62700Y-6151D01*
X62658Y-6068D01*
Y-5901D01*
X62700Y-5818D01*
X62742Y-5776D01*
X62825Y-5735D01*
X62908D01*
X62992Y-5776D01*
X63117Y-5860D01*
X63533Y-6276D01*
Y-5693D01*
X62658Y-5193D02*
X62700Y-5318D01*
X62825Y-5401D01*
X63033Y-5443D01*
X63158D01*
X63367Y-5401D01*
X63492Y-5318D01*
X63533Y-5193D01*
Y-5110D01*
X63492Y-4985D01*
X63367Y-4901D01*
X63158Y-4860D01*
X63033D01*
X62825Y-4901D01*
X62700Y-4985D01*
X62658Y-5110D01*
Y-5193D01*
G01X-6450Y542D02*
X-6575Y500D01*
X-6659Y375D01*
X-6700Y167D01*
Y42D01*
X-6659Y-167D01*
X-6575Y-292D01*
X-6450Y-333D01*
X-6367D01*
X-6242Y-292D01*
X-6159Y-167D01*
X-6117Y42D01*
Y167D01*
X-6159Y375D01*
X-6242Y500D01*
X-6367Y542D01*
X-6450D01*
X-5784Y-250D02*
X-5825Y-292D01*
X-5784Y-333D01*
X-5742Y-292D01*
X-5784Y-250D01*
X-5200Y542D02*
X-5325Y500D01*
X-5409Y375D01*
X-5450Y167D01*
Y42D01*
X-5409Y-167D01*
X-5325Y-292D01*
X-5200Y-333D01*
X-5117D01*
X-4992Y-292D01*
X-4909Y-167D01*
X-4867Y42D01*
Y167D01*
X-4909Y375D01*
X-4992Y500D01*
X-5117Y542D01*
X-5200D01*
G01X-8117Y3042D02*
X-8242Y3000D01*
X-8325Y2875D01*
X-8367Y2667D01*
Y2542D01*
X-8325Y2333D01*
X-8242Y2208D01*
X-8117Y2167D01*
X-8034D01*
X-7909Y2208D01*
X-7825Y2333D01*
X-7784Y2542D01*
Y2667D01*
X-7825Y2875D01*
X-7909Y3000D01*
X-8034Y3042D01*
X-8117D01*
X-7450Y2250D02*
X-7492Y2208D01*
X-7450Y2167D01*
X-7409Y2208D01*
X-7450Y2250D01*
X-7075Y2833D02*
Y2875D01*
X-7034Y2958D01*
X-6992Y3000D01*
X-6909Y3042D01*
X-6742D01*
X-6659Y3000D01*
X-6617Y2958D01*
X-6575Y2875D01*
Y2792D01*
X-6617Y2708D01*
X-6700Y2583D01*
X-7117Y2167D01*
X-6534D01*
X-5784Y3042D02*
X-6200D01*
X-6242Y2667D01*
X-6200Y2708D01*
X-6075Y2750D01*
X-5950D01*
X-5825Y2708D01*
X-5742Y2625D01*
X-5700Y2500D01*
Y2417D01*
X-5742Y2292D01*
X-5825Y2208D01*
X-5950Y2167D01*
X-6075D01*
X-6200Y2208D01*
X-6242Y2250D01*
X-6284Y2333D01*
X-5200Y3042D02*
X-5325Y3000D01*
X-5409Y2875D01*
X-5450Y2667D01*
Y2542D01*
X-5409Y2333D01*
X-5325Y2208D01*
X-5200Y2167D01*
X-5117D01*
X-4992Y2208D01*
X-4909Y2333D01*
X-4867Y2542D01*
Y2667D01*
X-4909Y2875D01*
X-4992Y3000D01*
X-5117Y3042D01*
X-5200D01*
G01X-8117Y6792D02*
X-8242Y6750D01*
X-8325Y6625D01*
X-8367Y6417D01*
Y6292D01*
X-8325Y6083D01*
X-8242Y5958D01*
X-8117Y5917D01*
X-8034D01*
X-7909Y5958D01*
X-7825Y6083D01*
X-7784Y6292D01*
Y6417D01*
X-7825Y6625D01*
X-7909Y6750D01*
X-8034Y6792D01*
X-8117D01*
X-7450Y6000D02*
X-7492Y5958D01*
X-7450Y5917D01*
X-7409Y5958D01*
X-7450Y6000D01*
X-6575Y6667D02*
X-6617Y6750D01*
X-6742Y6792D01*
X-6825D01*
X-6950Y6750D01*
X-7034Y6625D01*
X-7075Y6417D01*
Y6208D01*
X-7034Y6042D01*
X-6950Y5958D01*
X-6825Y5917D01*
X-6784D01*
X-6659Y5958D01*
X-6575Y6042D01*
X-6534Y6167D01*
Y6208D01*
X-6575Y6333D01*
X-6659Y6417D01*
X-6784Y6458D01*
X-6825D01*
X-6950Y6417D01*
X-7034Y6333D01*
X-7075Y6208D01*
X-6242Y6583D02*
Y6625D01*
X-6200Y6708D01*
X-6159Y6750D01*
X-6075Y6792D01*
X-5909D01*
X-5825Y6750D01*
X-5784Y6708D01*
X-5742Y6625D01*
Y6542D01*
X-5784Y6458D01*
X-5867Y6333D01*
X-6284Y5917D01*
X-5700D01*
X-4950Y6792D02*
X-5367D01*
X-5409Y6417D01*
X-5367Y6458D01*
X-5242Y6500D01*
X-5117D01*
X-4992Y6458D01*
X-4909Y6375D01*
X-4867Y6250D01*
Y6167D01*
X-4909Y6042D01*
X-4992Y5958D01*
X-5117Y5917D01*
X-5242D01*
X-5367Y5958D01*
X-5409Y6000D01*
X-5450Y6083D01*
G01X-8117Y5542D02*
X-8242Y5500D01*
X-8325Y5375D01*
X-8367Y5167D01*
Y5042D01*
X-8325Y4833D01*
X-8242Y4708D01*
X-8117Y4667D01*
X-8034D01*
X-7909Y4708D01*
X-7825Y4833D01*
X-7784Y5042D01*
Y5167D01*
X-7825Y5375D01*
X-7909Y5500D01*
X-8034Y5542D01*
X-8117D01*
X-7450Y4750D02*
X-7492Y4708D01*
X-7450Y4667D01*
X-7409Y4708D01*
X-7450Y4750D01*
X-6617Y5542D02*
X-7034D01*
X-7075Y5167D01*
X-7034Y5208D01*
X-6909Y5250D01*
X-6784D01*
X-6659Y5208D01*
X-6575Y5125D01*
X-6534Y5000D01*
Y4917D01*
X-6575Y4792D01*
X-6659Y4708D01*
X-6784Y4667D01*
X-6909D01*
X-7034Y4708D01*
X-7075Y4750D01*
X-7117Y4833D01*
X-6034Y5542D02*
X-6159Y5500D01*
X-6242Y5375D01*
X-6284Y5167D01*
Y5042D01*
X-6242Y4833D01*
X-6159Y4708D01*
X-6034Y4667D01*
X-5950D01*
X-5825Y4708D01*
X-5742Y4833D01*
X-5700Y5042D01*
Y5167D01*
X-5742Y5375D01*
X-5825Y5500D01*
X-5950Y5542D01*
X-6034D01*
X-5200D02*
X-5325Y5500D01*
X-5409Y5375D01*
X-5450Y5167D01*
Y5042D01*
X-5409Y4833D01*
X-5325Y4708D01*
X-5200Y4667D01*
X-5117D01*
X-4992Y4708D01*
X-4909Y4833D01*
X-4867Y5042D01*
Y5167D01*
X-4909Y5375D01*
X-4992Y5500D01*
X-5117Y5542D01*
X-5200D01*
G01X-8284Y30542D02*
X-7825D01*
X-8075Y30208D01*
X-7950D01*
X-7867Y30167D01*
X-7825Y30125D01*
X-7784Y30000D01*
Y29917D01*
X-7825Y29792D01*
X-7909Y29708D01*
X-8034Y29667D01*
X-8159D01*
X-8284Y29708D01*
X-8325Y29750D01*
X-8367Y29833D01*
X-7450Y29750D02*
X-7492Y29708D01*
X-7450Y29667D01*
X-7409Y29708D01*
X-7450Y29750D01*
X-6867Y30542D02*
X-6992Y30500D01*
X-7075Y30375D01*
X-7117Y30167D01*
Y30042D01*
X-7075Y29833D01*
X-6992Y29708D01*
X-6867Y29667D01*
X-6784D01*
X-6659Y29708D01*
X-6575Y29833D01*
X-6534Y30042D01*
Y30167D01*
X-6575Y30375D01*
X-6659Y30500D01*
X-6784Y30542D01*
X-6867D01*
X-6034D02*
X-6159Y30500D01*
X-6242Y30375D01*
X-6284Y30167D01*
Y30042D01*
X-6242Y29833D01*
X-6159Y29708D01*
X-6034Y29667D01*
X-5950D01*
X-5825Y29708D01*
X-5742Y29833D01*
X-5700Y30042D01*
Y30167D01*
X-5742Y30375D01*
X-5825Y30500D01*
X-5950Y30542D01*
X-6034D01*
X-5200D02*
X-5325Y30500D01*
X-5409Y30375D01*
X-5450Y30167D01*
Y30042D01*
X-5409Y29833D01*
X-5325Y29708D01*
X-5200Y29667D01*
X-5117D01*
X-4992Y29708D01*
X-4909Y29833D01*
X-4867Y30042D01*
Y30167D01*
X-4909Y30375D01*
X-4992Y30500D01*
X-5117Y30542D01*
X-5200D01*
G01X-7867Y55542D02*
X-8284D01*
X-8325Y55167D01*
X-8284Y55208D01*
X-8159Y55250D01*
X-8034D01*
X-7909Y55208D01*
X-7825Y55125D01*
X-7784Y55000D01*
Y54917D01*
X-7825Y54792D01*
X-7909Y54708D01*
X-8034Y54667D01*
X-8159D01*
X-8284Y54708D01*
X-8325Y54750D01*
X-8367Y54833D01*
X-7450Y54750D02*
X-7492Y54708D01*
X-7450Y54667D01*
X-7409Y54708D01*
X-7450Y54750D01*
X-6617Y55542D02*
X-7034D01*
X-7075Y55167D01*
X-7034Y55208D01*
X-6909Y55250D01*
X-6784D01*
X-6659Y55208D01*
X-6575Y55125D01*
X-6534Y55000D01*
Y54917D01*
X-6575Y54792D01*
X-6659Y54708D01*
X-6784Y54667D01*
X-6909D01*
X-7034Y54708D01*
X-7075Y54750D01*
X-7117Y54833D01*
X-6034Y55542D02*
X-6159Y55500D01*
X-6242Y55375D01*
X-6284Y55167D01*
Y55042D01*
X-6242Y54833D01*
X-6159Y54708D01*
X-6034Y54667D01*
X-5950D01*
X-5825Y54708D01*
X-5742Y54833D01*
X-5700Y55042D01*
Y55167D01*
X-5742Y55375D01*
X-5825Y55500D01*
X-5950Y55542D01*
X-6034D01*
X-5200D02*
X-5325Y55500D01*
X-5409Y55375D01*
X-5450Y55167D01*
Y55042D01*
X-5409Y54833D01*
X-5325Y54708D01*
X-5200Y54667D01*
X-5117D01*
X-4992Y54708D01*
X-4909Y54833D01*
X-4867Y55042D01*
Y55167D01*
X-4909Y55375D01*
X-4992Y55500D01*
X-5117Y55542D01*
X-5200D01*
G01X-7784Y79292D02*
X-8200Y78417D01*
X-8367Y79292D02*
X-7784D01*
X-7450Y78500D02*
X-7492Y78458D01*
X-7450Y78417D01*
X-7409Y78458D01*
X-7450Y78500D01*
X-6909Y79292D02*
X-7034Y79250D01*
X-7075Y79167D01*
Y79083D01*
X-7034Y79000D01*
X-6950Y78958D01*
X-6784Y78917D01*
X-6659Y78875D01*
X-6575Y78792D01*
X-6534Y78708D01*
Y78583D01*
X-6575Y78500D01*
X-6617Y78458D01*
X-6742Y78417D01*
X-6909D01*
X-7034Y78458D01*
X-7075Y78500D01*
X-7117Y78583D01*
Y78708D01*
X-7075Y78792D01*
X-6992Y78875D01*
X-6867Y78917D01*
X-6700Y78958D01*
X-6617Y79000D01*
X-6575Y79083D01*
Y79167D01*
X-6617Y79250D01*
X-6742Y79292D01*
X-6909D01*
X-5700D02*
X-6117Y78417D01*
X-6284Y79292D02*
X-5700D01*
X-4950D02*
X-5367D01*
X-5409Y78917D01*
X-5367Y78958D01*
X-5242Y79000D01*
X-5117D01*
X-4992Y78958D01*
X-4909Y78875D01*
X-4867Y78750D01*
Y78667D01*
X-4909Y78542D01*
X-4992Y78458D01*
X-5117Y78417D01*
X-5242D01*
X-5367Y78458D01*
X-5409Y78500D01*
X-5450Y78583D01*
G01X-8159Y80542D02*
X-8284Y80500D01*
X-8325Y80417D01*
Y80333D01*
X-8284Y80250D01*
X-8200Y80208D01*
X-8034Y80167D01*
X-7909Y80125D01*
X-7825Y80042D01*
X-7784Y79958D01*
Y79833D01*
X-7825Y79750D01*
X-7867Y79708D01*
X-7992Y79667D01*
X-8159D01*
X-8284Y79708D01*
X-8325Y79750D01*
X-8367Y79833D01*
Y79958D01*
X-8325Y80042D01*
X-8242Y80125D01*
X-8117Y80167D01*
X-7950Y80208D01*
X-7867Y80250D01*
X-7825Y80333D01*
Y80417D01*
X-7867Y80500D01*
X-7992Y80542D01*
X-8159D01*
X-7450Y79750D02*
X-7492Y79708D01*
X-7450Y79667D01*
X-7409Y79708D01*
X-7450Y79750D01*
X-6867Y80542D02*
X-6992Y80500D01*
X-7075Y80375D01*
X-7117Y80167D01*
Y80042D01*
X-7075Y79833D01*
X-6992Y79708D01*
X-6867Y79667D01*
X-6784D01*
X-6659Y79708D01*
X-6575Y79833D01*
X-6534Y80042D01*
Y80167D01*
X-6575Y80375D01*
X-6659Y80500D01*
X-6784Y80542D01*
X-6867D01*
X-6034D02*
X-6159Y80500D01*
X-6242Y80375D01*
X-6284Y80167D01*
Y80042D01*
X-6242Y79833D01*
X-6159Y79708D01*
X-6034Y79667D01*
X-5950D01*
X-5825Y79708D01*
X-5742Y79833D01*
X-5700Y80042D01*
Y80167D01*
X-5742Y80375D01*
X-5825Y80500D01*
X-5950Y80542D01*
X-6034D01*
X-5200D02*
X-5325Y80500D01*
X-5409Y80375D01*
X-5450Y80167D01*
Y80042D01*
X-5409Y79833D01*
X-5325Y79708D01*
X-5200Y79667D01*
X-5117D01*
X-4992Y79708D01*
X-4909Y79833D01*
X-4867Y80042D01*
Y80167D01*
X-4909Y80375D01*
X-4992Y80500D01*
X-5117Y80542D01*
X-5200D01*
G01X-8159Y83042D02*
X-8284Y83000D01*
X-8325Y82917D01*
Y82833D01*
X-8284Y82750D01*
X-8200Y82708D01*
X-8034Y82667D01*
X-7909Y82625D01*
X-7825Y82542D01*
X-7784Y82458D01*
Y82333D01*
X-7825Y82250D01*
X-7867Y82208D01*
X-7992Y82167D01*
X-8159D01*
X-8284Y82208D01*
X-8325Y82250D01*
X-8367Y82333D01*
Y82458D01*
X-8325Y82542D01*
X-8242Y82625D01*
X-8117Y82667D01*
X-7950Y82708D01*
X-7867Y82750D01*
X-7825Y82833D01*
Y82917D01*
X-7867Y83000D01*
X-7992Y83042D01*
X-8159D01*
X-7450Y82250D02*
X-7492Y82208D01*
X-7450Y82167D01*
X-7409Y82208D01*
X-7450Y82250D01*
X-7075Y82833D02*
Y82875D01*
X-7034Y82958D01*
X-6992Y83000D01*
X-6909Y83042D01*
X-6742D01*
X-6659Y83000D01*
X-6617Y82958D01*
X-6575Y82875D01*
Y82792D01*
X-6617Y82708D01*
X-6700Y82583D01*
X-7117Y82167D01*
X-6534D01*
X-5784Y83042D02*
X-6200D01*
X-6242Y82667D01*
X-6200Y82708D01*
X-6075Y82750D01*
X-5950D01*
X-5825Y82708D01*
X-5742Y82625D01*
X-5700Y82500D01*
Y82417D01*
X-5742Y82292D01*
X-5825Y82208D01*
X-5950Y82167D01*
X-6075D01*
X-6200Y82208D01*
X-6242Y82250D01*
X-6284Y82333D01*
X-5200Y83042D02*
X-5325Y83000D01*
X-5409Y82875D01*
X-5450Y82667D01*
Y82542D01*
X-5409Y82333D01*
X-5325Y82208D01*
X-5200Y82167D01*
X-5117D01*
X-4992Y82208D01*
X-4909Y82333D01*
X-4867Y82542D01*
Y82667D01*
X-4909Y82875D01*
X-4992Y83000D01*
X-5117Y83042D01*
X-5200D01*
G01X-8159Y85542D02*
X-8284Y85500D01*
X-8325Y85417D01*
Y85333D01*
X-8284Y85250D01*
X-8200Y85208D01*
X-8034Y85167D01*
X-7909Y85125D01*
X-7825Y85042D01*
X-7784Y84958D01*
Y84833D01*
X-7825Y84750D01*
X-7867Y84708D01*
X-7992Y84667D01*
X-8159D01*
X-8284Y84708D01*
X-8325Y84750D01*
X-8367Y84833D01*
Y84958D01*
X-8325Y85042D01*
X-8242Y85125D01*
X-8117Y85167D01*
X-7950Y85208D01*
X-7867Y85250D01*
X-7825Y85333D01*
Y85417D01*
X-7867Y85500D01*
X-7992Y85542D01*
X-8159D01*
X-7450Y84750D02*
X-7492Y84708D01*
X-7450Y84667D01*
X-7409Y84708D01*
X-7450Y84750D01*
X-6617Y85542D02*
X-7034D01*
X-7075Y85167D01*
X-7034Y85208D01*
X-6909Y85250D01*
X-6784D01*
X-6659Y85208D01*
X-6575Y85125D01*
X-6534Y85000D01*
Y84917D01*
X-6575Y84792D01*
X-6659Y84708D01*
X-6784Y84667D01*
X-6909D01*
X-7034Y84708D01*
X-7075Y84750D01*
X-7117Y84833D01*
X-6034Y85542D02*
X-6159Y85500D01*
X-6242Y85375D01*
X-6284Y85167D01*
Y85042D01*
X-6242Y84833D01*
X-6159Y84708D01*
X-6034Y84667D01*
X-5950D01*
X-5825Y84708D01*
X-5742Y84833D01*
X-5700Y85042D01*
Y85167D01*
X-5742Y85375D01*
X-5825Y85500D01*
X-5950Y85542D01*
X-6034D01*
X-5200D02*
X-5325Y85500D01*
X-5409Y85375D01*
X-5450Y85167D01*
Y85042D01*
X-5409Y84833D01*
X-5325Y84708D01*
X-5200Y84667D01*
X-5117D01*
X-4992Y84708D01*
X-4909Y84833D01*
X-4867Y85042D01*
Y85167D01*
X-4909Y85375D01*
X-4992Y85500D01*
X-5117Y85542D01*
X-5200D01*
G54D204*
G01X-4075Y40815D02*
X-4117D01*
X-4200Y40857D01*
X-4242Y40899D01*
X-4284Y40982D01*
Y41149D01*
X-4242Y41232D01*
X-4200Y41274D01*
X-4117Y41315D01*
X-4034D01*
X-3950Y41274D01*
X-3825Y41190D01*
X-3409Y40774D01*
Y41357D01*
X-3492Y41690D02*
X-3450Y41649D01*
X-3409Y41690D01*
X-3450Y41732D01*
X-3492Y41690D01*
X-4284Y42524D02*
Y42107D01*
X-3909Y42065D01*
X-3950Y42107D01*
X-3992Y42232D01*
Y42357D01*
X-3950Y42482D01*
X-3867Y42565D01*
X-3742Y42607D01*
X-3659D01*
X-3534Y42565D01*
X-3450Y42482D01*
X-3409Y42357D01*
Y42232D01*
X-3450Y42107D01*
X-3492Y42065D01*
X-3575Y42024D01*
X-4284Y43107D02*
X-4242Y42982D01*
X-4117Y42899D01*
X-3909Y42857D01*
X-3784D01*
X-3575Y42899D01*
X-3450Y42982D01*
X-3409Y43107D01*
Y43190D01*
X-3450Y43315D01*
X-3575Y43399D01*
X-3784Y43440D01*
X-3909D01*
X-4117Y43399D01*
X-4242Y43315D01*
X-4284Y43190D01*
Y43107D01*
Y43940D02*
X-4242Y43815D01*
X-4117Y43732D01*
X-3909Y43690D01*
X-3784D01*
X-3575Y43732D01*
X-3450Y43815D01*
X-3409Y43940D01*
Y44024D01*
X-3450Y44149D01*
X-3575Y44232D01*
X-3784Y44274D01*
X-3909D01*
X-4117Y44232D01*
X-4242Y44149D01*
X-4284Y44024D01*
Y43940D01*
X-3519Y55000D02*
G01X-4042D01*
X-3964Y30000D02*
G01X-4042D01*
X-3042Y55000D02*
G01X-2042Y54000D01*
X-3042Y55000*
X-4042Y54000*
X-3042Y55000*
Y30000*
X-2042Y31000*
X-3042Y30000*
X-4042Y31000*
X-3042Y30000*
G54D205*
G01X44228Y-1487D02*
Y-1445D01*
X44270Y-1362D01*
X44312Y-1320D01*
X44395Y-1278D01*
X44562D01*
X44645Y-1320D01*
X44687Y-1362D01*
X44728Y-1445D01*
Y-1528D01*
X44687Y-1612D01*
X44603Y-1737D01*
X44187Y-2153D01*
X44770D01*
X45103Y-2070D02*
X45062Y-2112D01*
X45103Y-2153D01*
X45145Y-2112D01*
X45103Y-2070D01*
X45978Y-1403D02*
X45937Y-1320D01*
X45812Y-1278D01*
X45728D01*
X45603Y-1320D01*
X45520Y-1445D01*
X45478Y-1653D01*
Y-1862D01*
X45520Y-2028D01*
X45603Y-2112D01*
X45728Y-2153D01*
X45770D01*
X45895Y-2112D01*
X45978Y-2028D01*
X46020Y-1903D01*
Y-1862D01*
X45978Y-1737D01*
X45895Y-1653D01*
X45770Y-1612D01*
X45728D01*
X45603Y-1653D01*
X45520Y-1737D01*
X45478Y-1862D01*
X46812Y-1403D02*
X46770Y-1320D01*
X46645Y-1278D01*
X46562D01*
X46437Y-1320D01*
X46353Y-1445D01*
X46312Y-1653D01*
Y-1862D01*
X46353Y-2028D01*
X46437Y-2112D01*
X46562Y-2153D01*
X46603D01*
X46728Y-2112D01*
X46812Y-2028D01*
X46853Y-1903D01*
Y-1862D01*
X46812Y-1737D01*
X46728Y-1653D01*
X46603Y-1612D01*
X46562D01*
X46437Y-1653D01*
X46353Y-1737D01*
X46312Y-1862D01*
X47353Y-1278D02*
X47228Y-1320D01*
X47145Y-1445D01*
X47103Y-1653D01*
Y-1778D01*
X47145Y-1987D01*
X47228Y-2112D01*
X47353Y-2153D01*
X47437D01*
X47562Y-2112D01*
X47645Y-1987D01*
X47687Y-1778D01*
Y-1653D01*
X47645Y-1445D01*
X47562Y-1320D01*
X47437Y-1278D01*
X47353D01*
X31600Y-1153D02*
G01Y-1520D01*
X58200Y-1376D02*
G01Y-1520D01*
X31600Y-2520D02*
G01X32600Y-1520D01*
X31600Y-2520*
X32600Y-3520*
X31600Y-2520*
X58200*
X57200Y-1520*
X58200Y-2520*
X57200Y-3520*
X58200Y-2520*
G54D999*
X0Y-1691D02*
G01Y-4735D01*
X2500Y-1691D02*
G01Y-4735D01*
X3750Y-1691D02*
G01Y-4735D01*
X5000Y-1691D02*
G01Y-4735D01*
X-1741Y0D02*
G01X-4742D01*
X-1741Y2500D02*
G01X-4742D01*
X-1741Y6250D02*
G01X-4742D01*
X-1741Y5000D02*
G01X-4742D01*
X-1741Y30000D02*
G01X-4742D01*
X-1741Y55000D02*
G01X-4742D01*
X-1741Y78750D02*
G01X-4742D01*
X-1741Y80000D02*
G01X-4742D01*
X-1741Y82500D02*
G01X-4742D01*
X-1741Y85000D02*
G01X-4742D01*
X31600Y-1691D02*
G01Y-4735D01*
X58200Y-1691D02*
G01Y-4735D01*
X60700Y-1691D02*
G01Y-4735D01*
X63200Y-1691D02*
G01Y-4735D01*
G54D1000*
G01X6398Y-906D02*
Y-1890D01*
Y-906D02*
X7007D01*
X6398Y-1374D02*
X6773D01*
X7476Y-906D02*
X7101Y-1890D01*
X7476Y-906D02*
X7851Y-1890D01*
X7241Y-1562D02*
X7710D01*
X8085Y-906D02*
Y-1890D01*
Y-906D02*
X8507D01*
X8647Y-952D01*
X8694Y-999D01*
X8741Y-1093D01*
Y-1187D01*
X8694Y-1281D01*
X8647Y-1327D01*
X8507Y-1374D01*
X8085D02*
X8507D01*
X8647Y-1421D01*
X8694Y-1468D01*
X8741Y-1562D01*
Y-1702D01*
X8694Y-1796D01*
X8647Y-1843D01*
X8507Y-1890D01*
X8085D01*
G54D1001*
G01X13329Y-1770D02*
X13259Y-2000D01*
X13329Y-1770D02*
X13399Y-2000D01*
X13285Y-1923D02*
X13373D01*
X13443Y-1847D02*
Y-2076D01*
Y-1880D02*
X13460Y-1858D01*
X13478Y-1847D01*
X13504D01*
X13521Y-1858D01*
X13539Y-1880D01*
X13548Y-1912D01*
Y-1934D01*
X13539Y-1967D01*
X13521Y-1989D01*
X13504Y-2000D01*
X13478D01*
X13460Y-1989D01*
X13443Y-1967D01*
X13609Y-1847D02*
Y-2000D01*
Y-1912D02*
X13617Y-1880D01*
X13635Y-1858D01*
X13652Y-1847D01*
X13679D01*
X13906Y-1770D02*
X13880Y-1781D01*
X13862Y-1814D01*
X13854Y-1869D01*
Y-1901D01*
X13862Y-1956D01*
X13880Y-1989D01*
X13906Y-2000D01*
X13924D01*
X13950Y-1989D01*
X13967Y-1956D01*
X13976Y-1901D01*
Y-1869D01*
X13967Y-1814D01*
X13950Y-1781D01*
X13924Y-1770D01*
X13906D01*
X14116D02*
X14029Y-1923D01*
X14160D01*
X14116Y-1770D02*
Y-2000D01*
X14352Y-1825D02*
Y-1814D01*
X14361Y-1792D01*
X14370Y-1781D01*
X14387Y-1770D01*
X14422D01*
X14440Y-1781D01*
X14449Y-1792D01*
X14457Y-1814D01*
Y-1836D01*
X14449Y-1858D01*
X14431Y-1891D01*
X14344Y-2000D01*
X14466D01*
X14571Y-1770D02*
X14545Y-1781D01*
X14527Y-1814D01*
X14519Y-1869D01*
Y-1901D01*
X14527Y-1956D01*
X14545Y-1989D01*
X14571Y-2000D01*
X14589D01*
X14615Y-1989D01*
X14632Y-1956D01*
X14641Y-1901D01*
Y-1869D01*
X14632Y-1814D01*
X14615Y-1781D01*
X14589Y-1770D01*
X14571D01*
X14720Y-1814D02*
X14737Y-1803D01*
X14764Y-1770D01*
Y-2000D01*
X14991Y-1770D02*
X14904Y-2000D01*
X14869Y-1770D02*
X14991D01*
G54D1000*
G01X16230Y-906D02*
X16605Y-1890D01*
X16980Y-906D02*
X16605Y-1890D01*
X17261Y-906D02*
X17777D01*
X17495Y-1281D01*
X17636D01*
X17730Y-1327D01*
X17777Y-1374D01*
X17823Y-1515D01*
Y-1609D01*
X17777Y-1749D01*
X17683Y-1843D01*
X17542Y-1890D01*
X17402D01*
X17261Y-1843D01*
X17214Y-1796D01*
X17167Y-1702D01*
X19558Y-1140D02*
X19511Y-1046D01*
X19417Y-952D01*
X19323Y-906D01*
X19136D01*
X19042Y-952D01*
X18948Y-1046D01*
X18902Y-1140D01*
X18855Y-1281D01*
Y-1515D01*
X18902Y-1656D01*
X18948Y-1749D01*
X19042Y-1843D01*
X19136Y-1890D01*
X19323D01*
X19417Y-1843D01*
X19511Y-1749D01*
X19558Y-1656D01*
X20120Y-906D02*
X20027Y-952D01*
X19933Y-1046D01*
X19886Y-1140D01*
X19839Y-1281D01*
Y-1515D01*
X19886Y-1656D01*
X19933Y-1749D01*
X20027Y-1843D01*
X20120Y-1890D01*
X20308D01*
X20402Y-1843D01*
X20495Y-1749D01*
X20542Y-1656D01*
X20589Y-1515D01*
Y-1281D01*
X20542Y-1140D01*
X20495Y-1046D01*
X20402Y-952D01*
X20308Y-906D01*
X20120D01*
X20917D02*
Y-1890D01*
Y-906D02*
X21573Y-1890D01*
Y-906D02*
Y-1890D01*
X22136Y-906D02*
Y-1890D01*
X21808Y-906D02*
X22464D01*
X22698D02*
Y-1890D01*
Y-906D02*
X23120D01*
X23261Y-952D01*
X23308Y-999D01*
X23355Y-1093D01*
Y-1187D01*
X23308Y-1281D01*
X23261Y-1327D01*
X23120Y-1374D01*
X22698D01*
X23027D02*
X23355Y-1890D01*
X23917Y-906D02*
X23823Y-952D01*
X23730Y-1046D01*
X23683Y-1140D01*
X23636Y-1281D01*
Y-1515D01*
X23683Y-1656D01*
X23730Y-1749D01*
X23823Y-1843D01*
X23917Y-1890D01*
X24105D01*
X24198Y-1843D01*
X24292Y-1749D01*
X24339Y-1656D01*
X24386Y-1515D01*
Y-1281D01*
X24339Y-1140D01*
X24292Y-1046D01*
X24198Y-952D01*
X24105Y-906D01*
X23917D01*
X24714D02*
Y-1890D01*
Y-1890D02*
X25277D01*
X25511Y-906D02*
Y-1890D01*
Y-1890D02*
X26073D01*
X26308Y-906D02*
Y-1890D01*
Y-906D02*
X26917D01*
X26308Y-1374D02*
X26683D01*
X26308Y-1890D02*
X26917D01*
X27198Y-906D02*
Y-1890D01*
Y-906D02*
X27620D01*
X27761Y-952D01*
X27808Y-999D01*
X27855Y-1093D01*
Y-1187D01*
X27808Y-1281D01*
X27761Y-1327D01*
X27620Y-1374D01*
X27198D01*
X27527D02*
X27855Y-1890D01*
G01X798Y87238D02*
X329Y86582D01*
X1032D01*
X798Y87238D02*
Y86254D01*
X2017Y87238D02*
X2673Y86254D01*
Y87238D02*
X2017Y86254D01*
X3985Y87238D02*
X3845Y87191D01*
X3751Y87051D01*
X3704Y86816D01*
Y86676D01*
X3751Y86441D01*
X3845Y86301D01*
X3985Y86254D01*
X4079D01*
X4220Y86301D01*
X4314Y86441D01*
X4360Y86676D01*
Y86816D01*
X4314Y87051D01*
X4220Y87191D01*
X4079Y87238D01*
X3985D01*
X4735Y86348D02*
X4689Y86301D01*
X4735Y86254D01*
X4782Y86301D01*
X4735Y86348D01*
X5251Y87051D02*
X5345Y87098D01*
X5485Y87238D01*
Y86254D01*
X6095Y87004D02*
Y87051D01*
X6142Y87145D01*
X6189Y87191D01*
X6282Y87238D01*
X6470D01*
X6564Y87191D01*
X6610Y87145D01*
X6657Y87051D01*
Y86957D01*
X6610Y86863D01*
X6517Y86723D01*
X6048Y86254D01*
X6704D01*
X7548Y87238D02*
X7079D01*
X7032Y86816D01*
X7079Y86863D01*
X7220Y86910D01*
X7360D01*
X7501Y86863D01*
X7595Y86770D01*
X7642Y86629D01*
Y86535D01*
X7595Y86395D01*
X7501Y86301D01*
X7360Y86254D01*
X7220D01*
X7079Y86301D01*
X7032Y86348D01*
X6985Y86441D01*
X7970Y87238D02*
Y86910D01*
X8345Y87238D02*
Y86910D01*
X9657Y87238D02*
Y86254D01*
X9329Y87238D02*
X9985D01*
X10454D02*
X10360Y87191D01*
X10267Y87098D01*
X10220Y87004D01*
X10173Y86863D01*
Y86629D01*
X10220Y86488D01*
X10267Y86395D01*
X10360Y86301D01*
X10454Y86254D01*
X10642D01*
X10735Y86301D01*
X10829Y86395D01*
X10876Y86488D01*
X10923Y86629D01*
Y86863D01*
X10876Y87004D01*
X10829Y87098D01*
X10735Y87191D01*
X10642Y87238D01*
X10454D01*
X11485D02*
X11392Y87191D01*
X11298Y87098D01*
X11251Y87004D01*
X11204Y86863D01*
Y86629D01*
X11251Y86488D01*
X11298Y86395D01*
X11392Y86301D01*
X11485Y86254D01*
X11673D01*
X11767Y86301D01*
X11860Y86395D01*
X11907Y86488D01*
X11954Y86629D01*
Y86863D01*
X11907Y87004D01*
X11860Y87098D01*
X11767Y87191D01*
X11673Y87238D01*
X11485D01*
X12282D02*
Y86254D01*
Y86254D02*
X12845D01*
X13079Y87238D02*
Y86254D01*
X13454Y87238D02*
Y86254D01*
Y87238D02*
X14110Y86254D01*
Y87238D02*
Y86254D01*
X15142Y87004D02*
X15095Y87098D01*
X15001Y87191D01*
X14907Y87238D01*
X14720D01*
X14626Y87191D01*
X14532Y87098D01*
X14485Y87004D01*
X14439Y86863D01*
Y86629D01*
X14485Y86488D01*
X14532Y86395D01*
X14626Y86301D01*
X14720Y86254D01*
X14907D01*
X15001Y86301D01*
X15095Y86395D01*
X15142Y86488D01*
Y86629D01*
X14907D02*
X15142D01*
X16220Y87238D02*
Y86254D01*
X16876Y87238D02*
Y86254D01*
X16220Y86770D02*
X16876D01*
X17485Y87238D02*
X17392Y87191D01*
X17298Y87098D01*
X17251Y87004D01*
X17204Y86863D01*
Y86629D01*
X17251Y86488D01*
X17298Y86395D01*
X17392Y86301D01*
X17485Y86254D01*
X17673D01*
X17767Y86301D01*
X17860Y86395D01*
X17907Y86488D01*
X17954Y86629D01*
Y86863D01*
X17907Y87004D01*
X17860Y87098D01*
X17767Y87191D01*
X17673Y87238D01*
X17485D01*
X18282D02*
Y86254D01*
Y86254D02*
X18845D01*
X19079Y87238D02*
Y86254D01*
Y87238D02*
X19689D01*
X19079Y86770D02*
X19454D01*
X19079Y86254D02*
X19689D01*
X20579Y87098D02*
X20485Y87191D01*
X20345Y87238D01*
X20157D01*
X20017Y87191D01*
X19923Y87098D01*
Y87004D01*
X19970Y86910D01*
X20017Y86863D01*
X20110Y86816D01*
X20392Y86723D01*
X20485Y86676D01*
X20532Y86629D01*
X20579Y86535D01*
Y86395D01*
X20485Y86301D01*
X20345Y86254D01*
X20157D01*
X20017Y86301D01*
X19923Y86395D01*
X22548Y86816D02*
Y86863D01*
X22501Y86910D01*
X22454D01*
X22407Y86863D01*
X22360Y86770D01*
X22267Y86535D01*
X22173Y86395D01*
X22079Y86301D01*
X21985Y86254D01*
X21798D01*
X21704Y86301D01*
X21657Y86348D01*
X21610Y86441D01*
Y86535D01*
X21657Y86629D01*
X21704Y86676D01*
X22032Y86863D01*
X22079Y86910D01*
X22126Y87004D01*
Y87098D01*
X22079Y87191D01*
X21985Y87238D01*
X21892Y87191D01*
X21845Y87098D01*
Y87004D01*
X21892Y86863D01*
X21985Y86723D01*
X22220Y86395D01*
X22314Y86301D01*
X22407Y86254D01*
X22501D01*
X22548Y86301D01*
Y86348D01*
X23673Y87238D02*
X24189D01*
X23907Y86863D01*
X24048D01*
X24142Y86816D01*
X24189Y86770D01*
X24235Y86629D01*
Y86535D01*
X24189Y86395D01*
X24095Y86301D01*
X23954Y86254D01*
X23814D01*
X23673Y86301D01*
X23626Y86348D01*
X23579Y86441D01*
X25267Y87238D02*
X25923Y86254D01*
Y87238D02*
X25267Y86254D01*
X27235Y87238D02*
X27095Y87191D01*
X27001Y87051D01*
X26954Y86816D01*
Y86676D01*
X27001Y86441D01*
X27095Y86301D01*
X27235Y86254D01*
X27329D01*
X27470Y86301D01*
X27564Y86441D01*
X27610Y86676D01*
Y86816D01*
X27564Y87051D01*
X27470Y87191D01*
X27329Y87238D01*
X27235D01*
X27985Y86348D02*
X27939Y86301D01*
X27985Y86254D01*
X28032Y86301D01*
X27985Y86348D01*
X28642Y87238D02*
X28501Y87191D01*
X28407Y87051D01*
X28360Y86816D01*
Y86676D01*
X28407Y86441D01*
X28501Y86301D01*
X28642Y86254D01*
X28735D01*
X28876Y86301D01*
X28970Y86441D01*
X29017Y86676D01*
Y86816D01*
X28970Y87051D01*
X28876Y87191D01*
X28735Y87238D01*
X28642D01*
X29907Y87098D02*
X29860Y87191D01*
X29720Y87238D01*
X29626D01*
X29485Y87191D01*
X29392Y87051D01*
X29345Y86816D01*
Y86582D01*
X29392Y86395D01*
X29485Y86301D01*
X29626Y86254D01*
X29673D01*
X29814Y86301D01*
X29907Y86395D01*
X29954Y86535D01*
Y86582D01*
X29907Y86723D01*
X29814Y86816D01*
X29673Y86863D01*
X29626D01*
X29485Y86816D01*
X29392Y86723D01*
X29345Y86582D01*
X30517Y87238D02*
X30376Y87191D01*
X30282Y87051D01*
X30235Y86816D01*
Y86676D01*
X30282Y86441D01*
X30376Y86301D01*
X30517Y86254D01*
X30610D01*
X30751Y86301D01*
X30845Y86441D01*
X30892Y86676D01*
Y86816D01*
X30845Y87051D01*
X30751Y87191D01*
X30610Y87238D01*
X30517D01*
X31220D02*
Y86910D01*
X31595Y87238D02*
Y86910D01*
X32720Y87238D02*
Y86254D01*
Y87238D02*
X33329D01*
X32720Y86770D02*
X33095D01*
X33564Y87238D02*
Y86254D01*
X33939Y87238D02*
Y86254D01*
Y87238D02*
X34267D01*
X34407Y87191D01*
X34501Y87098D01*
X34548Y87004D01*
X34595Y86863D01*
Y86629D01*
X34548Y86488D01*
X34501Y86395D01*
X34407Y86301D01*
X34267Y86254D01*
X33939D01*
X34923Y87238D02*
Y86535D01*
X34970Y86395D01*
X35064Y86301D01*
X35204Y86254D01*
X35298D01*
X35439Y86301D01*
X35532Y86395D01*
X35579Y86535D01*
Y87238D01*
X36610Y87004D02*
X36564Y87098D01*
X36470Y87191D01*
X36376Y87238D01*
X36189D01*
X36095Y87191D01*
X36001Y87098D01*
X35954Y87004D01*
X35907Y86863D01*
Y86629D01*
X35954Y86488D01*
X36001Y86395D01*
X36095Y86301D01*
X36189Y86254D01*
X36376D01*
X36470Y86301D01*
X36564Y86395D01*
X36610Y86488D01*
X36939Y87238D02*
Y86254D01*
X37548Y87238D02*
X37173Y86254D01*
X37548Y87238D02*
X37923Y86254D01*
X37314Y86582D02*
X37782D01*
X38157Y87238D02*
Y86254D01*
Y86254D02*
X38720D01*
X39564Y87098D02*
X39470Y87191D01*
X39329Y87238D01*
X39142D01*
X39001Y87191D01*
X38907Y87098D01*
Y87004D01*
X38954Y86910D01*
X39001Y86863D01*
X39095Y86816D01*
X39376Y86723D01*
X39470Y86676D01*
X39517Y86629D01*
X39564Y86535D01*
Y86395D01*
X39470Y86301D01*
X39329Y86254D01*
X39142D01*
X39001Y86301D01*
X38907Y86395D01*
X40642Y87238D02*
Y86254D01*
X41017Y87238D02*
Y86254D01*
Y87238D02*
X41673Y86254D01*
Y87238D02*
Y86254D01*
X42798Y87238D02*
Y86254D01*
Y87238D02*
X43220D01*
X43360Y87191D01*
X43407Y87145D01*
X43454Y87051D01*
Y86957D01*
X43407Y86863D01*
X43360Y86816D01*
X43220Y86770D01*
X42798D01*
X43126D02*
X43454Y86254D01*
X44017Y87238D02*
X43642Y86254D01*
X44017Y87238D02*
X44392Y86254D01*
X43782Y86582D02*
X44251D01*
X44626Y87238D02*
Y86254D01*
X45001Y87238D02*
Y86254D01*
Y86254D02*
X45564D01*
X45845Y86910D02*
X45798Y86863D01*
X45845Y86816D01*
X45892Y86863D01*
X45845Y86910D01*
Y86348D02*
X45798Y86301D01*
X45845Y86254D01*
X45892Y86301D01*
X45845Y86348D01*
X47626Y87098D02*
X47532Y87191D01*
X47392Y87238D01*
X47204D01*
X47064Y87191D01*
X46970Y87098D01*
Y87004D01*
X47017Y86910D01*
X47064Y86863D01*
X47157Y86816D01*
X47439Y86723D01*
X47532Y86676D01*
X47579Y86629D01*
X47626Y86535D01*
Y86395D01*
X47532Y86301D01*
X47392Y86254D01*
X47204D01*
X47064Y86301D01*
X46970Y86395D01*
X48610Y87004D02*
X48564Y87098D01*
X48470Y87191D01*
X48376Y87238D01*
X48189D01*
X48095Y87191D01*
X48001Y87098D01*
X47954Y87004D01*
X47907Y86863D01*
Y86629D01*
X47954Y86488D01*
X48001Y86395D01*
X48095Y86301D01*
X48189Y86254D01*
X48376D01*
X48470Y86301D01*
X48564Y86395D01*
X48610Y86488D01*
X49173Y87238D02*
X49079Y87191D01*
X48985Y87098D01*
X48939Y87004D01*
X48892Y86863D01*
Y86629D01*
X48939Y86488D01*
X48985Y86395D01*
X49079Y86301D01*
X49173Y86254D01*
X49360D01*
X49454Y86301D01*
X49548Y86395D01*
X49595Y86488D01*
X49642Y86629D01*
Y86863D01*
X49595Y87004D01*
X49548Y87098D01*
X49454Y87191D01*
X49360Y87238D01*
X49173D01*
X49970D02*
Y86254D01*
Y87238D02*
X50392D01*
X50532Y87191D01*
X50579Y87145D01*
X50626Y87051D01*
Y86957D01*
X50579Y86863D01*
X50532Y86816D01*
X50392Y86770D01*
X49970D01*
X50298D02*
X50626Y86254D01*
X50954Y87238D02*
Y86254D01*
Y87238D02*
X51564D01*
X50954Y86770D02*
X51329D01*
X50954Y86254D02*
X51564D01*
X51845Y87238D02*
Y86254D01*
Y87238D02*
X52173D01*
X52314Y87191D01*
X52407Y87098D01*
X52454Y87004D01*
X52501Y86863D01*
Y86629D01*
X52454Y86488D01*
X52407Y86395D01*
X52314Y86301D01*
X52173Y86254D01*
X51845D01*
X53814Y87238D02*
X53439Y86254D01*
X53814Y87238D02*
X54189Y86254D01*
X53579Y86582D02*
X54048D01*
X54423Y87238D02*
Y86254D01*
Y87238D02*
X54845D01*
X54985Y87191D01*
X55032Y87145D01*
X55079Y87051D01*
Y86957D01*
X55032Y86863D01*
X54985Y86816D01*
X54845Y86770D01*
X54423D01*
X54751D02*
X55079Y86254D01*
X55407Y87238D02*
Y86254D01*
Y87238D02*
X55829D01*
X55970Y87191D01*
X56017Y87145D01*
X56064Y87051D01*
Y86957D01*
X56017Y86863D01*
X55970Y86816D01*
X55829Y86770D01*
X55407D01*
X55735D02*
X56064Y86254D01*
X56626Y87238D02*
X56251Y86254D01*
X56626Y87238D02*
X57001Y86254D01*
X56392Y86582D02*
X56860D01*
X57095Y87238D02*
X57470Y86770D01*
Y86254D01*
X57845Y87238D02*
X57470Y86770D01*
M02*
