G04 CAM350/DFMSTREAM V11.0 (Build 715) Date:  Tue Apr 04 08:46:30 2017 *
G04 Database: C:\1\NEWARRAY-CONTROLLER.cam *
G04 Layer 6: V3CONTRTOLLER-BOTMASK *
%FSLAX24Y24*%
%MOIN*%
%SFA1.000B1.000*%

%MIA0B0*%
%IPPOS*%
%ADD70C,0.14800*%
%ADD29R,0.02000X2.48000*%
%ADD72R,0.02000X2.50000*%
%ADD42C,0.01000*%
%ADD47R,2.64000X0.02000*%
%ADD48R,2.62000X0.02000*%
%ADD50R,0.06737X0.06737*%
%ADD51C,0.06737*%
%ADD69C,0.05556*%
%ADD74C,0.03950*%
%ADD203C,0.12000*%
%ADD1000C,0.01000*%
%ADD1001C,0.00500*%
%LNV3CONTRTOLLER-BOTMASK*%
%LPD*%
G54D70*
X10600Y7000D03*
X28400D03*
Y28000D03*
X10600D03*
G54D72*
X5100Y17500D03*
G54D47*
X18400Y29900D03*
G54D29*
X31500Y17400D03*
G54D48*
X18300Y5100D03*
G54D50*
X22200Y29200D03*
G54D51*
X23200D03*
X24200D03*
X25200D03*
X26200D03*
X29800Y21500D03*
Y20500D03*
Y19500D03*
Y18500D03*
Y16000D03*
Y15000D03*
Y14000D03*
G54D69*
X30013Y11572D03*
X30800Y10981D03*
X30013Y10391D03*
X30800Y9800D03*
X6587Y15528D03*
X5800Y16119D03*
X6587Y16709D03*
X5800Y17300D03*
G54D74*
X7296Y17950D03*
X29304Y9150D03*
G54D70*
X37200Y7000D03*
X55000D03*
Y28000D03*
X37200D03*
G54D72*
X31700Y17500D03*
G54D47*
X45000Y29900D03*
G54D29*
X58100Y17400D03*
G54D48*
X44900Y5100D03*
G54D50*
X48800Y29200D03*
G54D51*
X49800D03*
X50800D03*
X51800D03*
X52800D03*
X56400Y21500D03*
Y20500D03*
Y19500D03*
Y18500D03*
Y16000D03*
Y15000D03*
Y14000D03*
G54D69*
X56613Y11572D03*
X57400Y10981D03*
X56613Y10391D03*
X57400Y9800D03*
X33187Y15528D03*
X32400Y16119D03*
X33187Y16709D03*
X32400Y17300D03*
G54D74*
X33896Y17950D03*
X55904Y9150D03*
G54D70*
X10600Y32000D03*
Y57000D03*
X28400Y32000D03*
Y57000D03*
Y53000D03*
Y78000D03*
X10600Y53000D03*
Y78000D03*
G54D72*
X5100Y42500D03*
Y67500D03*
G54D47*
X18400Y54900D03*
Y79900D03*
G54D29*
X31500Y42400D03*
Y67400D03*
G54D48*
X18300Y30100D03*
Y55100D03*
G54D50*
X22200Y54200D03*
Y79200D03*
G54D51*
X23200Y54200D03*
Y79200D03*
X24200Y54200D03*
Y79200D03*
X25200Y54200D03*
Y79200D03*
X26200Y54200D03*
Y79200D03*
X29800Y46500D03*
Y71500D03*
Y45500D03*
Y70500D03*
Y44500D03*
Y69500D03*
Y43500D03*
Y68500D03*
Y41000D03*
Y66000D03*
Y40000D03*
Y65000D03*
Y39000D03*
Y64000D03*
G54D69*
X30013Y36572D03*
Y61572D03*
X30800Y35981D03*
Y60981D03*
X30013Y35391D03*
Y60391D03*
X30800Y34800D03*
Y59800D03*
X6587Y40528D03*
Y65528D03*
X5800Y41119D03*
Y66119D03*
X6587Y41709D03*
Y66709D03*
X5800Y42300D03*
Y67300D03*
G54D74*
X7296Y42950D03*
Y67950D03*
X29304Y34150D03*
Y59150D03*
G54D70*
X37200Y32000D03*
Y57000D03*
X55000Y32000D03*
Y57000D03*
Y53000D03*
Y78000D03*
X37200Y53000D03*
Y78000D03*
G54D72*
X31700Y42500D03*
Y67500D03*
G54D47*
X45000Y54900D03*
Y79900D03*
G54D29*
X58100Y42400D03*
Y67400D03*
G54D48*
X44900Y30100D03*
Y55100D03*
G54D50*
X48800Y54200D03*
Y79200D03*
G54D51*
X49800Y54200D03*
Y79200D03*
X50800Y54200D03*
Y79200D03*
X51800Y54200D03*
Y79200D03*
X52800Y54200D03*
Y79200D03*
X56400Y46500D03*
Y71500D03*
Y45500D03*
Y70500D03*
Y44500D03*
Y69500D03*
Y43500D03*
Y68500D03*
Y41000D03*
Y66000D03*
Y40000D03*
Y65000D03*
Y39000D03*
Y64000D03*
G54D69*
X56613Y36572D03*
Y61572D03*
X57400Y35981D03*
Y60981D03*
X56613Y35391D03*
Y60391D03*
X57400Y34800D03*
Y59800D03*
X33187Y40528D03*
Y65528D03*
X32400Y41119D03*
Y66119D03*
X33187Y41709D03*
Y66709D03*
X32400Y42300D03*
Y67300D03*
G54D74*
X33896Y42950D03*
Y67950D03*
X55904Y34150D03*
Y59150D03*
G54D203*
X3750Y6250D03*
Y78750D03*
X59450Y6250D03*
G54D42*
X0Y85000D02*
G01Y0D01*
X63200*
Y85000*
X0*
G54D1000*
G01X6398Y-906D02*
Y-1890D01*
Y-906D02*
X6819D01*
X6960Y-952D01*
X7007Y-999D01*
X7054Y-1093D01*
Y-1187D01*
X7007Y-1281D01*
X6960Y-1327D01*
X6819Y-1374D01*
X6398D02*
X6819D01*
X6960Y-1421D01*
X7007Y-1468D01*
X7054Y-1562D01*
Y-1702D01*
X7007Y-1796D01*
X6960Y-1843D01*
X6819Y-1890D01*
X6398D01*
X7616Y-906D02*
X7522Y-952D01*
X7429Y-1046D01*
X7382Y-1140D01*
X7335Y-1281D01*
Y-1515D01*
X7382Y-1656D01*
X7429Y-1749D01*
X7522Y-1843D01*
X7616Y-1890D01*
X7804D01*
X7897Y-1843D01*
X7991Y-1749D01*
X8038Y-1656D01*
X8085Y-1515D01*
Y-1281D01*
X8038Y-1140D01*
X7991Y-1046D01*
X7897Y-952D01*
X7804Y-906D01*
X7616D01*
X8601D02*
Y-1890D01*
X8272Y-906D02*
X8929D01*
X9163D02*
Y-1890D01*
Y-906D02*
X9538Y-1890D01*
X9913Y-906D02*
X9538Y-1890D01*
X9913Y-906D02*
Y-1890D01*
X10522Y-906D02*
X10147Y-1890D01*
X10522Y-906D02*
X10897Y-1890D01*
X10288Y-1562D02*
X10757D01*
X11741Y-1046D02*
X11647Y-952D01*
X11507Y-906D01*
X11319D01*
X11179Y-952D01*
X11085Y-1046D01*
Y-1140D01*
X11132Y-1234D01*
X11179Y-1281D01*
X11272Y-1327D01*
X11554Y-1421D01*
X11647Y-1468D01*
X11694Y-1515D01*
X11741Y-1609D01*
Y-1749D01*
X11647Y-1843D01*
X11507Y-1890D01*
X11319D01*
X11179Y-1843D01*
X11085Y-1749D01*
X12069Y-906D02*
Y-1890D01*
X12726Y-906D02*
X12069Y-1562D01*
X12304Y-1327D02*
X12726Y-1890D01*
G54D1001*
G01X13329Y-1770D02*
X13259Y-2000D01*
X13329Y-1770D02*
X13399Y-2000D01*
X13285Y-1923D02*
X13373D01*
X13443Y-1847D02*
Y-2076D01*
Y-1880D02*
X13460Y-1858D01*
X13478Y-1847D01*
X13504D01*
X13521Y-1858D01*
X13539Y-1880D01*
X13548Y-1912D01*
Y-1934D01*
X13539Y-1967D01*
X13521Y-1989D01*
X13504Y-2000D01*
X13478D01*
X13460Y-1989D01*
X13443Y-1967D01*
X13609Y-1847D02*
Y-2000D01*
Y-1912D02*
X13617Y-1880D01*
X13635Y-1858D01*
X13652Y-1847D01*
X13679D01*
X13906Y-1770D02*
X13880Y-1781D01*
X13862Y-1814D01*
X13854Y-1869D01*
Y-1901D01*
X13862Y-1956D01*
X13880Y-1989D01*
X13906Y-2000D01*
X13924D01*
X13950Y-1989D01*
X13967Y-1956D01*
X13976Y-1901D01*
Y-1869D01*
X13967Y-1814D01*
X13950Y-1781D01*
X13924Y-1770D01*
X13906D01*
X14116D02*
X14029Y-1923D01*
X14160D01*
X14116Y-1770D02*
Y-2000D01*
X14352Y-1825D02*
Y-1814D01*
X14361Y-1792D01*
X14370Y-1781D01*
X14387Y-1770D01*
X14422D01*
X14440Y-1781D01*
X14449Y-1792D01*
X14457Y-1814D01*
Y-1836D01*
X14449Y-1858D01*
X14431Y-1891D01*
X14344Y-2000D01*
X14466D01*
X14571Y-1770D02*
X14545Y-1781D01*
X14527Y-1814D01*
X14519Y-1869D01*
Y-1901D01*
X14527Y-1956D01*
X14545Y-1989D01*
X14571Y-2000D01*
X14589D01*
X14615Y-1989D01*
X14632Y-1956D01*
X14641Y-1901D01*
Y-1869D01*
X14632Y-1814D01*
X14615Y-1781D01*
X14589Y-1770D01*
X14571D01*
X14720Y-1814D02*
X14737Y-1803D01*
X14764Y-1770D01*
Y-2000D01*
X14991Y-1770D02*
X14904Y-2000D01*
X14869Y-1770D02*
X14991D01*
G54D1000*
G01X16230Y-906D02*
X16605Y-1890D01*
X16980Y-906D02*
X16605Y-1890D01*
X17261Y-906D02*
X17777D01*
X17495Y-1281D01*
X17636D01*
X17730Y-1327D01*
X17777Y-1374D01*
X17823Y-1515D01*
Y-1609D01*
X17777Y-1749D01*
X17683Y-1843D01*
X17542Y-1890D01*
X17402D01*
X17261Y-1843D01*
X17214Y-1796D01*
X17167Y-1702D01*
X19558Y-1140D02*
X19511Y-1046D01*
X19417Y-952D01*
X19323Y-906D01*
X19136D01*
X19042Y-952D01*
X18948Y-1046D01*
X18902Y-1140D01*
X18855Y-1281D01*
Y-1515D01*
X18902Y-1656D01*
X18948Y-1749D01*
X19042Y-1843D01*
X19136Y-1890D01*
X19323D01*
X19417Y-1843D01*
X19511Y-1749D01*
X19558Y-1656D01*
X20120Y-906D02*
X20027Y-952D01*
X19933Y-1046D01*
X19886Y-1140D01*
X19839Y-1281D01*
Y-1515D01*
X19886Y-1656D01*
X19933Y-1749D01*
X20027Y-1843D01*
X20120Y-1890D01*
X20308D01*
X20402Y-1843D01*
X20495Y-1749D01*
X20542Y-1656D01*
X20589Y-1515D01*
Y-1281D01*
X20542Y-1140D01*
X20495Y-1046D01*
X20402Y-952D01*
X20308Y-906D01*
X20120D01*
X20917D02*
Y-1890D01*
Y-906D02*
X21573Y-1890D01*
Y-906D02*
Y-1890D01*
X22136Y-906D02*
Y-1890D01*
X21808Y-906D02*
X22464D01*
X22698D02*
Y-1890D01*
Y-906D02*
X23120D01*
X23261Y-952D01*
X23308Y-999D01*
X23355Y-1093D01*
Y-1187D01*
X23308Y-1281D01*
X23261Y-1327D01*
X23120Y-1374D01*
X22698D01*
X23027D02*
X23355Y-1890D01*
X23917Y-906D02*
X23823Y-952D01*
X23730Y-1046D01*
X23683Y-1140D01*
X23636Y-1281D01*
Y-1515D01*
X23683Y-1656D01*
X23730Y-1749D01*
X23823Y-1843D01*
X23917Y-1890D01*
X24105D01*
X24198Y-1843D01*
X24292Y-1749D01*
X24339Y-1656D01*
X24386Y-1515D01*
Y-1281D01*
X24339Y-1140D01*
X24292Y-1046D01*
X24198Y-952D01*
X24105Y-906D01*
X23917D01*
X24714D02*
Y-1890D01*
Y-1890D02*
X25277D01*
X25511Y-906D02*
Y-1890D01*
Y-1890D02*
X26073D01*
X26308Y-906D02*
Y-1890D01*
Y-906D02*
X26917D01*
X26308Y-1374D02*
X26683D01*
X26308Y-1890D02*
X26917D01*
X27198Y-906D02*
Y-1890D01*
Y-906D02*
X27620D01*
X27761Y-952D01*
X27808Y-999D01*
X27855Y-1093D01*
Y-1187D01*
X27808Y-1281D01*
X27761Y-1327D01*
X27620Y-1374D01*
X27198D01*
X27527D02*
X27855Y-1890D01*
G54D42*
X0Y85000D02*
G01Y0D01*
X63200*
Y85000*
X0*
M02*
