G75*
%MOIN*%
%OFA0B0*%
%FSLAX25Y25*%
%IPPOS*%
%LPD*%
%AMOC8*
5,1,8,0,0,1.08239X$1,22.5*
%
%ADD10C,0.14800*%
%ADD11R,0.02000X2.50000*%
%ADD12R,2.64000X0.02000*%
%ADD13R,0.02000X2.48000*%
%ADD14R,2.62000X0.02000*%
%ADD15R,0.06737X0.06737*%
%ADD16C,0.06737*%
%ADD17C,0.05556*%
%ADD18C,0.03950*%
D10*
X0076780Y0119732D03*
X0076780Y0329732D03*
X0254780Y0329732D03*
X0254780Y0119732D03*
D11*
X0021780Y0224732D03*
D12*
X0154780Y0348732D03*
D13*
X0285780Y0223732D03*
D14*
X0153780Y0100732D03*
D15*
X0192780Y0341732D03*
D16*
X0202780Y0341732D03*
X0212780Y0341732D03*
X0222780Y0341732D03*
X0232780Y0341732D03*
X0268780Y0264732D03*
X0268780Y0254732D03*
X0268780Y0244732D03*
X0268780Y0234732D03*
X0268780Y0209732D03*
X0268780Y0199732D03*
X0268780Y0189732D03*
D17*
X0270905Y0165449D03*
X0278780Y0159543D03*
X0270905Y0153638D03*
X0278780Y0147732D03*
X0036654Y0205015D03*
X0028780Y0210921D03*
X0036654Y0216826D03*
X0028780Y0222732D03*
D18*
X0043740Y0229228D03*
X0263819Y0141236D03*
M02*
