G75*
%MOIN*%
%OFA0B0*%
%FSLAX25Y25*%
%IPPOS*%
%LPD*%
%AMOC8*
5,1,8,0,0,1.08239X$1,22.5*
%
%ADD10C,0.00600*%
%ADD11C,0.00500*%
%ADD12C,0.00800*%
%ADD13R,0.00250X0.00250*%
%ADD14R,0.00250X0.00500*%
%ADD15R,0.00250X0.02000*%
%ADD16R,0.00250X0.01750*%
%ADD17R,0.00250X0.01000*%
%ADD18R,0.00250X0.00750*%
%ADD19R,0.00250X0.02250*%
%ADD20R,0.00250X0.01500*%
%ADD21R,0.00250X0.01250*%
%ADD22R,0.00250X0.03750*%
%ADD23R,0.00250X0.02750*%
%ADD24R,0.00250X0.02500*%
%ADD25R,0.00250X0.03000*%
%ADD26R,0.00250X0.03250*%
%ADD27R,0.00250X0.03500*%
%ADD28R,0.00250X0.04750*%
%ADD29R,0.00250X0.05750*%
%ADD30R,0.00250X0.06250*%
%ADD31R,0.00250X0.06750*%
%ADD32R,0.00250X0.07250*%
%ADD33R,0.00250X0.07750*%
%ADD34R,0.00250X0.08000*%
%ADD35R,0.00250X0.08250*%
%ADD36R,0.00250X0.04000*%
%ADD37R,0.00250X0.10250*%
%ADD38R,0.00250X0.04250*%
%ADD39R,0.00250X0.09750*%
%ADD40R,0.00250X0.04500*%
%ADD41R,0.00250X0.09500*%
%ADD42R,0.00250X0.09250*%
%ADD43R,0.00250X0.05500*%
%ADD44R,0.00250X0.05250*%
%ADD45R,0.00250X0.05000*%
D10*
X0114514Y0222390D02*
X0114514Y0224659D01*
X0115648Y0225793D01*
X0116783Y0224659D01*
X0116783Y0222390D01*
X0116783Y0224092D02*
X0114514Y0224092D01*
X0114714Y0229590D02*
X0116416Y0229590D01*
X0116983Y0230157D01*
X0116983Y0230724D01*
X0116416Y0231292D01*
X0114714Y0231292D01*
X0114714Y0232993D02*
X0114714Y0229590D01*
X0116416Y0231292D02*
X0116983Y0231859D01*
X0116983Y0232426D01*
X0116416Y0232993D01*
X0114714Y0232993D01*
X0115014Y0241192D02*
X0117283Y0241192D01*
D11*
X0111664Y0240937D02*
X0111214Y0240487D01*
X0110763Y0240487D01*
X0110313Y0240937D01*
X0110313Y0241838D01*
X0110763Y0242288D01*
X0111214Y0242288D01*
X0111664Y0241838D01*
X0111664Y0240937D01*
X0110313Y0240937D02*
X0109863Y0240487D01*
X0109412Y0240487D01*
X0108962Y0240937D01*
X0108962Y0241838D01*
X0109412Y0242288D01*
X0109863Y0242288D01*
X0110313Y0241838D01*
X0109412Y0239342D02*
X0108962Y0238891D01*
X0108962Y0237540D01*
X0111664Y0237540D01*
X0111664Y0238891D01*
X0111214Y0239342D01*
X0109412Y0239342D01*
X0107725Y0253038D02*
X0105757Y0253038D01*
X0107725Y0253038D02*
X0107725Y0221542D01*
X0105757Y0221542D01*
X0107414Y0220735D02*
X0107414Y0218933D01*
X0107414Y0219834D02*
X0104712Y0219834D01*
X0105613Y0218933D01*
X0105613Y0217788D02*
X0106063Y0217338D01*
X0106513Y0217788D01*
X0106964Y0217788D01*
X0107414Y0217338D01*
X0107414Y0216437D01*
X0106964Y0215987D01*
X0107414Y0214842D02*
X0106513Y0213941D01*
X0106513Y0214391D02*
X0106513Y0213040D01*
X0107414Y0213040D02*
X0104712Y0213040D01*
X0104712Y0214391D01*
X0105162Y0214842D01*
X0106063Y0214842D01*
X0106513Y0214391D01*
X0105162Y0215987D02*
X0104712Y0216437D01*
X0104712Y0217338D01*
X0105162Y0217788D01*
X0105613Y0217788D01*
X0106063Y0217338D02*
X0106063Y0216887D01*
X0108962Y0216437D02*
X0108962Y0217338D01*
X0109412Y0217788D01*
X0109863Y0217788D01*
X0110313Y0217338D01*
X0110763Y0217788D01*
X0111214Y0217788D01*
X0111664Y0217338D01*
X0111664Y0216437D01*
X0111214Y0215987D01*
X0111664Y0214842D02*
X0110763Y0213941D01*
X0110763Y0214391D02*
X0110763Y0213040D01*
X0111664Y0213040D02*
X0108962Y0213040D01*
X0108962Y0214391D01*
X0109412Y0214842D01*
X0110313Y0214842D01*
X0110763Y0214391D01*
X0112462Y0214391D02*
X0112912Y0214842D01*
X0113813Y0214842D01*
X0114263Y0214391D01*
X0114263Y0213040D01*
X0114263Y0213941D02*
X0115164Y0214842D01*
X0115164Y0215987D02*
X0113363Y0217788D01*
X0112912Y0217788D01*
X0112462Y0217338D01*
X0112462Y0216437D01*
X0112912Y0215987D01*
X0112462Y0214391D02*
X0112462Y0213040D01*
X0115164Y0213040D01*
X0115804Y0211991D02*
X0112024Y0211991D01*
X0112024Y0204589D01*
X0115804Y0204589D01*
X0115804Y0211991D01*
X0116024Y0211952D02*
X0119804Y0211952D01*
X0119804Y0204629D01*
X0116024Y0204629D01*
X0116024Y0211952D01*
X0116912Y0213040D02*
X0118714Y0213040D01*
X0119164Y0213490D01*
X0119164Y0214391D01*
X0118714Y0214842D01*
X0119164Y0215987D02*
X0117363Y0217788D01*
X0116912Y0217788D01*
X0116462Y0217338D01*
X0116462Y0216437D01*
X0116912Y0215987D01*
X0116912Y0214842D02*
X0116462Y0214391D01*
X0116462Y0213490D01*
X0116912Y0213040D01*
X0115164Y0215987D02*
X0115164Y0217788D01*
X0114714Y0218933D02*
X0115164Y0219384D01*
X0115164Y0220284D01*
X0114714Y0220735D01*
X0112912Y0220735D01*
X0112462Y0220284D01*
X0112462Y0219384D01*
X0112912Y0218933D01*
X0113363Y0218933D01*
X0113813Y0219384D01*
X0113813Y0220735D01*
X0111664Y0220284D02*
X0111664Y0219384D01*
X0111214Y0218933D01*
X0109412Y0220735D01*
X0111214Y0220735D01*
X0111664Y0220284D01*
X0111214Y0218933D02*
X0109412Y0218933D01*
X0108962Y0219384D01*
X0108962Y0220284D01*
X0109412Y0220735D01*
X0110313Y0217338D02*
X0110313Y0216887D01*
X0109412Y0215987D02*
X0108962Y0216437D01*
X0108024Y0211991D02*
X0111804Y0211991D01*
X0111804Y0204589D01*
X0108024Y0204589D01*
X0108024Y0211991D01*
X0107804Y0211991D02*
X0104024Y0211991D01*
X0104024Y0204589D01*
X0107804Y0204589D01*
X0107804Y0211991D01*
X0103804Y0211952D02*
X0103804Y0204629D01*
X0100024Y0204629D01*
X0100024Y0211952D01*
X0103804Y0211952D01*
X0099164Y0212284D02*
X0099164Y0211384D01*
X0098714Y0210933D01*
X0098263Y0210933D01*
X0097813Y0211384D01*
X0097813Y0212284D01*
X0098263Y0212735D01*
X0098714Y0212735D01*
X0099164Y0212284D01*
X0097813Y0212284D02*
X0097363Y0212735D01*
X0096912Y0212735D01*
X0096462Y0212284D01*
X0096462Y0211384D01*
X0096912Y0210933D01*
X0097363Y0210933D01*
X0097813Y0211384D01*
X0097363Y0209788D02*
X0096912Y0209788D01*
X0096462Y0209338D01*
X0096462Y0208437D01*
X0096912Y0207987D01*
X0096912Y0206842D02*
X0096462Y0206391D01*
X0096462Y0205490D01*
X0096912Y0205040D01*
X0098714Y0205040D01*
X0099164Y0205490D01*
X0099164Y0206391D01*
X0098714Y0206842D01*
X0099164Y0207987D02*
X0097363Y0209788D01*
X0099164Y0209788D02*
X0099164Y0207987D01*
X0102272Y0201062D02*
X0109556Y0201062D01*
X0109556Y0187518D01*
X0102272Y0187518D01*
X0102272Y0201062D01*
X0110272Y0201062D02*
X0117556Y0201062D01*
X0117556Y0187518D01*
X0110272Y0187518D01*
X0110272Y0201062D01*
X0111412Y0186235D02*
X0113214Y0184433D01*
X0113664Y0184884D01*
X0113664Y0185784D01*
X0113214Y0186235D01*
X0111412Y0186235D01*
X0110962Y0185784D01*
X0110962Y0184884D01*
X0111412Y0184433D01*
X0113214Y0184433D01*
X0113664Y0183288D02*
X0113664Y0181487D01*
X0113664Y0182387D02*
X0110962Y0182387D01*
X0111863Y0181487D01*
X0111412Y0180342D02*
X0110962Y0179891D01*
X0110962Y0178540D01*
X0113664Y0178540D01*
X0113664Y0179891D01*
X0113214Y0180342D01*
X0111412Y0180342D01*
X0108664Y0179891D02*
X0108214Y0180342D01*
X0106412Y0180342D01*
X0105962Y0179891D01*
X0105962Y0178540D01*
X0108664Y0178540D01*
X0108664Y0179891D01*
X0108664Y0181487D02*
X0108664Y0183288D01*
X0108664Y0182387D02*
X0105962Y0182387D01*
X0106863Y0181487D01*
X0106863Y0184433D02*
X0105962Y0185334D01*
X0108664Y0185334D01*
X0108664Y0184433D02*
X0108664Y0186235D01*
X0123402Y0193003D02*
X0123402Y0279617D01*
X0150961Y0279617D01*
X0150961Y0193003D01*
X0123402Y0193003D01*
X0119164Y0215987D02*
X0119164Y0217788D01*
X0119164Y0218933D02*
X0118714Y0218933D01*
X0116912Y0220735D01*
X0116462Y0220735D01*
X0116462Y0218933D01*
X0086072Y0221542D02*
X0084103Y0221542D01*
X0084103Y0253038D01*
X0086072Y0253038D01*
X0084103Y0258944D02*
X0107725Y0258944D01*
X0117430Y0266644D02*
X0094398Y0266644D01*
X0094398Y0295936D01*
X0117430Y0295936D01*
X0117430Y0266644D01*
X0092664Y0278540D02*
X0092664Y0279891D01*
X0092214Y0280342D01*
X0090412Y0280342D01*
X0089962Y0279891D01*
X0089962Y0278540D01*
X0092664Y0278540D01*
X0092214Y0281487D02*
X0092664Y0281937D01*
X0092664Y0282838D01*
X0092214Y0283288D01*
X0091763Y0283288D01*
X0091313Y0282838D01*
X0091313Y0282387D01*
X0091313Y0282838D02*
X0090863Y0283288D01*
X0090412Y0283288D01*
X0089962Y0282838D01*
X0089962Y0281937D01*
X0090412Y0281487D01*
X0081662Y0260601D02*
X0079694Y0260601D01*
X0079694Y0236979D01*
X0081662Y0236979D01*
X0081662Y0260601D01*
X0077725Y0260601D02*
X0077725Y0236979D01*
X0054103Y0236979D01*
X0054103Y0260601D01*
X0077725Y0260601D01*
X0077725Y0236101D02*
X0077725Y0212479D01*
X0054103Y0212479D01*
X0054103Y0236101D01*
X0077725Y0236101D01*
X0079694Y0236101D02*
X0081662Y0236101D01*
X0081662Y0212479D01*
X0079694Y0212479D01*
X0079694Y0236101D01*
X0052664Y0237040D02*
X0049962Y0237040D01*
X0049962Y0238842D01*
X0050412Y0239987D02*
X0049962Y0240437D01*
X0049962Y0241338D01*
X0050412Y0241788D01*
X0050863Y0241788D01*
X0051313Y0241338D01*
X0051763Y0241788D01*
X0052214Y0241788D01*
X0052664Y0241338D01*
X0052664Y0240437D01*
X0052214Y0239987D01*
X0051313Y0240887D02*
X0051313Y0241338D01*
X0051313Y0237941D02*
X0051313Y0237040D01*
X0051313Y0217788D02*
X0051313Y0215987D01*
X0049962Y0217338D01*
X0052664Y0217338D01*
X0051313Y0213941D02*
X0051313Y0213040D01*
X0049962Y0213040D02*
X0049962Y0214842D01*
X0049962Y0213040D02*
X0052664Y0213040D01*
X0103082Y0311092D02*
X0103082Y0313794D01*
X0104884Y0313794D01*
X0106029Y0313344D02*
X0106479Y0313794D01*
X0107380Y0313794D01*
X0107830Y0313344D01*
X0107830Y0312894D01*
X0106029Y0311092D01*
X0107830Y0311092D01*
X0108725Y0315479D02*
X0085103Y0315479D01*
X0085103Y0339101D01*
X0108725Y0339101D01*
X0108725Y0315479D01*
X0103983Y0312443D02*
X0103082Y0312443D01*
X0083135Y0315479D02*
X0083135Y0339101D01*
X0081166Y0339101D01*
X0081166Y0315479D01*
X0083135Y0315479D01*
X0082662Y0315479D02*
X0080694Y0315479D01*
X0080694Y0339101D01*
X0082662Y0339101D01*
X0082662Y0315479D01*
X0078725Y0315479D02*
X0078725Y0339101D01*
X0055103Y0339101D01*
X0055103Y0315479D01*
X0078725Y0315479D01*
X0060601Y0340788D02*
X0058800Y0340788D01*
X0059700Y0340788D02*
X0059700Y0343490D01*
X0058800Y0342590D01*
X0057655Y0343490D02*
X0055853Y0343490D01*
X0055853Y0340788D01*
X0055853Y0342139D02*
X0056754Y0342139D01*
X0127459Y0321857D02*
X0127910Y0321406D01*
X0128360Y0321406D01*
X0128811Y0321857D01*
X0128811Y0324109D01*
X0129261Y0324109D02*
X0128360Y0324109D01*
X0130406Y0323658D02*
X0130856Y0324109D01*
X0131757Y0324109D01*
X0132208Y0323658D01*
X0132208Y0323208D01*
X0130406Y0321406D01*
X0132208Y0321406D01*
D12*
X0065679Y0163869D02*
X0066479Y0163068D01*
X0065679Y0163869D02*
X0065679Y0165470D01*
X0066479Y0166271D01*
X0067280Y0166271D01*
X0068081Y0165470D01*
X0068881Y0166271D01*
X0069682Y0166271D01*
X0070483Y0165470D01*
X0070483Y0163869D01*
X0069682Y0163068D01*
X0068081Y0164669D02*
X0068081Y0165470D01*
X0060640Y0167806D02*
X0059840Y0167005D01*
X0060640Y0167806D02*
X0060640Y0169407D01*
X0059840Y0170208D01*
X0058238Y0170208D01*
X0057437Y0169407D01*
X0057437Y0168606D01*
X0058238Y0167005D01*
X0055836Y0167005D01*
X0055836Y0170208D01*
X0062542Y0184722D02*
X0063343Y0184722D01*
X0064144Y0185522D01*
X0064144Y0187124D01*
X0064944Y0187924D01*
X0065745Y0187924D01*
X0066546Y0187124D01*
X0066546Y0185522D01*
X0065745Y0184722D01*
X0064944Y0184722D01*
X0064144Y0185522D01*
X0064144Y0187124D02*
X0063343Y0187924D01*
X0062542Y0187924D01*
X0061742Y0187124D01*
X0061742Y0185522D01*
X0062542Y0184722D01*
X0048829Y0184722D02*
X0045626Y0187924D01*
X0044826Y0187924D01*
X0044025Y0187124D01*
X0044025Y0185522D01*
X0044826Y0184722D01*
X0048829Y0184722D02*
X0048829Y0187924D01*
X0058238Y0202438D02*
X0058238Y0205641D01*
X0055836Y0204840D02*
X0058238Y0202438D01*
X0060640Y0204840D02*
X0055836Y0204840D01*
X0048514Y0206690D02*
X0043710Y0206690D01*
X0043710Y0209092D01*
X0044511Y0209893D01*
X0046112Y0209893D01*
X0046913Y0209092D01*
X0046913Y0206690D01*
X0065679Y0207977D02*
X0070483Y0207977D01*
X0070483Y0209578D02*
X0070483Y0206375D01*
X0067280Y0206375D02*
X0065679Y0207977D01*
X0075521Y0205641D02*
X0076322Y0204039D01*
X0077923Y0202438D01*
X0077923Y0204840D01*
X0078724Y0205641D01*
X0079525Y0205641D01*
X0080325Y0204840D01*
X0080325Y0203239D01*
X0079525Y0202438D01*
X0077923Y0202438D01*
X0076322Y0170208D02*
X0079525Y0167005D01*
X0080325Y0167005D01*
X0075521Y0167005D02*
X0075521Y0170208D01*
X0076322Y0170208D01*
X0070483Y0262674D02*
X0070483Y0265877D01*
X0070483Y0264276D02*
X0065679Y0264276D01*
X0067280Y0262674D01*
X0060640Y0269407D02*
X0055836Y0269407D01*
X0058238Y0267005D01*
X0058238Y0270208D01*
X0062542Y0284328D02*
X0063343Y0284328D01*
X0064144Y0285129D01*
X0064144Y0286730D01*
X0064944Y0287531D01*
X0065745Y0287531D01*
X0066546Y0286730D01*
X0066546Y0285129D01*
X0065745Y0284328D01*
X0064944Y0284328D01*
X0064144Y0285129D01*
X0064144Y0286730D02*
X0063343Y0287531D01*
X0062542Y0287531D01*
X0061742Y0286730D01*
X0061742Y0285129D01*
X0062542Y0284328D01*
X0048829Y0284328D02*
X0045626Y0287531D01*
X0044826Y0287531D01*
X0044025Y0286730D01*
X0044025Y0285129D01*
X0044826Y0284328D01*
X0048829Y0284328D02*
X0048829Y0287531D01*
X0055836Y0302438D02*
X0058238Y0302438D01*
X0057437Y0304039D01*
X0057437Y0304840D01*
X0058238Y0305641D01*
X0059840Y0305641D01*
X0060640Y0304840D01*
X0060640Y0303239D01*
X0059840Y0302438D01*
X0055836Y0302438D02*
X0055836Y0305641D01*
X0048514Y0306690D02*
X0043710Y0306690D01*
X0043710Y0309092D01*
X0044511Y0309893D01*
X0046112Y0309893D01*
X0046913Y0309092D01*
X0046913Y0306690D01*
X0065679Y0307176D02*
X0065679Y0308777D01*
X0066479Y0309578D01*
X0067280Y0309578D01*
X0068081Y0308777D01*
X0068881Y0309578D01*
X0069682Y0309578D01*
X0070483Y0308777D01*
X0070483Y0307176D01*
X0069682Y0306375D01*
X0068081Y0307977D02*
X0068081Y0308777D01*
X0065679Y0307176D02*
X0066479Y0306375D01*
X0075521Y0305641D02*
X0075521Y0302438D01*
X0075521Y0305641D02*
X0076322Y0305641D01*
X0079525Y0302438D01*
X0080325Y0302438D01*
X0079525Y0270208D02*
X0078724Y0270208D01*
X0077923Y0269407D01*
X0077923Y0267005D01*
X0079525Y0267005D01*
X0080325Y0267806D01*
X0080325Y0269407D01*
X0079525Y0270208D01*
X0076322Y0268606D02*
X0077923Y0267005D01*
X0076322Y0268606D02*
X0075521Y0270208D01*
D13*
X0047164Y0231540D03*
X0046914Y0231540D03*
X0045664Y0230540D03*
X0045414Y0230040D03*
X0049414Y0229040D03*
X0045414Y0223040D03*
X0045664Y0222540D03*
X0045164Y0222290D03*
X0045414Y0221790D03*
X0028164Y0237540D03*
X0025164Y0247790D03*
X0025164Y0251290D03*
X0026914Y0254540D03*
X0026914Y0255540D03*
X0026914Y0256290D03*
X0027164Y0256290D03*
X0026164Y0256540D03*
X0025164Y0256790D03*
X0025164Y0255040D03*
X0026164Y0255290D03*
X0026914Y0257290D03*
X0035164Y0256540D03*
X0026164Y0222790D03*
D14*
X0025914Y0222665D03*
X0027414Y0222665D03*
X0027664Y0222665D03*
X0027664Y0220915D03*
X0027414Y0220915D03*
X0026164Y0220665D03*
X0025914Y0220665D03*
X0025664Y0220915D03*
X0025664Y0225915D03*
X0025914Y0225915D03*
X0026164Y0225915D03*
X0027414Y0225915D03*
X0027164Y0227665D03*
X0027664Y0227665D03*
X0026164Y0227915D03*
X0025914Y0227915D03*
X0025664Y0227665D03*
X0025664Y0232915D03*
X0025914Y0232915D03*
X0026164Y0232915D03*
X0026414Y0232915D03*
X0027164Y0232915D03*
X0027414Y0232915D03*
X0027664Y0232915D03*
X0027664Y0242665D03*
X0027414Y0242665D03*
X0027164Y0242665D03*
X0026414Y0242665D03*
X0026164Y0242665D03*
X0025914Y0242665D03*
X0025664Y0242665D03*
X0025164Y0245915D03*
X0025664Y0246165D03*
X0026164Y0246415D03*
X0026914Y0246165D03*
X0027164Y0245915D03*
X0027414Y0245915D03*
X0027414Y0247915D03*
X0027164Y0247915D03*
X0026914Y0247915D03*
X0026164Y0247915D03*
X0025914Y0247915D03*
X0025664Y0247915D03*
X0025414Y0247915D03*
X0027664Y0247915D03*
X0027664Y0251165D03*
X0027414Y0251165D03*
X0027164Y0251165D03*
X0026914Y0251165D03*
X0026664Y0251165D03*
X0026414Y0251165D03*
X0026164Y0251165D03*
X0025914Y0251165D03*
X0025664Y0251165D03*
X0025414Y0251165D03*
X0027914Y0251165D03*
X0028164Y0251165D03*
X0028164Y0254165D03*
X0027914Y0254165D03*
X0027664Y0254415D03*
X0027414Y0254415D03*
X0027164Y0254415D03*
X0026664Y0254665D03*
X0026414Y0254665D03*
X0026164Y0254665D03*
X0026414Y0255415D03*
X0026664Y0255415D03*
X0027164Y0255665D03*
X0027914Y0255915D03*
X0028164Y0255915D03*
X0026664Y0256415D03*
X0026414Y0256415D03*
X0026414Y0257165D03*
X0026164Y0257165D03*
X0026664Y0257165D03*
X0027164Y0257415D03*
X0027414Y0257415D03*
X0027664Y0257415D03*
X0027914Y0257665D03*
X0028164Y0257665D03*
X0046664Y0232915D03*
X0046914Y0232915D03*
X0046414Y0232665D03*
X0046164Y0232415D03*
X0045914Y0232165D03*
X0045664Y0231915D03*
X0045414Y0231415D03*
X0045164Y0230915D03*
X0045914Y0230915D03*
X0046164Y0231165D03*
X0046414Y0231415D03*
X0046664Y0231415D03*
X0047414Y0231415D03*
X0047664Y0231415D03*
X0047164Y0230165D03*
X0046914Y0230165D03*
X0046664Y0230165D03*
X0046414Y0230165D03*
X0046164Y0229915D03*
X0045914Y0229665D03*
X0045664Y0229415D03*
X0047414Y0229915D03*
X0047664Y0229665D03*
X0048164Y0228915D03*
X0050414Y0230165D03*
X0048414Y0232915D03*
X0047664Y0233165D03*
X0047414Y0233165D03*
X0049414Y0223915D03*
X0047664Y0223415D03*
X0047414Y0223165D03*
X0046914Y0222915D03*
X0046664Y0222915D03*
X0046414Y0222915D03*
X0046164Y0223165D03*
X0045914Y0223415D03*
X0045664Y0223665D03*
X0045914Y0222165D03*
X0046164Y0221915D03*
X0046414Y0221665D03*
X0046664Y0221665D03*
X0046914Y0221665D03*
X0047164Y0221665D03*
X0047414Y0221665D03*
X0047664Y0221665D03*
X0047164Y0220165D03*
X0046914Y0220165D03*
X0046664Y0220415D03*
X0046414Y0220415D03*
X0046164Y0220665D03*
X0045914Y0220915D03*
X0045664Y0221415D03*
X0048164Y0220165D03*
D15*
X0027914Y0221665D03*
X0025414Y0221665D03*
X0025414Y0226915D03*
X0027914Y0226915D03*
X0028164Y0231915D03*
X0026914Y0232165D03*
X0025164Y0231915D03*
X0025164Y0241665D03*
X0026914Y0241915D03*
X0026414Y0247165D03*
X0028164Y0247165D03*
D16*
X0025164Y0236790D03*
D17*
X0025164Y0226915D03*
X0025164Y0221665D03*
X0048414Y0222165D03*
X0048914Y0222915D03*
X0049164Y0223415D03*
X0050164Y0222415D03*
X0049914Y0221915D03*
X0049414Y0221165D03*
X0049164Y0229665D03*
X0048914Y0230165D03*
X0048414Y0230915D03*
X0049664Y0231665D03*
X0049914Y0231165D03*
X0050164Y0230665D03*
X0034664Y0256665D03*
X0027664Y0255915D03*
X0027414Y0255915D03*
D18*
X0025914Y0255040D03*
X0025664Y0255040D03*
X0025414Y0255040D03*
X0025414Y0256790D03*
X0025664Y0256790D03*
X0025914Y0256790D03*
X0034914Y0256540D03*
X0027664Y0246040D03*
X0025914Y0246290D03*
X0025414Y0246040D03*
X0025664Y0237540D03*
X0025914Y0237540D03*
X0026164Y0237540D03*
X0026414Y0237540D03*
X0026664Y0237540D03*
X0026914Y0237540D03*
X0027164Y0237540D03*
X0027414Y0237540D03*
X0027664Y0237540D03*
X0027914Y0237540D03*
X0027414Y0227790D03*
X0027664Y0226040D03*
X0026414Y0226040D03*
X0025664Y0222540D03*
X0027164Y0222540D03*
X0026414Y0221040D03*
X0047164Y0223040D03*
X0047914Y0223790D03*
X0048164Y0224290D03*
X0048664Y0222540D03*
X0048164Y0222040D03*
X0047914Y0221790D03*
X0048414Y0220290D03*
X0048664Y0220290D03*
X0048914Y0220540D03*
X0049164Y0220790D03*
X0049664Y0221540D03*
X0050414Y0223040D03*
X0047914Y0220040D03*
X0047664Y0220040D03*
X0047414Y0220040D03*
X0047914Y0229290D03*
X0048664Y0230540D03*
X0048164Y0231040D03*
X0047914Y0231290D03*
X0048914Y0232540D03*
X0048664Y0232790D03*
X0048164Y0233040D03*
X0047914Y0233040D03*
X0047164Y0233040D03*
X0049164Y0232290D03*
X0049414Y0232040D03*
D19*
X0042414Y0238040D03*
X0042164Y0238040D03*
X0041164Y0238290D03*
X0040164Y0238540D03*
X0039914Y0238540D03*
X0038914Y0238790D03*
X0038664Y0238790D03*
X0037914Y0239040D03*
X0037664Y0239040D03*
X0037414Y0239040D03*
X0036664Y0239290D03*
X0036414Y0239290D03*
X0036164Y0239290D03*
X0036164Y0241790D03*
X0036414Y0241790D03*
X0037164Y0242040D03*
X0037414Y0242040D03*
X0037664Y0242040D03*
X0038164Y0242290D03*
X0038414Y0242290D03*
X0038664Y0242290D03*
X0039414Y0242540D03*
X0039664Y0242540D03*
X0039914Y0242540D03*
X0040664Y0242790D03*
X0040914Y0242790D03*
X0041914Y0243040D03*
X0030914Y0254790D03*
X0027914Y0247040D03*
X0026664Y0247040D03*
X0026664Y0241790D03*
X0025414Y0241790D03*
X0027914Y0241790D03*
X0028164Y0241790D03*
X0025414Y0236790D03*
X0025414Y0232040D03*
X0026664Y0232040D03*
X0027914Y0232040D03*
D20*
X0026914Y0227165D03*
X0026664Y0226665D03*
X0028164Y0226915D03*
X0026664Y0221415D03*
X0034414Y0256665D03*
D21*
X0026914Y0222040D03*
X0028164Y0221790D03*
D22*
X0033664Y0240540D03*
X0033914Y0240540D03*
X0034164Y0240540D03*
X0031164Y0254790D03*
X0046664Y0226540D03*
D23*
X0043664Y0225040D03*
X0043414Y0225040D03*
X0043164Y0225040D03*
X0042914Y0225040D03*
X0042664Y0224790D03*
X0042414Y0224790D03*
X0042164Y0224790D03*
X0041914Y0224790D03*
X0041664Y0224540D03*
X0041414Y0224540D03*
X0041164Y0224540D03*
X0040914Y0224540D03*
X0040414Y0224290D03*
X0040164Y0224290D03*
X0039914Y0224290D03*
X0039164Y0224040D03*
X0041164Y0228540D03*
X0041414Y0228540D03*
X0041664Y0228540D03*
X0042164Y0228290D03*
X0042414Y0228290D03*
X0042664Y0228290D03*
X0043164Y0228040D03*
X0043414Y0228040D03*
X0043664Y0228040D03*
X0040414Y0228790D03*
X0040164Y0228790D03*
X0039164Y0229040D03*
X0038164Y0229290D03*
X0031914Y0240540D03*
X0031664Y0240540D03*
X0031414Y0240540D03*
X0031164Y0246040D03*
D24*
X0031164Y0240665D03*
X0036664Y0241915D03*
X0036914Y0241915D03*
X0037914Y0242165D03*
X0038914Y0242415D03*
X0039164Y0242415D03*
X0040164Y0242665D03*
X0040414Y0242665D03*
X0041164Y0242915D03*
X0041414Y0242915D03*
X0041664Y0242915D03*
X0040914Y0238415D03*
X0040664Y0238415D03*
X0040414Y0238415D03*
X0039664Y0238665D03*
X0039414Y0238665D03*
X0039164Y0238665D03*
X0038414Y0238915D03*
X0038164Y0238915D03*
X0037164Y0239165D03*
X0036914Y0239165D03*
X0041414Y0238165D03*
X0041664Y0238165D03*
X0041914Y0238165D03*
X0042914Y0228165D03*
X0043914Y0227915D03*
X0043914Y0225165D03*
X0034164Y0256665D03*
D25*
X0034164Y0245915D03*
X0033914Y0245915D03*
X0033664Y0245915D03*
X0033414Y0245915D03*
X0033164Y0245915D03*
X0032914Y0245915D03*
X0032664Y0245915D03*
X0032414Y0245915D03*
X0032164Y0245915D03*
X0031914Y0245915D03*
X0031664Y0245915D03*
X0031414Y0245915D03*
X0034414Y0245915D03*
X0034664Y0245915D03*
X0034914Y0245915D03*
X0035164Y0245915D03*
X0035414Y0245915D03*
X0035664Y0245915D03*
X0035914Y0245915D03*
X0036164Y0245915D03*
X0036414Y0245915D03*
X0036664Y0245915D03*
X0036914Y0245915D03*
X0037164Y0245915D03*
X0037414Y0245915D03*
X0037664Y0245915D03*
X0037914Y0245915D03*
X0038164Y0245915D03*
X0038414Y0245915D03*
X0038664Y0245915D03*
X0038914Y0245915D03*
X0039164Y0245915D03*
X0039414Y0245915D03*
X0039664Y0245915D03*
X0039914Y0245915D03*
X0040164Y0245915D03*
X0040414Y0245915D03*
X0040664Y0245915D03*
X0040914Y0245915D03*
X0041164Y0245915D03*
X0041414Y0245915D03*
X0041664Y0245915D03*
X0041914Y0245915D03*
X0046664Y0251665D03*
X0042414Y0235165D03*
X0042164Y0235165D03*
X0041914Y0235165D03*
X0041664Y0235165D03*
X0041414Y0235165D03*
X0041164Y0235165D03*
X0040914Y0235165D03*
X0040664Y0235165D03*
X0040414Y0235165D03*
X0040164Y0235165D03*
X0039914Y0235165D03*
X0039664Y0235165D03*
X0039414Y0235165D03*
X0039164Y0235165D03*
X0038914Y0235165D03*
X0038664Y0235165D03*
X0038414Y0235165D03*
X0038164Y0235165D03*
X0037914Y0235165D03*
X0037664Y0235165D03*
X0037414Y0235165D03*
X0037164Y0235165D03*
X0036914Y0235165D03*
X0036664Y0235165D03*
X0036414Y0235165D03*
X0036164Y0235165D03*
X0035914Y0235165D03*
X0035664Y0235165D03*
X0035414Y0235165D03*
X0035164Y0235165D03*
X0034914Y0235165D03*
X0034664Y0235165D03*
X0034414Y0235165D03*
X0034164Y0235165D03*
X0033914Y0235165D03*
X0033664Y0235165D03*
X0033414Y0235165D03*
X0033164Y0235165D03*
X0032914Y0235165D03*
X0032664Y0235165D03*
X0032414Y0235165D03*
X0032164Y0235165D03*
X0031914Y0235165D03*
X0031664Y0235165D03*
X0031414Y0235165D03*
X0031164Y0235165D03*
X0032164Y0240665D03*
X0037414Y0229415D03*
X0037664Y0229415D03*
X0037914Y0229415D03*
X0038414Y0229165D03*
X0038664Y0229165D03*
X0038914Y0229165D03*
X0039414Y0228915D03*
X0039664Y0228915D03*
X0039914Y0228915D03*
X0040664Y0228665D03*
X0040914Y0228665D03*
X0041914Y0228415D03*
X0040664Y0224415D03*
X0039664Y0224165D03*
X0039414Y0224165D03*
X0038914Y0223915D03*
X0038664Y0223915D03*
X0038414Y0223915D03*
X0038164Y0223915D03*
X0037914Y0223665D03*
X0037664Y0223665D03*
X0037414Y0223665D03*
X0037164Y0223665D03*
D26*
X0034164Y0222790D03*
X0033914Y0222790D03*
X0033664Y0222790D03*
X0033414Y0222790D03*
X0033164Y0222540D03*
X0032914Y0222540D03*
X0032664Y0222540D03*
X0032414Y0222540D03*
X0031914Y0222290D03*
X0031664Y0222290D03*
X0031414Y0222290D03*
X0033664Y0230290D03*
X0033914Y0230290D03*
X0034164Y0230290D03*
X0033414Y0230540D03*
X0033164Y0230540D03*
X0032914Y0230540D03*
X0032664Y0230540D03*
X0032164Y0230790D03*
X0031914Y0230790D03*
X0031664Y0230790D03*
X0031164Y0231040D03*
X0037164Y0229540D03*
X0033164Y0240540D03*
X0032914Y0240540D03*
X0032664Y0240540D03*
X0032414Y0240540D03*
X0035164Y0251540D03*
X0035414Y0251540D03*
X0035664Y0251540D03*
X0035914Y0251540D03*
X0036164Y0251540D03*
X0036414Y0251540D03*
X0036664Y0251540D03*
X0036914Y0251540D03*
X0037164Y0251540D03*
X0037414Y0251540D03*
X0037664Y0251540D03*
X0037914Y0251540D03*
X0038164Y0251540D03*
X0038414Y0251540D03*
X0038664Y0251540D03*
X0038914Y0251540D03*
X0039164Y0251540D03*
X0039414Y0251540D03*
X0039664Y0251540D03*
X0039914Y0251540D03*
X0040164Y0251540D03*
X0040414Y0251540D03*
X0040664Y0251540D03*
X0040914Y0251540D03*
X0041164Y0251540D03*
X0041414Y0251540D03*
X0041664Y0251540D03*
X0041914Y0251540D03*
X0042164Y0251540D03*
X0042414Y0251540D03*
X0042664Y0251540D03*
X0042914Y0251540D03*
X0043164Y0251540D03*
X0043414Y0251540D03*
X0043664Y0251540D03*
X0043914Y0251540D03*
X0044164Y0251540D03*
X0044414Y0251540D03*
X0044664Y0251540D03*
X0044914Y0251540D03*
X0045164Y0251540D03*
X0045414Y0251540D03*
X0045664Y0251540D03*
X0045914Y0251540D03*
X0046164Y0251540D03*
X0046414Y0251540D03*
X0034914Y0251790D03*
X0034664Y0251790D03*
D27*
X0034414Y0251915D03*
X0033414Y0240665D03*
X0031414Y0230915D03*
X0032414Y0230665D03*
X0032164Y0222415D03*
X0031164Y0222165D03*
D28*
X0044914Y0226540D03*
X0045164Y0226540D03*
X0045414Y0226540D03*
X0045914Y0236040D03*
X0046164Y0236040D03*
X0046414Y0236040D03*
X0046414Y0245040D03*
X0046164Y0245040D03*
X0045914Y0245040D03*
X0045664Y0245040D03*
X0035914Y0240540D03*
X0031414Y0254790D03*
D29*
X0031664Y0254790D03*
D30*
X0031914Y0254790D03*
D31*
X0032164Y0254790D03*
D32*
X0032414Y0254790D03*
D33*
X0032664Y0254790D03*
X0033914Y0254290D03*
D34*
X0033664Y0254415D03*
X0032914Y0254915D03*
D35*
X0033164Y0254790D03*
X0033414Y0254540D03*
D36*
X0034164Y0252165D03*
X0034414Y0240665D03*
D37*
X0034414Y0226540D03*
X0034664Y0226540D03*
X0034914Y0226540D03*
X0035164Y0226540D03*
D38*
X0045914Y0226540D03*
X0046164Y0226540D03*
X0046414Y0226540D03*
X0035414Y0240540D03*
X0035164Y0240540D03*
X0034914Y0240540D03*
X0034664Y0240540D03*
D39*
X0035414Y0226540D03*
X0035664Y0226540D03*
X0035914Y0226540D03*
D40*
X0045664Y0226665D03*
X0046664Y0235915D03*
X0046664Y0245165D03*
X0035664Y0240665D03*
D41*
X0036164Y0226665D03*
D42*
X0036414Y0226540D03*
X0036664Y0226540D03*
X0036914Y0226540D03*
D43*
X0042664Y0236415D03*
X0042914Y0236415D03*
X0043164Y0236415D03*
X0042914Y0244665D03*
X0042664Y0244665D03*
X0042414Y0244665D03*
X0042164Y0244665D03*
D44*
X0043164Y0244790D03*
X0043414Y0244790D03*
X0043664Y0244790D03*
X0043914Y0244790D03*
X0044164Y0244790D03*
X0044164Y0236290D03*
X0043914Y0236290D03*
X0043664Y0236290D03*
X0043414Y0236290D03*
X0044414Y0236290D03*
X0044414Y0226540D03*
X0044164Y0226540D03*
X0044664Y0226540D03*
D45*
X0044664Y0236165D03*
X0044914Y0236165D03*
X0045164Y0236165D03*
X0045414Y0236165D03*
X0045664Y0236165D03*
X0045414Y0244915D03*
X0045164Y0244915D03*
X0044914Y0244915D03*
X0044664Y0244915D03*
X0044414Y0244915D03*
M02*
