G75*
%MOIN*%
%OFA0B0*%
%FSLAX25Y25*%
%IPPOS*%
%LPD*%
%AMOC8*
5,1,8,0,0,1.08239X$1,22.5*
%
%ADD10C,0.06496*%
%ADD11C,0.07087*%
%ADD12C,0.04756*%
%ADD13C,0.01000*%
%ADD14C,0.02600*%
D10*
X0068914Y0172511D03*
X0078658Y0176546D03*
X0071670Y0186290D03*
X0078658Y0196034D03*
X0068914Y0200070D03*
X0059170Y0196034D03*
X0055135Y0186290D03*
X0059170Y0176546D03*
X0068914Y0272511D03*
X0078658Y0276546D03*
X0071670Y0286290D03*
X0078658Y0296034D03*
X0068914Y0300070D03*
X0059170Y0296034D03*
X0055135Y0286290D03*
X0059170Y0276546D03*
D11*
X0042433Y0300522D03*
X0040433Y0202522D03*
D12*
X0128914Y0209735D03*
X0136788Y0215640D03*
X0128914Y0221546D03*
X0136788Y0227452D03*
X0128914Y0233357D03*
X0136788Y0240444D03*
X0128914Y0245168D03*
X0136788Y0251074D03*
X0128914Y0256979D03*
X0136788Y0262885D03*
X0128914Y0268790D03*
X0136788Y0203829D03*
D13*
X0021414Y0113790D02*
X0021414Y0358790D01*
X0152414Y0358790D01*
X0152414Y0113790D01*
X0021414Y0113790D01*
X0021414Y0114286D02*
X0152414Y0114286D01*
X0152414Y0115284D02*
X0021414Y0115284D01*
X0021414Y0116283D02*
X0152414Y0116283D01*
X0152414Y0117281D02*
X0021414Y0117281D01*
X0021414Y0118280D02*
X0152414Y0118280D01*
X0152414Y0119278D02*
X0021414Y0119278D01*
X0021414Y0120277D02*
X0152414Y0120277D01*
X0152414Y0121275D02*
X0021414Y0121275D01*
X0021414Y0122274D02*
X0120857Y0122274D01*
X0122025Y0121790D02*
X0118533Y0123236D01*
X0115860Y0125909D01*
X0114414Y0129400D01*
X0114414Y0133180D01*
X0115860Y0136671D01*
X0118533Y0139344D01*
X0122025Y0140790D01*
X0125804Y0140790D01*
X0129296Y0139344D01*
X0131968Y0136671D01*
X0133414Y0133180D01*
X0133414Y0129400D01*
X0131968Y0125909D01*
X0129296Y0123236D01*
X0125804Y0121790D01*
X0122025Y0121790D01*
X0118497Y0123272D02*
X0021414Y0123272D01*
X0021414Y0124271D02*
X0117499Y0124271D01*
X0116500Y0125269D02*
X0021414Y0125269D01*
X0021414Y0126268D02*
X0115712Y0126268D01*
X0115298Y0127266D02*
X0041953Y0127266D01*
X0040804Y0126790D02*
X0044296Y0128236D01*
X0046968Y0130909D01*
X0048414Y0134400D01*
X0048414Y0138180D01*
X0046968Y0141671D01*
X0044296Y0144344D01*
X0040804Y0145790D01*
X0037025Y0145790D01*
X0033533Y0144344D01*
X0030860Y0141671D01*
X0029414Y0138180D01*
X0029414Y0134400D01*
X0030860Y0130909D01*
X0033533Y0128236D01*
X0037025Y0126790D01*
X0040804Y0126790D01*
X0035875Y0127266D02*
X0021414Y0127266D01*
X0021414Y0128265D02*
X0033504Y0128265D01*
X0032506Y0129263D02*
X0021414Y0129263D01*
X0021414Y0130262D02*
X0031507Y0130262D01*
X0030715Y0131260D02*
X0021414Y0131260D01*
X0021414Y0132259D02*
X0030301Y0132259D01*
X0029888Y0133257D02*
X0021414Y0133257D01*
X0021414Y0134256D02*
X0029474Y0134256D01*
X0029414Y0135254D02*
X0021414Y0135254D01*
X0021414Y0136253D02*
X0029414Y0136253D01*
X0029414Y0137251D02*
X0021414Y0137251D01*
X0021414Y0138250D02*
X0029443Y0138250D01*
X0029857Y0139248D02*
X0021414Y0139248D01*
X0021414Y0140247D02*
X0030270Y0140247D01*
X0030684Y0141245D02*
X0021414Y0141245D01*
X0021414Y0142244D02*
X0031433Y0142244D01*
X0032432Y0143242D02*
X0021414Y0143242D01*
X0021414Y0144241D02*
X0033430Y0144241D01*
X0035695Y0145239D02*
X0021414Y0145239D01*
X0021414Y0146238D02*
X0067078Y0146238D01*
X0067190Y0146508D02*
X0066794Y0145552D01*
X0066794Y0144518D01*
X0067190Y0143562D01*
X0067922Y0142831D01*
X0068877Y0142435D01*
X0069912Y0142435D01*
X0070867Y0142831D01*
X0071598Y0143562D01*
X0071994Y0144518D01*
X0071994Y0145552D01*
X0071832Y0145945D01*
X0071951Y0145945D01*
X0072907Y0146341D01*
X0073638Y0147072D01*
X0074034Y0148028D01*
X0074034Y0149062D01*
X0073638Y0150018D01*
X0072907Y0150749D01*
X0071951Y0151145D01*
X0070917Y0151145D01*
X0069961Y0150749D01*
X0069230Y0150018D01*
X0068834Y0149062D01*
X0068834Y0148028D01*
X0068997Y0147635D01*
X0068877Y0147635D01*
X0067922Y0147239D01*
X0067190Y0146508D01*
X0067919Y0147237D02*
X0021414Y0147237D01*
X0021414Y0148235D02*
X0068834Y0148235D01*
X0068905Y0149234D02*
X0021414Y0149234D01*
X0021414Y0150232D02*
X0069444Y0150232D01*
X0073424Y0150232D02*
X0152414Y0150232D01*
X0152414Y0149234D02*
X0073963Y0149234D01*
X0074034Y0148235D02*
X0152414Y0148235D01*
X0152414Y0147237D02*
X0073706Y0147237D01*
X0072658Y0146238D02*
X0152414Y0146238D01*
X0152414Y0145239D02*
X0071994Y0145239D01*
X0071880Y0144241D02*
X0152414Y0144241D01*
X0152414Y0143242D02*
X0071279Y0143242D01*
X0067510Y0143242D02*
X0045397Y0143242D01*
X0046395Y0142244D02*
X0152414Y0142244D01*
X0152414Y0141245D02*
X0047144Y0141245D01*
X0047558Y0140247D02*
X0120713Y0140247D01*
X0118437Y0139248D02*
X0047972Y0139248D01*
X0048385Y0138250D02*
X0117439Y0138250D01*
X0116440Y0137251D02*
X0048414Y0137251D01*
X0048414Y0136253D02*
X0115687Y0136253D01*
X0115274Y0135254D02*
X0048414Y0135254D01*
X0048354Y0134256D02*
X0114860Y0134256D01*
X0114446Y0133257D02*
X0047941Y0133257D01*
X0047527Y0132259D02*
X0114414Y0132259D01*
X0114414Y0131260D02*
X0047114Y0131260D01*
X0046321Y0130262D02*
X0114414Y0130262D01*
X0114471Y0129263D02*
X0045322Y0129263D01*
X0044324Y0128265D02*
X0114885Y0128265D01*
X0126971Y0122274D02*
X0152414Y0122274D01*
X0152414Y0123272D02*
X0129331Y0123272D01*
X0130330Y0124271D02*
X0152414Y0124271D01*
X0152414Y0125269D02*
X0131328Y0125269D01*
X0132117Y0126268D02*
X0152414Y0126268D01*
X0152414Y0127266D02*
X0132530Y0127266D01*
X0132944Y0128265D02*
X0152414Y0128265D01*
X0152414Y0129263D02*
X0133357Y0129263D01*
X0133414Y0130262D02*
X0152414Y0130262D01*
X0152414Y0131260D02*
X0133414Y0131260D01*
X0133414Y0132259D02*
X0152414Y0132259D01*
X0152414Y0133257D02*
X0133382Y0133257D01*
X0132968Y0134256D02*
X0152414Y0134256D01*
X0152414Y0135254D02*
X0132555Y0135254D01*
X0132141Y0136253D02*
X0152414Y0136253D01*
X0152414Y0137251D02*
X0131388Y0137251D01*
X0130389Y0138250D02*
X0152414Y0138250D01*
X0152414Y0139248D02*
X0129391Y0139248D01*
X0127115Y0140247D02*
X0152414Y0140247D01*
X0152414Y0151231D02*
X0021414Y0151231D01*
X0021414Y0152229D02*
X0152414Y0152229D01*
X0152414Y0153228D02*
X0021414Y0153228D01*
X0021414Y0154226D02*
X0152414Y0154226D01*
X0152414Y0155225D02*
X0021414Y0155225D01*
X0021414Y0156223D02*
X0152414Y0156223D01*
X0152414Y0157222D02*
X0021414Y0157222D01*
X0021414Y0158220D02*
X0152414Y0158220D01*
X0152414Y0159219D02*
X0021414Y0159219D01*
X0021414Y0160217D02*
X0152414Y0160217D01*
X0152414Y0161216D02*
X0021414Y0161216D01*
X0021414Y0162214D02*
X0152414Y0162214D01*
X0152414Y0163213D02*
X0021414Y0163213D01*
X0021414Y0164211D02*
X0152414Y0164211D01*
X0152414Y0165210D02*
X0021414Y0165210D01*
X0021414Y0166208D02*
X0152414Y0166208D01*
X0152414Y0167207D02*
X0021414Y0167207D01*
X0021414Y0168205D02*
X0067424Y0168205D01*
X0068010Y0167963D02*
X0069819Y0167963D01*
X0071490Y0168655D01*
X0072770Y0169934D01*
X0073462Y0171606D01*
X0073462Y0173415D01*
X0072770Y0175087D01*
X0071490Y0176366D01*
X0069819Y0177059D01*
X0068010Y0177059D01*
X0066338Y0176366D01*
X0065059Y0175087D01*
X0064366Y0173415D01*
X0064366Y0171606D01*
X0065059Y0169934D01*
X0066338Y0168655D01*
X0068010Y0167963D01*
X0070405Y0168205D02*
X0152414Y0168205D01*
X0152414Y0169204D02*
X0072039Y0169204D01*
X0072881Y0170202D02*
X0152414Y0170202D01*
X0152414Y0171201D02*
X0073294Y0171201D01*
X0073462Y0172199D02*
X0076731Y0172199D01*
X0076836Y0172146D02*
X0077546Y0171915D01*
X0078158Y0171818D01*
X0078158Y0176046D01*
X0073930Y0176046D01*
X0074027Y0175434D01*
X0074258Y0174723D01*
X0074597Y0174057D01*
X0075037Y0173453D01*
X0075565Y0172924D01*
X0076170Y0172485D01*
X0076836Y0172146D01*
X0078158Y0172199D02*
X0079158Y0172199D01*
X0079158Y0171818D02*
X0079770Y0171915D01*
X0080481Y0172146D01*
X0081147Y0172485D01*
X0081751Y0172924D01*
X0082280Y0173453D01*
X0082719Y0174057D01*
X0083058Y0174723D01*
X0083289Y0175434D01*
X0083386Y0176046D01*
X0079158Y0176046D01*
X0079158Y0171818D01*
X0079158Y0173198D02*
X0078158Y0173198D01*
X0078158Y0174196D02*
X0079158Y0174196D01*
X0079158Y0175195D02*
X0078158Y0175195D01*
X0078158Y0176046D02*
X0079158Y0176046D01*
X0079158Y0177046D01*
X0078158Y0177046D01*
X0078158Y0176046D01*
X0078158Y0176193D02*
X0071663Y0176193D01*
X0072662Y0175195D02*
X0074105Y0175195D01*
X0074527Y0174196D02*
X0073139Y0174196D01*
X0073462Y0173198D02*
X0075292Y0173198D01*
X0073930Y0177046D02*
X0078158Y0177046D01*
X0078158Y0181274D01*
X0077546Y0181177D01*
X0076836Y0180946D01*
X0076170Y0180607D01*
X0075565Y0180168D01*
X0075037Y0179639D01*
X0074597Y0179035D01*
X0074258Y0178369D01*
X0074027Y0177658D01*
X0073930Y0177046D01*
X0073953Y0177192D02*
X0063718Y0177192D01*
X0063718Y0177451D02*
X0063026Y0179122D01*
X0061746Y0180402D01*
X0060075Y0181094D01*
X0058265Y0181094D01*
X0056594Y0180402D01*
X0055314Y0179122D01*
X0054622Y0177451D01*
X0054622Y0175641D01*
X0055314Y0173970D01*
X0056594Y0172690D01*
X0058265Y0171998D01*
X0060075Y0171998D01*
X0061746Y0172690D01*
X0063026Y0173970D01*
X0063718Y0175641D01*
X0063718Y0177451D01*
X0063412Y0178190D02*
X0074200Y0178190D01*
X0074710Y0179189D02*
X0062959Y0179189D01*
X0061961Y0180187D02*
X0075592Y0180187D01*
X0077602Y0181186D02*
X0021414Y0181186D01*
X0021414Y0182184D02*
X0053162Y0182184D01*
X0052558Y0182434D02*
X0054230Y0181742D01*
X0056039Y0181742D01*
X0057711Y0182434D01*
X0058990Y0183714D01*
X0059683Y0185385D01*
X0059683Y0187195D01*
X0058990Y0188866D01*
X0057711Y0190146D01*
X0056039Y0190838D01*
X0054230Y0190838D01*
X0052558Y0190146D01*
X0051279Y0188866D01*
X0050587Y0187195D01*
X0050587Y0185385D01*
X0051279Y0183714D01*
X0052558Y0182434D01*
X0051810Y0183183D02*
X0021414Y0183183D01*
X0021414Y0184181D02*
X0051085Y0184181D01*
X0050672Y0185180D02*
X0021414Y0185180D01*
X0021414Y0186178D02*
X0050587Y0186178D01*
X0050587Y0187177D02*
X0021414Y0187177D01*
X0021414Y0188175D02*
X0050993Y0188175D01*
X0051587Y0189174D02*
X0021414Y0189174D01*
X0021414Y0190172D02*
X0052623Y0190172D01*
X0055604Y0193168D02*
X0021414Y0193168D01*
X0021414Y0192170D02*
X0056616Y0192170D01*
X0056594Y0192179D02*
X0058265Y0191486D01*
X0060075Y0191486D01*
X0061746Y0192179D01*
X0063026Y0193458D01*
X0063718Y0195130D01*
X0063718Y0196939D01*
X0063026Y0198610D01*
X0061746Y0199890D01*
X0060075Y0200582D01*
X0058265Y0200582D01*
X0056594Y0199890D01*
X0055314Y0198610D01*
X0054622Y0196939D01*
X0054622Y0195130D01*
X0055314Y0193458D01*
X0056594Y0192179D01*
X0057646Y0190172D02*
X0069158Y0190172D01*
X0069094Y0190146D02*
X0067814Y0188866D01*
X0067122Y0187195D01*
X0067122Y0185385D01*
X0067814Y0183714D01*
X0069094Y0182434D01*
X0070765Y0181742D01*
X0072575Y0181742D01*
X0074246Y0182434D01*
X0075526Y0183714D01*
X0076218Y0185385D01*
X0076218Y0187195D01*
X0075526Y0188866D01*
X0074246Y0190146D01*
X0072575Y0190838D01*
X0070765Y0190838D01*
X0069094Y0190146D01*
X0068122Y0189174D02*
X0058683Y0189174D01*
X0059276Y0188175D02*
X0067528Y0188175D01*
X0067122Y0187177D02*
X0059683Y0187177D01*
X0059683Y0186178D02*
X0067122Y0186178D01*
X0067207Y0185180D02*
X0059598Y0185180D01*
X0059184Y0184181D02*
X0067621Y0184181D01*
X0068345Y0183183D02*
X0058459Y0183183D01*
X0057107Y0182184D02*
X0069698Y0182184D01*
X0073643Y0182184D02*
X0152414Y0182184D01*
X0152414Y0181186D02*
X0079715Y0181186D01*
X0079770Y0181177D02*
X0079158Y0181274D01*
X0079158Y0177046D01*
X0083386Y0177046D01*
X0083289Y0177658D01*
X0083058Y0178369D01*
X0082719Y0179035D01*
X0082280Y0179639D01*
X0081751Y0180168D01*
X0081147Y0180607D01*
X0080481Y0180946D01*
X0079770Y0181177D01*
X0079158Y0181186D02*
X0078158Y0181186D01*
X0078158Y0180187D02*
X0079158Y0180187D01*
X0079158Y0179189D02*
X0078158Y0179189D01*
X0078158Y0178190D02*
X0079158Y0178190D01*
X0079158Y0177192D02*
X0078158Y0177192D01*
X0079158Y0176193D02*
X0152414Y0176193D01*
X0152414Y0175195D02*
X0083212Y0175195D01*
X0082790Y0174196D02*
X0152414Y0174196D01*
X0152414Y0173198D02*
X0082025Y0173198D01*
X0080586Y0172199D02*
X0152414Y0172199D01*
X0152414Y0177192D02*
X0083363Y0177192D01*
X0083116Y0178190D02*
X0152414Y0178190D01*
X0152414Y0179189D02*
X0082607Y0179189D01*
X0081724Y0180187D02*
X0152414Y0180187D01*
X0152414Y0183183D02*
X0074995Y0183183D01*
X0075719Y0184181D02*
X0152414Y0184181D01*
X0152414Y0185180D02*
X0076133Y0185180D01*
X0076218Y0186178D02*
X0152414Y0186178D01*
X0152414Y0187177D02*
X0076218Y0187177D01*
X0075812Y0188175D02*
X0152414Y0188175D01*
X0152414Y0189174D02*
X0075218Y0189174D01*
X0074182Y0190172D02*
X0152414Y0190172D01*
X0152414Y0191171D02*
X0021414Y0191171D01*
X0021414Y0194167D02*
X0055021Y0194167D01*
X0054622Y0195165D02*
X0021414Y0195165D01*
X0021414Y0196164D02*
X0054622Y0196164D01*
X0054715Y0197162D02*
X0021414Y0197162D01*
X0021414Y0198161D02*
X0038307Y0198161D01*
X0037690Y0198416D02*
X0039470Y0197679D01*
X0041396Y0197679D01*
X0043177Y0198416D01*
X0044539Y0199779D01*
X0045276Y0201559D01*
X0045276Y0203486D01*
X0044539Y0205266D01*
X0043177Y0206628D01*
X0041396Y0207366D01*
X0039470Y0207366D01*
X0037690Y0206628D01*
X0036327Y0205266D01*
X0035590Y0203486D01*
X0035590Y0201559D01*
X0036327Y0199779D01*
X0037690Y0198416D01*
X0036947Y0199159D02*
X0021414Y0199159D01*
X0021414Y0200158D02*
X0036170Y0200158D01*
X0035757Y0201156D02*
X0021414Y0201156D01*
X0021414Y0202155D02*
X0035590Y0202155D01*
X0035590Y0203153D02*
X0021414Y0203153D01*
X0021414Y0204152D02*
X0035866Y0204152D01*
X0036279Y0205150D02*
X0021414Y0205150D01*
X0021414Y0206149D02*
X0037210Y0206149D01*
X0038942Y0207147D02*
X0021414Y0207147D01*
X0021414Y0208146D02*
X0125591Y0208146D01*
X0125796Y0207652D02*
X0126831Y0206617D01*
X0128183Y0206057D01*
X0129646Y0206057D01*
X0130998Y0206617D01*
X0132032Y0207652D01*
X0132592Y0209003D01*
X0132592Y0210467D01*
X0132032Y0211818D01*
X0130998Y0212853D01*
X0129646Y0213413D01*
X0128183Y0213413D01*
X0126831Y0212853D01*
X0125796Y0211818D01*
X0125236Y0210467D01*
X0125236Y0209003D01*
X0125796Y0207652D01*
X0126301Y0207147D02*
X0041924Y0207147D01*
X0043656Y0206149D02*
X0127961Y0206149D01*
X0129867Y0206149D02*
X0133906Y0206149D01*
X0133670Y0205913D02*
X0133110Y0204561D01*
X0133110Y0203098D01*
X0133670Y0201746D01*
X0134705Y0200711D01*
X0136057Y0200152D01*
X0137520Y0200152D01*
X0138872Y0200711D01*
X0139906Y0201746D01*
X0140466Y0203098D01*
X0140466Y0204561D01*
X0139906Y0205913D01*
X0138872Y0206947D01*
X0137520Y0207507D01*
X0136057Y0207507D01*
X0134705Y0206947D01*
X0133670Y0205913D01*
X0133354Y0205150D02*
X0044587Y0205150D01*
X0045001Y0204152D02*
X0066885Y0204152D01*
X0066338Y0203925D02*
X0065059Y0202646D01*
X0064366Y0200974D01*
X0064366Y0199165D01*
X0065059Y0197493D01*
X0066338Y0196214D01*
X0068010Y0195522D01*
X0069819Y0195522D01*
X0071490Y0196214D01*
X0072770Y0197493D01*
X0073462Y0199165D01*
X0073462Y0200974D01*
X0072770Y0202646D01*
X0071490Y0203925D01*
X0069819Y0204618D01*
X0068010Y0204618D01*
X0066338Y0203925D01*
X0065566Y0203153D02*
X0045276Y0203153D01*
X0045276Y0202155D02*
X0064855Y0202155D01*
X0064441Y0201156D02*
X0045110Y0201156D01*
X0044696Y0200158D02*
X0057240Y0200158D01*
X0055863Y0199159D02*
X0043919Y0199159D01*
X0042559Y0198161D02*
X0055128Y0198161D01*
X0061100Y0200158D02*
X0064366Y0200158D01*
X0064369Y0199159D02*
X0062477Y0199159D01*
X0063212Y0198161D02*
X0064782Y0198161D01*
X0065390Y0197162D02*
X0063626Y0197162D01*
X0063718Y0196164D02*
X0066460Y0196164D01*
X0063718Y0195165D02*
X0074110Y0195165D01*
X0074110Y0195130D02*
X0074803Y0193458D01*
X0076082Y0192179D01*
X0077754Y0191486D01*
X0079563Y0191486D01*
X0081235Y0192179D01*
X0082514Y0193458D01*
X0083206Y0195130D01*
X0083206Y0196939D01*
X0082514Y0198610D01*
X0081235Y0199890D01*
X0079563Y0200582D01*
X0077754Y0200582D01*
X0076082Y0199890D01*
X0074803Y0198610D01*
X0074110Y0196939D01*
X0074110Y0195130D01*
X0074110Y0196164D02*
X0071369Y0196164D01*
X0072439Y0197162D02*
X0074203Y0197162D01*
X0074616Y0198161D02*
X0073046Y0198161D01*
X0073460Y0199159D02*
X0075351Y0199159D01*
X0076729Y0200158D02*
X0073462Y0200158D01*
X0073387Y0201156D02*
X0134260Y0201156D01*
X0133501Y0202155D02*
X0072973Y0202155D01*
X0072263Y0203153D02*
X0133110Y0203153D01*
X0133110Y0204152D02*
X0070944Y0204152D01*
X0074509Y0194167D02*
X0063319Y0194167D01*
X0062736Y0193168D02*
X0075093Y0193168D01*
X0076104Y0192170D02*
X0061725Y0192170D01*
X0056380Y0180187D02*
X0021414Y0180187D01*
X0021414Y0179189D02*
X0055381Y0179189D01*
X0054928Y0178190D02*
X0021414Y0178190D01*
X0021414Y0177192D02*
X0054622Y0177192D01*
X0054622Y0176193D02*
X0021414Y0176193D01*
X0021414Y0175195D02*
X0054807Y0175195D01*
X0055221Y0174196D02*
X0021414Y0174196D01*
X0021414Y0173198D02*
X0056086Y0173198D01*
X0057779Y0172199D02*
X0021414Y0172199D01*
X0021414Y0171201D02*
X0064534Y0171201D01*
X0064366Y0172199D02*
X0060561Y0172199D01*
X0062254Y0173198D02*
X0064366Y0173198D01*
X0064690Y0174196D02*
X0063120Y0174196D01*
X0063533Y0175195D02*
X0065167Y0175195D01*
X0066165Y0176193D02*
X0063718Y0176193D01*
X0064948Y0170202D02*
X0021414Y0170202D01*
X0021414Y0169204D02*
X0065789Y0169204D01*
X0066794Y0145239D02*
X0042133Y0145239D01*
X0044398Y0144241D02*
X0066909Y0144241D01*
X0081213Y0192170D02*
X0152414Y0192170D01*
X0152414Y0193168D02*
X0082224Y0193168D01*
X0082807Y0194167D02*
X0152414Y0194167D01*
X0152414Y0195165D02*
X0083206Y0195165D01*
X0083206Y0196164D02*
X0095364Y0196164D01*
X0095441Y0196086D02*
X0096397Y0195690D01*
X0097431Y0195690D01*
X0098387Y0196086D01*
X0099118Y0196817D01*
X0099514Y0197773D01*
X0099514Y0198807D01*
X0099118Y0199763D01*
X0098387Y0200494D01*
X0097431Y0200890D01*
X0096397Y0200890D01*
X0095441Y0200494D01*
X0094710Y0199763D01*
X0094314Y0198807D01*
X0094314Y0197773D01*
X0094710Y0196817D01*
X0095441Y0196086D01*
X0094567Y0197162D02*
X0083114Y0197162D01*
X0082700Y0198161D02*
X0094314Y0198161D01*
X0094460Y0199159D02*
X0081965Y0199159D01*
X0080588Y0200158D02*
X0095105Y0200158D01*
X0098724Y0200158D02*
X0121105Y0200158D01*
X0121441Y0200494D02*
X0120710Y0199763D01*
X0120314Y0198807D01*
X0120314Y0197773D01*
X0120710Y0196817D01*
X0121441Y0196086D01*
X0122397Y0195690D01*
X0123431Y0195690D01*
X0124387Y0196086D01*
X0125118Y0196817D01*
X0125514Y0197773D01*
X0125514Y0198807D01*
X0125118Y0199763D01*
X0124387Y0200494D01*
X0123431Y0200890D01*
X0122397Y0200890D01*
X0121441Y0200494D01*
X0120460Y0199159D02*
X0099368Y0199159D01*
X0099514Y0198161D02*
X0120314Y0198161D01*
X0120567Y0197162D02*
X0099261Y0197162D01*
X0098465Y0196164D02*
X0121364Y0196164D01*
X0124465Y0196164D02*
X0152414Y0196164D01*
X0152414Y0197162D02*
X0125261Y0197162D01*
X0125514Y0198161D02*
X0152414Y0198161D01*
X0152414Y0199159D02*
X0125368Y0199159D01*
X0124724Y0200158D02*
X0136042Y0200158D01*
X0137534Y0200158D02*
X0152414Y0200158D01*
X0152414Y0201156D02*
X0139316Y0201156D01*
X0140075Y0202155D02*
X0152414Y0202155D01*
X0152414Y0203153D02*
X0140466Y0203153D01*
X0140466Y0204152D02*
X0152414Y0204152D01*
X0152414Y0205150D02*
X0140222Y0205150D01*
X0139670Y0206149D02*
X0152414Y0206149D01*
X0152414Y0207147D02*
X0138389Y0207147D01*
X0135187Y0207147D02*
X0131528Y0207147D01*
X0132237Y0208146D02*
X0152414Y0208146D01*
X0152414Y0209144D02*
X0132592Y0209144D01*
X0132592Y0210143D02*
X0152414Y0210143D01*
X0152414Y0211141D02*
X0132313Y0211141D01*
X0131711Y0212140D02*
X0135629Y0212140D01*
X0136057Y0211963D02*
X0137520Y0211963D01*
X0138872Y0212522D01*
X0139906Y0213557D01*
X0140466Y0214909D01*
X0140466Y0216372D01*
X0139906Y0217724D01*
X0138872Y0218759D01*
X0137520Y0219318D01*
X0136057Y0219318D01*
X0134705Y0218759D01*
X0133670Y0217724D01*
X0133110Y0216372D01*
X0133110Y0214909D01*
X0133670Y0213557D01*
X0134705Y0212522D01*
X0136057Y0211963D01*
X0137948Y0212140D02*
X0152414Y0212140D01*
X0152414Y0213138D02*
X0139487Y0213138D01*
X0140146Y0214137D02*
X0152414Y0214137D01*
X0152414Y0215135D02*
X0140466Y0215135D01*
X0140466Y0216134D02*
X0152414Y0216134D01*
X0152414Y0217132D02*
X0140151Y0217132D01*
X0139499Y0218131D02*
X0152414Y0218131D01*
X0152414Y0219129D02*
X0137976Y0219129D01*
X0135600Y0219129D02*
X0131699Y0219129D01*
X0132032Y0219463D02*
X0132592Y0220814D01*
X0132592Y0222278D01*
X0132032Y0223629D01*
X0130998Y0224664D01*
X0129646Y0225224D01*
X0128183Y0225224D01*
X0126831Y0224664D01*
X0125796Y0223629D01*
X0125236Y0222278D01*
X0125236Y0220814D01*
X0125796Y0219463D01*
X0126831Y0218428D01*
X0128183Y0217868D01*
X0129646Y0217868D01*
X0130998Y0218428D01*
X0132032Y0219463D01*
X0132308Y0220128D02*
X0152414Y0220128D01*
X0152414Y0221126D02*
X0132592Y0221126D01*
X0132592Y0222125D02*
X0152414Y0222125D01*
X0152414Y0223123D02*
X0132242Y0223123D01*
X0131540Y0224122D02*
X0135216Y0224122D01*
X0134705Y0224333D02*
X0136057Y0223774D01*
X0137520Y0223774D01*
X0138872Y0224333D01*
X0139906Y0225368D01*
X0140466Y0226720D01*
X0140466Y0228183D01*
X0139906Y0229535D01*
X0138872Y0230570D01*
X0137520Y0231129D01*
X0136057Y0231129D01*
X0134705Y0230570D01*
X0133670Y0229535D01*
X0133110Y0228183D01*
X0133110Y0226720D01*
X0133670Y0225368D01*
X0134705Y0224333D01*
X0133918Y0225120D02*
X0129896Y0225120D01*
X0127933Y0225120D02*
X0021414Y0225120D01*
X0021414Y0224122D02*
X0126289Y0224122D01*
X0125587Y0223123D02*
X0021414Y0223123D01*
X0021414Y0222125D02*
X0125236Y0222125D01*
X0125236Y0221126D02*
X0021414Y0221126D01*
X0021414Y0220128D02*
X0125521Y0220128D01*
X0126129Y0219129D02*
X0021414Y0219129D01*
X0021414Y0218131D02*
X0127548Y0218131D01*
X0130280Y0218131D02*
X0134077Y0218131D01*
X0133425Y0217132D02*
X0021414Y0217132D01*
X0021414Y0216134D02*
X0133110Y0216134D01*
X0133110Y0215135D02*
X0021414Y0215135D01*
X0021414Y0214137D02*
X0133430Y0214137D01*
X0134089Y0213138D02*
X0130309Y0213138D01*
X0127519Y0213138D02*
X0021414Y0213138D01*
X0021414Y0212140D02*
X0126118Y0212140D01*
X0125516Y0211141D02*
X0021414Y0211141D01*
X0021414Y0210143D02*
X0125236Y0210143D01*
X0125236Y0209144D02*
X0021414Y0209144D01*
X0021414Y0226119D02*
X0133359Y0226119D01*
X0133110Y0227117D02*
X0021414Y0227117D01*
X0021414Y0228116D02*
X0133110Y0228116D01*
X0133496Y0229114D02*
X0021414Y0229114D01*
X0021414Y0230113D02*
X0127135Y0230113D01*
X0126831Y0230239D02*
X0128183Y0229679D01*
X0129646Y0229679D01*
X0130998Y0230239D01*
X0132032Y0231274D01*
X0132592Y0232625D01*
X0132592Y0234089D01*
X0132032Y0235440D01*
X0130998Y0236475D01*
X0129646Y0237035D01*
X0128183Y0237035D01*
X0126831Y0236475D01*
X0125796Y0235440D01*
X0125236Y0234089D01*
X0125236Y0232625D01*
X0125796Y0231274D01*
X0126831Y0230239D01*
X0125958Y0231111D02*
X0021414Y0231111D01*
X0021414Y0232110D02*
X0125450Y0232110D01*
X0125236Y0233108D02*
X0021414Y0233108D01*
X0021414Y0234107D02*
X0125244Y0234107D01*
X0125657Y0235105D02*
X0021414Y0235105D01*
X0021414Y0236104D02*
X0126460Y0236104D01*
X0127783Y0241439D02*
X0128532Y0241290D01*
X0128725Y0241290D01*
X0128725Y0244979D01*
X0125036Y0244979D01*
X0125036Y0244786D01*
X0125185Y0244037D01*
X0125478Y0243331D01*
X0125902Y0242696D01*
X0126442Y0242156D01*
X0127077Y0241731D01*
X0127783Y0241439D01*
X0128725Y0242095D02*
X0129103Y0242095D01*
X0129103Y0241290D02*
X0129296Y0241290D01*
X0130045Y0241439D01*
X0130751Y0241731D01*
X0131386Y0242156D01*
X0131926Y0242696D01*
X0132351Y0243331D01*
X0132643Y0244037D01*
X0132792Y0244786D01*
X0132792Y0244979D01*
X0129103Y0244979D01*
X0129103Y0241290D01*
X0129103Y0243094D02*
X0128725Y0243094D01*
X0128725Y0244092D02*
X0129103Y0244092D01*
X0129103Y0244979D02*
X0128725Y0244979D01*
X0128725Y0245357D01*
X0125036Y0245357D01*
X0125036Y0245550D01*
X0125185Y0246299D01*
X0125478Y0247005D01*
X0125902Y0247640D01*
X0126442Y0248180D01*
X0127077Y0248605D01*
X0127783Y0248897D01*
X0128532Y0249046D01*
X0128725Y0249046D01*
X0128725Y0245357D01*
X0129103Y0245357D01*
X0129103Y0249046D01*
X0129296Y0249046D01*
X0130045Y0248897D01*
X0130751Y0248605D01*
X0131386Y0248180D01*
X0131926Y0247640D01*
X0132351Y0247005D01*
X0132643Y0246299D01*
X0132792Y0245550D01*
X0132792Y0245357D01*
X0129103Y0245357D01*
X0129103Y0244979D01*
X0129103Y0245091D02*
X0152414Y0245091D01*
X0152414Y0246089D02*
X0132685Y0246089D01*
X0132296Y0247088D02*
X0152414Y0247088D01*
X0152414Y0248086D02*
X0139285Y0248086D01*
X0139260Y0248061D02*
X0139800Y0248602D01*
X0140225Y0249237D01*
X0140517Y0249942D01*
X0140666Y0250692D01*
X0140666Y0250885D01*
X0136977Y0250885D01*
X0136977Y0251263D01*
X0136599Y0251263D01*
X0136599Y0254952D01*
X0136406Y0254952D01*
X0135657Y0254802D01*
X0134951Y0254510D01*
X0134316Y0254086D01*
X0133776Y0253546D01*
X0133352Y0252910D01*
X0133059Y0252205D01*
X0132910Y0251455D01*
X0132910Y0251263D01*
X0136599Y0251263D01*
X0136599Y0250885D01*
X0132910Y0250885D01*
X0132910Y0250692D01*
X0133059Y0249942D01*
X0133352Y0249237D01*
X0133776Y0248602D01*
X0134316Y0248061D01*
X0134951Y0247637D01*
X0135657Y0247345D01*
X0136406Y0247196D01*
X0136599Y0247196D01*
X0136599Y0250884D01*
X0136977Y0250884D01*
X0136977Y0247196D01*
X0137170Y0247196D01*
X0137919Y0247345D01*
X0138625Y0247637D01*
X0139260Y0248061D01*
X0140123Y0249085D02*
X0152414Y0249085D01*
X0152414Y0250083D02*
X0140545Y0250083D01*
X0140666Y0251263D02*
X0140666Y0251455D01*
X0140517Y0252205D01*
X0140225Y0252910D01*
X0139800Y0253546D01*
X0139260Y0254086D01*
X0138625Y0254510D01*
X0137919Y0254802D01*
X0137170Y0254952D01*
X0136977Y0254952D01*
X0136977Y0251263D01*
X0140666Y0251263D01*
X0140542Y0252080D02*
X0152414Y0252080D01*
X0152414Y0251082D02*
X0136977Y0251082D01*
X0136599Y0251082D02*
X0083514Y0251082D01*
X0083514Y0250773D02*
X0083118Y0249817D01*
X0082387Y0249086D01*
X0081431Y0248690D01*
X0080397Y0248690D01*
X0079441Y0249086D01*
X0078710Y0249817D01*
X0078314Y0250773D01*
X0078314Y0251807D01*
X0078710Y0252763D01*
X0079441Y0253494D01*
X0080397Y0253890D01*
X0081431Y0253890D01*
X0082387Y0253494D01*
X0083118Y0252763D01*
X0083514Y0251807D01*
X0083514Y0250773D01*
X0083228Y0250083D02*
X0133031Y0250083D01*
X0133453Y0249085D02*
X0082384Y0249085D01*
X0079444Y0249085D02*
X0021414Y0249085D01*
X0021414Y0250083D02*
X0078600Y0250083D01*
X0078314Y0251082D02*
X0021414Y0251082D01*
X0021414Y0252080D02*
X0078427Y0252080D01*
X0079026Y0253079D02*
X0021414Y0253079D01*
X0021414Y0254077D02*
X0105462Y0254077D01*
X0105441Y0254086D02*
X0106397Y0253690D01*
X0107431Y0253690D01*
X0108387Y0254086D01*
X0109118Y0254817D01*
X0109514Y0255773D01*
X0109514Y0256807D01*
X0109118Y0257763D01*
X0108387Y0258494D01*
X0107431Y0258890D01*
X0106397Y0258890D01*
X0105441Y0258494D01*
X0104710Y0257763D01*
X0104314Y0256807D01*
X0104314Y0255773D01*
X0104710Y0254817D01*
X0105441Y0254086D01*
X0104603Y0255076D02*
X0021414Y0255076D01*
X0021414Y0256074D02*
X0104314Y0256074D01*
X0104424Y0257073D02*
X0021414Y0257073D01*
X0021414Y0258071D02*
X0105018Y0258071D01*
X0103118Y0259817D02*
X0103514Y0260773D01*
X0103514Y0261807D01*
X0103118Y0262763D01*
X0102387Y0263494D01*
X0101431Y0263890D01*
X0100397Y0263890D01*
X0099441Y0263494D01*
X0098710Y0262763D01*
X0098314Y0261807D01*
X0098314Y0260773D01*
X0098710Y0259817D01*
X0099441Y0259086D01*
X0100397Y0258690D01*
X0101431Y0258690D01*
X0102387Y0259086D01*
X0103118Y0259817D01*
X0103222Y0260068D02*
X0108606Y0260068D01*
X0108710Y0259817D02*
X0109441Y0259086D01*
X0110397Y0258690D01*
X0111431Y0258690D01*
X0112387Y0259086D01*
X0113118Y0259817D01*
X0113514Y0260773D01*
X0113514Y0261807D01*
X0113118Y0262763D01*
X0112387Y0263494D01*
X0111431Y0263890D01*
X0110397Y0263890D01*
X0109441Y0263494D01*
X0108710Y0262763D01*
X0108314Y0261807D01*
X0108314Y0260773D01*
X0108710Y0259817D01*
X0109480Y0259070D02*
X0102348Y0259070D01*
X0103514Y0261067D02*
X0108314Y0261067D01*
X0108421Y0262065D02*
X0103407Y0262065D01*
X0102817Y0263064D02*
X0109011Y0263064D01*
X0112817Y0263064D02*
X0133110Y0263064D01*
X0133110Y0263616D02*
X0133110Y0262153D01*
X0133670Y0260801D01*
X0134705Y0259767D01*
X0136057Y0259207D01*
X0137520Y0259207D01*
X0138872Y0259767D01*
X0139906Y0260801D01*
X0140466Y0262153D01*
X0140466Y0263616D01*
X0139906Y0264968D01*
X0138872Y0266003D01*
X0137520Y0266563D01*
X0136057Y0266563D01*
X0134705Y0266003D01*
X0133670Y0264968D01*
X0133110Y0263616D01*
X0133295Y0264062D02*
X0021414Y0264062D01*
X0021414Y0263064D02*
X0079011Y0263064D01*
X0078710Y0262763D02*
X0078314Y0261807D01*
X0078314Y0260773D01*
X0078710Y0259817D01*
X0079441Y0259086D01*
X0080397Y0258690D01*
X0081431Y0258690D01*
X0082387Y0259086D01*
X0083118Y0259817D01*
X0083514Y0260773D01*
X0083514Y0261807D01*
X0083118Y0262763D01*
X0082387Y0263494D01*
X0081431Y0263890D01*
X0080397Y0263890D01*
X0079441Y0263494D01*
X0078710Y0262763D01*
X0078421Y0262065D02*
X0021414Y0262065D01*
X0021414Y0261067D02*
X0078314Y0261067D01*
X0078606Y0260068D02*
X0021414Y0260068D01*
X0021414Y0259070D02*
X0079480Y0259070D01*
X0082348Y0259070D02*
X0089480Y0259070D01*
X0089441Y0259086D02*
X0090397Y0258690D01*
X0091431Y0258690D01*
X0092387Y0259086D01*
X0093118Y0259817D01*
X0093514Y0260773D01*
X0093514Y0261807D01*
X0093118Y0262763D01*
X0092387Y0263494D01*
X0091431Y0263890D01*
X0090397Y0263890D01*
X0089441Y0263494D01*
X0088710Y0262763D01*
X0088314Y0261807D01*
X0088314Y0260773D01*
X0088710Y0259817D01*
X0089441Y0259086D01*
X0088606Y0260068D02*
X0083222Y0260068D01*
X0083514Y0261067D02*
X0088314Y0261067D01*
X0088421Y0262065D02*
X0083407Y0262065D01*
X0082817Y0263064D02*
X0089011Y0263064D01*
X0092817Y0263064D02*
X0099011Y0263064D01*
X0098421Y0262065D02*
X0093407Y0262065D01*
X0093514Y0261067D02*
X0098314Y0261067D01*
X0098606Y0260068D02*
X0093222Y0260068D01*
X0092348Y0259070D02*
X0099480Y0259070D01*
X0108810Y0258071D02*
X0125386Y0258071D01*
X0125236Y0257711D02*
X0125236Y0256247D01*
X0125796Y0254896D01*
X0126831Y0253861D01*
X0128183Y0253301D01*
X0129646Y0253301D01*
X0130998Y0253861D01*
X0132032Y0254896D01*
X0132592Y0256247D01*
X0132592Y0257711D01*
X0132032Y0259062D01*
X0130998Y0260097D01*
X0129646Y0260657D01*
X0128183Y0260657D01*
X0126831Y0260097D01*
X0125796Y0259062D01*
X0125236Y0257711D01*
X0125236Y0257073D02*
X0109404Y0257073D01*
X0109514Y0256074D02*
X0125308Y0256074D01*
X0125722Y0255076D02*
X0109225Y0255076D01*
X0108366Y0254077D02*
X0126615Y0254077D01*
X0125803Y0259070D02*
X0112348Y0259070D01*
X0113222Y0260068D02*
X0126802Y0260068D01*
X0131026Y0260068D02*
X0134403Y0260068D01*
X0133560Y0261067D02*
X0113514Y0261067D01*
X0113407Y0262065D02*
X0133147Y0262065D01*
X0133763Y0265061D02*
X0021414Y0265061D01*
X0021414Y0266059D02*
X0126444Y0266059D01*
X0126831Y0265672D02*
X0125796Y0266707D01*
X0125236Y0268059D01*
X0125236Y0269522D01*
X0125796Y0270873D01*
X0126831Y0271908D01*
X0128183Y0272468D01*
X0129646Y0272468D01*
X0130998Y0271908D01*
X0132032Y0270873D01*
X0132592Y0269522D01*
X0132592Y0268059D01*
X0132032Y0266707D01*
X0130998Y0265672D01*
X0129646Y0265112D01*
X0128183Y0265112D01*
X0126831Y0265672D01*
X0125651Y0267058D02*
X0021414Y0267058D01*
X0021414Y0268056D02*
X0067783Y0268056D01*
X0068010Y0267963D02*
X0069819Y0267963D01*
X0071490Y0268655D01*
X0072770Y0269934D01*
X0073462Y0271606D01*
X0073462Y0273415D01*
X0072770Y0275087D01*
X0071490Y0276366D01*
X0069819Y0277059D01*
X0068010Y0277059D01*
X0066338Y0276366D01*
X0065059Y0275087D01*
X0064366Y0273415D01*
X0064366Y0271606D01*
X0065059Y0269934D01*
X0066338Y0268655D01*
X0068010Y0267963D01*
X0070045Y0268056D02*
X0125237Y0268056D01*
X0125236Y0269055D02*
X0092312Y0269055D01*
X0092387Y0269086D02*
X0093118Y0269817D01*
X0093514Y0270773D01*
X0093514Y0271807D01*
X0093118Y0272763D01*
X0092387Y0273494D01*
X0091431Y0273890D01*
X0090397Y0273890D01*
X0089441Y0273494D01*
X0088710Y0272763D01*
X0088314Y0271807D01*
X0088314Y0270773D01*
X0088710Y0269817D01*
X0089441Y0269086D01*
X0090397Y0268690D01*
X0091431Y0268690D01*
X0092387Y0269086D01*
X0093216Y0270053D02*
X0125456Y0270053D01*
X0125975Y0271052D02*
X0093514Y0271052D01*
X0093413Y0272050D02*
X0127174Y0272050D01*
X0130654Y0272050D02*
X0141348Y0272050D01*
X0141567Y0271832D02*
X0143064Y0271211D01*
X0144685Y0271211D01*
X0146183Y0271832D01*
X0147329Y0272978D01*
X0147950Y0274476D01*
X0147950Y0276097D01*
X0147329Y0277594D01*
X0146183Y0278741D01*
X0144685Y0279361D01*
X0143064Y0279361D01*
X0141567Y0278741D01*
X0140420Y0277594D01*
X0139800Y0276097D01*
X0139800Y0274476D01*
X0140420Y0272978D01*
X0141567Y0271832D01*
X0140391Y0273049D02*
X0092832Y0273049D01*
X0088996Y0273049D02*
X0081593Y0273049D01*
X0081235Y0272690D02*
X0082514Y0273970D01*
X0083206Y0275641D01*
X0083206Y0277451D01*
X0082514Y0279122D01*
X0081235Y0280402D01*
X0079563Y0281094D01*
X0077754Y0281094D01*
X0076082Y0280402D01*
X0074803Y0279122D01*
X0074110Y0277451D01*
X0074110Y0275641D01*
X0074803Y0273970D01*
X0076082Y0272690D01*
X0077754Y0271998D01*
X0079563Y0271998D01*
X0081235Y0272690D01*
X0079690Y0272050D02*
X0088415Y0272050D01*
X0088314Y0271052D02*
X0073233Y0271052D01*
X0073462Y0272050D02*
X0077627Y0272050D01*
X0075723Y0273049D02*
X0073462Y0273049D01*
X0073200Y0274047D02*
X0074770Y0274047D01*
X0074357Y0275046D02*
X0072787Y0275046D01*
X0071812Y0276044D02*
X0074110Y0276044D01*
X0074110Y0277043D02*
X0069857Y0277043D01*
X0067972Y0277043D02*
X0063718Y0277043D01*
X0063718Y0277451D02*
X0063026Y0279122D01*
X0061746Y0280402D01*
X0060075Y0281094D01*
X0058265Y0281094D01*
X0056594Y0280402D01*
X0055314Y0279122D01*
X0054622Y0277451D01*
X0054622Y0275641D01*
X0055314Y0273970D01*
X0056594Y0272690D01*
X0058265Y0271998D01*
X0060075Y0271998D01*
X0061746Y0272690D01*
X0063026Y0273970D01*
X0063718Y0275641D01*
X0063718Y0277451D01*
X0063473Y0278041D02*
X0074355Y0278041D01*
X0074769Y0279040D02*
X0063060Y0279040D01*
X0062109Y0280039D02*
X0075719Y0280039D01*
X0077616Y0281037D02*
X0060212Y0281037D01*
X0058128Y0281037D02*
X0021414Y0281037D01*
X0021414Y0280039D02*
X0056231Y0280039D01*
X0055280Y0279040D02*
X0021414Y0279040D01*
X0021414Y0278041D02*
X0054867Y0278041D01*
X0054622Y0277043D02*
X0021414Y0277043D01*
X0021414Y0276044D02*
X0054622Y0276044D01*
X0054869Y0275046D02*
X0021414Y0275046D01*
X0021414Y0274047D02*
X0055282Y0274047D01*
X0056235Y0273049D02*
X0021414Y0273049D01*
X0021414Y0272050D02*
X0058139Y0272050D01*
X0060201Y0272050D02*
X0064366Y0272050D01*
X0064366Y0273049D02*
X0062105Y0273049D01*
X0063058Y0274047D02*
X0064628Y0274047D01*
X0065042Y0275046D02*
X0063472Y0275046D01*
X0063718Y0276044D02*
X0066016Y0276044D01*
X0064596Y0271052D02*
X0021414Y0271052D01*
X0021414Y0270053D02*
X0065009Y0270053D01*
X0065938Y0269055D02*
X0021414Y0269055D01*
X0021414Y0282036D02*
X0053522Y0282036D01*
X0054230Y0281742D02*
X0056039Y0281742D01*
X0057711Y0282434D01*
X0058990Y0283714D01*
X0059683Y0285385D01*
X0059683Y0287195D01*
X0058990Y0288866D01*
X0057711Y0290146D01*
X0056039Y0290838D01*
X0054230Y0290838D01*
X0052558Y0290146D01*
X0051279Y0288866D01*
X0050587Y0287195D01*
X0050587Y0285385D01*
X0051279Y0283714D01*
X0052558Y0282434D01*
X0054230Y0281742D01*
X0056748Y0282036D02*
X0070057Y0282036D01*
X0070765Y0281742D02*
X0072575Y0281742D01*
X0074246Y0282434D01*
X0075526Y0283714D01*
X0076218Y0285385D01*
X0076218Y0287195D01*
X0075526Y0288866D01*
X0074246Y0290146D01*
X0072575Y0290838D01*
X0070765Y0290838D01*
X0069094Y0290146D01*
X0067814Y0288866D01*
X0067122Y0287195D01*
X0067122Y0285385D01*
X0067814Y0283714D01*
X0069094Y0282434D01*
X0070765Y0281742D01*
X0073283Y0282036D02*
X0152414Y0282036D01*
X0152414Y0283034D02*
X0074846Y0283034D01*
X0075658Y0284033D02*
X0152414Y0284033D01*
X0152414Y0285031D02*
X0076071Y0285031D01*
X0076218Y0286030D02*
X0152414Y0286030D01*
X0152414Y0287028D02*
X0076218Y0287028D01*
X0075874Y0288027D02*
X0152414Y0288027D01*
X0152414Y0289025D02*
X0075367Y0289025D01*
X0074368Y0290024D02*
X0152414Y0290024D01*
X0152414Y0291022D02*
X0021414Y0291022D01*
X0021414Y0290024D02*
X0052436Y0290024D01*
X0051438Y0289025D02*
X0021414Y0289025D01*
X0021414Y0288027D02*
X0050931Y0288027D01*
X0050587Y0287028D02*
X0021414Y0287028D01*
X0021414Y0286030D02*
X0050587Y0286030D01*
X0050733Y0285031D02*
X0021414Y0285031D01*
X0021414Y0284033D02*
X0051147Y0284033D01*
X0051959Y0283034D02*
X0021414Y0283034D01*
X0021414Y0292021D02*
X0056975Y0292021D01*
X0056594Y0292179D02*
X0058265Y0291486D01*
X0060075Y0291486D01*
X0061746Y0292179D01*
X0063026Y0293458D01*
X0063718Y0295130D01*
X0063718Y0296939D01*
X0063026Y0298610D01*
X0061746Y0299890D01*
X0060075Y0300582D01*
X0058265Y0300582D01*
X0056594Y0299890D01*
X0055314Y0298610D01*
X0054622Y0296939D01*
X0054622Y0295130D01*
X0055314Y0293458D01*
X0056594Y0292179D01*
X0055753Y0293019D02*
X0021414Y0293019D01*
X0021414Y0294018D02*
X0055083Y0294018D01*
X0054669Y0295016D02*
X0021414Y0295016D01*
X0021414Y0296015D02*
X0040659Y0296015D01*
X0041470Y0295679D02*
X0039690Y0296416D01*
X0038327Y0297779D01*
X0037590Y0299559D01*
X0037590Y0301486D01*
X0038327Y0303266D01*
X0039690Y0304628D01*
X0041470Y0305366D01*
X0043396Y0305366D01*
X0045177Y0304628D01*
X0046539Y0303266D01*
X0047276Y0301486D01*
X0047276Y0299559D01*
X0046539Y0297779D01*
X0045177Y0296416D01*
X0043396Y0295679D01*
X0041470Y0295679D01*
X0039093Y0297013D02*
X0021414Y0297013D01*
X0021414Y0298012D02*
X0038231Y0298012D01*
X0037817Y0299010D02*
X0021414Y0299010D01*
X0021414Y0300009D02*
X0037590Y0300009D01*
X0037590Y0301007D02*
X0021414Y0301007D01*
X0021414Y0302006D02*
X0037805Y0302006D01*
X0038219Y0303004D02*
X0021414Y0303004D01*
X0021414Y0304003D02*
X0039064Y0304003D01*
X0040590Y0305001D02*
X0021414Y0305001D01*
X0021414Y0306000D02*
X0152414Y0306000D01*
X0152414Y0306998D02*
X0021414Y0306998D01*
X0021414Y0307997D02*
X0152414Y0307997D01*
X0152414Y0308995D02*
X0021414Y0308995D01*
X0021414Y0309994D02*
X0152414Y0309994D01*
X0152414Y0310992D02*
X0021414Y0310992D01*
X0021414Y0311991D02*
X0152414Y0311991D01*
X0152414Y0312989D02*
X0021414Y0312989D01*
X0021414Y0313988D02*
X0152414Y0313988D01*
X0152414Y0314986D02*
X0021414Y0314986D01*
X0021414Y0315985D02*
X0152414Y0315985D01*
X0152414Y0316983D02*
X0021414Y0316983D01*
X0021414Y0317982D02*
X0152414Y0317982D01*
X0152414Y0318980D02*
X0021414Y0318980D01*
X0021414Y0319979D02*
X0152414Y0319979D01*
X0152414Y0320977D02*
X0021414Y0320977D01*
X0021414Y0321976D02*
X0152414Y0321976D01*
X0152414Y0322974D02*
X0021414Y0322974D01*
X0021414Y0323973D02*
X0152414Y0323973D01*
X0152414Y0324972D02*
X0021414Y0324972D01*
X0021414Y0325970D02*
X0152414Y0325970D01*
X0152414Y0326969D02*
X0021414Y0326969D01*
X0021414Y0327967D02*
X0152414Y0327967D01*
X0152414Y0328966D02*
X0021414Y0328966D01*
X0021414Y0329964D02*
X0152414Y0329964D01*
X0152414Y0330963D02*
X0021414Y0330963D01*
X0021414Y0331961D02*
X0036612Y0331961D01*
X0037025Y0331790D02*
X0040804Y0331790D01*
X0044296Y0333236D01*
X0046968Y0335909D01*
X0048414Y0339400D01*
X0048414Y0343180D01*
X0046968Y0346671D01*
X0044296Y0349344D01*
X0040804Y0350790D01*
X0037025Y0350790D01*
X0033533Y0349344D01*
X0030860Y0346671D01*
X0029414Y0343180D01*
X0029414Y0339400D01*
X0030860Y0335909D01*
X0033533Y0333236D01*
X0037025Y0331790D01*
X0034201Y0332960D02*
X0021414Y0332960D01*
X0021414Y0333958D02*
X0032811Y0333958D01*
X0031813Y0334957D02*
X0021414Y0334957D01*
X0021414Y0335955D02*
X0030841Y0335955D01*
X0030428Y0336954D02*
X0021414Y0336954D01*
X0021414Y0337952D02*
X0030014Y0337952D01*
X0029600Y0338951D02*
X0021414Y0338951D01*
X0021414Y0339949D02*
X0029414Y0339949D01*
X0029414Y0340948D02*
X0021414Y0340948D01*
X0021414Y0341946D02*
X0029414Y0341946D01*
X0029414Y0342945D02*
X0021414Y0342945D01*
X0021414Y0343943D02*
X0029730Y0343943D01*
X0030144Y0344942D02*
X0021414Y0344942D01*
X0021414Y0345940D02*
X0030558Y0345940D01*
X0031128Y0346939D02*
X0021414Y0346939D01*
X0021414Y0347937D02*
X0032126Y0347937D01*
X0033125Y0348936D02*
X0021414Y0348936D01*
X0021414Y0349934D02*
X0034958Y0349934D01*
X0042870Y0349934D02*
X0119958Y0349934D01*
X0118533Y0349344D02*
X0115860Y0346671D01*
X0114414Y0343180D01*
X0114414Y0339400D01*
X0115860Y0335909D01*
X0118533Y0333236D01*
X0122025Y0331790D01*
X0125804Y0331790D01*
X0129296Y0333236D01*
X0131968Y0335909D01*
X0133414Y0339400D01*
X0133414Y0343180D01*
X0131968Y0346671D01*
X0129296Y0349344D01*
X0125804Y0350790D01*
X0122025Y0350790D01*
X0118533Y0349344D01*
X0118125Y0348936D02*
X0044704Y0348936D01*
X0045702Y0347937D02*
X0117126Y0347937D01*
X0116128Y0346939D02*
X0046701Y0346939D01*
X0047271Y0345940D02*
X0115558Y0345940D01*
X0115144Y0344942D02*
X0047684Y0344942D01*
X0048098Y0343943D02*
X0114730Y0343943D01*
X0114414Y0342945D02*
X0048414Y0342945D01*
X0048414Y0341946D02*
X0114414Y0341946D01*
X0114414Y0340948D02*
X0048414Y0340948D01*
X0048414Y0339949D02*
X0114414Y0339949D01*
X0114600Y0338951D02*
X0048228Y0338951D01*
X0047814Y0337952D02*
X0115014Y0337952D01*
X0115428Y0336954D02*
X0047401Y0336954D01*
X0046987Y0335955D02*
X0115841Y0335955D01*
X0116813Y0334957D02*
X0046016Y0334957D01*
X0045017Y0333958D02*
X0117811Y0333958D01*
X0119201Y0332960D02*
X0043627Y0332960D01*
X0041217Y0331961D02*
X0121612Y0331961D01*
X0126217Y0331961D02*
X0152414Y0331961D01*
X0152414Y0332960D02*
X0128627Y0332960D01*
X0130017Y0333958D02*
X0152414Y0333958D01*
X0152414Y0334957D02*
X0131016Y0334957D01*
X0131987Y0335955D02*
X0152414Y0335955D01*
X0152414Y0336954D02*
X0132401Y0336954D01*
X0132814Y0337952D02*
X0152414Y0337952D01*
X0152414Y0338951D02*
X0133228Y0338951D01*
X0133414Y0339949D02*
X0152414Y0339949D01*
X0152414Y0340948D02*
X0133414Y0340948D01*
X0133414Y0341946D02*
X0152414Y0341946D01*
X0152414Y0342945D02*
X0133414Y0342945D01*
X0133098Y0343943D02*
X0152414Y0343943D01*
X0152414Y0344942D02*
X0132684Y0344942D01*
X0132271Y0345940D02*
X0152414Y0345940D01*
X0152414Y0346939D02*
X0131701Y0346939D01*
X0130702Y0347937D02*
X0152414Y0347937D01*
X0152414Y0348936D02*
X0129704Y0348936D01*
X0127870Y0349934D02*
X0152414Y0349934D01*
X0152414Y0350933D02*
X0021414Y0350933D01*
X0021414Y0351931D02*
X0152414Y0351931D01*
X0152414Y0352930D02*
X0021414Y0352930D01*
X0021414Y0353928D02*
X0152414Y0353928D01*
X0152414Y0354927D02*
X0021414Y0354927D01*
X0021414Y0355925D02*
X0152414Y0355925D01*
X0152414Y0356924D02*
X0021414Y0356924D01*
X0021414Y0357922D02*
X0152414Y0357922D01*
X0152414Y0305001D02*
X0044276Y0305001D01*
X0045802Y0304003D02*
X0066525Y0304003D01*
X0066338Y0303925D02*
X0065059Y0302646D01*
X0064366Y0300974D01*
X0064366Y0299165D01*
X0065059Y0297493D01*
X0066338Y0296214D01*
X0068010Y0295522D01*
X0069819Y0295522D01*
X0071490Y0296214D01*
X0072770Y0297493D01*
X0073462Y0299165D01*
X0073462Y0300974D01*
X0072770Y0302646D01*
X0071490Y0303925D01*
X0069819Y0304618D01*
X0068010Y0304618D01*
X0066338Y0303925D01*
X0065417Y0303004D02*
X0046647Y0303004D01*
X0047061Y0302006D02*
X0064793Y0302006D01*
X0064380Y0301007D02*
X0047276Y0301007D01*
X0047276Y0300009D02*
X0056881Y0300009D01*
X0055714Y0299010D02*
X0047049Y0299010D01*
X0046635Y0298012D02*
X0055066Y0298012D01*
X0054653Y0297013D02*
X0045773Y0297013D01*
X0044207Y0296015D02*
X0054622Y0296015D01*
X0057833Y0290024D02*
X0068972Y0290024D01*
X0067973Y0289025D02*
X0058832Y0289025D01*
X0059338Y0288027D02*
X0067467Y0288027D01*
X0067122Y0287028D02*
X0059683Y0287028D01*
X0059683Y0286030D02*
X0067122Y0286030D01*
X0067269Y0285031D02*
X0059536Y0285031D01*
X0059122Y0284033D02*
X0067682Y0284033D01*
X0068494Y0283034D02*
X0058310Y0283034D01*
X0061365Y0292021D02*
X0076105Y0292021D01*
X0076170Y0291973D02*
X0076836Y0291634D01*
X0077546Y0291403D01*
X0078158Y0291306D01*
X0078158Y0295534D01*
X0073930Y0295534D01*
X0074027Y0294922D01*
X0074258Y0294212D01*
X0074597Y0293546D01*
X0075037Y0292941D01*
X0075565Y0292413D01*
X0076170Y0291973D01*
X0074980Y0293019D02*
X0062587Y0293019D01*
X0063258Y0294018D02*
X0074357Y0294018D01*
X0074012Y0295016D02*
X0063671Y0295016D01*
X0063718Y0296015D02*
X0066819Y0296015D01*
X0065539Y0297013D02*
X0063687Y0297013D01*
X0063274Y0298012D02*
X0064844Y0298012D01*
X0064430Y0299010D02*
X0062626Y0299010D01*
X0061459Y0300009D02*
X0064366Y0300009D01*
X0071009Y0296015D02*
X0078158Y0296015D01*
X0078158Y0295534D02*
X0078158Y0296534D01*
X0073930Y0296534D01*
X0074027Y0297146D01*
X0074258Y0297857D01*
X0074597Y0298523D01*
X0075037Y0299127D01*
X0075565Y0299656D01*
X0076170Y0300095D01*
X0076836Y0300434D01*
X0077546Y0300665D01*
X0078158Y0300762D01*
X0078158Y0296534D01*
X0079158Y0296534D01*
X0079158Y0300762D01*
X0079770Y0300665D01*
X0080481Y0300434D01*
X0081147Y0300095D01*
X0081751Y0299656D01*
X0082280Y0299127D01*
X0082719Y0298523D01*
X0083058Y0297857D01*
X0083289Y0297146D01*
X0083386Y0296534D01*
X0079158Y0296534D01*
X0079158Y0295534D01*
X0079158Y0291306D01*
X0079770Y0291403D01*
X0080481Y0291634D01*
X0081147Y0291973D01*
X0081751Y0292413D01*
X0082280Y0292941D01*
X0082719Y0293546D01*
X0083058Y0294212D01*
X0083289Y0294922D01*
X0083386Y0295534D01*
X0079158Y0295534D01*
X0078158Y0295534D01*
X0078158Y0295016D02*
X0079158Y0295016D01*
X0079158Y0294018D02*
X0078158Y0294018D01*
X0078158Y0293019D02*
X0079158Y0293019D01*
X0079158Y0292021D02*
X0078158Y0292021D01*
X0081212Y0292021D02*
X0152414Y0292021D01*
X0152414Y0293019D02*
X0082337Y0293019D01*
X0082960Y0294018D02*
X0152414Y0294018D01*
X0152414Y0295016D02*
X0083304Y0295016D01*
X0083310Y0297013D02*
X0152414Y0297013D01*
X0152414Y0296015D02*
X0079158Y0296015D01*
X0079158Y0297013D02*
X0078158Y0297013D01*
X0078158Y0298012D02*
X0079158Y0298012D01*
X0079158Y0299010D02*
X0078158Y0299010D01*
X0078158Y0300009D02*
X0079158Y0300009D01*
X0081266Y0300009D02*
X0152414Y0300009D01*
X0152414Y0301007D02*
X0073449Y0301007D01*
X0073462Y0300009D02*
X0076051Y0300009D01*
X0074952Y0299010D02*
X0073398Y0299010D01*
X0072985Y0298012D02*
X0074337Y0298012D01*
X0074006Y0297013D02*
X0072290Y0297013D01*
X0073035Y0302006D02*
X0152414Y0302006D01*
X0152414Y0303004D02*
X0072411Y0303004D01*
X0071303Y0304003D02*
X0152414Y0304003D01*
X0152414Y0299010D02*
X0082365Y0299010D01*
X0082980Y0298012D02*
X0152414Y0298012D01*
X0152414Y0281037D02*
X0079701Y0281037D01*
X0081598Y0280039D02*
X0152414Y0280039D01*
X0152414Y0279040D02*
X0145460Y0279040D01*
X0146882Y0278041D02*
X0152414Y0278041D01*
X0152414Y0277043D02*
X0147558Y0277043D01*
X0147950Y0276044D02*
X0152414Y0276044D01*
X0152414Y0275046D02*
X0147950Y0275046D01*
X0147772Y0274047D02*
X0152414Y0274047D01*
X0152414Y0273049D02*
X0147359Y0273049D01*
X0146402Y0272050D02*
X0152414Y0272050D01*
X0152414Y0271052D02*
X0131854Y0271052D01*
X0132372Y0270053D02*
X0152414Y0270053D01*
X0152414Y0269055D02*
X0132592Y0269055D01*
X0132591Y0268056D02*
X0152414Y0268056D01*
X0152414Y0267058D02*
X0132178Y0267058D01*
X0131385Y0266059D02*
X0134842Y0266059D01*
X0138735Y0266059D02*
X0152414Y0266059D01*
X0152414Y0265061D02*
X0139813Y0265061D01*
X0140281Y0264062D02*
X0152414Y0264062D01*
X0152414Y0263064D02*
X0140466Y0263064D01*
X0140430Y0262065D02*
X0152414Y0262065D01*
X0152414Y0261067D02*
X0140016Y0261067D01*
X0139173Y0260068D02*
X0152414Y0260068D01*
X0152414Y0259070D02*
X0132025Y0259070D01*
X0132443Y0258071D02*
X0152414Y0258071D01*
X0152414Y0257073D02*
X0132592Y0257073D01*
X0132520Y0256074D02*
X0152414Y0256074D01*
X0152414Y0255076D02*
X0132107Y0255076D01*
X0131214Y0254077D02*
X0134308Y0254077D01*
X0133464Y0253079D02*
X0082803Y0253079D01*
X0083401Y0252080D02*
X0133035Y0252080D01*
X0136599Y0252080D02*
X0136977Y0252080D01*
X0136977Y0253079D02*
X0136599Y0253079D01*
X0136599Y0254077D02*
X0136977Y0254077D01*
X0139269Y0254077D02*
X0152414Y0254077D01*
X0152414Y0253079D02*
X0140112Y0253079D01*
X0136977Y0250083D02*
X0136599Y0250083D01*
X0136599Y0249085D02*
X0136977Y0249085D01*
X0136977Y0248086D02*
X0136599Y0248086D01*
X0134291Y0248086D02*
X0131480Y0248086D01*
X0129103Y0248086D02*
X0128725Y0248086D01*
X0128725Y0247088D02*
X0129103Y0247088D01*
X0129103Y0246089D02*
X0128725Y0246089D01*
X0128725Y0245091D02*
X0109232Y0245091D01*
X0109118Y0244817D02*
X0109514Y0245773D01*
X0109514Y0246807D01*
X0109118Y0247763D01*
X0108387Y0248494D01*
X0107431Y0248890D01*
X0106397Y0248890D01*
X0105441Y0248494D01*
X0104710Y0247763D01*
X0104314Y0246807D01*
X0104314Y0245773D01*
X0104710Y0244817D01*
X0105441Y0244086D01*
X0106397Y0243690D01*
X0107431Y0243690D01*
X0108387Y0244086D01*
X0109118Y0244817D01*
X0108393Y0244092D02*
X0125174Y0244092D01*
X0125636Y0243094D02*
X0102788Y0243094D01*
X0103118Y0242763D02*
X0102387Y0243494D01*
X0101431Y0243890D01*
X0100397Y0243890D01*
X0099441Y0243494D01*
X0098710Y0242763D01*
X0098314Y0241807D01*
X0098314Y0240773D01*
X0098710Y0239817D01*
X0099441Y0239086D01*
X0100397Y0238690D01*
X0101431Y0238690D01*
X0102387Y0239086D01*
X0103118Y0239817D01*
X0103514Y0240773D01*
X0103514Y0241807D01*
X0103118Y0242763D01*
X0103395Y0242095D02*
X0126533Y0242095D01*
X0125143Y0246089D02*
X0109514Y0246089D01*
X0109398Y0247088D02*
X0125533Y0247088D01*
X0126348Y0248086D02*
X0108795Y0248086D01*
X0105033Y0248086D02*
X0021414Y0248086D01*
X0021414Y0247088D02*
X0104430Y0247088D01*
X0104314Y0246089D02*
X0021414Y0246089D01*
X0021414Y0245091D02*
X0104597Y0245091D01*
X0105435Y0244092D02*
X0021414Y0244092D01*
X0021414Y0243094D02*
X0079041Y0243094D01*
X0078710Y0242763D02*
X0079441Y0243494D01*
X0080397Y0243890D01*
X0081431Y0243890D01*
X0082387Y0243494D01*
X0083118Y0242763D01*
X0083514Y0241807D01*
X0083514Y0240773D01*
X0083118Y0239817D01*
X0082387Y0239086D01*
X0081431Y0238690D01*
X0080397Y0238690D01*
X0079441Y0239086D01*
X0078710Y0239817D01*
X0078314Y0240773D01*
X0078314Y0241807D01*
X0078710Y0242763D01*
X0078433Y0242095D02*
X0021414Y0242095D01*
X0021414Y0241097D02*
X0078314Y0241097D01*
X0078594Y0240098D02*
X0021414Y0240098D01*
X0021414Y0239100D02*
X0079428Y0239100D01*
X0082401Y0239100D02*
X0089428Y0239100D01*
X0089441Y0239086D02*
X0090397Y0238690D01*
X0091431Y0238690D01*
X0092387Y0239086D01*
X0093118Y0239817D01*
X0093514Y0240773D01*
X0093514Y0241807D01*
X0093118Y0242763D01*
X0092387Y0243494D01*
X0091431Y0243890D01*
X0090397Y0243890D01*
X0089441Y0243494D01*
X0088710Y0242763D01*
X0088314Y0241807D01*
X0088314Y0240773D01*
X0088710Y0239817D01*
X0089441Y0239086D01*
X0088594Y0240098D02*
X0083235Y0240098D01*
X0083514Y0241097D02*
X0088314Y0241097D01*
X0088433Y0242095D02*
X0083395Y0242095D01*
X0082788Y0243094D02*
X0089041Y0243094D01*
X0092788Y0243094D02*
X0099041Y0243094D01*
X0098433Y0242095D02*
X0093395Y0242095D01*
X0093514Y0241097D02*
X0098314Y0241097D01*
X0098594Y0240098D02*
X0093235Y0240098D01*
X0092401Y0239100D02*
X0099428Y0239100D01*
X0102401Y0239100D02*
X0133147Y0239100D01*
X0133059Y0239312D02*
X0133352Y0238607D01*
X0133776Y0237972D01*
X0134316Y0237431D01*
X0134951Y0237007D01*
X0135657Y0236715D01*
X0136406Y0236566D01*
X0136599Y0236566D01*
X0136599Y0240255D01*
X0132910Y0240255D01*
X0132910Y0240062D01*
X0133059Y0239312D01*
X0132910Y0240098D02*
X0103235Y0240098D01*
X0103514Y0241097D02*
X0132964Y0241097D01*
X0132910Y0240826D02*
X0132910Y0240633D01*
X0136599Y0240633D01*
X0136599Y0244322D01*
X0136406Y0244322D01*
X0135657Y0244173D01*
X0134951Y0243880D01*
X0134316Y0243456D01*
X0133776Y0242916D01*
X0133352Y0242281D01*
X0133059Y0241575D01*
X0132910Y0240826D01*
X0133275Y0242095D02*
X0131295Y0242095D01*
X0132192Y0243094D02*
X0133954Y0243094D01*
X0132654Y0244092D02*
X0135463Y0244092D01*
X0136599Y0244092D02*
X0136977Y0244092D01*
X0136977Y0244322D02*
X0136977Y0240633D01*
X0136599Y0240633D01*
X0136599Y0240255D01*
X0136977Y0240255D01*
X0136977Y0240633D01*
X0140666Y0240633D01*
X0140666Y0240826D01*
X0140517Y0241575D01*
X0140225Y0242281D01*
X0139800Y0242916D01*
X0139260Y0243456D01*
X0138625Y0243880D01*
X0137919Y0244173D01*
X0137170Y0244322D01*
X0136977Y0244322D01*
X0138114Y0244092D02*
X0152414Y0244092D01*
X0152414Y0243094D02*
X0139623Y0243094D01*
X0140302Y0242095D02*
X0152414Y0242095D01*
X0152414Y0241097D02*
X0140612Y0241097D01*
X0140666Y0240255D02*
X0136977Y0240255D01*
X0136977Y0236566D01*
X0137170Y0236566D01*
X0137919Y0236715D01*
X0138625Y0237007D01*
X0139260Y0237431D01*
X0139800Y0237972D01*
X0140225Y0238607D01*
X0140517Y0239312D01*
X0140666Y0240062D01*
X0140666Y0240255D01*
X0140666Y0240098D02*
X0152414Y0240098D01*
X0152414Y0239100D02*
X0140429Y0239100D01*
X0139887Y0238101D02*
X0152414Y0238101D01*
X0152414Y0237103D02*
X0138768Y0237103D01*
X0136977Y0237103D02*
X0136599Y0237103D01*
X0136599Y0238101D02*
X0136977Y0238101D01*
X0136977Y0239100D02*
X0136599Y0239100D01*
X0136599Y0240098D02*
X0136977Y0240098D01*
X0136977Y0241097D02*
X0136599Y0241097D01*
X0136599Y0242095D02*
X0136977Y0242095D01*
X0136977Y0243094D02*
X0136599Y0243094D01*
X0133690Y0238101D02*
X0021414Y0238101D01*
X0021414Y0237103D02*
X0134808Y0237103D01*
X0132171Y0235105D02*
X0152414Y0235105D01*
X0152414Y0234107D02*
X0132585Y0234107D01*
X0132592Y0233108D02*
X0152414Y0233108D01*
X0152414Y0232110D02*
X0132379Y0232110D01*
X0131870Y0231111D02*
X0136013Y0231111D01*
X0137563Y0231111D02*
X0152414Y0231111D01*
X0152414Y0230113D02*
X0139328Y0230113D01*
X0140080Y0229114D02*
X0152414Y0229114D01*
X0152414Y0228116D02*
X0140466Y0228116D01*
X0140466Y0227117D02*
X0152414Y0227117D01*
X0152414Y0226119D02*
X0140217Y0226119D01*
X0139659Y0225120D02*
X0152414Y0225120D01*
X0152414Y0224122D02*
X0138361Y0224122D01*
X0134248Y0230113D02*
X0130693Y0230113D01*
X0131369Y0236104D02*
X0152414Y0236104D01*
X0139977Y0274047D02*
X0082546Y0274047D01*
X0082960Y0275046D02*
X0139800Y0275046D01*
X0139800Y0276044D02*
X0083206Y0276044D01*
X0083206Y0277043D02*
X0140192Y0277043D01*
X0140868Y0278041D02*
X0082962Y0278041D01*
X0082548Y0279040D02*
X0142289Y0279040D01*
X0089516Y0269055D02*
X0071890Y0269055D01*
X0072819Y0270053D02*
X0088612Y0270053D01*
D14*
X0090914Y0271290D03*
X0090914Y0261290D03*
X0100914Y0261290D03*
X0106914Y0256290D03*
X0110914Y0261290D03*
X0106914Y0246290D03*
X0100914Y0241290D03*
X0090914Y0241290D03*
X0080914Y0241290D03*
X0080914Y0251290D03*
X0080914Y0261290D03*
X0091914Y0289290D03*
X0091914Y0294290D03*
X0091914Y0299290D03*
X0096914Y0299290D03*
X0100914Y0299290D03*
X0105914Y0299290D03*
X0110914Y0299290D03*
X0115914Y0299290D03*
X0120914Y0299290D03*
X0120914Y0294290D03*
X0120914Y0289290D03*
X0127914Y0289290D03*
X0148914Y0289290D03*
X0148914Y0311290D03*
X0136914Y0327290D03*
X0133914Y0316290D03*
X0113914Y0316290D03*
X0112914Y0327290D03*
X0102914Y0345290D03*
X0108914Y0353290D03*
X0094914Y0353290D03*
X0090914Y0345290D03*
X0096914Y0337290D03*
X0096914Y0318290D03*
X0098914Y0306290D03*
X0081914Y0319890D03*
X0081914Y0337290D03*
X0074914Y0345290D03*
X0068914Y0353290D03*
X0062914Y0345290D03*
X0056914Y0353290D03*
X0050914Y0353290D03*
X0066914Y0337290D03*
X0066914Y0318290D03*
X0050914Y0329290D03*
X0038914Y0321290D03*
X0024914Y0329290D03*
X0024914Y0353290D03*
X0038914Y0291290D03*
X0046914Y0281290D03*
X0038914Y0271290D03*
X0046914Y0261290D03*
X0038914Y0255290D03*
X0048914Y0243290D03*
X0038914Y0232290D03*
X0048914Y0226290D03*
X0038914Y0216290D03*
X0046914Y0209290D03*
X0038914Y0186290D03*
X0046914Y0178290D03*
X0038914Y0172290D03*
X0028914Y0151290D03*
X0048914Y0151290D03*
X0054914Y0139290D03*
X0066914Y0135290D03*
X0069394Y0145035D03*
X0071434Y0148545D03*
X0073914Y0155290D03*
X0073914Y0165290D03*
X0082914Y0165290D03*
X0082914Y0155290D03*
X0092914Y0155290D03*
X0092914Y0165290D03*
X0090914Y0175290D03*
X0084914Y0181290D03*
X0090914Y0187290D03*
X0084914Y0191290D03*
X0090914Y0201290D03*
X0096914Y0198290D03*
X0101914Y0202290D03*
X0097914Y0206290D03*
X0090914Y0213290D03*
X0084914Y0207290D03*
X0099914Y0191290D03*
X0102914Y0184290D03*
X0102914Y0175290D03*
X0102914Y0165290D03*
X0102914Y0155290D03*
X0098914Y0135290D03*
X0094914Y0121290D03*
X0084914Y0135290D03*
X0080914Y0121290D03*
X0066914Y0121290D03*
X0053914Y0121290D03*
X0024914Y0119290D03*
X0108914Y0121290D03*
X0133914Y0146290D03*
X0123914Y0161290D03*
X0127914Y0169290D03*
X0119914Y0184290D03*
X0119914Y0188290D03*
X0119914Y0192290D03*
X0122914Y0198290D03*
X0117914Y0202290D03*
X0121914Y0206290D03*
X0115414Y0184290D03*
X0148914Y0169290D03*
X0148914Y0118290D03*
X0148914Y0229290D03*
X0148914Y0253290D03*
X0113914Y0241290D03*
X0113914Y0233290D03*
X0082914Y0353290D03*
X0148414Y0353790D03*
M02*
