%
M48
M72
T01C0.01000
T02C0.03937
T03C0.04331
T04C0.04724
%
T01
X13000Y107790
X42000Y109790
X55000Y109790
X69000Y109790
X83000Y109790
X97000Y109790
X87000Y123790
X73000Y123790
X55000Y123790
X57480Y133535
X59520Y137045
X62000Y143790
X71000Y143790
X81000Y143790
X91000Y143790
X91000Y153790
X81000Y153790
X71000Y153790
X62000Y153790
X79000Y163790
X73000Y169790
X79000Y175790
X73000Y179790
X79000Y189790
X73000Y195790
X79000Y201790
X86000Y194790
X90000Y190790
X85000Y186790
X88000Y179790
X91000Y172790
X91000Y163790
X103500Y172790
X108000Y172790
X108000Y176790
X108000Y180790
X111000Y186790
X106000Y190790
X110000Y194790
X123000Y199790
X128000Y199790
X133000Y190790
X117000Y179790
X122000Y164790
X112000Y149790
X122000Y134790
X142000Y129790
X142000Y124790
X142000Y114790
X142000Y104790
X152000Y104790
X162000Y104790
X172000Y104790
X172000Y112290
X179000Y121290
X181500Y128790
X176000Y128790
X171000Y128790
X158000Y138290
X158000Y148790
X157900Y154790
X157900Y160990
X165000Y161290
X172000Y161290
X178000Y161290
X183000Y161290
X186500Y156790
X182000Y154790
X182000Y149290
X187000Y148290
X191000Y148290
X187000Y143290
X182000Y140790
X176000Y140790
X173000Y149290
X173000Y154790
X191500Y165790
X203500Y165790
X191000Y193790
X188000Y200790
X188000Y206790
X183000Y203790
X191000Y214790
X169000Y213290
X169000Y207790
X169000Y201290
X169000Y194790
X161000Y194790
X161000Y201290
X161000Y207790
X161000Y213290
X148000Y211790
X145000Y215290
X137000Y221290
X132000Y219790
X132000Y229790
X151000Y239790
X151000Y248790
X174000Y248790
X174000Y239790
X196000Y239790
X196000Y248790
X211000Y258290
X215000Y263290
X220000Y255290
X216500Y253790
X227000Y254790
X227000Y244790
X223000Y238790
X231000Y238790
X237000Y239290
X242000Y239290
X248000Y226790
X242000Y223790
X245000Y217790
X229000Y218790
X223000Y218790
X252000Y189790
X252000Y181790
X252000Y174790
X263000Y174790
X263000Y181790
X273000Y174790
X277000Y171790
X273000Y167790
X268000Y161790
X257500Y153390
X287800Y148190
X291800Y148190
X289800Y156190
X299000Y156290
X311000Y157790
X311000Y150790
X318000Y150790
X325000Y150790
X325000Y157790
X318000Y157790
X318000Y164790
X325000Y164790
X336500Y166790
X337000Y160290
X337000Y149790
X331000Y144790
X332000Y134790
X342000Y134790
X352000Y134790
X352000Y124790
X352000Y114790
X352000Y104790
X342000Y104790
X332000Y104790
X322000Y104790
X318100Y103190
X312000Y103140
X306000Y103190
X300000Y103190
X295000Y105790
X297000Y112790
X300000Y117790
X292000Y119790
X293000Y125790
X300000Y123790
X300000Y129790
X308000Y129790
X308000Y123790
X308000Y117790
X317000Y117790
X317000Y123790
X322500Y124790
X322500Y114790
X321000Y137790
X315500Y137790
X291800Y138190
X282900Y125990
X281800Y121190
X277500Y120790
X270500Y120790
X281800Y113190
X286000Y112790
X286000Y105790
X281800Y103190
X278000Y105290
X271000Y105290
X260000Y103790
X260000Y106790
X256000Y106790
X256000Y103790
X250500Y107290
X250500Y115290
X243500Y115290
X236000Y115290
X228500Y115290
X219500Y115290
X219500Y107290
X187000Y107290
X143000Y138290
X142000Y148790
X150000Y148790
X142000Y158790
X142000Y167790
X148000Y167790
X146000Y186290
X152000Y189790
X102000Y221790
X102000Y229790
X95000Y234790
X89000Y229790
X79000Y229790
X69000Y229790
X69000Y239790
X69000Y249790
X79000Y249790
X79000Y259790
X89000Y249790
X95000Y244790
X99000Y249790
X112000Y269790
X109000Y277790
X109000Y282790
X109000Y287790
X104000Y287790
X99000Y287790
X94000Y287790
X89000Y287790
X85000Y287790
X80000Y287790
X80000Y282790
X80000Y277790
X87000Y294790
X85000Y306790
X70000Y308390
X55000Y306790
X39000Y317790
X27000Y309790
X13000Y317790
X13000Y341790
X39000Y341790
X45000Y341790
X51000Y333790
X57000Y341790
X63000Y333790
X71000Y341790
X79000Y333790
X83000Y341790
X91000Y333790
X97000Y341790
X85000Y325790
X70000Y325790
X55000Y325790
X101000Y315790
X102000Y304790
X122000Y304790
X125000Y315790
X142000Y314790
X152000Y314790
X154000Y306290
X162000Y304790
X160500Y297290
X168500Y297290
X168500Y289790
X168500Y282290
X162500Y282290
X155500Y281290
X155500Y286790
X149500Y286790
X149500Y281290
X142000Y289290
X142000Y304790
X162000Y314790
X175000Y316290
X175000Y322790
X175000Y330290
X175000Y340290
X172000Y344790
X182000Y344790
X192000Y344790
X202000Y344790
X212000Y344790
X222000Y344790
X232000Y344790
X242000Y344790
X246000Y341290
X247000Y334790
X247000Y326790
X247000Y318790
X257000Y318790
X261000Y322790
X266000Y326790
X270500Y330790
X274500Y326790
X271000Y322290
X275000Y318790
X275000Y314290
X285000Y314790
X287000Y324790
X282000Y334790
X266000Y334790
X261000Y330790
X260000Y341290
X302000Y334790
X302000Y324790
X309000Y324290
X315000Y326790
X322000Y334790
X322000Y343790
X332000Y343790
X342000Y343790
X352000Y343790
X352000Y334790
X356500Y329790
X357000Y323790
X352000Y324790
X348000Y316790
X351500Y301290
X351500Y295290
X345500Y298290
X339500Y295290
X339500Y301290
X326500Y295290
X325000Y287790
X320000Y286790
X308250Y286040
X305000Y284790
X303000Y295790
X304000Y299790
X304000Y306040
X314000Y317290
X322500Y317290
X326500Y310290
X356000Y287290
X356300Y274190
X339500Y272290
X329500Y274790
X322500Y271790
X334000Y283290
X343000Y256790
X340500Y249290
X341000Y244790
X345000Y239790
X340000Y228790
X336000Y224790
X340000Y220290
X336000Y213790
X341000Y205790
X326000Y214790
X320000Y221790
X322000Y227790
X310000Y216790
X297000Y217290
X299000Y200790
X293000Y200790
X299000Y192790
X291000Y186790
X289000Y189790
X282000Y196790
X275000Y196790
X275000Y189790
X275000Y184790
X263000Y189790
X282000Y208790
X276500Y211790
X274000Y214790
X279000Y214790
X273000Y220790
X262000Y230290
X279000Y234790
X279000Y244790
X279000Y251290
X285000Y260290
X288000Y263790
X292000Y259790
X297000Y254790
X307000Y254790
X314000Y248790
X307000Y244790
X297000Y244790
X292000Y244790
X292000Y234790
X297000Y234790
X307000Y234790
X317000Y240290
X331000Y242790
X331000Y249290
X307000Y265790
X297000Y264790
X292000Y282790
X287000Y287790
X287000Y294790
X277000Y294790
X277000Y287790
X274000Y282790
X269000Y287790
X266000Y282790
X261000Y277790
X254000Y281290
X247000Y285290
X239500Y282290
X234000Y282790
X232000Y289790
X224500Y289790
X217000Y289790
X209500Y289790
X202000Y289790
X202000Y284790
X202000Y297290
X202000Y307290
X202000Y317290
X202000Y322290
X202000Y329790
X194500Y329790
X194500Y322790
X162000Y344790
X152000Y344790
X142000Y344790
X142000Y334790
X142000Y324790
X124500Y342290
X122000Y284790
X121000Y269790
X35000Y269790
X27000Y259790
X35000Y249790
X27000Y243790
X37000Y231790
X27000Y220790
X37000Y214790
X27000Y204790
X35000Y197790
X27000Y174790
X35000Y166790
X27000Y160790
X17000Y139790
X37000Y139790
X43000Y127790
X125000Y107790
X286000Y119790
X311000Y164790
X316000Y178290
X322000Y178290
X335500Y179790
X335500Y190290
X317000Y190790
X317000Y196790
X311000Y198790
X317000Y203790
X356000Y184790
X356500Y226290
X272000Y274790
X261000Y268790
X253000Y268790
X249000Y263790
X249000Y257790
X249000Y253290
X258000Y253790
X262000Y254790
X241000Y265790
X247000Y275790
X261000Y287790
X239500Y289790
X215000Y279290
X215000Y274290
X27000Y279790
T02
X110500Y239790
X110500Y229790
X110500Y219790
X110500Y209790
X123500Y209790
X123500Y219790
X123500Y229790
X123500Y239790
X275000Y341790
X285000Y341790
X295000Y341790
X305000Y341790
X315000Y341790
X351000Y264790
X351000Y254790
X351000Y244790
X351000Y234790
X351000Y209790
X351000Y199790
X351000Y189790
X355000Y174790
X355000Y164790
X355000Y154790
X355000Y144790
X345000Y144790
X345000Y154790
X345000Y164790
X345000Y174790
T03
X66744Y165046
X57000Y161011
X47256Y165046
X43220Y174790
X47256Y184534
X57000Y188570
X66744Y184534
X59756Y174790
X57000Y261011
X47256Y265046
X43220Y274790
X47256Y284534
X57000Y288570
X66744Y284534
X59756Y274790
X66744Y265046
T04
X33019Y286522
X33019Y186522
M30
