%
M48
M72
T01C0.01000
T02C0.14000
%
T01
X134000Y122790
X134000Y124790
X134000Y126790
X134000Y144790
X134000Y146790
X134000Y148790
X134000Y166790
X134000Y168790
X134000Y170790
X134000Y278790
X134000Y280790
X134000Y282790
X134000Y298790
X134000Y300790
X134000Y302790
X134000Y318790
X134000Y320790
X134000Y322790
T02
X112000Y119790
X159000Y119790
X27000Y124790
X27000Y329790
X112000Y329790
X159000Y329790
X337000Y329790
X337000Y119790
M30
