G75*
%MOIN*%
%OFA0B0*%
%FSLAX25Y25*%
%IPPOS*%
%LPD*%
%AMOC8*
5,1,8,0,0,1.08239X$1,22.5*
%
%ADD10C,0.00800*%
%ADD11C,0.00500*%
%ADD12C,0.00600*%
%ADD13R,0.00750X0.00750*%
%ADD14R,0.00750X0.01500*%
%ADD15R,0.00750X0.06000*%
%ADD16R,0.00750X0.05250*%
%ADD17R,0.00750X0.03000*%
%ADD18R,0.00750X0.02250*%
%ADD19R,0.00750X0.06750*%
%ADD20R,0.00750X0.04500*%
%ADD21R,0.00750X0.03750*%
%ADD22R,0.00750X0.11250*%
%ADD23R,0.00750X0.08250*%
%ADD24R,0.00750X0.07500*%
%ADD25R,0.00750X0.09000*%
%ADD26R,0.00750X0.09750*%
%ADD27R,0.00750X0.10500*%
%ADD28R,0.00750X0.14250*%
%ADD29R,0.00750X0.17250*%
%ADD30R,0.00750X0.18750*%
%ADD31R,0.00750X0.20250*%
%ADD32R,0.00750X0.21750*%
%ADD33R,0.00750X0.23250*%
%ADD34R,0.00750X0.24000*%
%ADD35R,0.00750X0.24750*%
%ADD36R,0.00750X0.12000*%
%ADD37R,0.00750X0.30750*%
%ADD38R,0.00750X0.12750*%
%ADD39R,0.00750X0.29250*%
%ADD40R,0.00750X0.13500*%
%ADD41R,0.00750X0.28500*%
%ADD42R,0.00750X0.27750*%
%ADD43R,0.00750X0.16500*%
%ADD44R,0.00750X0.15750*%
%ADD45R,0.00750X0.15000*%
%ADD46C,0.00185*%
D10*
X0054569Y0150349D02*
X0053769Y0151149D01*
X0053769Y0152751D01*
X0054569Y0153551D01*
X0055370Y0153551D01*
X0056171Y0152751D01*
X0056171Y0151950D01*
X0056171Y0152751D02*
X0056971Y0153551D01*
X0057772Y0153551D01*
X0058573Y0152751D01*
X0058573Y0151149D01*
X0057772Y0150349D01*
X0063611Y0154286D02*
X0064412Y0154286D01*
X0067614Y0157488D01*
X0068415Y0157488D01*
X0068415Y0154286D01*
X0048730Y0154286D02*
X0046328Y0154286D01*
X0047129Y0155887D01*
X0047129Y0156688D01*
X0046328Y0157488D01*
X0044727Y0157488D01*
X0043926Y0156688D01*
X0043926Y0155086D01*
X0044727Y0154286D01*
X0048730Y0154286D02*
X0048730Y0157488D01*
X0050632Y0172002D02*
X0051433Y0172002D01*
X0052234Y0172803D01*
X0052234Y0174404D01*
X0051433Y0175205D01*
X0050632Y0175205D01*
X0049831Y0174404D01*
X0049831Y0172803D01*
X0050632Y0172002D01*
X0052234Y0172803D02*
X0053034Y0172002D01*
X0053835Y0172002D01*
X0054636Y0172803D01*
X0054636Y0174404D01*
X0053835Y0175205D01*
X0053034Y0175205D01*
X0052234Y0174404D01*
X0036919Y0174404D02*
X0036919Y0172803D01*
X0036118Y0172002D01*
X0036919Y0174404D02*
X0036118Y0175205D01*
X0035318Y0175205D01*
X0032115Y0172002D01*
X0032115Y0175205D01*
X0030842Y0191845D02*
X0030842Y0194247D01*
X0031643Y0195047D01*
X0033244Y0195047D01*
X0034045Y0194247D01*
X0034045Y0191845D01*
X0029241Y0191845D01*
X0043926Y0192121D02*
X0048730Y0192121D01*
X0046328Y0189719D01*
X0046328Y0192921D01*
X0053769Y0193656D02*
X0053769Y0196858D01*
X0053769Y0195257D02*
X0058573Y0195257D01*
X0056971Y0193656D01*
X0063611Y0192121D02*
X0064412Y0192921D01*
X0065212Y0192921D01*
X0066013Y0192121D01*
X0066013Y0189719D01*
X0064412Y0189719D01*
X0063611Y0190519D01*
X0063611Y0192121D01*
X0066013Y0189719D02*
X0067614Y0191320D01*
X0068415Y0192921D01*
X0056971Y0250034D02*
X0058573Y0251635D01*
X0053769Y0251635D01*
X0053769Y0250034D02*
X0053769Y0253236D01*
X0048730Y0256688D02*
X0046328Y0254286D01*
X0046328Y0257488D01*
X0043926Y0256688D02*
X0048730Y0256688D01*
X0063611Y0256688D02*
X0063611Y0255086D01*
X0064412Y0254286D01*
X0066013Y0254286D01*
X0066013Y0256688D01*
X0065212Y0257488D01*
X0064412Y0257488D01*
X0063611Y0256688D01*
X0066013Y0254286D02*
X0067614Y0255887D01*
X0068415Y0257488D01*
X0053835Y0271687D02*
X0053034Y0271687D01*
X0052234Y0272488D01*
X0052234Y0274089D01*
X0051433Y0274890D01*
X0050632Y0274890D01*
X0049831Y0274089D01*
X0049831Y0272488D01*
X0050632Y0271687D01*
X0051433Y0271687D01*
X0052234Y0272488D01*
X0052234Y0274089D02*
X0053034Y0274890D01*
X0053835Y0274890D01*
X0054636Y0274089D01*
X0054636Y0272488D01*
X0053835Y0271687D01*
X0036919Y0272488D02*
X0036118Y0271687D01*
X0036919Y0272488D02*
X0036919Y0274089D01*
X0036118Y0274890D01*
X0035318Y0274890D01*
X0032115Y0271687D01*
X0032115Y0274890D01*
X0044727Y0289719D02*
X0043926Y0290519D01*
X0043926Y0292121D01*
X0044727Y0292921D01*
X0046328Y0292921D01*
X0047129Y0292121D01*
X0047129Y0291320D01*
X0046328Y0289719D01*
X0048730Y0289719D01*
X0048730Y0292921D01*
X0053769Y0294456D02*
X0053769Y0296058D01*
X0054569Y0296858D01*
X0055370Y0296858D01*
X0056171Y0296058D01*
X0056171Y0295257D01*
X0056171Y0296058D02*
X0056971Y0296858D01*
X0057772Y0296858D01*
X0058573Y0296058D01*
X0058573Y0294456D01*
X0057772Y0293656D01*
X0054569Y0293656D02*
X0053769Y0294456D01*
X0063611Y0289719D02*
X0064412Y0289719D01*
X0067614Y0292921D01*
X0068415Y0292921D01*
X0068415Y0289719D01*
X0034045Y0291845D02*
X0034045Y0294247D01*
X0033244Y0295047D01*
X0031643Y0295047D01*
X0030842Y0294247D01*
X0030842Y0291845D01*
X0029241Y0291845D02*
X0034045Y0291845D01*
X0047102Y0335190D02*
X0046402Y0335891D01*
X0046402Y0336591D01*
X0047102Y0337292D01*
X0049204Y0337292D01*
X0049204Y0335891D01*
X0048503Y0335190D01*
X0047102Y0335190D01*
X0049204Y0337292D02*
X0047803Y0338693D01*
X0046402Y0339394D01*
X0046402Y0341190D02*
X0049204Y0341190D01*
X0047803Y0341190D02*
X0047803Y0345394D01*
X0049204Y0343992D01*
X0051006Y0342591D02*
X0051006Y0345394D01*
X0053808Y0345394D02*
X0053808Y0342591D01*
X0052407Y0341190D01*
X0051006Y0342591D01*
X0052407Y0339394D02*
X0052407Y0335190D01*
X0053808Y0335190D02*
X0051005Y0335190D01*
X0053808Y0337992D02*
X0052407Y0339394D01*
X0055609Y0339394D02*
X0057011Y0338693D01*
X0058412Y0337292D01*
X0056310Y0337292D01*
X0055609Y0336591D01*
X0055609Y0335891D01*
X0056310Y0335190D01*
X0057711Y0335190D01*
X0058412Y0335891D01*
X0058412Y0337292D01*
X0060213Y0337992D02*
X0060914Y0337292D01*
X0060213Y0336591D01*
X0060213Y0335891D01*
X0060914Y0335190D01*
X0062315Y0335190D01*
X0063016Y0335891D01*
X0061615Y0337292D02*
X0060914Y0337292D01*
X0060213Y0337992D02*
X0060213Y0338693D01*
X0060914Y0339394D01*
X0062315Y0339394D01*
X0063016Y0338693D01*
X0063016Y0341190D02*
X0060213Y0343992D01*
X0060213Y0344693D01*
X0060914Y0345394D01*
X0062315Y0345394D01*
X0063016Y0344693D01*
X0064817Y0343292D02*
X0067620Y0343292D01*
X0069421Y0341190D02*
X0069421Y0345394D01*
X0072224Y0345394D02*
X0069421Y0341190D01*
X0072224Y0341190D02*
X0072224Y0345394D01*
X0074025Y0345394D02*
X0076828Y0345394D01*
X0076828Y0341190D01*
X0074025Y0341190D01*
X0075426Y0343292D02*
X0076828Y0343292D01*
X0078629Y0343292D02*
X0080030Y0343292D01*
X0078629Y0343292D02*
X0078629Y0341891D01*
X0079330Y0341190D01*
X0080731Y0341190D01*
X0081432Y0341891D01*
X0081432Y0344693D01*
X0080731Y0345394D01*
X0079330Y0345394D01*
X0078629Y0344693D01*
X0087837Y0345394D02*
X0090639Y0345394D01*
X0089238Y0345394D02*
X0089238Y0341190D01*
X0092441Y0341190D02*
X0095243Y0341190D01*
X0095243Y0345394D01*
X0092441Y0345394D01*
X0093842Y0343292D02*
X0095243Y0343292D01*
X0097045Y0343292D02*
X0097045Y0344693D01*
X0097745Y0345394D01*
X0099847Y0345394D01*
X0099847Y0341190D01*
X0099847Y0342591D02*
X0097745Y0342591D01*
X0097045Y0343292D01*
X0098446Y0342591D02*
X0097045Y0341190D01*
X0063016Y0341190D02*
X0060213Y0341190D01*
X0202402Y0341190D02*
X0205204Y0341190D01*
X0203803Y0341190D02*
X0203803Y0345394D01*
X0205204Y0343992D01*
X0207006Y0342591D02*
X0207006Y0345394D01*
X0209808Y0345394D02*
X0209808Y0342591D01*
X0208407Y0341190D01*
X0207006Y0342591D01*
X0208407Y0339394D02*
X0208407Y0335190D01*
X0209808Y0335190D02*
X0207005Y0335190D01*
X0205204Y0335891D02*
X0204503Y0335190D01*
X0203102Y0335190D01*
X0202402Y0335891D01*
X0202402Y0336591D01*
X0203102Y0337292D01*
X0205204Y0337292D01*
X0205204Y0335891D01*
X0205204Y0337292D02*
X0203803Y0338693D01*
X0202402Y0339394D01*
X0208407Y0339394D02*
X0209808Y0337992D01*
X0211609Y0336591D02*
X0212310Y0337292D01*
X0214412Y0337292D01*
X0214412Y0335891D01*
X0213711Y0335190D01*
X0212310Y0335190D01*
X0211609Y0335891D01*
X0211609Y0336591D01*
X0213011Y0338693D02*
X0211609Y0339394D01*
X0213011Y0338693D02*
X0214412Y0337292D01*
X0216213Y0337992D02*
X0216914Y0337292D01*
X0216213Y0336591D01*
X0216213Y0335891D01*
X0216914Y0335190D01*
X0218315Y0335190D01*
X0219016Y0335891D01*
X0217615Y0337292D02*
X0216914Y0337292D01*
X0216213Y0337992D02*
X0216213Y0338693D01*
X0216914Y0339394D01*
X0218315Y0339394D01*
X0219016Y0338693D01*
X0219016Y0341190D02*
X0216213Y0343992D01*
X0216213Y0344693D01*
X0216914Y0345394D01*
X0218315Y0345394D01*
X0219016Y0344693D01*
X0220817Y0343292D02*
X0223620Y0343292D01*
X0225421Y0341190D02*
X0225421Y0345394D01*
X0228224Y0345394D02*
X0225421Y0341190D01*
X0228224Y0341190D02*
X0228224Y0345394D01*
X0230025Y0345394D02*
X0232828Y0345394D01*
X0232828Y0341190D01*
X0230025Y0341190D01*
X0231426Y0343292D02*
X0232828Y0343292D01*
X0234629Y0343292D02*
X0236030Y0343292D01*
X0234629Y0343292D02*
X0234629Y0341891D01*
X0235330Y0341190D01*
X0236731Y0341190D01*
X0237432Y0341891D01*
X0237432Y0344693D01*
X0236731Y0345394D01*
X0235330Y0345394D01*
X0234629Y0344693D01*
X0243837Y0345394D02*
X0246639Y0345394D01*
X0245238Y0345394D02*
X0245238Y0341190D01*
X0248441Y0341190D02*
X0251243Y0341190D01*
X0251243Y0345394D01*
X0248441Y0345394D01*
X0249842Y0343292D02*
X0251243Y0343292D01*
X0253045Y0343292D02*
X0253745Y0342591D01*
X0255847Y0342591D01*
X0255847Y0341190D02*
X0255847Y0345394D01*
X0253745Y0345394D01*
X0253045Y0344693D01*
X0253045Y0343292D01*
X0254446Y0342591D02*
X0253045Y0341190D01*
X0219016Y0341190D02*
X0216213Y0341190D01*
D11*
X0080622Y0280696D02*
X0080622Y0268885D01*
X0080622Y0270853D02*
X0076685Y0270853D01*
X0076561Y0270855D01*
X0076438Y0270861D01*
X0076314Y0270870D01*
X0076192Y0270884D01*
X0076069Y0270901D01*
X0075947Y0270923D01*
X0075826Y0270948D01*
X0075706Y0270977D01*
X0075587Y0271009D01*
X0075468Y0271046D01*
X0075351Y0271086D01*
X0075236Y0271129D01*
X0075121Y0271177D01*
X0075009Y0271228D01*
X0074898Y0271282D01*
X0074788Y0271340D01*
X0074681Y0271401D01*
X0074575Y0271466D01*
X0074472Y0271534D01*
X0074371Y0271605D01*
X0074272Y0271679D01*
X0074175Y0271756D01*
X0074081Y0271837D01*
X0073990Y0271920D01*
X0073901Y0272006D01*
X0073815Y0272095D01*
X0073732Y0272186D01*
X0073651Y0272280D01*
X0073574Y0272377D01*
X0073500Y0272476D01*
X0073429Y0272577D01*
X0073361Y0272680D01*
X0073296Y0272786D01*
X0073235Y0272893D01*
X0073177Y0273003D01*
X0073123Y0273114D01*
X0073072Y0273226D01*
X0073024Y0273341D01*
X0072981Y0273456D01*
X0072941Y0273573D01*
X0072904Y0273692D01*
X0072872Y0273811D01*
X0072843Y0273931D01*
X0072818Y0274052D01*
X0072796Y0274174D01*
X0072779Y0274297D01*
X0072765Y0274419D01*
X0072756Y0274543D01*
X0072750Y0274666D01*
X0072748Y0274790D01*
X0072750Y0274914D01*
X0072756Y0275037D01*
X0072765Y0275161D01*
X0072779Y0275283D01*
X0072796Y0275406D01*
X0072818Y0275528D01*
X0072843Y0275649D01*
X0072872Y0275769D01*
X0072904Y0275888D01*
X0072941Y0276007D01*
X0072981Y0276124D01*
X0073024Y0276239D01*
X0073072Y0276354D01*
X0073123Y0276466D01*
X0073177Y0276577D01*
X0073235Y0276687D01*
X0073296Y0276794D01*
X0073361Y0276900D01*
X0073429Y0277003D01*
X0073500Y0277104D01*
X0073574Y0277203D01*
X0073651Y0277300D01*
X0073732Y0277394D01*
X0073815Y0277485D01*
X0073901Y0277574D01*
X0073990Y0277660D01*
X0074081Y0277743D01*
X0074175Y0277824D01*
X0074272Y0277901D01*
X0074371Y0277975D01*
X0074472Y0278046D01*
X0074575Y0278114D01*
X0074681Y0278179D01*
X0074788Y0278240D01*
X0074898Y0278298D01*
X0075009Y0278352D01*
X0075121Y0278403D01*
X0075236Y0278451D01*
X0075351Y0278494D01*
X0075468Y0278534D01*
X0075587Y0278571D01*
X0075706Y0278603D01*
X0075826Y0278632D01*
X0075947Y0278657D01*
X0076069Y0278679D01*
X0076192Y0278696D01*
X0076314Y0278710D01*
X0076438Y0278719D01*
X0076561Y0278725D01*
X0076685Y0278727D01*
X0080622Y0278727D01*
X0070752Y0278994D02*
X0068050Y0278994D01*
X0068050Y0278094D02*
X0068050Y0279895D01*
X0069852Y0278094D02*
X0070752Y0278994D01*
X0070302Y0276949D02*
X0068500Y0275147D01*
X0068050Y0275597D01*
X0068050Y0276498D01*
X0068500Y0276949D01*
X0070302Y0276949D01*
X0070752Y0276498D01*
X0070752Y0275597D01*
X0070302Y0275147D01*
X0068500Y0275147D01*
X0068050Y0274002D02*
X0068050Y0272201D01*
X0068050Y0273101D02*
X0070752Y0273101D01*
X0069852Y0272201D01*
X0070752Y0271056D02*
X0070752Y0270155D01*
X0070752Y0270605D02*
X0068500Y0270605D01*
X0068050Y0270155D01*
X0068050Y0269704D01*
X0068500Y0269254D01*
X0019205Y0274790D02*
X0019216Y0275718D01*
X0019251Y0276645D01*
X0019307Y0277570D01*
X0019387Y0278495D01*
X0019489Y0279417D01*
X0019614Y0280336D01*
X0019761Y0281252D01*
X0019931Y0282163D01*
X0020123Y0283071D01*
X0020338Y0283973D01*
X0020574Y0284870D01*
X0020832Y0285761D01*
X0021113Y0286646D01*
X0021414Y0287523D01*
X0021738Y0288392D01*
X0022082Y0289254D01*
X0022447Y0290106D01*
X0022834Y0290949D01*
X0023241Y0291783D01*
X0023668Y0292606D01*
X0024115Y0293419D01*
X0024582Y0294221D01*
X0025069Y0295010D01*
X0025575Y0295788D01*
X0026099Y0296553D01*
X0026643Y0297304D01*
X0027204Y0298043D01*
X0027784Y0298767D01*
X0028381Y0299477D01*
X0028996Y0300172D01*
X0029627Y0300851D01*
X0030275Y0301515D01*
X0030939Y0302163D01*
X0031618Y0302794D01*
X0032313Y0303409D01*
X0033023Y0304006D01*
X0033747Y0304586D01*
X0034486Y0305147D01*
X0035237Y0305691D01*
X0036002Y0306215D01*
X0036780Y0306721D01*
X0037569Y0307208D01*
X0038371Y0307675D01*
X0039184Y0308122D01*
X0040007Y0308549D01*
X0040841Y0308956D01*
X0041684Y0309343D01*
X0042536Y0309708D01*
X0043398Y0310052D01*
X0044267Y0310376D01*
X0045144Y0310677D01*
X0046029Y0310958D01*
X0046920Y0311216D01*
X0047817Y0311452D01*
X0048719Y0311667D01*
X0049627Y0311859D01*
X0050538Y0312029D01*
X0051454Y0312176D01*
X0052373Y0312301D01*
X0053295Y0312403D01*
X0054220Y0312483D01*
X0055145Y0312539D01*
X0056072Y0312574D01*
X0057000Y0312585D01*
X0057928Y0312574D01*
X0058855Y0312539D01*
X0059780Y0312483D01*
X0060705Y0312403D01*
X0061627Y0312301D01*
X0062546Y0312176D01*
X0063462Y0312029D01*
X0064373Y0311859D01*
X0065281Y0311667D01*
X0066183Y0311452D01*
X0067080Y0311216D01*
X0067971Y0310958D01*
X0068856Y0310677D01*
X0069733Y0310376D01*
X0070602Y0310052D01*
X0071464Y0309708D01*
X0072316Y0309343D01*
X0073159Y0308956D01*
X0073993Y0308549D01*
X0074816Y0308122D01*
X0075629Y0307675D01*
X0076431Y0307208D01*
X0077220Y0306721D01*
X0077998Y0306215D01*
X0078763Y0305691D01*
X0079514Y0305147D01*
X0080253Y0304586D01*
X0080977Y0304006D01*
X0081687Y0303409D01*
X0082382Y0302794D01*
X0083061Y0302163D01*
X0083725Y0301515D01*
X0084373Y0300851D01*
X0085004Y0300172D01*
X0085619Y0299477D01*
X0086216Y0298767D01*
X0086796Y0298043D01*
X0087357Y0297304D01*
X0087901Y0296553D01*
X0088425Y0295788D01*
X0088931Y0295010D01*
X0089418Y0294221D01*
X0089885Y0293419D01*
X0090332Y0292606D01*
X0090759Y0291783D01*
X0091166Y0290949D01*
X0091553Y0290106D01*
X0091918Y0289254D01*
X0092262Y0288392D01*
X0092586Y0287523D01*
X0092887Y0286646D01*
X0093168Y0285761D01*
X0093426Y0284870D01*
X0093662Y0283973D01*
X0093877Y0283071D01*
X0094069Y0282163D01*
X0094239Y0281252D01*
X0094386Y0280336D01*
X0094511Y0279417D01*
X0094613Y0278495D01*
X0094693Y0277570D01*
X0094749Y0276645D01*
X0094784Y0275718D01*
X0094795Y0274790D01*
X0094784Y0273862D01*
X0094749Y0272935D01*
X0094693Y0272010D01*
X0094613Y0271085D01*
X0094511Y0270163D01*
X0094386Y0269244D01*
X0094239Y0268328D01*
X0094069Y0267417D01*
X0093877Y0266509D01*
X0093662Y0265607D01*
X0093426Y0264710D01*
X0093168Y0263819D01*
X0092887Y0262934D01*
X0092586Y0262057D01*
X0092262Y0261188D01*
X0091918Y0260326D01*
X0091553Y0259474D01*
X0091166Y0258631D01*
X0090759Y0257797D01*
X0090332Y0256974D01*
X0089885Y0256161D01*
X0089418Y0255359D01*
X0088931Y0254570D01*
X0088425Y0253792D01*
X0087901Y0253027D01*
X0087357Y0252276D01*
X0086796Y0251537D01*
X0086216Y0250813D01*
X0085619Y0250103D01*
X0085004Y0249408D01*
X0084373Y0248729D01*
X0083725Y0248065D01*
X0083061Y0247417D01*
X0082382Y0246786D01*
X0081687Y0246171D01*
X0080977Y0245574D01*
X0080253Y0244994D01*
X0079514Y0244433D01*
X0078763Y0243889D01*
X0077998Y0243365D01*
X0077220Y0242859D01*
X0076431Y0242372D01*
X0075629Y0241905D01*
X0074816Y0241458D01*
X0073993Y0241031D01*
X0073159Y0240624D01*
X0072316Y0240237D01*
X0071464Y0239872D01*
X0070602Y0239528D01*
X0069733Y0239204D01*
X0068856Y0238903D01*
X0067971Y0238622D01*
X0067080Y0238364D01*
X0066183Y0238128D01*
X0065281Y0237913D01*
X0064373Y0237721D01*
X0063462Y0237551D01*
X0062546Y0237404D01*
X0061627Y0237279D01*
X0060705Y0237177D01*
X0059780Y0237097D01*
X0058855Y0237041D01*
X0057928Y0237006D01*
X0057000Y0236995D01*
X0056072Y0237006D01*
X0055145Y0237041D01*
X0054220Y0237097D01*
X0053295Y0237177D01*
X0052373Y0237279D01*
X0051454Y0237404D01*
X0050538Y0237551D01*
X0049627Y0237721D01*
X0048719Y0237913D01*
X0047817Y0238128D01*
X0046920Y0238364D01*
X0046029Y0238622D01*
X0045144Y0238903D01*
X0044267Y0239204D01*
X0043398Y0239528D01*
X0042536Y0239872D01*
X0041684Y0240237D01*
X0040841Y0240624D01*
X0040007Y0241031D01*
X0039184Y0241458D01*
X0038371Y0241905D01*
X0037569Y0242372D01*
X0036780Y0242859D01*
X0036002Y0243365D01*
X0035237Y0243889D01*
X0034486Y0244433D01*
X0033747Y0244994D01*
X0033023Y0245574D01*
X0032313Y0246171D01*
X0031618Y0246786D01*
X0030939Y0247417D01*
X0030275Y0248065D01*
X0029627Y0248729D01*
X0028996Y0249408D01*
X0028381Y0250103D01*
X0027784Y0250813D01*
X0027204Y0251537D01*
X0026643Y0252276D01*
X0026099Y0253027D01*
X0025575Y0253792D01*
X0025069Y0254570D01*
X0024582Y0255359D01*
X0024115Y0256161D01*
X0023668Y0256974D01*
X0023241Y0257797D01*
X0022834Y0258631D01*
X0022447Y0259474D01*
X0022082Y0260326D01*
X0021738Y0261188D01*
X0021414Y0262057D01*
X0021113Y0262934D01*
X0020832Y0263819D01*
X0020574Y0264710D01*
X0020338Y0265607D01*
X0020123Y0266509D01*
X0019931Y0267417D01*
X0019761Y0268328D01*
X0019614Y0269244D01*
X0019489Y0270163D01*
X0019387Y0271085D01*
X0019307Y0272010D01*
X0019251Y0272935D01*
X0019216Y0273862D01*
X0019205Y0274790D01*
X0069700Y0180681D02*
X0069250Y0180231D01*
X0069250Y0179330D01*
X0069700Y0178880D01*
X0071502Y0180681D01*
X0069700Y0180681D01*
X0069700Y0178880D02*
X0071502Y0178880D01*
X0071952Y0179330D01*
X0071952Y0180231D01*
X0071502Y0180681D01*
X0073378Y0178727D02*
X0077315Y0178727D01*
X0077439Y0178725D01*
X0077562Y0178719D01*
X0077686Y0178710D01*
X0077808Y0178696D01*
X0077931Y0178679D01*
X0078053Y0178657D01*
X0078174Y0178632D01*
X0078294Y0178603D01*
X0078413Y0178571D01*
X0078532Y0178534D01*
X0078649Y0178494D01*
X0078764Y0178451D01*
X0078879Y0178403D01*
X0078991Y0178352D01*
X0079102Y0178298D01*
X0079212Y0178240D01*
X0079319Y0178179D01*
X0079425Y0178114D01*
X0079528Y0178046D01*
X0079629Y0177975D01*
X0079728Y0177901D01*
X0079825Y0177824D01*
X0079919Y0177743D01*
X0080010Y0177660D01*
X0080099Y0177574D01*
X0080185Y0177485D01*
X0080268Y0177394D01*
X0080349Y0177300D01*
X0080426Y0177203D01*
X0080500Y0177104D01*
X0080571Y0177003D01*
X0080639Y0176900D01*
X0080704Y0176794D01*
X0080765Y0176687D01*
X0080823Y0176577D01*
X0080877Y0176466D01*
X0080928Y0176354D01*
X0080976Y0176239D01*
X0081019Y0176124D01*
X0081059Y0176007D01*
X0081096Y0175888D01*
X0081128Y0175769D01*
X0081157Y0175649D01*
X0081182Y0175528D01*
X0081204Y0175406D01*
X0081221Y0175283D01*
X0081235Y0175161D01*
X0081244Y0175037D01*
X0081250Y0174914D01*
X0081252Y0174790D01*
X0081250Y0174666D01*
X0081244Y0174543D01*
X0081235Y0174419D01*
X0081221Y0174297D01*
X0081204Y0174174D01*
X0081182Y0174052D01*
X0081157Y0173931D01*
X0081128Y0173811D01*
X0081096Y0173692D01*
X0081059Y0173573D01*
X0081019Y0173456D01*
X0080976Y0173341D01*
X0080928Y0173226D01*
X0080877Y0173114D01*
X0080823Y0173003D01*
X0080765Y0172893D01*
X0080704Y0172786D01*
X0080639Y0172680D01*
X0080571Y0172577D01*
X0080500Y0172476D01*
X0080426Y0172377D01*
X0080349Y0172280D01*
X0080268Y0172186D01*
X0080185Y0172095D01*
X0080099Y0172006D01*
X0080010Y0171920D01*
X0079919Y0171837D01*
X0079825Y0171756D01*
X0079728Y0171679D01*
X0079629Y0171605D01*
X0079528Y0171534D01*
X0079425Y0171466D01*
X0079319Y0171401D01*
X0079212Y0171340D01*
X0079102Y0171282D01*
X0078991Y0171228D01*
X0078879Y0171177D01*
X0078764Y0171129D01*
X0078649Y0171086D01*
X0078532Y0171046D01*
X0078413Y0171009D01*
X0078294Y0170977D01*
X0078174Y0170948D01*
X0078053Y0170923D01*
X0077931Y0170901D01*
X0077808Y0170884D01*
X0077686Y0170870D01*
X0077562Y0170861D01*
X0077439Y0170855D01*
X0077315Y0170853D01*
X0073378Y0170853D01*
X0071952Y0170941D02*
X0071952Y0171842D01*
X0071952Y0171391D02*
X0069700Y0171391D01*
X0069250Y0170941D01*
X0069250Y0170490D01*
X0069700Y0170040D01*
X0069250Y0172987D02*
X0069250Y0174788D01*
X0069250Y0173887D02*
X0071952Y0173887D01*
X0071052Y0172987D01*
X0071502Y0175933D02*
X0069700Y0175933D01*
X0071502Y0177735D01*
X0069700Y0177735D01*
X0069250Y0177284D01*
X0069250Y0176384D01*
X0069700Y0175933D01*
X0071502Y0175933D02*
X0071952Y0176384D01*
X0071952Y0177284D01*
X0071502Y0177735D01*
X0019205Y0174790D02*
X0019216Y0175718D01*
X0019251Y0176645D01*
X0019307Y0177570D01*
X0019387Y0178495D01*
X0019489Y0179417D01*
X0019614Y0180336D01*
X0019761Y0181252D01*
X0019931Y0182163D01*
X0020123Y0183071D01*
X0020338Y0183973D01*
X0020574Y0184870D01*
X0020832Y0185761D01*
X0021113Y0186646D01*
X0021414Y0187523D01*
X0021738Y0188392D01*
X0022082Y0189254D01*
X0022447Y0190106D01*
X0022834Y0190949D01*
X0023241Y0191783D01*
X0023668Y0192606D01*
X0024115Y0193419D01*
X0024582Y0194221D01*
X0025069Y0195010D01*
X0025575Y0195788D01*
X0026099Y0196553D01*
X0026643Y0197304D01*
X0027204Y0198043D01*
X0027784Y0198767D01*
X0028381Y0199477D01*
X0028996Y0200172D01*
X0029627Y0200851D01*
X0030275Y0201515D01*
X0030939Y0202163D01*
X0031618Y0202794D01*
X0032313Y0203409D01*
X0033023Y0204006D01*
X0033747Y0204586D01*
X0034486Y0205147D01*
X0035237Y0205691D01*
X0036002Y0206215D01*
X0036780Y0206721D01*
X0037569Y0207208D01*
X0038371Y0207675D01*
X0039184Y0208122D01*
X0040007Y0208549D01*
X0040841Y0208956D01*
X0041684Y0209343D01*
X0042536Y0209708D01*
X0043398Y0210052D01*
X0044267Y0210376D01*
X0045144Y0210677D01*
X0046029Y0210958D01*
X0046920Y0211216D01*
X0047817Y0211452D01*
X0048719Y0211667D01*
X0049627Y0211859D01*
X0050538Y0212029D01*
X0051454Y0212176D01*
X0052373Y0212301D01*
X0053295Y0212403D01*
X0054220Y0212483D01*
X0055145Y0212539D01*
X0056072Y0212574D01*
X0057000Y0212585D01*
X0057928Y0212574D01*
X0058855Y0212539D01*
X0059780Y0212483D01*
X0060705Y0212403D01*
X0061627Y0212301D01*
X0062546Y0212176D01*
X0063462Y0212029D01*
X0064373Y0211859D01*
X0065281Y0211667D01*
X0066183Y0211452D01*
X0067080Y0211216D01*
X0067971Y0210958D01*
X0068856Y0210677D01*
X0069733Y0210376D01*
X0070602Y0210052D01*
X0071464Y0209708D01*
X0072316Y0209343D01*
X0073159Y0208956D01*
X0073993Y0208549D01*
X0074816Y0208122D01*
X0075629Y0207675D01*
X0076431Y0207208D01*
X0077220Y0206721D01*
X0077998Y0206215D01*
X0078763Y0205691D01*
X0079514Y0205147D01*
X0080253Y0204586D01*
X0080977Y0204006D01*
X0081687Y0203409D01*
X0082382Y0202794D01*
X0083061Y0202163D01*
X0083725Y0201515D01*
X0084373Y0200851D01*
X0085004Y0200172D01*
X0085619Y0199477D01*
X0086216Y0198767D01*
X0086796Y0198043D01*
X0087357Y0197304D01*
X0087901Y0196553D01*
X0088425Y0195788D01*
X0088931Y0195010D01*
X0089418Y0194221D01*
X0089885Y0193419D01*
X0090332Y0192606D01*
X0090759Y0191783D01*
X0091166Y0190949D01*
X0091553Y0190106D01*
X0091918Y0189254D01*
X0092262Y0188392D01*
X0092586Y0187523D01*
X0092887Y0186646D01*
X0093168Y0185761D01*
X0093426Y0184870D01*
X0093662Y0183973D01*
X0093877Y0183071D01*
X0094069Y0182163D01*
X0094239Y0181252D01*
X0094386Y0180336D01*
X0094511Y0179417D01*
X0094613Y0178495D01*
X0094693Y0177570D01*
X0094749Y0176645D01*
X0094784Y0175718D01*
X0094795Y0174790D01*
X0094784Y0173862D01*
X0094749Y0172935D01*
X0094693Y0172010D01*
X0094613Y0171085D01*
X0094511Y0170163D01*
X0094386Y0169244D01*
X0094239Y0168328D01*
X0094069Y0167417D01*
X0093877Y0166509D01*
X0093662Y0165607D01*
X0093426Y0164710D01*
X0093168Y0163819D01*
X0092887Y0162934D01*
X0092586Y0162057D01*
X0092262Y0161188D01*
X0091918Y0160326D01*
X0091553Y0159474D01*
X0091166Y0158631D01*
X0090759Y0157797D01*
X0090332Y0156974D01*
X0089885Y0156161D01*
X0089418Y0155359D01*
X0088931Y0154570D01*
X0088425Y0153792D01*
X0087901Y0153027D01*
X0087357Y0152276D01*
X0086796Y0151537D01*
X0086216Y0150813D01*
X0085619Y0150103D01*
X0085004Y0149408D01*
X0084373Y0148729D01*
X0083725Y0148065D01*
X0083061Y0147417D01*
X0082382Y0146786D01*
X0081687Y0146171D01*
X0080977Y0145574D01*
X0080253Y0144994D01*
X0079514Y0144433D01*
X0078763Y0143889D01*
X0077998Y0143365D01*
X0077220Y0142859D01*
X0076431Y0142372D01*
X0075629Y0141905D01*
X0074816Y0141458D01*
X0073993Y0141031D01*
X0073159Y0140624D01*
X0072316Y0140237D01*
X0071464Y0139872D01*
X0070602Y0139528D01*
X0069733Y0139204D01*
X0068856Y0138903D01*
X0067971Y0138622D01*
X0067080Y0138364D01*
X0066183Y0138128D01*
X0065281Y0137913D01*
X0064373Y0137721D01*
X0063462Y0137551D01*
X0062546Y0137404D01*
X0061627Y0137279D01*
X0060705Y0137177D01*
X0059780Y0137097D01*
X0058855Y0137041D01*
X0057928Y0137006D01*
X0057000Y0136995D01*
X0056072Y0137006D01*
X0055145Y0137041D01*
X0054220Y0137097D01*
X0053295Y0137177D01*
X0052373Y0137279D01*
X0051454Y0137404D01*
X0050538Y0137551D01*
X0049627Y0137721D01*
X0048719Y0137913D01*
X0047817Y0138128D01*
X0046920Y0138364D01*
X0046029Y0138622D01*
X0045144Y0138903D01*
X0044267Y0139204D01*
X0043398Y0139528D01*
X0042536Y0139872D01*
X0041684Y0140237D01*
X0040841Y0140624D01*
X0040007Y0141031D01*
X0039184Y0141458D01*
X0038371Y0141905D01*
X0037569Y0142372D01*
X0036780Y0142859D01*
X0036002Y0143365D01*
X0035237Y0143889D01*
X0034486Y0144433D01*
X0033747Y0144994D01*
X0033023Y0145574D01*
X0032313Y0146171D01*
X0031618Y0146786D01*
X0030939Y0147417D01*
X0030275Y0148065D01*
X0029627Y0148729D01*
X0028996Y0149408D01*
X0028381Y0150103D01*
X0027784Y0150813D01*
X0027204Y0151537D01*
X0026643Y0152276D01*
X0026099Y0153027D01*
X0025575Y0153792D01*
X0025069Y0154570D01*
X0024582Y0155359D01*
X0024115Y0156161D01*
X0023668Y0156974D01*
X0023241Y0157797D01*
X0022834Y0158631D01*
X0022447Y0159474D01*
X0022082Y0160326D01*
X0021738Y0161188D01*
X0021414Y0162057D01*
X0021113Y0162934D01*
X0020832Y0163819D01*
X0020574Y0164710D01*
X0020338Y0165607D01*
X0020123Y0166509D01*
X0019931Y0167417D01*
X0019761Y0168328D01*
X0019614Y0169244D01*
X0019489Y0170163D01*
X0019387Y0171085D01*
X0019307Y0172010D01*
X0019251Y0172935D01*
X0019216Y0173862D01*
X0019205Y0174790D01*
D12*
X0085800Y0174041D02*
X0088069Y0174041D01*
X0089203Y0175175D01*
X0088069Y0176309D01*
X0085800Y0176309D01*
X0085800Y0177724D02*
X0085800Y0179992D01*
X0085800Y0181407D02*
X0085800Y0183676D01*
X0087501Y0182541D02*
X0087501Y0181407D01*
X0085800Y0181407D02*
X0089203Y0181407D01*
X0089203Y0183676D01*
X0089203Y0177724D02*
X0085800Y0177724D01*
X0087501Y0176309D02*
X0087501Y0174041D01*
X0085800Y0172626D02*
X0089203Y0172626D01*
X0088069Y0171492D01*
X0089203Y0170358D01*
X0085800Y0170358D01*
X0085800Y0168943D02*
X0085800Y0166674D01*
X0089203Y0166674D01*
X0089203Y0168943D01*
X0087501Y0167809D02*
X0087501Y0166674D01*
X0089203Y0165260D02*
X0089203Y0162991D01*
X0085800Y0162991D01*
X0087501Y0162991D02*
X0087501Y0164126D01*
X0085800Y0265358D02*
X0089203Y0265358D01*
X0088069Y0266492D01*
X0089203Y0267626D01*
X0085800Y0267626D01*
X0085800Y0269041D02*
X0088069Y0269041D01*
X0089203Y0270175D01*
X0088069Y0271309D01*
X0085800Y0271309D01*
X0085800Y0272724D02*
X0085800Y0274992D01*
X0085800Y0276407D02*
X0085800Y0278676D01*
X0087501Y0277541D02*
X0087501Y0276407D01*
X0085800Y0276407D02*
X0089203Y0276407D01*
X0089203Y0278676D01*
X0089203Y0272724D02*
X0085800Y0272724D01*
X0087501Y0271309D02*
X0087501Y0269041D01*
D13*
X0147250Y0203540D03*
X0148000Y0203540D03*
X0151750Y0200540D03*
X0152500Y0199040D03*
X0140500Y0196040D03*
X0152500Y0178040D03*
X0151750Y0176540D03*
X0153250Y0175790D03*
X0152500Y0174290D03*
X0210250Y0177290D03*
X0204250Y0221540D03*
X0213250Y0252290D03*
X0213250Y0262790D03*
X0208000Y0272540D03*
X0208000Y0275540D03*
X0208000Y0277790D03*
X0207250Y0277790D03*
X0210250Y0278540D03*
X0213250Y0279290D03*
X0213250Y0274040D03*
X0210250Y0274790D03*
X0208000Y0280790D03*
X0183250Y0278540D03*
D14*
X0204250Y0276665D03*
X0205000Y0276665D03*
X0207250Y0275915D03*
X0208750Y0275165D03*
X0209500Y0275165D03*
X0209500Y0272915D03*
X0208750Y0272915D03*
X0210250Y0272915D03*
X0207250Y0272165D03*
X0206500Y0272165D03*
X0205750Y0272165D03*
X0205000Y0271415D03*
X0204250Y0271415D03*
X0208750Y0278165D03*
X0209500Y0278165D03*
X0209500Y0280415D03*
X0208750Y0280415D03*
X0210250Y0280415D03*
X0207250Y0281165D03*
X0206500Y0281165D03*
X0205750Y0281165D03*
X0205000Y0281915D03*
X0204250Y0281915D03*
X0204250Y0262415D03*
X0205000Y0262415D03*
X0205750Y0262415D03*
X0206500Y0262415D03*
X0207250Y0262415D03*
X0208000Y0262415D03*
X0208750Y0262415D03*
X0209500Y0262415D03*
X0210250Y0262415D03*
X0211000Y0262415D03*
X0211750Y0262415D03*
X0212500Y0262415D03*
X0212500Y0252665D03*
X0211750Y0252665D03*
X0211000Y0252665D03*
X0210250Y0252665D03*
X0208000Y0252665D03*
X0207250Y0252665D03*
X0206500Y0252665D03*
X0205750Y0252665D03*
X0208000Y0247415D03*
X0207250Y0246665D03*
X0206500Y0246665D03*
X0210250Y0248165D03*
X0211750Y0247415D03*
X0213250Y0246665D03*
X0211750Y0236915D03*
X0211000Y0236915D03*
X0210250Y0236915D03*
X0209500Y0236915D03*
X0207250Y0236915D03*
X0206500Y0236915D03*
X0205750Y0236915D03*
X0205750Y0207665D03*
X0206500Y0207665D03*
X0207250Y0207665D03*
X0209500Y0207665D03*
X0210250Y0207665D03*
X0211000Y0207665D03*
X0211750Y0207665D03*
X0211000Y0192665D03*
X0210250Y0192665D03*
X0211750Y0191915D03*
X0207250Y0191915D03*
X0205750Y0191915D03*
X0206500Y0186665D03*
X0210250Y0186665D03*
X0211000Y0186665D03*
X0211750Y0186665D03*
X0211000Y0176915D03*
X0206500Y0176915D03*
X0205750Y0176915D03*
X0205750Y0171665D03*
X0206500Y0171665D03*
X0210250Y0170915D03*
X0211000Y0170915D03*
X0211750Y0171665D03*
X0151750Y0173165D03*
X0151000Y0171665D03*
X0150250Y0170915D03*
X0149500Y0170165D03*
X0148750Y0170165D03*
X0148000Y0169415D03*
X0147250Y0169415D03*
X0144250Y0169415D03*
X0145750Y0173915D03*
X0146500Y0173915D03*
X0147250Y0173915D03*
X0148000Y0173915D03*
X0148750Y0173915D03*
X0149500Y0173915D03*
X0150250Y0174665D03*
X0151000Y0175415D03*
X0149500Y0177665D03*
X0148750Y0177665D03*
X0148000Y0177665D03*
X0146500Y0178415D03*
X0145750Y0179165D03*
X0140500Y0180665D03*
X0150250Y0178415D03*
X0151000Y0179165D03*
X0151750Y0179915D03*
X0144250Y0195665D03*
X0145750Y0197915D03*
X0146500Y0198665D03*
X0147250Y0199415D03*
X0148000Y0199415D03*
X0148750Y0199415D03*
X0149500Y0199415D03*
X0150250Y0198665D03*
X0151000Y0197915D03*
X0151750Y0197165D03*
X0151000Y0201665D03*
X0150250Y0202415D03*
X0149500Y0203165D03*
X0148750Y0203165D03*
X0146500Y0203165D03*
X0145750Y0203165D03*
X0149500Y0206915D03*
X0150250Y0206165D03*
X0151000Y0205415D03*
X0151750Y0204665D03*
X0152500Y0203165D03*
X0153250Y0201665D03*
X0148750Y0207665D03*
X0148000Y0207665D03*
X0146500Y0208415D03*
X0145750Y0208415D03*
X0143500Y0207665D03*
X0137500Y0199415D03*
D15*
X0204250Y0204665D03*
X0208000Y0205415D03*
X0213250Y0204665D03*
X0212500Y0189665D03*
X0205000Y0189665D03*
X0205000Y0173915D03*
X0212500Y0173915D03*
X0213250Y0233915D03*
X0208000Y0234665D03*
X0209500Y0250415D03*
X0204250Y0250415D03*
D16*
X0213250Y0219290D03*
D17*
X0213250Y0189665D03*
X0213250Y0173915D03*
X0143500Y0175415D03*
X0142000Y0177665D03*
X0141250Y0179165D03*
X0138250Y0176165D03*
X0139000Y0174665D03*
X0140500Y0172415D03*
X0141250Y0197915D03*
X0142000Y0199415D03*
X0143500Y0201665D03*
X0139750Y0203915D03*
X0139000Y0202415D03*
X0138250Y0200915D03*
X0205750Y0276665D03*
X0206500Y0276665D03*
X0184750Y0278915D03*
D18*
X0184000Y0278540D03*
X0211000Y0279290D03*
X0211750Y0279290D03*
X0212500Y0279290D03*
X0212500Y0274040D03*
X0211750Y0274040D03*
X0211000Y0274040D03*
X0211000Y0247790D03*
X0212500Y0247040D03*
X0205750Y0247040D03*
X0205750Y0221540D03*
X0205000Y0221540D03*
X0206500Y0221540D03*
X0207250Y0221540D03*
X0208000Y0221540D03*
X0208750Y0221540D03*
X0209500Y0221540D03*
X0210250Y0221540D03*
X0211000Y0221540D03*
X0211750Y0221540D03*
X0206500Y0192290D03*
X0205750Y0187040D03*
X0209500Y0187040D03*
X0207250Y0176540D03*
X0211750Y0176540D03*
X0209500Y0172040D03*
X0147250Y0178040D03*
X0145000Y0180290D03*
X0144250Y0181790D03*
X0142750Y0176540D03*
X0144250Y0175040D03*
X0145000Y0174290D03*
X0143500Y0169790D03*
X0142750Y0169790D03*
X0142000Y0170540D03*
X0141250Y0171290D03*
X0139750Y0173540D03*
X0137500Y0178040D03*
X0145000Y0169040D03*
X0145750Y0169040D03*
X0146500Y0169040D03*
X0145000Y0196790D03*
X0142750Y0200540D03*
X0144250Y0202040D03*
X0145000Y0202790D03*
X0141250Y0205790D03*
X0140500Y0205040D03*
X0142000Y0206540D03*
X0142750Y0207290D03*
X0144250Y0208040D03*
X0145000Y0208040D03*
X0147250Y0208040D03*
D19*
X0161500Y0223040D03*
X0162250Y0223040D03*
X0165250Y0223790D03*
X0168250Y0224540D03*
X0169000Y0224540D03*
X0172000Y0225290D03*
X0172750Y0225290D03*
X0175000Y0226040D03*
X0175750Y0226040D03*
X0176500Y0226040D03*
X0178750Y0226790D03*
X0179500Y0226790D03*
X0180250Y0226790D03*
X0180250Y0234290D03*
X0179500Y0234290D03*
X0177250Y0235040D03*
X0176500Y0235040D03*
X0175750Y0235040D03*
X0174250Y0235790D03*
X0173500Y0235790D03*
X0172750Y0235790D03*
X0170500Y0236540D03*
X0169750Y0236540D03*
X0169000Y0236540D03*
X0166750Y0237290D03*
X0166000Y0237290D03*
X0163000Y0238040D03*
X0204250Y0234290D03*
X0205000Y0234290D03*
X0208750Y0234290D03*
X0212500Y0234290D03*
X0212500Y0219290D03*
X0212500Y0205040D03*
X0208750Y0205040D03*
X0205000Y0205040D03*
X0205000Y0250040D03*
X0208750Y0250040D03*
X0196000Y0273290D03*
D20*
X0185500Y0278915D03*
X0208000Y0190415D03*
X0208750Y0188915D03*
X0204250Y0189665D03*
X0208750Y0173165D03*
D21*
X0208000Y0175040D03*
X0204250Y0174290D03*
D22*
X0148750Y0188540D03*
X0186250Y0230540D03*
X0187000Y0230540D03*
X0187750Y0230540D03*
X0195250Y0273290D03*
D23*
X0195250Y0247040D03*
X0194500Y0230540D03*
X0193750Y0230540D03*
X0193000Y0230540D03*
X0174250Y0196790D03*
X0171250Y0196040D03*
X0168250Y0195290D03*
X0167500Y0195290D03*
X0165250Y0194540D03*
X0164500Y0194540D03*
X0163750Y0194540D03*
X0162250Y0193790D03*
X0161500Y0193790D03*
X0160750Y0193790D03*
X0159250Y0193040D03*
X0158500Y0193040D03*
X0157750Y0193040D03*
X0157750Y0184040D03*
X0158500Y0184040D03*
X0159250Y0184040D03*
X0160000Y0184040D03*
X0160750Y0183290D03*
X0161500Y0183290D03*
X0162250Y0183290D03*
X0163000Y0183290D03*
X0163750Y0182540D03*
X0164500Y0182540D03*
X0165250Y0182540D03*
X0166000Y0182540D03*
X0167500Y0181790D03*
X0168250Y0181790D03*
X0169000Y0181790D03*
X0171250Y0181040D03*
D24*
X0157000Y0184415D03*
X0157000Y0192665D03*
X0160000Y0193415D03*
X0163000Y0223415D03*
X0163750Y0223415D03*
X0164500Y0223415D03*
X0166000Y0224165D03*
X0166750Y0224165D03*
X0167500Y0224165D03*
X0169750Y0224915D03*
X0170500Y0224915D03*
X0171250Y0224915D03*
X0173500Y0225665D03*
X0174250Y0225665D03*
X0177250Y0226415D03*
X0178000Y0226415D03*
X0178000Y0234665D03*
X0178750Y0234665D03*
X0175000Y0235415D03*
X0172000Y0236165D03*
X0171250Y0236165D03*
X0168250Y0236915D03*
X0167500Y0236915D03*
X0165250Y0237665D03*
X0164500Y0237665D03*
X0163750Y0237665D03*
X0195250Y0230915D03*
X0186250Y0278915D03*
D25*
X0186250Y0246665D03*
X0185500Y0246665D03*
X0184750Y0246665D03*
X0184000Y0246665D03*
X0183250Y0246665D03*
X0182500Y0246665D03*
X0181750Y0246665D03*
X0181000Y0246665D03*
X0180250Y0246665D03*
X0179500Y0246665D03*
X0178750Y0246665D03*
X0178000Y0246665D03*
X0177250Y0246665D03*
X0176500Y0246665D03*
X0175750Y0246665D03*
X0175000Y0246665D03*
X0174250Y0246665D03*
X0173500Y0246665D03*
X0172750Y0246665D03*
X0172000Y0246665D03*
X0171250Y0246665D03*
X0170500Y0246665D03*
X0169750Y0246665D03*
X0169000Y0246665D03*
X0168250Y0246665D03*
X0167500Y0246665D03*
X0166750Y0246665D03*
X0166000Y0246665D03*
X0165250Y0246665D03*
X0164500Y0246665D03*
X0163750Y0246665D03*
X0163000Y0246665D03*
X0148750Y0263915D03*
X0187000Y0246665D03*
X0187750Y0246665D03*
X0188500Y0246665D03*
X0189250Y0246665D03*
X0190000Y0246665D03*
X0190750Y0246665D03*
X0191500Y0246665D03*
X0192250Y0246665D03*
X0193000Y0246665D03*
X0193750Y0246665D03*
X0194500Y0246665D03*
X0192250Y0230915D03*
X0192250Y0214415D03*
X0193000Y0214415D03*
X0193750Y0214415D03*
X0194500Y0214415D03*
X0195250Y0214415D03*
X0191500Y0214415D03*
X0190750Y0214415D03*
X0190000Y0214415D03*
X0189250Y0214415D03*
X0188500Y0214415D03*
X0187750Y0214415D03*
X0187000Y0214415D03*
X0186250Y0214415D03*
X0185500Y0214415D03*
X0184750Y0214415D03*
X0184000Y0214415D03*
X0183250Y0214415D03*
X0182500Y0214415D03*
X0181750Y0214415D03*
X0181000Y0214415D03*
X0180250Y0214415D03*
X0179500Y0214415D03*
X0178750Y0214415D03*
X0178000Y0214415D03*
X0177250Y0214415D03*
X0176500Y0214415D03*
X0175750Y0214415D03*
X0175000Y0214415D03*
X0174250Y0214415D03*
X0173500Y0214415D03*
X0172750Y0214415D03*
X0172000Y0214415D03*
X0171250Y0214415D03*
X0170500Y0214415D03*
X0169750Y0214415D03*
X0169000Y0214415D03*
X0168250Y0214415D03*
X0167500Y0214415D03*
X0166750Y0214415D03*
X0166000Y0214415D03*
X0165250Y0214415D03*
X0164500Y0214415D03*
X0163750Y0214415D03*
X0163000Y0214415D03*
X0162250Y0214415D03*
X0161500Y0214415D03*
X0175000Y0197165D03*
X0175750Y0197165D03*
X0176500Y0197165D03*
X0173500Y0196415D03*
X0172750Y0196415D03*
X0172000Y0196415D03*
X0170500Y0195665D03*
X0169750Y0195665D03*
X0169000Y0195665D03*
X0166750Y0194915D03*
X0166000Y0194915D03*
X0163000Y0194165D03*
X0166750Y0182165D03*
X0169750Y0181415D03*
X0170500Y0181415D03*
X0172000Y0180665D03*
X0172750Y0180665D03*
X0173500Y0180665D03*
X0174250Y0180665D03*
X0175000Y0179915D03*
X0175750Y0179915D03*
X0176500Y0179915D03*
X0177250Y0179915D03*
D26*
X0186250Y0177290D03*
X0187000Y0177290D03*
X0187750Y0177290D03*
X0188500Y0177290D03*
X0189250Y0176540D03*
X0190000Y0176540D03*
X0190750Y0176540D03*
X0191500Y0176540D03*
X0193000Y0175790D03*
X0193750Y0175790D03*
X0194500Y0175790D03*
X0187750Y0199790D03*
X0187000Y0199790D03*
X0186250Y0199790D03*
X0188500Y0200540D03*
X0189250Y0200540D03*
X0190000Y0200540D03*
X0190750Y0200540D03*
X0192250Y0201290D03*
X0193000Y0201290D03*
X0193750Y0201290D03*
X0195250Y0202040D03*
X0177250Y0197540D03*
X0189250Y0230540D03*
X0190000Y0230540D03*
X0190750Y0230540D03*
X0191500Y0230540D03*
X0183250Y0263540D03*
X0182500Y0263540D03*
X0181750Y0263540D03*
X0181000Y0263540D03*
X0180250Y0263540D03*
X0179500Y0263540D03*
X0178750Y0263540D03*
X0178000Y0263540D03*
X0177250Y0263540D03*
X0176500Y0263540D03*
X0175750Y0263540D03*
X0175000Y0263540D03*
X0174250Y0263540D03*
X0173500Y0263540D03*
X0172750Y0263540D03*
X0172000Y0263540D03*
X0171250Y0263540D03*
X0170500Y0263540D03*
X0169750Y0263540D03*
X0169000Y0263540D03*
X0168250Y0263540D03*
X0167500Y0263540D03*
X0166750Y0263540D03*
X0166000Y0263540D03*
X0165250Y0263540D03*
X0164500Y0263540D03*
X0163750Y0263540D03*
X0163000Y0263540D03*
X0162250Y0263540D03*
X0161500Y0263540D03*
X0160750Y0263540D03*
X0160000Y0263540D03*
X0159250Y0263540D03*
X0158500Y0263540D03*
X0157750Y0263540D03*
X0157000Y0263540D03*
X0156250Y0263540D03*
X0155500Y0263540D03*
X0154750Y0263540D03*
X0154000Y0263540D03*
X0153250Y0263540D03*
X0152500Y0263540D03*
X0151750Y0263540D03*
X0151000Y0263540D03*
X0150250Y0263540D03*
X0149500Y0263540D03*
X0184000Y0264290D03*
X0184750Y0264290D03*
D27*
X0185500Y0264665D03*
X0188500Y0230915D03*
X0194500Y0201665D03*
X0191500Y0200915D03*
X0192250Y0176165D03*
X0195250Y0175415D03*
D28*
X0154000Y0188540D03*
X0153250Y0188540D03*
X0152500Y0188540D03*
X0151000Y0217040D03*
X0150250Y0217040D03*
X0149500Y0217040D03*
X0149500Y0244040D03*
X0150250Y0244040D03*
X0151000Y0244040D03*
X0151750Y0244040D03*
X0181000Y0230540D03*
X0194500Y0273290D03*
D29*
X0193750Y0273290D03*
D30*
X0193000Y0273290D03*
D31*
X0192250Y0273290D03*
D32*
X0191500Y0273290D03*
D33*
X0190750Y0273290D03*
X0187000Y0271790D03*
D34*
X0187750Y0272165D03*
X0190000Y0273665D03*
D35*
X0189250Y0273290D03*
X0188500Y0272540D03*
D36*
X0186250Y0265415D03*
X0185500Y0230915D03*
D37*
X0185500Y0188540D03*
X0184750Y0188540D03*
X0184000Y0188540D03*
X0183250Y0188540D03*
D38*
X0151000Y0188540D03*
X0150250Y0188540D03*
X0149500Y0188540D03*
X0182500Y0230540D03*
X0183250Y0230540D03*
X0184000Y0230540D03*
X0184750Y0230540D03*
D39*
X0182500Y0188540D03*
X0181750Y0188540D03*
X0181000Y0188540D03*
D40*
X0151750Y0188915D03*
X0148750Y0216665D03*
X0148750Y0244415D03*
X0181750Y0230915D03*
D41*
X0180250Y0188915D03*
D42*
X0179500Y0188540D03*
X0178750Y0188540D03*
X0178000Y0188540D03*
D43*
X0160750Y0218165D03*
X0160000Y0218165D03*
X0159250Y0218165D03*
X0160000Y0242915D03*
X0160750Y0242915D03*
X0161500Y0242915D03*
X0162250Y0242915D03*
D44*
X0159250Y0243290D03*
X0158500Y0243290D03*
X0157750Y0243290D03*
X0157000Y0243290D03*
X0156250Y0243290D03*
X0156250Y0217790D03*
X0155500Y0217790D03*
X0157000Y0217790D03*
X0157750Y0217790D03*
X0158500Y0217790D03*
X0156250Y0188540D03*
X0155500Y0188540D03*
X0154750Y0188540D03*
D45*
X0154750Y0217415D03*
X0154000Y0217415D03*
X0153250Y0217415D03*
X0152500Y0217415D03*
X0151750Y0217415D03*
X0152500Y0243665D03*
X0153250Y0243665D03*
X0154000Y0243665D03*
X0154750Y0243665D03*
X0155500Y0243665D03*
D46*
X0088629Y0102161D02*
X0049468Y0102161D01*
X0049468Y0102533D01*
X0064872Y0109585D01*
X0065244Y0109585D01*
X0066728Y0108657D01*
X0068399Y0107544D01*
X0069698Y0106616D01*
X0071183Y0105688D01*
X0072482Y0104945D01*
X0072853Y0104945D01*
X0073039Y0105131D01*
X0073224Y0105502D01*
X0073224Y0106059D01*
X0072853Y0106801D01*
X0072111Y0107915D01*
X0068585Y0111070D01*
X0068585Y0111255D01*
X0073596Y0113668D01*
X0074152Y0113668D01*
X0075080Y0112369D01*
X0075080Y0108843D01*
X0075266Y0107172D01*
X0075637Y0106059D01*
X0076008Y0105316D01*
X0076565Y0104945D01*
X0076936Y0104945D01*
X0077493Y0112369D01*
X0077493Y0113854D01*
X0077307Y0114225D01*
X0076751Y0115153D01*
X0080277Y0116823D01*
X0088629Y0102161D01*
X0088620Y0102176D02*
X0049468Y0102176D01*
X0049468Y0102360D02*
X0088516Y0102360D01*
X0088411Y0102543D02*
X0049492Y0102543D01*
X0049893Y0102727D02*
X0088307Y0102727D01*
X0088202Y0102910D02*
X0050293Y0102910D01*
X0050694Y0103094D02*
X0088097Y0103094D01*
X0087993Y0103278D02*
X0051095Y0103278D01*
X0051496Y0103461D02*
X0087888Y0103461D01*
X0087784Y0103645D02*
X0051897Y0103645D01*
X0052298Y0103828D02*
X0087679Y0103828D01*
X0087575Y0104012D02*
X0052699Y0104012D01*
X0053100Y0104195D02*
X0087470Y0104195D01*
X0087366Y0104379D02*
X0053501Y0104379D01*
X0053902Y0104562D02*
X0087261Y0104562D01*
X0087157Y0104746D02*
X0054303Y0104746D01*
X0054704Y0104930D02*
X0087052Y0104930D01*
X0086947Y0105113D02*
X0076949Y0105113D01*
X0076963Y0105297D02*
X0086843Y0105297D01*
X0086738Y0105480D02*
X0076976Y0105480D01*
X0076990Y0105664D02*
X0086634Y0105664D01*
X0086529Y0105847D02*
X0077004Y0105847D01*
X0077018Y0106031D02*
X0086425Y0106031D01*
X0086320Y0106214D02*
X0077031Y0106214D01*
X0077045Y0106398D02*
X0086216Y0106398D01*
X0086111Y0106581D02*
X0077059Y0106581D01*
X0077073Y0106765D02*
X0086006Y0106765D01*
X0085902Y0106949D02*
X0077086Y0106949D01*
X0077100Y0107132D02*
X0085797Y0107132D01*
X0085693Y0107316D02*
X0077114Y0107316D01*
X0077128Y0107499D02*
X0085588Y0107499D01*
X0085484Y0107683D02*
X0077141Y0107683D01*
X0077155Y0107866D02*
X0085379Y0107866D01*
X0085275Y0108050D02*
X0077169Y0108050D01*
X0077183Y0108233D02*
X0085170Y0108233D01*
X0085065Y0108417D02*
X0077197Y0108417D01*
X0077210Y0108601D02*
X0084961Y0108601D01*
X0084856Y0108784D02*
X0077224Y0108784D01*
X0077238Y0108968D02*
X0084752Y0108968D01*
X0084647Y0109151D02*
X0077252Y0109151D01*
X0077265Y0109335D02*
X0084543Y0109335D01*
X0084438Y0109518D02*
X0077279Y0109518D01*
X0077293Y0109702D02*
X0084334Y0109702D01*
X0084229Y0109885D02*
X0077307Y0109885D01*
X0077320Y0110069D02*
X0084124Y0110069D01*
X0084020Y0110252D02*
X0077334Y0110252D01*
X0077348Y0110436D02*
X0083915Y0110436D01*
X0083811Y0110620D02*
X0077362Y0110620D01*
X0077375Y0110803D02*
X0083706Y0110803D01*
X0083602Y0110987D02*
X0077389Y0110987D01*
X0077403Y0111170D02*
X0083497Y0111170D01*
X0083393Y0111354D02*
X0077417Y0111354D01*
X0077431Y0111537D02*
X0083288Y0111537D01*
X0083184Y0111721D02*
X0077444Y0111721D01*
X0077458Y0111904D02*
X0083079Y0111904D01*
X0082974Y0112088D02*
X0077472Y0112088D01*
X0077486Y0112272D02*
X0082870Y0112272D01*
X0082765Y0112455D02*
X0077493Y0112455D01*
X0077493Y0112639D02*
X0082661Y0112639D01*
X0082556Y0112822D02*
X0077493Y0112822D01*
X0077493Y0113006D02*
X0082452Y0113006D01*
X0082347Y0113189D02*
X0077493Y0113189D01*
X0077493Y0113373D02*
X0082243Y0113373D01*
X0082138Y0113556D02*
X0077493Y0113556D01*
X0077493Y0113740D02*
X0082033Y0113740D01*
X0081929Y0113923D02*
X0077458Y0113923D01*
X0077366Y0114107D02*
X0081824Y0114107D01*
X0081720Y0114291D02*
X0077268Y0114291D01*
X0077158Y0114474D02*
X0081615Y0114474D01*
X0081511Y0114658D02*
X0077048Y0114658D01*
X0076938Y0114841D02*
X0081406Y0114841D01*
X0081302Y0115025D02*
X0076828Y0115025D01*
X0076867Y0115208D02*
X0081197Y0115208D01*
X0081092Y0115392D02*
X0077255Y0115392D01*
X0077643Y0115575D02*
X0080988Y0115575D01*
X0080883Y0115759D02*
X0078030Y0115759D01*
X0078418Y0115943D02*
X0080779Y0115943D01*
X0080674Y0116126D02*
X0078805Y0116126D01*
X0079193Y0116310D02*
X0080570Y0116310D01*
X0080465Y0116493D02*
X0079580Y0116493D01*
X0079968Y0116677D02*
X0080361Y0116677D01*
X0078607Y0118865D02*
X0074895Y0117009D01*
X0074524Y0117009D01*
X0070626Y0120535D01*
X0070441Y0120721D01*
X0061532Y0122391D01*
X0061532Y0122763D01*
X0068956Y0135568D01*
X0078607Y0118865D01*
X0078598Y0118879D02*
X0072456Y0118879D01*
X0072659Y0118696D02*
X0078269Y0118696D01*
X0077901Y0118512D02*
X0072862Y0118512D01*
X0073065Y0118329D02*
X0077534Y0118329D01*
X0077167Y0118145D02*
X0073268Y0118145D01*
X0073471Y0117962D02*
X0076800Y0117962D01*
X0076433Y0117778D02*
X0073674Y0117778D01*
X0073876Y0117595D02*
X0076066Y0117595D01*
X0075699Y0117411D02*
X0074079Y0117411D01*
X0074282Y0117227D02*
X0075332Y0117227D01*
X0074965Y0117044D02*
X0074485Y0117044D01*
X0072253Y0119063D02*
X0078492Y0119063D01*
X0078386Y0119246D02*
X0072051Y0119246D01*
X0071848Y0119430D02*
X0078280Y0119430D01*
X0078174Y0119614D02*
X0071645Y0119614D01*
X0071442Y0119797D02*
X0078068Y0119797D01*
X0077962Y0119981D02*
X0071239Y0119981D01*
X0071036Y0120164D02*
X0077856Y0120164D01*
X0077750Y0120348D02*
X0070833Y0120348D01*
X0070630Y0120531D02*
X0077644Y0120531D01*
X0077538Y0120715D02*
X0070446Y0120715D01*
X0069493Y0120898D02*
X0077432Y0120898D01*
X0077326Y0121082D02*
X0068514Y0121082D01*
X0067536Y0121266D02*
X0077220Y0121266D01*
X0077114Y0121449D02*
X0066557Y0121449D01*
X0065578Y0121633D02*
X0077008Y0121633D01*
X0076901Y0121816D02*
X0064599Y0121816D01*
X0063620Y0122000D02*
X0076795Y0122000D01*
X0076689Y0122183D02*
X0062641Y0122183D01*
X0061662Y0122367D02*
X0076583Y0122367D01*
X0076477Y0122550D02*
X0061532Y0122550D01*
X0061532Y0122734D02*
X0076371Y0122734D01*
X0076265Y0122917D02*
X0061622Y0122917D01*
X0061728Y0123101D02*
X0076159Y0123101D01*
X0076053Y0123285D02*
X0061835Y0123285D01*
X0061941Y0123468D02*
X0075947Y0123468D01*
X0075841Y0123652D02*
X0062047Y0123652D01*
X0062154Y0123835D02*
X0075735Y0123835D01*
X0075629Y0124019D02*
X0062260Y0124019D01*
X0062367Y0124202D02*
X0075523Y0124202D01*
X0075417Y0124386D02*
X0062473Y0124386D01*
X0062579Y0124569D02*
X0075311Y0124569D01*
X0075205Y0124753D02*
X0062686Y0124753D01*
X0062792Y0124937D02*
X0075099Y0124937D01*
X0074992Y0125120D02*
X0062899Y0125120D01*
X0063005Y0125304D02*
X0074886Y0125304D01*
X0074780Y0125487D02*
X0063111Y0125487D01*
X0063218Y0125671D02*
X0074674Y0125671D01*
X0074568Y0125854D02*
X0063324Y0125854D01*
X0063431Y0126038D02*
X0074462Y0126038D01*
X0074356Y0126221D02*
X0063537Y0126221D01*
X0063643Y0126405D02*
X0074250Y0126405D01*
X0074144Y0126588D02*
X0063750Y0126588D01*
X0063856Y0126772D02*
X0074038Y0126772D01*
X0073932Y0126956D02*
X0063963Y0126956D01*
X0064069Y0127139D02*
X0073826Y0127139D01*
X0073720Y0127323D02*
X0064175Y0127323D01*
X0064282Y0127506D02*
X0073614Y0127506D01*
X0073508Y0127690D02*
X0064388Y0127690D01*
X0064495Y0127873D02*
X0073402Y0127873D01*
X0073296Y0128057D02*
X0064601Y0128057D01*
X0064707Y0128240D02*
X0073190Y0128240D01*
X0073084Y0128424D02*
X0064814Y0128424D01*
X0064920Y0128608D02*
X0072977Y0128608D01*
X0072871Y0128791D02*
X0065027Y0128791D01*
X0065133Y0128975D02*
X0072765Y0128975D01*
X0072659Y0129158D02*
X0065239Y0129158D01*
X0065346Y0129342D02*
X0072553Y0129342D01*
X0072447Y0129525D02*
X0065452Y0129525D01*
X0065559Y0129709D02*
X0072341Y0129709D01*
X0072235Y0129892D02*
X0065665Y0129892D01*
X0065772Y0130076D02*
X0072129Y0130076D01*
X0072023Y0130260D02*
X0065878Y0130260D01*
X0065984Y0130443D02*
X0071917Y0130443D01*
X0071811Y0130627D02*
X0066091Y0130627D01*
X0066197Y0130810D02*
X0071705Y0130810D01*
X0071599Y0130994D02*
X0066304Y0130994D01*
X0066410Y0131177D02*
X0071493Y0131177D01*
X0071387Y0131361D02*
X0066516Y0131361D01*
X0066623Y0131544D02*
X0071281Y0131544D01*
X0071175Y0131728D02*
X0066729Y0131728D01*
X0066836Y0131911D02*
X0071068Y0131911D01*
X0070962Y0132095D02*
X0066942Y0132095D01*
X0067048Y0132279D02*
X0070856Y0132279D01*
X0070750Y0132462D02*
X0067155Y0132462D01*
X0067261Y0132646D02*
X0070644Y0132646D01*
X0070538Y0132829D02*
X0067368Y0132829D01*
X0067474Y0133013D02*
X0070432Y0133013D01*
X0070326Y0133196D02*
X0067580Y0133196D01*
X0067687Y0133380D02*
X0070220Y0133380D01*
X0070114Y0133563D02*
X0067793Y0133563D01*
X0067900Y0133747D02*
X0070008Y0133747D01*
X0069902Y0133931D02*
X0068006Y0133931D01*
X0068112Y0134114D02*
X0069796Y0134114D01*
X0069690Y0134298D02*
X0068219Y0134298D01*
X0068325Y0134481D02*
X0069584Y0134481D01*
X0069478Y0134665D02*
X0068432Y0134665D01*
X0068538Y0134848D02*
X0069372Y0134848D01*
X0069266Y0135032D02*
X0068644Y0135032D01*
X0068751Y0135215D02*
X0069160Y0135215D01*
X0069053Y0135399D02*
X0068857Y0135399D01*
X0069513Y0116081D02*
X0067656Y0115524D01*
X0067100Y0115153D01*
X0066728Y0114596D01*
X0066914Y0113854D01*
X0067285Y0113297D01*
X0071183Y0115153D01*
X0069883Y0116081D01*
X0069513Y0116081D01*
X0069051Y0115943D02*
X0070077Y0115943D01*
X0070334Y0115759D02*
X0068439Y0115759D01*
X0067827Y0115575D02*
X0070591Y0115575D01*
X0070848Y0115392D02*
X0067458Y0115392D01*
X0067182Y0115208D02*
X0071105Y0115208D01*
X0070913Y0115025D02*
X0067014Y0115025D01*
X0066892Y0114841D02*
X0070528Y0114841D01*
X0070142Y0114658D02*
X0066769Y0114658D01*
X0066759Y0114474D02*
X0069757Y0114474D01*
X0069372Y0114291D02*
X0066805Y0114291D01*
X0066851Y0114107D02*
X0068986Y0114107D01*
X0068601Y0113923D02*
X0066897Y0113923D01*
X0066990Y0113740D02*
X0068215Y0113740D01*
X0067830Y0113556D02*
X0067113Y0113556D01*
X0067235Y0113373D02*
X0067444Y0113373D01*
X0068789Y0111354D02*
X0075080Y0111354D01*
X0075080Y0111537D02*
X0069170Y0111537D01*
X0069551Y0111721D02*
X0075080Y0111721D01*
X0075080Y0111904D02*
X0069933Y0111904D01*
X0070314Y0112088D02*
X0075080Y0112088D01*
X0075080Y0112272D02*
X0070695Y0112272D01*
X0071076Y0112455D02*
X0075019Y0112455D01*
X0074888Y0112639D02*
X0071458Y0112639D01*
X0071839Y0112822D02*
X0074757Y0112822D01*
X0074626Y0113006D02*
X0072220Y0113006D01*
X0072601Y0113189D02*
X0074494Y0113189D01*
X0074363Y0113373D02*
X0072983Y0113373D01*
X0073364Y0113556D02*
X0074232Y0113556D01*
X0075080Y0111170D02*
X0068585Y0111170D01*
X0068678Y0110987D02*
X0075080Y0110987D01*
X0075080Y0110803D02*
X0068883Y0110803D01*
X0069088Y0110620D02*
X0075080Y0110620D01*
X0075080Y0110436D02*
X0069293Y0110436D01*
X0069498Y0110252D02*
X0075080Y0110252D01*
X0075080Y0110069D02*
X0069703Y0110069D01*
X0069909Y0109885D02*
X0075080Y0109885D01*
X0075080Y0109702D02*
X0070114Y0109702D01*
X0070319Y0109518D02*
X0075080Y0109518D01*
X0075080Y0109335D02*
X0070524Y0109335D01*
X0070729Y0109151D02*
X0075080Y0109151D01*
X0075080Y0108968D02*
X0070934Y0108968D01*
X0071139Y0108784D02*
X0075087Y0108784D01*
X0075107Y0108601D02*
X0071344Y0108601D01*
X0071550Y0108417D02*
X0075128Y0108417D01*
X0075148Y0108233D02*
X0071755Y0108233D01*
X0071960Y0108050D02*
X0075168Y0108050D01*
X0075189Y0107866D02*
X0072143Y0107866D01*
X0072265Y0107683D02*
X0075209Y0107683D01*
X0075229Y0107499D02*
X0072388Y0107499D01*
X0072510Y0107316D02*
X0075250Y0107316D01*
X0075279Y0107132D02*
X0072632Y0107132D01*
X0072755Y0106949D02*
X0075340Y0106949D01*
X0075402Y0106765D02*
X0072871Y0106765D01*
X0072963Y0106581D02*
X0075463Y0106581D01*
X0075524Y0106398D02*
X0073055Y0106398D01*
X0073147Y0106214D02*
X0075585Y0106214D01*
X0075651Y0106031D02*
X0073224Y0106031D01*
X0073224Y0105847D02*
X0075743Y0105847D01*
X0075835Y0105664D02*
X0073224Y0105664D01*
X0073214Y0105480D02*
X0075926Y0105480D01*
X0076038Y0105297D02*
X0073122Y0105297D01*
X0073021Y0105113D02*
X0076313Y0105113D01*
X0072188Y0105113D02*
X0055105Y0105113D01*
X0055505Y0105297D02*
X0071867Y0105297D01*
X0071546Y0105480D02*
X0055906Y0105480D01*
X0056307Y0105664D02*
X0071225Y0105664D01*
X0070927Y0105847D02*
X0056708Y0105847D01*
X0057109Y0106031D02*
X0070634Y0106031D01*
X0070340Y0106214D02*
X0057510Y0106214D01*
X0057911Y0106398D02*
X0070046Y0106398D01*
X0069753Y0106581D02*
X0058312Y0106581D01*
X0058713Y0106765D02*
X0069489Y0106765D01*
X0069232Y0106949D02*
X0059114Y0106949D01*
X0059515Y0107132D02*
X0068975Y0107132D01*
X0068718Y0107316D02*
X0059916Y0107316D01*
X0060317Y0107499D02*
X0068461Y0107499D01*
X0068190Y0107683D02*
X0060718Y0107683D01*
X0061118Y0107866D02*
X0067915Y0107866D01*
X0067639Y0108050D02*
X0061519Y0108050D01*
X0061920Y0108233D02*
X0067364Y0108233D01*
X0067089Y0108417D02*
X0062321Y0108417D01*
X0062722Y0108601D02*
X0066813Y0108601D01*
X0066525Y0108784D02*
X0063123Y0108784D01*
X0063524Y0108968D02*
X0066231Y0108968D01*
X0065938Y0109151D02*
X0063925Y0109151D01*
X0064326Y0109335D02*
X0065644Y0109335D01*
X0065350Y0109518D02*
X0064727Y0109518D01*
X0061717Y0111070D02*
X0061717Y0111255D01*
X0057634Y0115710D01*
X0052438Y0106616D01*
X0061717Y0111070D01*
X0061717Y0111170D02*
X0055040Y0111170D01*
X0054935Y0110987D02*
X0061544Y0110987D01*
X0061627Y0111354D02*
X0055145Y0111354D01*
X0055250Y0111537D02*
X0061459Y0111537D01*
X0061291Y0111721D02*
X0055355Y0111721D01*
X0055460Y0111904D02*
X0061122Y0111904D01*
X0060954Y0112088D02*
X0055565Y0112088D01*
X0055670Y0112272D02*
X0060786Y0112272D01*
X0060618Y0112455D02*
X0055774Y0112455D01*
X0055879Y0112639D02*
X0060449Y0112639D01*
X0060281Y0112822D02*
X0055984Y0112822D01*
X0056089Y0113006D02*
X0060113Y0113006D01*
X0059945Y0113189D02*
X0056194Y0113189D01*
X0056299Y0113373D02*
X0059776Y0113373D01*
X0059608Y0113556D02*
X0056404Y0113556D01*
X0056509Y0113740D02*
X0059440Y0113740D01*
X0059272Y0113923D02*
X0056614Y0113923D01*
X0056718Y0114107D02*
X0059103Y0114107D01*
X0058935Y0114291D02*
X0056823Y0114291D01*
X0056928Y0114474D02*
X0058767Y0114474D01*
X0058599Y0114658D02*
X0057033Y0114658D01*
X0057138Y0114841D02*
X0058430Y0114841D01*
X0058262Y0115025D02*
X0057243Y0115025D01*
X0057348Y0115208D02*
X0058094Y0115208D01*
X0057926Y0115392D02*
X0057453Y0115392D01*
X0057558Y0115575D02*
X0057757Y0115575D01*
X0054831Y0110803D02*
X0061161Y0110803D01*
X0060779Y0110620D02*
X0054726Y0110620D01*
X0054621Y0110436D02*
X0060397Y0110436D01*
X0060014Y0110252D02*
X0054516Y0110252D01*
X0054411Y0110069D02*
X0059632Y0110069D01*
X0059249Y0109885D02*
X0054306Y0109885D01*
X0054201Y0109702D02*
X0058867Y0109702D01*
X0058485Y0109518D02*
X0054096Y0109518D01*
X0053991Y0109335D02*
X0058102Y0109335D01*
X0057720Y0109151D02*
X0053887Y0109151D01*
X0053782Y0108968D02*
X0057337Y0108968D01*
X0056955Y0108784D02*
X0053677Y0108784D01*
X0053572Y0108601D02*
X0056573Y0108601D01*
X0056190Y0108417D02*
X0053467Y0108417D01*
X0053362Y0108233D02*
X0055808Y0108233D01*
X0055426Y0108050D02*
X0053257Y0108050D01*
X0053152Y0107866D02*
X0055043Y0107866D01*
X0054661Y0107683D02*
X0053048Y0107683D01*
X0052943Y0107499D02*
X0054278Y0107499D01*
X0053896Y0107316D02*
X0052838Y0107316D01*
X0052733Y0107132D02*
X0053514Y0107132D01*
X0053131Y0106949D02*
X0052628Y0106949D01*
X0052523Y0106765D02*
X0052749Y0106765D01*
X0174468Y0104533D02*
X0174468Y0104161D01*
X0213629Y0104161D01*
X0205277Y0118823D01*
X0201751Y0117153D01*
X0202307Y0116225D01*
X0202493Y0115854D01*
X0202493Y0114369D01*
X0201936Y0106945D01*
X0201565Y0106945D01*
X0201008Y0107316D01*
X0200637Y0108059D01*
X0200266Y0109172D01*
X0200080Y0110843D01*
X0200080Y0114369D01*
X0199152Y0115668D01*
X0198596Y0115668D01*
X0193585Y0113255D01*
X0193585Y0113070D01*
X0197111Y0109915D01*
X0197853Y0108801D01*
X0198224Y0108059D01*
X0198224Y0107502D01*
X0198039Y0107131D01*
X0197853Y0106945D01*
X0197482Y0106945D01*
X0196183Y0107688D01*
X0194698Y0108616D01*
X0193399Y0109544D01*
X0191728Y0110657D01*
X0190244Y0111585D01*
X0189872Y0111585D01*
X0174468Y0104533D01*
X0174533Y0104562D02*
X0213400Y0104562D01*
X0213505Y0104379D02*
X0174468Y0104379D01*
X0174468Y0104195D02*
X0213609Y0104195D01*
X0213296Y0104746D02*
X0174934Y0104746D01*
X0175335Y0104930D02*
X0213191Y0104930D01*
X0213087Y0105113D02*
X0175736Y0105113D01*
X0176137Y0105297D02*
X0212982Y0105297D01*
X0212878Y0105480D02*
X0176538Y0105480D01*
X0176939Y0105664D02*
X0212773Y0105664D01*
X0212668Y0105847D02*
X0177340Y0105847D01*
X0177741Y0106031D02*
X0212564Y0106031D01*
X0212459Y0106214D02*
X0178142Y0106214D01*
X0178542Y0106398D02*
X0212355Y0106398D01*
X0212250Y0106581D02*
X0178943Y0106581D01*
X0179344Y0106765D02*
X0212146Y0106765D01*
X0212041Y0106949D02*
X0201936Y0106949D01*
X0201950Y0107132D02*
X0211937Y0107132D01*
X0211832Y0107316D02*
X0201964Y0107316D01*
X0201978Y0107499D02*
X0211727Y0107499D01*
X0211623Y0107683D02*
X0201992Y0107683D01*
X0202005Y0107866D02*
X0211518Y0107866D01*
X0211414Y0108050D02*
X0202019Y0108050D01*
X0202033Y0108233D02*
X0211309Y0108233D01*
X0211205Y0108417D02*
X0202047Y0108417D01*
X0202060Y0108601D02*
X0211100Y0108601D01*
X0210996Y0108784D02*
X0202074Y0108784D01*
X0202088Y0108968D02*
X0210891Y0108968D01*
X0210786Y0109151D02*
X0202102Y0109151D01*
X0202115Y0109335D02*
X0210682Y0109335D01*
X0210577Y0109518D02*
X0202129Y0109518D01*
X0202143Y0109702D02*
X0210473Y0109702D01*
X0210368Y0109885D02*
X0202157Y0109885D01*
X0202170Y0110069D02*
X0210264Y0110069D01*
X0210159Y0110252D02*
X0202184Y0110252D01*
X0202198Y0110436D02*
X0210055Y0110436D01*
X0209950Y0110620D02*
X0202212Y0110620D01*
X0202226Y0110803D02*
X0209845Y0110803D01*
X0209741Y0110987D02*
X0202239Y0110987D01*
X0202253Y0111170D02*
X0209636Y0111170D01*
X0209532Y0111354D02*
X0202267Y0111354D01*
X0202281Y0111537D02*
X0209427Y0111537D01*
X0209323Y0111721D02*
X0202294Y0111721D01*
X0202308Y0111904D02*
X0209218Y0111904D01*
X0209114Y0112088D02*
X0202322Y0112088D01*
X0202336Y0112272D02*
X0209009Y0112272D01*
X0208905Y0112455D02*
X0202349Y0112455D01*
X0202363Y0112639D02*
X0208800Y0112639D01*
X0208695Y0112822D02*
X0202377Y0112822D01*
X0202391Y0113006D02*
X0208591Y0113006D01*
X0208486Y0113189D02*
X0202404Y0113189D01*
X0202418Y0113373D02*
X0208382Y0113373D01*
X0208277Y0113556D02*
X0202432Y0113556D01*
X0202446Y0113740D02*
X0208173Y0113740D01*
X0208068Y0113923D02*
X0202459Y0113923D01*
X0202473Y0114107D02*
X0207964Y0114107D01*
X0207859Y0114291D02*
X0202487Y0114291D01*
X0202493Y0114474D02*
X0207754Y0114474D01*
X0207650Y0114658D02*
X0202493Y0114658D01*
X0202493Y0114841D02*
X0207545Y0114841D01*
X0207441Y0115025D02*
X0202493Y0115025D01*
X0202493Y0115208D02*
X0207336Y0115208D01*
X0207232Y0115392D02*
X0202493Y0115392D01*
X0202493Y0115575D02*
X0207127Y0115575D01*
X0207023Y0115759D02*
X0202493Y0115759D01*
X0202449Y0115943D02*
X0206918Y0115943D01*
X0206813Y0116126D02*
X0202357Y0116126D01*
X0202257Y0116310D02*
X0206709Y0116310D01*
X0206604Y0116493D02*
X0202147Y0116493D01*
X0202037Y0116677D02*
X0206500Y0116677D01*
X0206395Y0116860D02*
X0201926Y0116860D01*
X0201816Y0117044D02*
X0206291Y0117044D01*
X0206186Y0117227D02*
X0201908Y0117227D01*
X0202295Y0117411D02*
X0206082Y0117411D01*
X0205977Y0117595D02*
X0202683Y0117595D01*
X0203070Y0117778D02*
X0205872Y0117778D01*
X0205768Y0117962D02*
X0203458Y0117962D01*
X0203846Y0118145D02*
X0205663Y0118145D01*
X0205559Y0118329D02*
X0204233Y0118329D01*
X0204621Y0118512D02*
X0205454Y0118512D01*
X0205350Y0118696D02*
X0205008Y0118696D01*
X0203607Y0120865D02*
X0199895Y0119009D01*
X0199524Y0119009D01*
X0195626Y0122535D01*
X0195441Y0122721D01*
X0186532Y0124391D01*
X0186532Y0124763D01*
X0193956Y0137568D01*
X0203607Y0120865D01*
X0203587Y0120898D02*
X0197435Y0120898D01*
X0197638Y0120715D02*
X0203307Y0120715D01*
X0203481Y0121082D02*
X0197232Y0121082D01*
X0197030Y0121266D02*
X0203375Y0121266D01*
X0203269Y0121449D02*
X0196827Y0121449D01*
X0196624Y0121633D02*
X0203163Y0121633D01*
X0203057Y0121816D02*
X0196421Y0121816D01*
X0196218Y0122000D02*
X0202951Y0122000D01*
X0202845Y0122183D02*
X0196015Y0122183D01*
X0195812Y0122367D02*
X0202739Y0122367D01*
X0202633Y0122550D02*
X0195611Y0122550D01*
X0195371Y0122734D02*
X0202527Y0122734D01*
X0202421Y0122917D02*
X0194392Y0122917D01*
X0193413Y0123101D02*
X0202315Y0123101D01*
X0202209Y0123285D02*
X0192434Y0123285D01*
X0191455Y0123468D02*
X0202103Y0123468D01*
X0201997Y0123652D02*
X0190476Y0123652D01*
X0189497Y0123835D02*
X0201890Y0123835D01*
X0201784Y0124019D02*
X0188518Y0124019D01*
X0187540Y0124202D02*
X0201678Y0124202D01*
X0201572Y0124386D02*
X0186561Y0124386D01*
X0186532Y0124569D02*
X0201466Y0124569D01*
X0201360Y0124753D02*
X0186532Y0124753D01*
X0186633Y0124937D02*
X0201254Y0124937D01*
X0201148Y0125120D02*
X0186739Y0125120D01*
X0186846Y0125304D02*
X0201042Y0125304D01*
X0200936Y0125487D02*
X0186952Y0125487D01*
X0187058Y0125671D02*
X0200830Y0125671D01*
X0200724Y0125854D02*
X0187165Y0125854D01*
X0187271Y0126038D02*
X0200618Y0126038D01*
X0200512Y0126221D02*
X0187378Y0126221D01*
X0187484Y0126405D02*
X0200406Y0126405D01*
X0200300Y0126588D02*
X0187590Y0126588D01*
X0187697Y0126772D02*
X0200194Y0126772D01*
X0200088Y0126956D02*
X0187803Y0126956D01*
X0187910Y0127139D02*
X0199981Y0127139D01*
X0199875Y0127323D02*
X0188016Y0127323D01*
X0188122Y0127506D02*
X0199769Y0127506D01*
X0199663Y0127690D02*
X0188229Y0127690D01*
X0188335Y0127873D02*
X0199557Y0127873D01*
X0199451Y0128057D02*
X0188442Y0128057D01*
X0188548Y0128240D02*
X0199345Y0128240D01*
X0199239Y0128424D02*
X0188654Y0128424D01*
X0188761Y0128608D02*
X0199133Y0128608D01*
X0199027Y0128791D02*
X0188867Y0128791D01*
X0188974Y0128975D02*
X0198921Y0128975D01*
X0198815Y0129158D02*
X0189080Y0129158D01*
X0189186Y0129342D02*
X0198709Y0129342D01*
X0198603Y0129525D02*
X0189293Y0129525D01*
X0189399Y0129709D02*
X0198497Y0129709D01*
X0198391Y0129892D02*
X0189506Y0129892D01*
X0189612Y0130076D02*
X0198285Y0130076D01*
X0198179Y0130260D02*
X0189719Y0130260D01*
X0189825Y0130443D02*
X0198073Y0130443D01*
X0197966Y0130627D02*
X0189931Y0130627D01*
X0190038Y0130810D02*
X0197860Y0130810D01*
X0197754Y0130994D02*
X0190144Y0130994D01*
X0190251Y0131177D02*
X0197648Y0131177D01*
X0197542Y0131361D02*
X0190357Y0131361D01*
X0190463Y0131544D02*
X0197436Y0131544D01*
X0197330Y0131728D02*
X0190570Y0131728D01*
X0190676Y0131911D02*
X0197224Y0131911D01*
X0197118Y0132095D02*
X0190783Y0132095D01*
X0190889Y0132279D02*
X0197012Y0132279D01*
X0196906Y0132462D02*
X0190995Y0132462D01*
X0191102Y0132646D02*
X0196800Y0132646D01*
X0196694Y0132829D02*
X0191208Y0132829D01*
X0191315Y0133013D02*
X0196588Y0133013D01*
X0196482Y0133196D02*
X0191421Y0133196D01*
X0191527Y0133380D02*
X0196376Y0133380D01*
X0196270Y0133563D02*
X0191634Y0133563D01*
X0191740Y0133747D02*
X0196164Y0133747D01*
X0196057Y0133931D02*
X0191847Y0133931D01*
X0191953Y0134114D02*
X0195951Y0134114D01*
X0195845Y0134298D02*
X0192059Y0134298D01*
X0192166Y0134481D02*
X0195739Y0134481D01*
X0195633Y0134665D02*
X0192272Y0134665D01*
X0192379Y0134848D02*
X0195527Y0134848D01*
X0195421Y0135032D02*
X0192485Y0135032D01*
X0192591Y0135215D02*
X0195315Y0135215D01*
X0195209Y0135399D02*
X0192698Y0135399D01*
X0192804Y0135582D02*
X0195103Y0135582D01*
X0194997Y0135766D02*
X0192911Y0135766D01*
X0193017Y0135950D02*
X0194891Y0135950D01*
X0194785Y0136133D02*
X0193123Y0136133D01*
X0193230Y0136317D02*
X0194679Y0136317D01*
X0194573Y0136500D02*
X0193336Y0136500D01*
X0193443Y0136684D02*
X0194467Y0136684D01*
X0194361Y0136867D02*
X0193549Y0136867D01*
X0193655Y0137051D02*
X0194255Y0137051D01*
X0194148Y0137234D02*
X0193762Y0137234D01*
X0193868Y0137418D02*
X0194042Y0137418D01*
X0197841Y0120531D02*
X0202940Y0120531D01*
X0202572Y0120348D02*
X0198044Y0120348D01*
X0198247Y0120164D02*
X0202205Y0120164D01*
X0201838Y0119981D02*
X0198450Y0119981D01*
X0198653Y0119797D02*
X0201471Y0119797D01*
X0201104Y0119614D02*
X0198855Y0119614D01*
X0199058Y0119430D02*
X0200737Y0119430D01*
X0200370Y0119246D02*
X0199261Y0119246D01*
X0199464Y0119063D02*
X0200003Y0119063D01*
X0199219Y0115575D02*
X0198403Y0115575D01*
X0198022Y0115392D02*
X0199350Y0115392D01*
X0199481Y0115208D02*
X0197641Y0115208D01*
X0197260Y0115025D02*
X0199612Y0115025D01*
X0199743Y0114841D02*
X0196878Y0114841D01*
X0196497Y0114658D02*
X0199874Y0114658D01*
X0200005Y0114474D02*
X0196116Y0114474D01*
X0195735Y0114291D02*
X0200080Y0114291D01*
X0200080Y0114107D02*
X0195353Y0114107D01*
X0194972Y0113923D02*
X0200080Y0113923D01*
X0200080Y0113740D02*
X0194591Y0113740D01*
X0194210Y0113556D02*
X0200080Y0113556D01*
X0200080Y0113373D02*
X0193828Y0113373D01*
X0193585Y0113189D02*
X0200080Y0113189D01*
X0200080Y0113006D02*
X0193656Y0113006D01*
X0193862Y0112822D02*
X0200080Y0112822D01*
X0200080Y0112639D02*
X0194067Y0112639D01*
X0194272Y0112455D02*
X0200080Y0112455D01*
X0200080Y0112272D02*
X0194477Y0112272D01*
X0194682Y0112088D02*
X0200080Y0112088D01*
X0200080Y0111904D02*
X0194887Y0111904D01*
X0195092Y0111721D02*
X0200080Y0111721D01*
X0200080Y0111537D02*
X0195297Y0111537D01*
X0195503Y0111354D02*
X0200080Y0111354D01*
X0200080Y0111170D02*
X0195708Y0111170D01*
X0195913Y0110987D02*
X0200080Y0110987D01*
X0200085Y0110803D02*
X0196118Y0110803D01*
X0196323Y0110620D02*
X0200105Y0110620D01*
X0200125Y0110436D02*
X0196528Y0110436D01*
X0196733Y0110252D02*
X0200146Y0110252D01*
X0200166Y0110069D02*
X0196938Y0110069D01*
X0197130Y0109885D02*
X0200187Y0109885D01*
X0200207Y0109702D02*
X0197253Y0109702D01*
X0197375Y0109518D02*
X0200227Y0109518D01*
X0200248Y0109335D02*
X0197497Y0109335D01*
X0197620Y0109151D02*
X0200273Y0109151D01*
X0200334Y0108968D02*
X0197742Y0108968D01*
X0197862Y0108784D02*
X0200395Y0108784D01*
X0200456Y0108601D02*
X0197953Y0108601D01*
X0198045Y0108417D02*
X0200518Y0108417D01*
X0200579Y0108233D02*
X0198137Y0108233D01*
X0198224Y0108050D02*
X0200642Y0108050D01*
X0200733Y0107866D02*
X0198224Y0107866D01*
X0198224Y0107683D02*
X0200825Y0107683D01*
X0200917Y0107499D02*
X0198223Y0107499D01*
X0198131Y0107316D02*
X0201009Y0107316D01*
X0201285Y0107132D02*
X0198039Y0107132D01*
X0197857Y0106949D02*
X0201560Y0106949D01*
X0197476Y0106949D02*
X0179745Y0106949D01*
X0180146Y0107132D02*
X0197155Y0107132D01*
X0196834Y0107316D02*
X0180547Y0107316D01*
X0180948Y0107499D02*
X0196513Y0107499D01*
X0196191Y0107683D02*
X0181349Y0107683D01*
X0181750Y0107866D02*
X0195897Y0107866D01*
X0195603Y0108050D02*
X0182151Y0108050D01*
X0182552Y0108233D02*
X0195310Y0108233D01*
X0195016Y0108417D02*
X0182953Y0108417D01*
X0183354Y0108601D02*
X0194722Y0108601D01*
X0194462Y0108784D02*
X0183755Y0108784D01*
X0184155Y0108968D02*
X0194205Y0108968D01*
X0193948Y0109151D02*
X0184556Y0109151D01*
X0184957Y0109335D02*
X0193691Y0109335D01*
X0193434Y0109518D02*
X0185358Y0109518D01*
X0185759Y0109702D02*
X0193161Y0109702D01*
X0192886Y0109885D02*
X0186160Y0109885D01*
X0186561Y0110069D02*
X0192611Y0110069D01*
X0192335Y0110252D02*
X0186962Y0110252D01*
X0187363Y0110436D02*
X0192060Y0110436D01*
X0191785Y0110620D02*
X0187764Y0110620D01*
X0188165Y0110803D02*
X0191495Y0110803D01*
X0191201Y0110987D02*
X0188566Y0110987D01*
X0188967Y0111170D02*
X0190907Y0111170D01*
X0190614Y0111354D02*
X0189367Y0111354D01*
X0189768Y0111537D02*
X0190320Y0111537D01*
X0186717Y0113070D02*
X0186717Y0113255D01*
X0182634Y0117710D01*
X0177438Y0108616D01*
X0186717Y0113070D01*
X0186717Y0113189D02*
X0180051Y0113189D01*
X0179946Y0113006D02*
X0186583Y0113006D01*
X0186610Y0113373D02*
X0180156Y0113373D01*
X0180261Y0113556D02*
X0186441Y0113556D01*
X0186273Y0113740D02*
X0180366Y0113740D01*
X0180471Y0113923D02*
X0186105Y0113923D01*
X0185937Y0114107D02*
X0180576Y0114107D01*
X0180680Y0114291D02*
X0185768Y0114291D01*
X0185600Y0114474D02*
X0180785Y0114474D01*
X0180890Y0114658D02*
X0185432Y0114658D01*
X0185264Y0114841D02*
X0180995Y0114841D01*
X0181100Y0115025D02*
X0185095Y0115025D01*
X0184927Y0115208D02*
X0181205Y0115208D01*
X0181310Y0115392D02*
X0184759Y0115392D01*
X0184591Y0115575D02*
X0181415Y0115575D01*
X0181520Y0115759D02*
X0184422Y0115759D01*
X0184254Y0115943D02*
X0181624Y0115943D01*
X0181729Y0116126D02*
X0184086Y0116126D01*
X0183918Y0116310D02*
X0181834Y0116310D01*
X0181939Y0116493D02*
X0183749Y0116493D01*
X0183581Y0116677D02*
X0182044Y0116677D01*
X0182149Y0116860D02*
X0183413Y0116860D01*
X0183245Y0117044D02*
X0182254Y0117044D01*
X0182359Y0117227D02*
X0183076Y0117227D01*
X0182908Y0117411D02*
X0182464Y0117411D01*
X0182568Y0117595D02*
X0182740Y0117595D01*
X0179841Y0112822D02*
X0186201Y0112822D01*
X0185819Y0112639D02*
X0179737Y0112639D01*
X0179632Y0112455D02*
X0185436Y0112455D01*
X0185054Y0112272D02*
X0179527Y0112272D01*
X0179422Y0112088D02*
X0184672Y0112088D01*
X0184289Y0111904D02*
X0179317Y0111904D01*
X0179212Y0111721D02*
X0183907Y0111721D01*
X0183524Y0111537D02*
X0179107Y0111537D01*
X0179002Y0111354D02*
X0183142Y0111354D01*
X0182760Y0111170D02*
X0178898Y0111170D01*
X0178793Y0110987D02*
X0182377Y0110987D01*
X0181995Y0110803D02*
X0178688Y0110803D01*
X0178583Y0110620D02*
X0181612Y0110620D01*
X0181230Y0110436D02*
X0178478Y0110436D01*
X0178373Y0110252D02*
X0180848Y0110252D01*
X0180465Y0110069D02*
X0178268Y0110069D01*
X0178163Y0109885D02*
X0180083Y0109885D01*
X0179701Y0109702D02*
X0178058Y0109702D01*
X0177954Y0109518D02*
X0179318Y0109518D01*
X0178936Y0109335D02*
X0177849Y0109335D01*
X0177744Y0109151D02*
X0178553Y0109151D01*
X0178171Y0108968D02*
X0177639Y0108968D01*
X0177534Y0108784D02*
X0177789Y0108784D01*
X0191914Y0115854D02*
X0191728Y0116596D01*
X0192100Y0117153D01*
X0192656Y0117524D01*
X0194513Y0118081D01*
X0194883Y0118081D01*
X0196183Y0117153D01*
X0192285Y0115297D01*
X0191914Y0115854D01*
X0191892Y0115943D02*
X0193641Y0115943D01*
X0194026Y0116126D02*
X0191846Y0116126D01*
X0191800Y0116310D02*
X0194412Y0116310D01*
X0194797Y0116493D02*
X0191754Y0116493D01*
X0191782Y0116677D02*
X0195182Y0116677D01*
X0195568Y0116860D02*
X0191904Y0116860D01*
X0192027Y0117044D02*
X0195953Y0117044D01*
X0196079Y0117227D02*
X0192211Y0117227D01*
X0192486Y0117411D02*
X0195822Y0117411D01*
X0195565Y0117595D02*
X0192890Y0117595D01*
X0193502Y0117778D02*
X0195308Y0117778D01*
X0195051Y0117962D02*
X0194114Y0117962D01*
X0193255Y0115759D02*
X0191977Y0115759D01*
X0192100Y0115575D02*
X0192870Y0115575D01*
X0192484Y0115392D02*
X0192222Y0115392D01*
M02*
