G75*
%MOIN*%
%OFA0B0*%
%FSLAX25Y25*%
%IPPOS*%
%LPD*%
%AMOC8*
5,1,8,0,0,1.08239X$1,22.5*
%
%ADD10C,0.00800*%
%ADD11C,0.00500*%
%ADD12C,0.00600*%
%ADD13C,0.00185*%
D10*
X0066483Y0161849D02*
X0065683Y0162649D01*
X0065683Y0164251D01*
X0066483Y0165051D01*
X0067284Y0165051D01*
X0068085Y0164251D01*
X0068085Y0163450D01*
X0068085Y0164251D02*
X0068885Y0165051D01*
X0069686Y0165051D01*
X0070487Y0164251D01*
X0070487Y0162649D01*
X0069686Y0161849D01*
X0075525Y0165786D02*
X0076326Y0165786D01*
X0079529Y0168988D01*
X0080329Y0168988D01*
X0080329Y0165786D01*
X0065749Y0183502D02*
X0064948Y0183502D01*
X0064148Y0184303D01*
X0064148Y0185904D01*
X0063347Y0186705D01*
X0062546Y0186705D01*
X0061746Y0185904D01*
X0061746Y0184303D01*
X0062546Y0183502D01*
X0063347Y0183502D01*
X0064148Y0184303D01*
X0064148Y0185904D02*
X0064948Y0186705D01*
X0065749Y0186705D01*
X0066550Y0185904D01*
X0066550Y0184303D01*
X0065749Y0183502D01*
X0060644Y0168988D02*
X0060644Y0165786D01*
X0058242Y0165786D01*
X0059043Y0167387D01*
X0059043Y0168188D01*
X0058242Y0168988D01*
X0056641Y0168988D01*
X0055840Y0168188D01*
X0055840Y0166586D01*
X0056641Y0165786D01*
X0048033Y0183502D02*
X0048833Y0184303D01*
X0048833Y0185904D01*
X0048033Y0186705D01*
X0047232Y0186705D01*
X0044029Y0183502D01*
X0044029Y0186705D01*
X0043714Y0206534D02*
X0048518Y0206534D01*
X0048518Y0208936D01*
X0047718Y0209736D01*
X0046116Y0209736D01*
X0045316Y0208936D01*
X0045316Y0206534D01*
X0055840Y0203621D02*
X0060644Y0203621D01*
X0058242Y0201219D01*
X0058242Y0204421D01*
X0065683Y0205156D02*
X0065683Y0208358D01*
X0065683Y0206757D02*
X0070487Y0206757D01*
X0068885Y0205156D01*
X0075525Y0203621D02*
X0075525Y0202019D01*
X0076326Y0201219D01*
X0077927Y0201219D01*
X0077927Y0203621D01*
X0077127Y0204421D01*
X0076326Y0204421D01*
X0075525Y0203621D01*
X0077927Y0201219D02*
X0079529Y0202820D01*
X0080329Y0204421D01*
X0068885Y0261534D02*
X0070487Y0263135D01*
X0065683Y0263135D01*
X0065683Y0261534D02*
X0065683Y0264736D01*
X0060644Y0268188D02*
X0058242Y0265786D01*
X0058242Y0268988D01*
X0055840Y0268188D02*
X0060644Y0268188D01*
X0075525Y0268188D02*
X0076326Y0268988D01*
X0077127Y0268988D01*
X0077927Y0268188D01*
X0077927Y0265786D01*
X0076326Y0265786D01*
X0075525Y0266586D01*
X0075525Y0268188D01*
X0077927Y0265786D02*
X0079529Y0267387D01*
X0080329Y0268988D01*
X0065749Y0283187D02*
X0064948Y0283187D01*
X0064148Y0283988D01*
X0064148Y0285589D01*
X0063347Y0286390D01*
X0062546Y0286390D01*
X0061746Y0285589D01*
X0061746Y0283988D01*
X0062546Y0283187D01*
X0063347Y0283187D01*
X0064148Y0283988D01*
X0064148Y0285589D02*
X0064948Y0286390D01*
X0065749Y0286390D01*
X0066550Y0285589D01*
X0066550Y0283988D01*
X0065749Y0283187D01*
X0060644Y0301219D02*
X0058242Y0301219D01*
X0059043Y0302820D01*
X0059043Y0303621D01*
X0058242Y0304421D01*
X0056641Y0304421D01*
X0055840Y0303621D01*
X0055840Y0302019D01*
X0056641Y0301219D01*
X0060644Y0301219D02*
X0060644Y0304421D01*
X0065683Y0305956D02*
X0066483Y0305156D01*
X0065683Y0305956D02*
X0065683Y0307558D01*
X0066483Y0308358D01*
X0067284Y0308358D01*
X0068085Y0307558D01*
X0068085Y0306757D01*
X0068085Y0307558D02*
X0068885Y0308358D01*
X0069686Y0308358D01*
X0070487Y0307558D01*
X0070487Y0305956D01*
X0069686Y0305156D01*
X0075525Y0301219D02*
X0076326Y0301219D01*
X0079529Y0304421D01*
X0080329Y0304421D01*
X0080329Y0301219D01*
X0048518Y0306534D02*
X0048518Y0308936D01*
X0047718Y0309736D01*
X0046116Y0309736D01*
X0045316Y0308936D01*
X0045316Y0306534D01*
X0043714Y0306534D02*
X0048518Y0306534D01*
X0048033Y0286390D02*
X0048833Y0285589D01*
X0048833Y0283988D01*
X0048033Y0283187D01*
X0048033Y0286390D02*
X0047232Y0286390D01*
X0044029Y0283187D01*
X0044029Y0286390D01*
X0061118Y0346690D02*
X0061118Y0347391D01*
X0058316Y0350193D01*
X0058316Y0350894D01*
X0061118Y0350894D01*
X0060665Y0352690D02*
X0062066Y0352690D01*
X0062767Y0353391D01*
X0064568Y0354091D02*
X0064568Y0356894D01*
X0062767Y0356193D02*
X0062066Y0356894D01*
X0060665Y0356894D01*
X0059964Y0356193D01*
X0059964Y0355492D01*
X0060665Y0354792D01*
X0059964Y0354091D01*
X0059964Y0353391D01*
X0060665Y0352690D01*
X0060665Y0354792D02*
X0061365Y0354792D01*
X0064568Y0354091D02*
X0065969Y0352690D01*
X0067371Y0354091D01*
X0067371Y0356894D01*
X0068224Y0350894D02*
X0067524Y0350193D01*
X0067524Y0349492D01*
X0068224Y0348792D01*
X0069625Y0348792D01*
X0070326Y0349492D01*
X0070326Y0350193D01*
X0069625Y0350894D01*
X0068224Y0350894D01*
X0068224Y0348792D02*
X0067524Y0348091D01*
X0067524Y0347391D01*
X0068224Y0346690D01*
X0069625Y0346690D01*
X0070326Y0347391D01*
X0070326Y0348091D01*
X0069625Y0348792D01*
X0072128Y0350193D02*
X0072128Y0347391D01*
X0072828Y0346690D01*
X0074229Y0346690D01*
X0074930Y0347391D01*
X0072128Y0350193D01*
X0072828Y0350894D01*
X0074229Y0350894D01*
X0074930Y0350193D01*
X0074930Y0347391D01*
X0073776Y0352690D02*
X0076578Y0352690D01*
X0073776Y0355492D01*
X0073776Y0356193D01*
X0074477Y0356894D01*
X0075878Y0356894D01*
X0076578Y0356193D01*
X0078380Y0354792D02*
X0081182Y0354792D01*
X0082984Y0352690D02*
X0082984Y0356894D01*
X0085786Y0356894D02*
X0082984Y0352690D01*
X0085786Y0352690D02*
X0085786Y0356894D01*
X0087588Y0356894D02*
X0090390Y0356894D01*
X0090390Y0352690D01*
X0087588Y0352690D01*
X0088989Y0354792D02*
X0090390Y0354792D01*
X0092192Y0354792D02*
X0093593Y0354792D01*
X0092192Y0354792D02*
X0092192Y0353391D01*
X0092892Y0352690D01*
X0094294Y0352690D01*
X0094994Y0353391D01*
X0094994Y0356193D01*
X0094294Y0356894D01*
X0092892Y0356894D01*
X0092192Y0356193D01*
X0101400Y0356894D02*
X0104202Y0356894D01*
X0102801Y0356894D02*
X0102801Y0352690D01*
X0106004Y0352690D02*
X0108806Y0352690D01*
X0108806Y0356894D01*
X0106004Y0356894D01*
X0107405Y0354792D02*
X0108806Y0354792D01*
X0110607Y0354792D02*
X0110607Y0356193D01*
X0111308Y0356894D01*
X0113410Y0356894D01*
X0113410Y0352690D01*
X0113410Y0354091D02*
X0111308Y0354091D01*
X0110607Y0354792D01*
X0112009Y0354091D02*
X0110607Y0352690D01*
X0065722Y0349492D02*
X0064321Y0350894D01*
X0064321Y0346690D01*
X0065722Y0346690D02*
X0062920Y0346690D01*
X0058163Y0352690D02*
X0057462Y0352690D01*
X0057462Y0353391D01*
X0058163Y0353391D01*
X0058163Y0352690D01*
X0055861Y0353391D02*
X0055861Y0356193D01*
X0055160Y0356894D01*
X0053759Y0356894D01*
X0053058Y0356193D01*
X0055861Y0353391D01*
X0055160Y0352690D01*
X0053759Y0352690D01*
X0053058Y0353391D01*
X0053058Y0356193D01*
X0051257Y0355492D02*
X0049856Y0356894D01*
X0051257Y0355492D02*
X0051257Y0354091D01*
X0049856Y0352690D01*
X0048188Y0352690D02*
X0048188Y0355492D01*
X0046786Y0356894D01*
X0045385Y0355492D01*
X0045385Y0352690D01*
X0043584Y0352690D02*
X0042182Y0354091D01*
X0042182Y0355492D01*
X0043584Y0356894D01*
X0045385Y0354792D02*
X0048188Y0354792D01*
D11*
X0079964Y0291395D02*
X0079964Y0289594D01*
X0079964Y0290494D02*
X0082666Y0290494D01*
X0081766Y0289594D01*
X0082216Y0288449D02*
X0080415Y0286647D01*
X0079964Y0287097D01*
X0079964Y0287998D01*
X0080415Y0288449D01*
X0082216Y0288449D01*
X0082666Y0287998D01*
X0082666Y0287097D01*
X0082216Y0286647D01*
X0080415Y0286647D01*
X0079964Y0285502D02*
X0079964Y0283701D01*
X0079964Y0284601D02*
X0082666Y0284601D01*
X0081766Y0283701D01*
X0082666Y0282556D02*
X0082666Y0281655D01*
X0082666Y0282105D02*
X0080415Y0282105D01*
X0079964Y0281655D01*
X0079964Y0281204D01*
X0080415Y0280754D01*
X0088599Y0282353D02*
X0092536Y0282353D01*
X0092536Y0280385D02*
X0092536Y0292196D01*
X0092536Y0290227D02*
X0088599Y0290227D01*
X0088475Y0290225D01*
X0088352Y0290219D01*
X0088228Y0290210D01*
X0088106Y0290196D01*
X0087983Y0290179D01*
X0087861Y0290157D01*
X0087740Y0290132D01*
X0087620Y0290103D01*
X0087501Y0290071D01*
X0087382Y0290034D01*
X0087265Y0289994D01*
X0087150Y0289951D01*
X0087035Y0289903D01*
X0086923Y0289852D01*
X0086812Y0289798D01*
X0086702Y0289740D01*
X0086595Y0289679D01*
X0086489Y0289614D01*
X0086386Y0289546D01*
X0086285Y0289475D01*
X0086186Y0289401D01*
X0086089Y0289324D01*
X0085995Y0289243D01*
X0085904Y0289160D01*
X0085815Y0289074D01*
X0085729Y0288985D01*
X0085646Y0288894D01*
X0085565Y0288800D01*
X0085488Y0288703D01*
X0085414Y0288604D01*
X0085343Y0288503D01*
X0085275Y0288400D01*
X0085210Y0288294D01*
X0085149Y0288187D01*
X0085091Y0288077D01*
X0085037Y0287966D01*
X0084986Y0287854D01*
X0084938Y0287739D01*
X0084895Y0287624D01*
X0084855Y0287507D01*
X0084818Y0287388D01*
X0084786Y0287269D01*
X0084757Y0287149D01*
X0084732Y0287028D01*
X0084710Y0286906D01*
X0084693Y0286783D01*
X0084679Y0286661D01*
X0084670Y0286537D01*
X0084664Y0286414D01*
X0084662Y0286290D01*
X0084664Y0286166D01*
X0084670Y0286043D01*
X0084679Y0285919D01*
X0084693Y0285797D01*
X0084710Y0285674D01*
X0084732Y0285552D01*
X0084757Y0285431D01*
X0084786Y0285311D01*
X0084818Y0285192D01*
X0084855Y0285073D01*
X0084895Y0284956D01*
X0084938Y0284841D01*
X0084986Y0284726D01*
X0085037Y0284614D01*
X0085091Y0284503D01*
X0085149Y0284393D01*
X0085210Y0284286D01*
X0085275Y0284180D01*
X0085343Y0284077D01*
X0085414Y0283976D01*
X0085488Y0283877D01*
X0085565Y0283780D01*
X0085646Y0283686D01*
X0085729Y0283595D01*
X0085815Y0283506D01*
X0085904Y0283420D01*
X0085995Y0283337D01*
X0086089Y0283256D01*
X0086186Y0283179D01*
X0086285Y0283105D01*
X0086386Y0283034D01*
X0086489Y0282966D01*
X0086595Y0282901D01*
X0086702Y0282840D01*
X0086812Y0282782D01*
X0086923Y0282728D01*
X0087035Y0282677D01*
X0087150Y0282629D01*
X0087265Y0282586D01*
X0087382Y0282546D01*
X0087501Y0282509D01*
X0087620Y0282477D01*
X0087740Y0282448D01*
X0087861Y0282423D01*
X0087983Y0282401D01*
X0088106Y0282384D01*
X0088228Y0282370D01*
X0088352Y0282361D01*
X0088475Y0282355D01*
X0088599Y0282353D01*
X0031119Y0286290D02*
X0031130Y0287218D01*
X0031165Y0288145D01*
X0031221Y0289070D01*
X0031301Y0289995D01*
X0031403Y0290917D01*
X0031528Y0291836D01*
X0031675Y0292752D01*
X0031845Y0293663D01*
X0032037Y0294571D01*
X0032252Y0295473D01*
X0032488Y0296370D01*
X0032746Y0297261D01*
X0033027Y0298146D01*
X0033328Y0299023D01*
X0033652Y0299892D01*
X0033996Y0300754D01*
X0034361Y0301606D01*
X0034748Y0302449D01*
X0035155Y0303283D01*
X0035582Y0304106D01*
X0036029Y0304919D01*
X0036496Y0305721D01*
X0036983Y0306510D01*
X0037489Y0307288D01*
X0038013Y0308053D01*
X0038557Y0308804D01*
X0039118Y0309543D01*
X0039698Y0310267D01*
X0040295Y0310977D01*
X0040910Y0311672D01*
X0041541Y0312351D01*
X0042189Y0313015D01*
X0042853Y0313663D01*
X0043532Y0314294D01*
X0044227Y0314909D01*
X0044937Y0315506D01*
X0045661Y0316086D01*
X0046400Y0316647D01*
X0047151Y0317191D01*
X0047916Y0317715D01*
X0048694Y0318221D01*
X0049483Y0318708D01*
X0050285Y0319175D01*
X0051098Y0319622D01*
X0051921Y0320049D01*
X0052755Y0320456D01*
X0053598Y0320843D01*
X0054450Y0321208D01*
X0055312Y0321552D01*
X0056181Y0321876D01*
X0057058Y0322177D01*
X0057943Y0322458D01*
X0058834Y0322716D01*
X0059731Y0322952D01*
X0060633Y0323167D01*
X0061541Y0323359D01*
X0062452Y0323529D01*
X0063368Y0323676D01*
X0064287Y0323801D01*
X0065209Y0323903D01*
X0066134Y0323983D01*
X0067059Y0324039D01*
X0067986Y0324074D01*
X0068914Y0324085D01*
X0069842Y0324074D01*
X0070769Y0324039D01*
X0071694Y0323983D01*
X0072619Y0323903D01*
X0073541Y0323801D01*
X0074460Y0323676D01*
X0075376Y0323529D01*
X0076287Y0323359D01*
X0077195Y0323167D01*
X0078097Y0322952D01*
X0078994Y0322716D01*
X0079885Y0322458D01*
X0080770Y0322177D01*
X0081647Y0321876D01*
X0082516Y0321552D01*
X0083378Y0321208D01*
X0084230Y0320843D01*
X0085073Y0320456D01*
X0085907Y0320049D01*
X0086730Y0319622D01*
X0087543Y0319175D01*
X0088345Y0318708D01*
X0089134Y0318221D01*
X0089912Y0317715D01*
X0090677Y0317191D01*
X0091428Y0316647D01*
X0092167Y0316086D01*
X0092891Y0315506D01*
X0093601Y0314909D01*
X0094296Y0314294D01*
X0094975Y0313663D01*
X0095639Y0313015D01*
X0096287Y0312351D01*
X0096918Y0311672D01*
X0097533Y0310977D01*
X0098130Y0310267D01*
X0098710Y0309543D01*
X0099271Y0308804D01*
X0099815Y0308053D01*
X0100339Y0307288D01*
X0100845Y0306510D01*
X0101332Y0305721D01*
X0101799Y0304919D01*
X0102246Y0304106D01*
X0102673Y0303283D01*
X0103080Y0302449D01*
X0103467Y0301606D01*
X0103832Y0300754D01*
X0104176Y0299892D01*
X0104500Y0299023D01*
X0104801Y0298146D01*
X0105082Y0297261D01*
X0105340Y0296370D01*
X0105576Y0295473D01*
X0105791Y0294571D01*
X0105983Y0293663D01*
X0106153Y0292752D01*
X0106300Y0291836D01*
X0106425Y0290917D01*
X0106527Y0289995D01*
X0106607Y0289070D01*
X0106663Y0288145D01*
X0106698Y0287218D01*
X0106709Y0286290D01*
X0106698Y0285362D01*
X0106663Y0284435D01*
X0106607Y0283510D01*
X0106527Y0282585D01*
X0106425Y0281663D01*
X0106300Y0280744D01*
X0106153Y0279828D01*
X0105983Y0278917D01*
X0105791Y0278009D01*
X0105576Y0277107D01*
X0105340Y0276210D01*
X0105082Y0275319D01*
X0104801Y0274434D01*
X0104500Y0273557D01*
X0104176Y0272688D01*
X0103832Y0271826D01*
X0103467Y0270974D01*
X0103080Y0270131D01*
X0102673Y0269297D01*
X0102246Y0268474D01*
X0101799Y0267661D01*
X0101332Y0266859D01*
X0100845Y0266070D01*
X0100339Y0265292D01*
X0099815Y0264527D01*
X0099271Y0263776D01*
X0098710Y0263037D01*
X0098130Y0262313D01*
X0097533Y0261603D01*
X0096918Y0260908D01*
X0096287Y0260229D01*
X0095639Y0259565D01*
X0094975Y0258917D01*
X0094296Y0258286D01*
X0093601Y0257671D01*
X0092891Y0257074D01*
X0092167Y0256494D01*
X0091428Y0255933D01*
X0090677Y0255389D01*
X0089912Y0254865D01*
X0089134Y0254359D01*
X0088345Y0253872D01*
X0087543Y0253405D01*
X0086730Y0252958D01*
X0085907Y0252531D01*
X0085073Y0252124D01*
X0084230Y0251737D01*
X0083378Y0251372D01*
X0082516Y0251028D01*
X0081647Y0250704D01*
X0080770Y0250403D01*
X0079885Y0250122D01*
X0078994Y0249864D01*
X0078097Y0249628D01*
X0077195Y0249413D01*
X0076287Y0249221D01*
X0075376Y0249051D01*
X0074460Y0248904D01*
X0073541Y0248779D01*
X0072619Y0248677D01*
X0071694Y0248597D01*
X0070769Y0248541D01*
X0069842Y0248506D01*
X0068914Y0248495D01*
X0067986Y0248506D01*
X0067059Y0248541D01*
X0066134Y0248597D01*
X0065209Y0248677D01*
X0064287Y0248779D01*
X0063368Y0248904D01*
X0062452Y0249051D01*
X0061541Y0249221D01*
X0060633Y0249413D01*
X0059731Y0249628D01*
X0058834Y0249864D01*
X0057943Y0250122D01*
X0057058Y0250403D01*
X0056181Y0250704D01*
X0055312Y0251028D01*
X0054450Y0251372D01*
X0053598Y0251737D01*
X0052755Y0252124D01*
X0051921Y0252531D01*
X0051098Y0252958D01*
X0050285Y0253405D01*
X0049483Y0253872D01*
X0048694Y0254359D01*
X0047916Y0254865D01*
X0047151Y0255389D01*
X0046400Y0255933D01*
X0045661Y0256494D01*
X0044937Y0257074D01*
X0044227Y0257671D01*
X0043532Y0258286D01*
X0042853Y0258917D01*
X0042189Y0259565D01*
X0041541Y0260229D01*
X0040910Y0260908D01*
X0040295Y0261603D01*
X0039698Y0262313D01*
X0039118Y0263037D01*
X0038557Y0263776D01*
X0038013Y0264527D01*
X0037489Y0265292D01*
X0036983Y0266070D01*
X0036496Y0266859D01*
X0036029Y0267661D01*
X0035582Y0268474D01*
X0035155Y0269297D01*
X0034748Y0270131D01*
X0034361Y0270974D01*
X0033996Y0271826D01*
X0033652Y0272688D01*
X0033328Y0273557D01*
X0033027Y0274434D01*
X0032746Y0275319D01*
X0032488Y0276210D01*
X0032252Y0277107D01*
X0032037Y0278009D01*
X0031845Y0278917D01*
X0031675Y0279828D01*
X0031528Y0280744D01*
X0031403Y0281663D01*
X0031301Y0282585D01*
X0031221Y0283510D01*
X0031165Y0284435D01*
X0031130Y0285362D01*
X0031119Y0286290D01*
X0081615Y0192181D02*
X0081164Y0191731D01*
X0081164Y0190830D01*
X0081615Y0190380D01*
X0083416Y0192181D01*
X0081615Y0192181D01*
X0083416Y0192181D02*
X0083866Y0191731D01*
X0083866Y0190830D01*
X0083416Y0190380D01*
X0081615Y0190380D01*
X0081615Y0189235D02*
X0081164Y0188784D01*
X0081164Y0187884D01*
X0081615Y0187433D01*
X0083416Y0189235D01*
X0081615Y0189235D01*
X0083416Y0189235D02*
X0083866Y0188784D01*
X0083866Y0187884D01*
X0083416Y0187433D01*
X0081615Y0187433D01*
X0081164Y0186288D02*
X0081164Y0184487D01*
X0081164Y0185387D02*
X0083866Y0185387D01*
X0082966Y0184487D01*
X0083866Y0183342D02*
X0083866Y0182441D01*
X0083866Y0182891D02*
X0081615Y0182891D01*
X0081164Y0182441D01*
X0081164Y0181990D01*
X0081615Y0181540D01*
X0085292Y0182353D02*
X0089229Y0182353D01*
X0089353Y0182355D01*
X0089476Y0182361D01*
X0089600Y0182370D01*
X0089722Y0182384D01*
X0089845Y0182401D01*
X0089967Y0182423D01*
X0090088Y0182448D01*
X0090208Y0182477D01*
X0090327Y0182509D01*
X0090446Y0182546D01*
X0090563Y0182586D01*
X0090678Y0182629D01*
X0090793Y0182677D01*
X0090905Y0182728D01*
X0091016Y0182782D01*
X0091126Y0182840D01*
X0091233Y0182901D01*
X0091339Y0182966D01*
X0091442Y0183034D01*
X0091543Y0183105D01*
X0091642Y0183179D01*
X0091739Y0183256D01*
X0091833Y0183337D01*
X0091924Y0183420D01*
X0092013Y0183506D01*
X0092099Y0183595D01*
X0092182Y0183686D01*
X0092263Y0183780D01*
X0092340Y0183877D01*
X0092414Y0183976D01*
X0092485Y0184077D01*
X0092553Y0184180D01*
X0092618Y0184286D01*
X0092679Y0184393D01*
X0092737Y0184503D01*
X0092791Y0184614D01*
X0092842Y0184726D01*
X0092890Y0184841D01*
X0092933Y0184956D01*
X0092973Y0185073D01*
X0093010Y0185192D01*
X0093042Y0185311D01*
X0093071Y0185431D01*
X0093096Y0185552D01*
X0093118Y0185674D01*
X0093135Y0185797D01*
X0093149Y0185919D01*
X0093158Y0186043D01*
X0093164Y0186166D01*
X0093166Y0186290D01*
X0093164Y0186414D01*
X0093158Y0186537D01*
X0093149Y0186661D01*
X0093135Y0186783D01*
X0093118Y0186906D01*
X0093096Y0187028D01*
X0093071Y0187149D01*
X0093042Y0187269D01*
X0093010Y0187388D01*
X0092973Y0187507D01*
X0092933Y0187624D01*
X0092890Y0187739D01*
X0092842Y0187854D01*
X0092791Y0187966D01*
X0092737Y0188077D01*
X0092679Y0188187D01*
X0092618Y0188294D01*
X0092553Y0188400D01*
X0092485Y0188503D01*
X0092414Y0188604D01*
X0092340Y0188703D01*
X0092263Y0188800D01*
X0092182Y0188894D01*
X0092099Y0188985D01*
X0092013Y0189074D01*
X0091924Y0189160D01*
X0091833Y0189243D01*
X0091739Y0189324D01*
X0091642Y0189401D01*
X0091543Y0189475D01*
X0091442Y0189546D01*
X0091339Y0189614D01*
X0091233Y0189679D01*
X0091126Y0189740D01*
X0091016Y0189798D01*
X0090905Y0189852D01*
X0090793Y0189903D01*
X0090678Y0189951D01*
X0090563Y0189994D01*
X0090446Y0190034D01*
X0090327Y0190071D01*
X0090208Y0190103D01*
X0090088Y0190132D01*
X0089967Y0190157D01*
X0089845Y0190179D01*
X0089722Y0190196D01*
X0089600Y0190210D01*
X0089476Y0190219D01*
X0089353Y0190225D01*
X0089229Y0190227D01*
X0085292Y0190227D01*
X0031119Y0186290D02*
X0031130Y0187218D01*
X0031165Y0188145D01*
X0031221Y0189070D01*
X0031301Y0189995D01*
X0031403Y0190917D01*
X0031528Y0191836D01*
X0031675Y0192752D01*
X0031845Y0193663D01*
X0032037Y0194571D01*
X0032252Y0195473D01*
X0032488Y0196370D01*
X0032746Y0197261D01*
X0033027Y0198146D01*
X0033328Y0199023D01*
X0033652Y0199892D01*
X0033996Y0200754D01*
X0034361Y0201606D01*
X0034748Y0202449D01*
X0035155Y0203283D01*
X0035582Y0204106D01*
X0036029Y0204919D01*
X0036496Y0205721D01*
X0036983Y0206510D01*
X0037489Y0207288D01*
X0038013Y0208053D01*
X0038557Y0208804D01*
X0039118Y0209543D01*
X0039698Y0210267D01*
X0040295Y0210977D01*
X0040910Y0211672D01*
X0041541Y0212351D01*
X0042189Y0213015D01*
X0042853Y0213663D01*
X0043532Y0214294D01*
X0044227Y0214909D01*
X0044937Y0215506D01*
X0045661Y0216086D01*
X0046400Y0216647D01*
X0047151Y0217191D01*
X0047916Y0217715D01*
X0048694Y0218221D01*
X0049483Y0218708D01*
X0050285Y0219175D01*
X0051098Y0219622D01*
X0051921Y0220049D01*
X0052755Y0220456D01*
X0053598Y0220843D01*
X0054450Y0221208D01*
X0055312Y0221552D01*
X0056181Y0221876D01*
X0057058Y0222177D01*
X0057943Y0222458D01*
X0058834Y0222716D01*
X0059731Y0222952D01*
X0060633Y0223167D01*
X0061541Y0223359D01*
X0062452Y0223529D01*
X0063368Y0223676D01*
X0064287Y0223801D01*
X0065209Y0223903D01*
X0066134Y0223983D01*
X0067059Y0224039D01*
X0067986Y0224074D01*
X0068914Y0224085D01*
X0069842Y0224074D01*
X0070769Y0224039D01*
X0071694Y0223983D01*
X0072619Y0223903D01*
X0073541Y0223801D01*
X0074460Y0223676D01*
X0075376Y0223529D01*
X0076287Y0223359D01*
X0077195Y0223167D01*
X0078097Y0222952D01*
X0078994Y0222716D01*
X0079885Y0222458D01*
X0080770Y0222177D01*
X0081647Y0221876D01*
X0082516Y0221552D01*
X0083378Y0221208D01*
X0084230Y0220843D01*
X0085073Y0220456D01*
X0085907Y0220049D01*
X0086730Y0219622D01*
X0087543Y0219175D01*
X0088345Y0218708D01*
X0089134Y0218221D01*
X0089912Y0217715D01*
X0090677Y0217191D01*
X0091428Y0216647D01*
X0092167Y0216086D01*
X0092891Y0215506D01*
X0093601Y0214909D01*
X0094296Y0214294D01*
X0094975Y0213663D01*
X0095639Y0213015D01*
X0096287Y0212351D01*
X0096918Y0211672D01*
X0097533Y0210977D01*
X0098130Y0210267D01*
X0098710Y0209543D01*
X0099271Y0208804D01*
X0099815Y0208053D01*
X0100339Y0207288D01*
X0100845Y0206510D01*
X0101332Y0205721D01*
X0101799Y0204919D01*
X0102246Y0204106D01*
X0102673Y0203283D01*
X0103080Y0202449D01*
X0103467Y0201606D01*
X0103832Y0200754D01*
X0104176Y0199892D01*
X0104500Y0199023D01*
X0104801Y0198146D01*
X0105082Y0197261D01*
X0105340Y0196370D01*
X0105576Y0195473D01*
X0105791Y0194571D01*
X0105983Y0193663D01*
X0106153Y0192752D01*
X0106300Y0191836D01*
X0106425Y0190917D01*
X0106527Y0189995D01*
X0106607Y0189070D01*
X0106663Y0188145D01*
X0106698Y0187218D01*
X0106709Y0186290D01*
X0106698Y0185362D01*
X0106663Y0184435D01*
X0106607Y0183510D01*
X0106527Y0182585D01*
X0106425Y0181663D01*
X0106300Y0180744D01*
X0106153Y0179828D01*
X0105983Y0178917D01*
X0105791Y0178009D01*
X0105576Y0177107D01*
X0105340Y0176210D01*
X0105082Y0175319D01*
X0104801Y0174434D01*
X0104500Y0173557D01*
X0104176Y0172688D01*
X0103832Y0171826D01*
X0103467Y0170974D01*
X0103080Y0170131D01*
X0102673Y0169297D01*
X0102246Y0168474D01*
X0101799Y0167661D01*
X0101332Y0166859D01*
X0100845Y0166070D01*
X0100339Y0165292D01*
X0099815Y0164527D01*
X0099271Y0163776D01*
X0098710Y0163037D01*
X0098130Y0162313D01*
X0097533Y0161603D01*
X0096918Y0160908D01*
X0096287Y0160229D01*
X0095639Y0159565D01*
X0094975Y0158917D01*
X0094296Y0158286D01*
X0093601Y0157671D01*
X0092891Y0157074D01*
X0092167Y0156494D01*
X0091428Y0155933D01*
X0090677Y0155389D01*
X0089912Y0154865D01*
X0089134Y0154359D01*
X0088345Y0153872D01*
X0087543Y0153405D01*
X0086730Y0152958D01*
X0085907Y0152531D01*
X0085073Y0152124D01*
X0084230Y0151737D01*
X0083378Y0151372D01*
X0082516Y0151028D01*
X0081647Y0150704D01*
X0080770Y0150403D01*
X0079885Y0150122D01*
X0078994Y0149864D01*
X0078097Y0149628D01*
X0077195Y0149413D01*
X0076287Y0149221D01*
X0075376Y0149051D01*
X0074460Y0148904D01*
X0073541Y0148779D01*
X0072619Y0148677D01*
X0071694Y0148597D01*
X0070769Y0148541D01*
X0069842Y0148506D01*
X0068914Y0148495D01*
X0067986Y0148506D01*
X0067059Y0148541D01*
X0066134Y0148597D01*
X0065209Y0148677D01*
X0064287Y0148779D01*
X0063368Y0148904D01*
X0062452Y0149051D01*
X0061541Y0149221D01*
X0060633Y0149413D01*
X0059731Y0149628D01*
X0058834Y0149864D01*
X0057943Y0150122D01*
X0057058Y0150403D01*
X0056181Y0150704D01*
X0055312Y0151028D01*
X0054450Y0151372D01*
X0053598Y0151737D01*
X0052755Y0152124D01*
X0051921Y0152531D01*
X0051098Y0152958D01*
X0050285Y0153405D01*
X0049483Y0153872D01*
X0048694Y0154359D01*
X0047916Y0154865D01*
X0047151Y0155389D01*
X0046400Y0155933D01*
X0045661Y0156494D01*
X0044937Y0157074D01*
X0044227Y0157671D01*
X0043532Y0158286D01*
X0042853Y0158917D01*
X0042189Y0159565D01*
X0041541Y0160229D01*
X0040910Y0160908D01*
X0040295Y0161603D01*
X0039698Y0162313D01*
X0039118Y0163037D01*
X0038557Y0163776D01*
X0038013Y0164527D01*
X0037489Y0165292D01*
X0036983Y0166070D01*
X0036496Y0166859D01*
X0036029Y0167661D01*
X0035582Y0168474D01*
X0035155Y0169297D01*
X0034748Y0170131D01*
X0034361Y0170974D01*
X0033996Y0171826D01*
X0033652Y0172688D01*
X0033328Y0173557D01*
X0033027Y0174434D01*
X0032746Y0175319D01*
X0032488Y0176210D01*
X0032252Y0177107D01*
X0032037Y0178009D01*
X0031845Y0178917D01*
X0031675Y0179828D01*
X0031528Y0180744D01*
X0031403Y0181663D01*
X0031301Y0182585D01*
X0031221Y0183510D01*
X0031165Y0184435D01*
X0031130Y0185362D01*
X0031119Y0186290D01*
D12*
X0097714Y0185541D02*
X0099983Y0185541D01*
X0101117Y0186675D01*
X0099983Y0187809D01*
X0097714Y0187809D01*
X0097714Y0189224D02*
X0097714Y0191492D01*
X0097714Y0192907D02*
X0097714Y0195176D01*
X0099416Y0194041D02*
X0099416Y0192907D01*
X0101117Y0192907D02*
X0097714Y0192907D01*
X0101117Y0192907D02*
X0101117Y0195176D01*
X0101117Y0189224D02*
X0097714Y0189224D01*
X0099416Y0187809D02*
X0099416Y0185541D01*
X0101117Y0184126D02*
X0097714Y0184126D01*
X0097714Y0181858D02*
X0101117Y0181858D01*
X0099983Y0182992D01*
X0101117Y0184126D01*
X0101117Y0180443D02*
X0101117Y0178174D01*
X0097714Y0178174D01*
X0097714Y0180443D01*
X0099416Y0179309D02*
X0099416Y0178174D01*
X0101117Y0176760D02*
X0101117Y0174491D01*
X0097714Y0174491D01*
X0099416Y0174491D02*
X0099416Y0175626D01*
X0097714Y0276858D02*
X0101117Y0276858D01*
X0099983Y0277992D01*
X0101117Y0279126D01*
X0097714Y0279126D01*
X0097714Y0280541D02*
X0099983Y0280541D01*
X0101117Y0281675D01*
X0099983Y0282809D01*
X0097714Y0282809D01*
X0097714Y0284224D02*
X0097714Y0286492D01*
X0097714Y0287907D02*
X0097714Y0290176D01*
X0099416Y0289041D02*
X0099416Y0287907D01*
X0101117Y0287907D02*
X0097714Y0287907D01*
X0101117Y0287907D02*
X0101117Y0290176D01*
X0101117Y0284224D02*
X0097714Y0284224D01*
X0099416Y0282809D02*
X0099416Y0280541D01*
D13*
X0100543Y0113661D02*
X0061382Y0113661D01*
X0061382Y0114033D01*
X0076787Y0121085D01*
X0077158Y0121085D01*
X0078643Y0120157D01*
X0080313Y0119044D01*
X0081612Y0118116D01*
X0083097Y0117188D01*
X0084396Y0116445D01*
X0084767Y0116445D01*
X0084953Y0116631D01*
X0085139Y0117002D01*
X0085139Y0117559D01*
X0084767Y0118301D01*
X0084025Y0119415D01*
X0080499Y0122570D01*
X0080499Y0122755D01*
X0085510Y0125168D01*
X0086067Y0125168D01*
X0086995Y0123869D01*
X0086995Y0120343D01*
X0087180Y0118672D01*
X0087551Y0117559D01*
X0087922Y0116816D01*
X0088479Y0116445D01*
X0088850Y0116445D01*
X0089407Y0123869D01*
X0089407Y0125354D01*
X0089222Y0125725D01*
X0088665Y0126653D01*
X0092191Y0128323D01*
X0100543Y0113661D01*
X0100534Y0113676D02*
X0061382Y0113676D01*
X0061382Y0113860D02*
X0100430Y0113860D01*
X0100325Y0114043D02*
X0061406Y0114043D01*
X0061807Y0114227D02*
X0100221Y0114227D01*
X0100116Y0114410D02*
X0062208Y0114410D01*
X0062609Y0114594D02*
X0100012Y0114594D01*
X0099907Y0114778D02*
X0063009Y0114778D01*
X0063410Y0114961D02*
X0099803Y0114961D01*
X0099698Y0115145D02*
X0063811Y0115145D01*
X0064212Y0115328D02*
X0099593Y0115328D01*
X0099489Y0115512D02*
X0064613Y0115512D01*
X0065014Y0115695D02*
X0099384Y0115695D01*
X0099280Y0115879D02*
X0065415Y0115879D01*
X0065816Y0116062D02*
X0099175Y0116062D01*
X0099071Y0116246D02*
X0066217Y0116246D01*
X0066618Y0116430D02*
X0098966Y0116430D01*
X0098862Y0116613D02*
X0088863Y0116613D01*
X0088877Y0116797D02*
X0098757Y0116797D01*
X0098652Y0116980D02*
X0088891Y0116980D01*
X0088904Y0117164D02*
X0098548Y0117164D01*
X0098443Y0117347D02*
X0088918Y0117347D01*
X0088932Y0117531D02*
X0098339Y0117531D01*
X0098234Y0117714D02*
X0088946Y0117714D01*
X0088959Y0117898D02*
X0098130Y0117898D01*
X0098025Y0118081D02*
X0088973Y0118081D01*
X0088987Y0118265D02*
X0097921Y0118265D01*
X0097816Y0118449D02*
X0089001Y0118449D01*
X0089014Y0118632D02*
X0097712Y0118632D01*
X0097607Y0118816D02*
X0089028Y0118816D01*
X0089042Y0118999D02*
X0097502Y0118999D01*
X0097398Y0119183D02*
X0089056Y0119183D01*
X0089069Y0119366D02*
X0097293Y0119366D01*
X0097189Y0119550D02*
X0089083Y0119550D01*
X0089097Y0119733D02*
X0097084Y0119733D01*
X0096980Y0119917D02*
X0089111Y0119917D01*
X0089125Y0120101D02*
X0096875Y0120101D01*
X0096771Y0120284D02*
X0089138Y0120284D01*
X0089152Y0120468D02*
X0096666Y0120468D01*
X0096561Y0120651D02*
X0089166Y0120651D01*
X0089180Y0120835D02*
X0096457Y0120835D01*
X0096352Y0121018D02*
X0089193Y0121018D01*
X0089207Y0121202D02*
X0096248Y0121202D01*
X0096143Y0121385D02*
X0089221Y0121385D01*
X0089235Y0121569D02*
X0096039Y0121569D01*
X0095934Y0121752D02*
X0089248Y0121752D01*
X0089262Y0121936D02*
X0095830Y0121936D01*
X0095725Y0122120D02*
X0089276Y0122120D01*
X0089290Y0122303D02*
X0095620Y0122303D01*
X0095516Y0122487D02*
X0089303Y0122487D01*
X0089317Y0122670D02*
X0095411Y0122670D01*
X0095307Y0122854D02*
X0089331Y0122854D01*
X0089345Y0123037D02*
X0095202Y0123037D01*
X0095098Y0123221D02*
X0089359Y0123221D01*
X0089372Y0123404D02*
X0094993Y0123404D01*
X0094889Y0123588D02*
X0089386Y0123588D01*
X0089400Y0123772D02*
X0094784Y0123772D01*
X0094679Y0123955D02*
X0089407Y0123955D01*
X0089407Y0124139D02*
X0094575Y0124139D01*
X0094470Y0124322D02*
X0089407Y0124322D01*
X0089407Y0124506D02*
X0094366Y0124506D01*
X0094261Y0124689D02*
X0089407Y0124689D01*
X0089407Y0124873D02*
X0094157Y0124873D01*
X0094052Y0125056D02*
X0089407Y0125056D01*
X0089407Y0125240D02*
X0093948Y0125240D01*
X0093843Y0125423D02*
X0089372Y0125423D01*
X0089281Y0125607D02*
X0093739Y0125607D01*
X0093634Y0125791D02*
X0089182Y0125791D01*
X0089072Y0125974D02*
X0093529Y0125974D01*
X0093425Y0126158D02*
X0088962Y0126158D01*
X0088852Y0126341D02*
X0093320Y0126341D01*
X0093216Y0126525D02*
X0088742Y0126525D01*
X0088782Y0126708D02*
X0093111Y0126708D01*
X0093007Y0126892D02*
X0089169Y0126892D01*
X0089557Y0127075D02*
X0092902Y0127075D01*
X0092798Y0127259D02*
X0089944Y0127259D01*
X0090332Y0127443D02*
X0092693Y0127443D01*
X0092588Y0127626D02*
X0090720Y0127626D01*
X0091107Y0127810D02*
X0092484Y0127810D01*
X0092379Y0127993D02*
X0091495Y0127993D01*
X0091882Y0128177D02*
X0092275Y0128177D01*
X0090521Y0130365D02*
X0086809Y0128509D01*
X0086438Y0128509D01*
X0082540Y0132035D01*
X0082355Y0132221D01*
X0073446Y0133891D01*
X0073446Y0134263D01*
X0080870Y0147068D01*
X0090521Y0130365D01*
X0090513Y0130379D02*
X0084371Y0130379D01*
X0084573Y0130196D02*
X0090183Y0130196D01*
X0089816Y0130012D02*
X0084776Y0130012D01*
X0084979Y0129829D02*
X0089449Y0129829D01*
X0089081Y0129645D02*
X0085182Y0129645D01*
X0085385Y0129462D02*
X0088714Y0129462D01*
X0088347Y0129278D02*
X0085588Y0129278D01*
X0085791Y0129095D02*
X0087980Y0129095D01*
X0087613Y0128911D02*
X0085994Y0128911D01*
X0086196Y0128727D02*
X0087246Y0128727D01*
X0086879Y0128544D02*
X0086399Y0128544D01*
X0084168Y0130563D02*
X0090406Y0130563D01*
X0090300Y0130746D02*
X0083965Y0130746D01*
X0083762Y0130930D02*
X0090194Y0130930D01*
X0090088Y0131114D02*
X0083559Y0131114D01*
X0083356Y0131297D02*
X0089982Y0131297D01*
X0089876Y0131481D02*
X0083153Y0131481D01*
X0082950Y0131664D02*
X0089770Y0131664D01*
X0089664Y0131848D02*
X0082748Y0131848D01*
X0082545Y0132031D02*
X0089558Y0132031D01*
X0089452Y0132215D02*
X0082361Y0132215D01*
X0081407Y0132398D02*
X0089346Y0132398D01*
X0089240Y0132582D02*
X0080429Y0132582D01*
X0079450Y0132766D02*
X0089134Y0132766D01*
X0089028Y0132949D02*
X0078471Y0132949D01*
X0077492Y0133133D02*
X0088922Y0133133D01*
X0088816Y0133316D02*
X0076513Y0133316D01*
X0075534Y0133500D02*
X0088710Y0133500D01*
X0088604Y0133683D02*
X0074555Y0133683D01*
X0073576Y0133867D02*
X0088498Y0133867D01*
X0088391Y0134050D02*
X0073446Y0134050D01*
X0073446Y0134234D02*
X0088285Y0134234D01*
X0088179Y0134417D02*
X0073536Y0134417D01*
X0073642Y0134601D02*
X0088073Y0134601D01*
X0087967Y0134785D02*
X0073749Y0134785D01*
X0073855Y0134968D02*
X0087861Y0134968D01*
X0087755Y0135152D02*
X0073962Y0135152D01*
X0074068Y0135335D02*
X0087649Y0135335D01*
X0087543Y0135519D02*
X0074174Y0135519D01*
X0074281Y0135702D02*
X0087437Y0135702D01*
X0087331Y0135886D02*
X0074387Y0135886D01*
X0074494Y0136069D02*
X0087225Y0136069D01*
X0087119Y0136253D02*
X0074600Y0136253D01*
X0074706Y0136437D02*
X0087013Y0136437D01*
X0086907Y0136620D02*
X0074813Y0136620D01*
X0074919Y0136804D02*
X0086801Y0136804D01*
X0086695Y0136987D02*
X0075026Y0136987D01*
X0075132Y0137171D02*
X0086589Y0137171D01*
X0086482Y0137354D02*
X0075238Y0137354D01*
X0075345Y0137538D02*
X0086376Y0137538D01*
X0086270Y0137721D02*
X0075451Y0137721D01*
X0075558Y0137905D02*
X0086164Y0137905D01*
X0086058Y0138088D02*
X0075664Y0138088D01*
X0075770Y0138272D02*
X0085952Y0138272D01*
X0085846Y0138456D02*
X0075877Y0138456D01*
X0075983Y0138639D02*
X0085740Y0138639D01*
X0085634Y0138823D02*
X0076090Y0138823D01*
X0076196Y0139006D02*
X0085528Y0139006D01*
X0085422Y0139190D02*
X0076302Y0139190D01*
X0076409Y0139373D02*
X0085316Y0139373D01*
X0085210Y0139557D02*
X0076515Y0139557D01*
X0076622Y0139740D02*
X0085104Y0139740D01*
X0084998Y0139924D02*
X0076728Y0139924D01*
X0076834Y0140108D02*
X0084892Y0140108D01*
X0084786Y0140291D02*
X0076941Y0140291D01*
X0077047Y0140475D02*
X0084680Y0140475D01*
X0084573Y0140658D02*
X0077154Y0140658D01*
X0077260Y0140842D02*
X0084467Y0140842D01*
X0084361Y0141025D02*
X0077366Y0141025D01*
X0077473Y0141209D02*
X0084255Y0141209D01*
X0084149Y0141392D02*
X0077579Y0141392D01*
X0077686Y0141576D02*
X0084043Y0141576D01*
X0083937Y0141760D02*
X0077792Y0141760D01*
X0077899Y0141943D02*
X0083831Y0141943D01*
X0083725Y0142127D02*
X0078005Y0142127D01*
X0078111Y0142310D02*
X0083619Y0142310D01*
X0083513Y0142494D02*
X0078218Y0142494D01*
X0078324Y0142677D02*
X0083407Y0142677D01*
X0083301Y0142861D02*
X0078431Y0142861D01*
X0078537Y0143044D02*
X0083195Y0143044D01*
X0083089Y0143228D02*
X0078643Y0143228D01*
X0078750Y0143411D02*
X0082983Y0143411D01*
X0082877Y0143595D02*
X0078856Y0143595D01*
X0078963Y0143779D02*
X0082771Y0143779D01*
X0082665Y0143962D02*
X0079069Y0143962D01*
X0079175Y0144146D02*
X0082558Y0144146D01*
X0082452Y0144329D02*
X0079282Y0144329D01*
X0079388Y0144513D02*
X0082346Y0144513D01*
X0082240Y0144696D02*
X0079495Y0144696D01*
X0079601Y0144880D02*
X0082134Y0144880D01*
X0082028Y0145063D02*
X0079707Y0145063D01*
X0079814Y0145247D02*
X0081922Y0145247D01*
X0081816Y0145431D02*
X0079920Y0145431D01*
X0080027Y0145614D02*
X0081710Y0145614D01*
X0081604Y0145798D02*
X0080133Y0145798D01*
X0080239Y0145981D02*
X0081498Y0145981D01*
X0081392Y0146165D02*
X0080346Y0146165D01*
X0080452Y0146348D02*
X0081286Y0146348D01*
X0081180Y0146532D02*
X0080559Y0146532D01*
X0080665Y0146715D02*
X0081074Y0146715D01*
X0080968Y0146899D02*
X0080771Y0146899D01*
X0081427Y0127581D02*
X0079570Y0127024D01*
X0079014Y0126653D01*
X0078643Y0126096D01*
X0078828Y0125354D01*
X0079200Y0124797D01*
X0083097Y0126653D01*
X0081798Y0127581D01*
X0081427Y0127581D01*
X0080965Y0127443D02*
X0081992Y0127443D01*
X0082249Y0127259D02*
X0080353Y0127259D01*
X0079741Y0127075D02*
X0082506Y0127075D01*
X0082763Y0126892D02*
X0079372Y0126892D01*
X0079097Y0126708D02*
X0083020Y0126708D01*
X0082827Y0126525D02*
X0078928Y0126525D01*
X0078806Y0126341D02*
X0082442Y0126341D01*
X0082057Y0126158D02*
X0078683Y0126158D01*
X0078673Y0125974D02*
X0081671Y0125974D01*
X0081286Y0125791D02*
X0078719Y0125791D01*
X0078765Y0125607D02*
X0080900Y0125607D01*
X0080515Y0125423D02*
X0078811Y0125423D01*
X0078904Y0125240D02*
X0080129Y0125240D01*
X0079744Y0125056D02*
X0079027Y0125056D01*
X0079149Y0124873D02*
X0079359Y0124873D01*
X0080703Y0122854D02*
X0086995Y0122854D01*
X0086995Y0123037D02*
X0081084Y0123037D01*
X0081466Y0123221D02*
X0086995Y0123221D01*
X0086995Y0123404D02*
X0081847Y0123404D01*
X0082228Y0123588D02*
X0086995Y0123588D01*
X0086995Y0123772D02*
X0082609Y0123772D01*
X0082991Y0123955D02*
X0086933Y0123955D01*
X0086802Y0124139D02*
X0083372Y0124139D01*
X0083753Y0124322D02*
X0086671Y0124322D01*
X0086540Y0124506D02*
X0084134Y0124506D01*
X0084515Y0124689D02*
X0086409Y0124689D01*
X0086277Y0124873D02*
X0084897Y0124873D01*
X0085278Y0125056D02*
X0086146Y0125056D01*
X0086995Y0122670D02*
X0080499Y0122670D01*
X0080592Y0122487D02*
X0086995Y0122487D01*
X0086995Y0122303D02*
X0080797Y0122303D01*
X0081002Y0122120D02*
X0086995Y0122120D01*
X0086995Y0121936D02*
X0081207Y0121936D01*
X0081412Y0121752D02*
X0086995Y0121752D01*
X0086995Y0121569D02*
X0081618Y0121569D01*
X0081823Y0121385D02*
X0086995Y0121385D01*
X0086995Y0121202D02*
X0082028Y0121202D01*
X0082233Y0121018D02*
X0086995Y0121018D01*
X0086995Y0120835D02*
X0082438Y0120835D01*
X0082643Y0120651D02*
X0086995Y0120651D01*
X0086995Y0120468D02*
X0082848Y0120468D01*
X0083053Y0120284D02*
X0087001Y0120284D01*
X0087021Y0120101D02*
X0083259Y0120101D01*
X0083464Y0119917D02*
X0087042Y0119917D01*
X0087062Y0119733D02*
X0083669Y0119733D01*
X0083874Y0119550D02*
X0087083Y0119550D01*
X0087103Y0119366D02*
X0084057Y0119366D01*
X0084180Y0119183D02*
X0087123Y0119183D01*
X0087144Y0118999D02*
X0084302Y0118999D01*
X0084424Y0118816D02*
X0087164Y0118816D01*
X0087193Y0118632D02*
X0084547Y0118632D01*
X0084669Y0118449D02*
X0087255Y0118449D01*
X0087316Y0118265D02*
X0084785Y0118265D01*
X0084877Y0118081D02*
X0087377Y0118081D01*
X0087438Y0117898D02*
X0084969Y0117898D01*
X0085061Y0117714D02*
X0087499Y0117714D01*
X0087565Y0117531D02*
X0085139Y0117531D01*
X0085139Y0117347D02*
X0087657Y0117347D01*
X0087749Y0117164D02*
X0085139Y0117164D01*
X0085128Y0116980D02*
X0087841Y0116980D01*
X0087952Y0116797D02*
X0085036Y0116797D01*
X0084935Y0116613D02*
X0088227Y0116613D01*
X0084102Y0116613D02*
X0067019Y0116613D01*
X0067420Y0116797D02*
X0083781Y0116797D01*
X0083460Y0116980D02*
X0067821Y0116980D01*
X0068222Y0117164D02*
X0083139Y0117164D01*
X0082842Y0117347D02*
X0068622Y0117347D01*
X0069023Y0117531D02*
X0082548Y0117531D01*
X0082254Y0117714D02*
X0069424Y0117714D01*
X0069825Y0117898D02*
X0081961Y0117898D01*
X0081667Y0118081D02*
X0070226Y0118081D01*
X0070627Y0118265D02*
X0081403Y0118265D01*
X0081146Y0118449D02*
X0071028Y0118449D01*
X0071429Y0118632D02*
X0080889Y0118632D01*
X0080632Y0118816D02*
X0071830Y0118816D01*
X0072231Y0118999D02*
X0080375Y0118999D01*
X0080104Y0119183D02*
X0072632Y0119183D01*
X0073033Y0119366D02*
X0079829Y0119366D01*
X0079553Y0119550D02*
X0073434Y0119550D01*
X0073834Y0119733D02*
X0079278Y0119733D01*
X0079003Y0119917D02*
X0074235Y0119917D01*
X0074636Y0120101D02*
X0078727Y0120101D01*
X0078439Y0120284D02*
X0075037Y0120284D01*
X0075438Y0120468D02*
X0078146Y0120468D01*
X0077852Y0120651D02*
X0075839Y0120651D01*
X0076240Y0120835D02*
X0077558Y0120835D01*
X0077265Y0121018D02*
X0076641Y0121018D01*
X0073632Y0122570D02*
X0073632Y0122755D01*
X0069548Y0127210D01*
X0064352Y0118116D01*
X0073632Y0122570D01*
X0073632Y0122670D02*
X0066955Y0122670D01*
X0067059Y0122854D02*
X0073541Y0122854D01*
X0073373Y0123037D02*
X0067164Y0123037D01*
X0067269Y0123221D02*
X0073205Y0123221D01*
X0073037Y0123404D02*
X0067374Y0123404D01*
X0067479Y0123588D02*
X0072868Y0123588D01*
X0072700Y0123772D02*
X0067584Y0123772D01*
X0067689Y0123955D02*
X0072532Y0123955D01*
X0072364Y0124139D02*
X0067794Y0124139D01*
X0067898Y0124322D02*
X0072195Y0124322D01*
X0072027Y0124506D02*
X0068003Y0124506D01*
X0068108Y0124689D02*
X0071859Y0124689D01*
X0071691Y0124873D02*
X0068213Y0124873D01*
X0068318Y0125056D02*
X0071522Y0125056D01*
X0071354Y0125240D02*
X0068423Y0125240D01*
X0068528Y0125423D02*
X0071186Y0125423D01*
X0071018Y0125607D02*
X0068633Y0125607D01*
X0068738Y0125791D02*
X0070849Y0125791D01*
X0070681Y0125974D02*
X0068842Y0125974D01*
X0068947Y0126158D02*
X0070513Y0126158D01*
X0070345Y0126341D02*
X0069052Y0126341D01*
X0069157Y0126525D02*
X0070176Y0126525D01*
X0070008Y0126708D02*
X0069262Y0126708D01*
X0069367Y0126892D02*
X0069840Y0126892D01*
X0069672Y0127075D02*
X0069472Y0127075D01*
X0066850Y0122487D02*
X0073458Y0122487D01*
X0073076Y0122303D02*
X0066745Y0122303D01*
X0066640Y0122120D02*
X0072693Y0122120D01*
X0072311Y0121936D02*
X0066535Y0121936D01*
X0066430Y0121752D02*
X0071928Y0121752D01*
X0071546Y0121569D02*
X0066325Y0121569D01*
X0066220Y0121385D02*
X0071164Y0121385D01*
X0070781Y0121202D02*
X0066115Y0121202D01*
X0066011Y0121018D02*
X0070399Y0121018D01*
X0070016Y0120835D02*
X0065906Y0120835D01*
X0065801Y0120651D02*
X0069634Y0120651D01*
X0069252Y0120468D02*
X0065696Y0120468D01*
X0065591Y0120284D02*
X0068869Y0120284D01*
X0068487Y0120101D02*
X0065486Y0120101D01*
X0065381Y0119917D02*
X0068105Y0119917D01*
X0067722Y0119733D02*
X0065276Y0119733D01*
X0065172Y0119550D02*
X0067340Y0119550D01*
X0066957Y0119366D02*
X0065067Y0119366D01*
X0064962Y0119183D02*
X0066575Y0119183D01*
X0066193Y0118999D02*
X0064857Y0118999D01*
X0064752Y0118816D02*
X0065810Y0118816D01*
X0065428Y0118632D02*
X0064647Y0118632D01*
X0064542Y0118449D02*
X0065045Y0118449D01*
X0064663Y0118265D02*
X0064437Y0118265D01*
M02*
